testbench/tbenchoutputs/upstream/upstreamdump.vcd
$date
	Thu May  5 11:37:27 2022
$end
$version
	QuestaSim Version 10.7c
$end
$timescale
	1ps
$end

$scope module tb_top_UPDOWNSTREAM $end
$var reg 1 ! clk $end
$var reg 1 " slowclk $end

$scope module TOP $end
$var wire 1 # exchange_client_id [4] $end
$var wire 1 $ exchange_client_id [3] $end
$var wire 1 % exchange_client_id [2] $end
$var wire 1 & exchange_client_id [1] $end
$var wire 1 ' exchange_client_id [0] $end
$var wire 1 ( exchange_amount [15] $end
$var wire 1 ) exchange_amount [14] $end
$var wire 1 * exchange_amount [13] $end
$var wire 1 + exchange_amount [12] $end
$var wire 1 , exchange_amount [11] $end
$var wire 1 - exchange_amount [10] $end
$var wire 1 . exchange_amount [9] $end
$var wire 1 / exchange_amount [8] $end
$var wire 1 0 exchange_amount [7] $end
$var wire 1 1 exchange_amount [6] $end
$var wire 1 2 exchange_amount [5] $end
$var wire 1 3 exchange_amount [4] $end
$var wire 1 4 exchange_amount [3] $end
$var wire 1 5 exchange_amount [2] $end
$var wire 1 6 exchange_amount [1] $end
$var wire 1 7 exchange_amount [0] $end
$var wire 1 8 cpu_client_id [4] $end
$var wire 1 9 cpu_client_id [3] $end
$var wire 1 : cpu_client_id [2] $end
$var wire 1 ; cpu_client_id [1] $end
$var wire 1 < cpu_client_id [0] $end
$var wire 1 = HRESETn $end
$var wire 1 > exchange_go $end
$var wire 1 ? cpu_amount [15] $end
$var wire 1 @ cpu_amount [14] $end
$var wire 1 A cpu_amount [13] $end
$var wire 1 B cpu_amount [12] $end
$var wire 1 C cpu_amount [11] $end
$var wire 1 D cpu_amount [10] $end
$var wire 1 E cpu_amount [9] $end
$var wire 1 F cpu_amount [8] $end
$var wire 1 G cpu_amount [7] $end
$var wire 1 H cpu_amount [6] $end
$var wire 1 I cpu_amount [5] $end
$var wire 1 J cpu_amount [4] $end
$var wire 1 K cpu_amount [3] $end
$var wire 1 L cpu_amount [2] $end
$var wire 1 M cpu_amount [1] $end
$var wire 1 N cpu_amount [0] $end
$var wire 1 O cpu_go $end
$var wire 1 P cpu_new_max $end
$var wire 1 Q clk $end
$var wire 1 R cancelled_orders [15] $end
$var wire 1 S cancelled_orders [14] $end
$var wire 1 T cancelled_orders [13] $end
$var wire 1 U cancelled_orders [12] $end
$var wire 1 V cancelled_orders [11] $end
$var wire 1 W cancelled_orders [10] $end
$var wire 1 X cancelled_orders [9] $end
$var wire 1 Y cancelled_orders [8] $end
$var wire 1 Z cancelled_orders [7] $end
$var wire 1 [ cancelled_orders [6] $end
$var wire 1 \ cancelled_orders [5] $end
$var wire 1 ] cancelled_orders [4] $end
$var wire 1 ^ cancelled_orders [3] $end
$var wire 1 _ cancelled_orders [2] $end
$var wire 1 ` cancelled_orders [1] $end
$var wire 1 a cancelled_orders [0] $end
$var wire 1 b accumulated_orders [15] $end
$var wire 1 c accumulated_orders [14] $end
$var wire 1 d accumulated_orders [13] $end
$var wire 1 e accumulated_orders [12] $end
$var wire 1 f accumulated_orders [11] $end
$var wire 1 g accumulated_orders [10] $end
$var wire 1 h accumulated_orders [9] $end
$var wire 1 i accumulated_orders [8] $end
$var wire 1 j accumulated_orders [7] $end
$var wire 1 k accumulated_orders [6] $end
$var wire 1 l accumulated_orders [5] $end
$var wire 1 m accumulated_orders [4] $end
$var wire 1 n accumulated_orders [3] $end
$var wire 1 o accumulated_orders [2] $end
$var wire 1 p accumulated_orders [1] $end
$var wire 1 q accumulated_orders [0] $end
$var wire 1 r max_to_trade [31] $end
$var wire 1 s max_to_trade [30] $end
$var wire 1 t max_to_trade [29] $end
$var wire 1 u max_to_trade [28] $end
$var wire 1 v max_to_trade [27] $end
$var wire 1 w max_to_trade [26] $end
$var wire 1 x max_to_trade [25] $end
$var wire 1 y max_to_trade [24] $end
$var wire 1 z max_to_trade [23] $end
$var wire 1 { max_to_trade [22] $end
$var wire 1 | max_to_trade [21] $end
$var wire 1 } max_to_trade [20] $end
$var wire 1 ~ max_to_trade [19] $end
$var wire 1 !! max_to_trade [18] $end
$var wire 1 "! max_to_trade [17] $end
$var wire 1 #! max_to_trade [16] $end
$var wire 1 $! max_to_trade [15] $end
$var wire 1 %! max_to_trade [14] $end
$var wire 1 &! max_to_trade [13] $end
$var wire 1 '! max_to_trade [12] $end
$var wire 1 (! max_to_trade [11] $end
$var wire 1 )! max_to_trade [10] $end
$var wire 1 *! max_to_trade [9] $end
$var wire 1 +! max_to_trade [8] $end
$var wire 1 ,! max_to_trade [7] $end
$var wire 1 -! max_to_trade [6] $end
$var wire 1 .! max_to_trade [5] $end
$var wire 1 /! max_to_trade [4] $end
$var wire 1 0! max_to_trade [3] $end
$var wire 1 1! max_to_trade [2] $end
$var wire 1 2! max_to_trade [1] $end
$var wire 1 3! max_to_trade [0] $end

$scope fork downdatareq $end
$var reg 10 4! wrindex [9:0] $end
$var reg 10 5! rdindex [9:0] $end
$var reg 1 6! we $end
$upscope $end
$var wire 1 7! thenewmax $end

$scope module RAMDOWNSTREAM $end
$var wire 1 Q clk $end

$scope fork data_req $end
$var reg 10 8! wrindex [9:0] $end
$var reg 10 9! rdindex [9:0] $end
$var reg 1 :! we $end
$upscope $end
$var reg 32 ;! data_write [31:0] $end
$var reg 32 <! data_read [31:0] $end
$upscope $end

$scope module UPTOP $end
$var wire 1 Q clk $end
$var wire 1 O new_order $end
$var wire 1 P new_max $end
$var wire 1 8 client_id [4] $end
$var wire 1 9 client_id [3] $end
$var wire 1 : client_id [2] $end
$var wire 1 ; client_id [1] $end
$var wire 1 < client_id [0] $end
$var wire 1 ? amount [15] $end
$var wire 1 @ amount [14] $end
$var wire 1 A amount [13] $end
$var wire 1 B amount [12] $end
$var wire 1 C amount [11] $end
$var wire 1 D amount [10] $end
$var wire 1 E amount [9] $end
$var wire 1 F amount [8] $end
$var wire 1 G amount [7] $end
$var wire 1 H amount [6] $end
$var wire 1 I amount [5] $end
$var wire 1 J amount [4] $end
$var wire 1 K amount [3] $end
$var wire 1 L amount [2] $end
$var wire 1 M amount [1] $end
$var wire 1 N amount [0] $end
$var wire 1 7! thenewmax $end
$var reg 1 =! HRESETn $end
$var reg 32 >! correct_amount [31:0] $end
$var reg 1 ?! pass_checks $end
$var reg 1 @! upstream_enable $end
$var reg 32 A! mem_dataup_wr [31:0] $end
$var reg 32 B! mem_dataup [31:0] $end
$var reg 32 C! mem_datadown [31:0] $end
$var reg 32 D! mem_datadown_wr [31:0] $end

$scope fork mem_requp $end
$var reg 10 E! wrindex [9:0] $end
$var reg 10 F! rdindex [9:0] $end
$var reg 1 G! we $end
$upscope $end

$scope fork mem_reqdown $end
$var reg 10 H! wrindex [9:0] $end
$var reg 10 I! rdindex [9:0] $end
$var reg 1 J! we $end
$upscope $end
$var reg 1 K! check_risk $end
$var reg 1 L! send_order $end
$var reg 1 M! update_max $end
$var wire 1 R cancelled_orders [15] $end
$var wire 1 S cancelled_orders [14] $end
$var wire 1 T cancelled_orders [13] $end
$var wire 1 U cancelled_orders [12] $end
$var wire 1 V cancelled_orders [11] $end
$var wire 1 W cancelled_orders [10] $end
$var wire 1 X cancelled_orders [9] $end
$var wire 1 Y cancelled_orders [8] $end
$var wire 1 Z cancelled_orders [7] $end
$var wire 1 [ cancelled_orders [6] $end
$var wire 1 \ cancelled_orders [5] $end
$var wire 1 ] cancelled_orders [4] $end
$var wire 1 ^ cancelled_orders [3] $end
$var wire 1 _ cancelled_orders [2] $end
$var wire 1 ` cancelled_orders [1] $end
$var wire 1 a cancelled_orders [0] $end
$var reg 16 N! result [15:0] $end
$var reg 16 O! accumulated_orders_reg [15:0] $end
$var wire 1 b accumulated_orders [15] $end
$var wire 1 c accumulated_orders [14] $end
$var wire 1 d accumulated_orders [13] $end
$var wire 1 e accumulated_orders [12] $end
$var wire 1 f accumulated_orders [11] $end
$var wire 1 g accumulated_orders [10] $end
$var wire 1 h accumulated_orders [9] $end
$var wire 1 i accumulated_orders [8] $end
$var wire 1 j accumulated_orders [7] $end
$var wire 1 k accumulated_orders [6] $end
$var wire 1 l accumulated_orders [5] $end
$var wire 1 m accumulated_orders [4] $end
$var wire 1 n accumulated_orders [3] $end
$var wire 1 o accumulated_orders [2] $end
$var wire 1 p accumulated_orders [1] $end
$var wire 1 q accumulated_orders [0] $end
$var wire 1 r max_to_trade [31] $end
$var wire 1 s max_to_trade [30] $end
$var wire 1 t max_to_trade [29] $end
$var wire 1 u max_to_trade [28] $end
$var wire 1 v max_to_trade [27] $end
$var wire 1 w max_to_trade [26] $end
$var wire 1 x max_to_trade [25] $end
$var wire 1 y max_to_trade [24] $end
$var wire 1 z max_to_trade [23] $end
$var wire 1 { max_to_trade [22] $end
$var wire 1 | max_to_trade [21] $end
$var wire 1 } max_to_trade [20] $end
$var wire 1 ~ max_to_trade [19] $end
$var wire 1 !! max_to_trade [18] $end
$var wire 1 "! max_to_trade [17] $end
$var wire 1 #! max_to_trade [16] $end
$var wire 1 $! max_to_trade [15] $end
$var wire 1 %! max_to_trade [14] $end
$var wire 1 &! max_to_trade [13] $end
$var wire 1 '! max_to_trade [12] $end
$var wire 1 (! max_to_trade [11] $end
$var wire 1 )! max_to_trade [10] $end
$var wire 1 *! max_to_trade [9] $end
$var wire 1 +! max_to_trade [8] $end
$var wire 1 ,! max_to_trade [7] $end
$var wire 1 -! max_to_trade [6] $end
$var wire 1 .! max_to_trade [5] $end
$var wire 1 /! max_to_trade [4] $end
$var wire 1 0! max_to_trade [3] $end
$var wire 1 1! max_to_trade [2] $end
$var wire 1 2! max_to_trade [1] $end
$var wire 1 3! max_to_trade [0] $end
$var reg 32 P! max_to_trade_reg [31:0] $end
$var reg 1 Q! memwr $end
$var reg 1 R! nocare $end

$scope begin trade_pass_checks $end
$upscope $end

$scope begin trade_correctamount_cpu $end
$upscope $end

$scope module RAMUPSTREAM $end
$var wire 1 Q clk $end

$scope fork data_req $end
$var reg 10 S! wrindex [9:0] $end
$var reg 10 T! rdindex [9:0] $end
$var reg 1 U! we $end
$upscope $end
$var reg 32 V! data_write [31:0] $end
$var reg 32 W! data_read [31:0] $end
$upscope $end

$scope module UPSTREAMPROCESSOR $end
$var parameter 5 X! IDLE $end
$var parameter 5 Y! STATE_RISKCHECK $end
$var parameter 5 Z! STATE_SENDORDER $end
$var parameter 5 [! STATE_NEWMAX $end
$var wire 1 Q clk $end
$var wire 1 \! risk_ok $end
$var wire 1 O new_order $end
$var wire 1 P new_max $end
$var wire 1 ]! memwr $end
$var wire 1 ^! HRESETn $end
$var wire 1 _! check_risk $end
$var wire 1 `! send_order $end
$var wire 1 a! update_max $end
$var reg 5 b! state [4:0] $end
$upscope $end
$upscope $end

$scope module DOWNTOP $end
$var wire 1 # client_id [4] $end
$var wire 1 $ client_id [3] $end
$var wire 1 % client_id [2] $end
$var wire 1 & client_id [1] $end
$var wire 1 ' client_id [0] $end
$var wire 1 Q clk $end
$var wire 1 ( amount [15] $end
$var wire 1 ) amount [14] $end
$var wire 1 * amount [13] $end
$var wire 1 + amount [12] $end
$var wire 1 , amount [11] $end
$var wire 1 - amount [10] $end
$var wire 1 . amount [9] $end
$var wire 1 / amount [8] $end
$var wire 1 0 amount [7] $end
$var wire 1 1 amount [6] $end
$var wire 1 2 amount [5] $end
$var wire 1 3 amount [4] $end
$var wire 1 4 amount [3] $end
$var wire 1 5 amount [2] $end
$var wire 1 6 amount [1] $end
$var wire 1 7 amount [0] $end

$scope fork downdatareq $end
$var reg 10 c! wrindex [9:0] $end
$var reg 10 d! rdindex [9:0] $end
$var reg 1 e! we $end
$upscope $end
$var reg 1 f! old_client $end
$var reg 1 g! old_amount $end
$var reg 32 h! downdatawrite [31:0] $end
$var reg 32 i! downdataread [31:0] $end
$var reg 1 j! ack $end
$var reg 1 k! update_memory $end
$upscope $end
$upscope $end
$upscope $end

$scope begin tb_top_UPDOWNSTREAM_sv_unit $end
$upscope $end

$scope begin std $end
$upscope $end

$scope begin cache_def $end
$var parameter 32 l! TAGMSB $end
$var parameter 32 m! TAGLSB $end
$upscope $end

$scope begin top_sv_unit $end
$upscope $end
$enddefinitions $end
#0
$dumpvars
0!
0"
b0 ;!
b0 <!
x=!
bx >!
x?!
x@!
b0 A!
b11111111101010100000000000000000 B!
b0 C!
b0 D!
xK!
xL!
xM!
bx N!
bx O!
bx P!
xQ!
xR!
b0 V!
b11111111101010100000000000000000 W!
bx b!
xf!
xg!
b0 h!
b0 i!
xj!
xk!
b0 4!
b0 5!
b0 6!
b0 8!
b0 9!
b0 :!
b0 E!
b0 F!
b0 G!
b0 H!
b0 I!
b0 J!
b0 S!
b0 T!
b0 U!
b0 c!
b0 d!
b0 e!
b11111 l!
b1110 m!
b1 X!
b10 Y!
b100 Z!
b1000 [!
x7!
0Q
x=
x<
x;
x:
x9
x8
xN
xM
xL
xK
xJ
xI
xH
xG
xF
xE
xD
xC
xB
xA
x@
x?
xO
xP
x'
x&
x%
x$
x#
x7
x6
x5
x4
x3
x2
x1
x0
x/
x.
x-
x,
x+
x*
x)
x(
x>
0a
0`
0_
0^
0]
0\
0[
0Z
0Y
0X
0W
0V
0U
0T
0S
0R
xq
xp
xo
xn
xm
xl
xk
xj
xi
xh
xg
xf
xe
xd
xc
xb
x3!
x2!
x1!
x0!
x/!
x.!
x-!
x,!
x+!
x*!
x)!
x(!
x'!
x&!
x%!
x$!
x#!
x"!
x!!
x~
x}
x|
x{
xz
xy
xx
xw
xv
xu
xt
xs
xr
x]!
1^!
x\!
x_!
x`!
xa!
$end
#2000
1!
1Q
b1 b!
0a!
0`!
0_!
0K!
0L!
0M!
07!
#4000
1"
1>
0=
0O
1P
07
16
15
14
03
02
11
10
0/
0.
0-
0,
0+
0*
1)
1(
1'
0&
0%
0$
0#
1N
0M
0L
0K
1J
0I
1H
0G
1F
0E
1D
0C
0B
0A
0@
0?
0<
1;
1:
09
08
b110 5!
b1100000011001110 ;!
b110 9!
b110 F!
b0 O!
b1111111110101010 P!
b101010100010000000000000000 >!
b101010100010000000000000000 A!
b1 c!
b1 e!
0g!
1f!
b1 4!
b0 5!
b1 6!
b101010100010000000000000000 V!
b110 T!
03!
12!
01!
10!
0/!
1.!
0-!
1,!
1+!
1*!
1)!
1(!
1'!
1&!
1%!
1$!
0#!
0"!
0!!
0~
0}
0|
0{
0z
0y
0x
0w
0v
0u
0t
0s
0r
0q
0p
0o
0n
0m
0l
0k
0j
0i
0h
0g
0f
0e
0d
0c
0b
b1 8!
b0 9!
b1 :!
b1000 b!
1a!
1M!
17!
#6000
0!
0Q
#8000
0"
#10000
1!
1Q
#12000
1"
#14000
0!
0Q
#16000
0"
#18000
1!
1Q
#20000
1"
0>
1O
0P
04
13
12
00
1-
1,
1*
0)
0(
1&
1$
0N
1M
1L
1K
0J
1I
0F
1C
1@
1?
1<
0;
b101 5!
b10110001110110 ;!
b101 9!
b101 F!
b1100110001101110 >!
b1100110001101110 A!
b1100110001101110 N!
1?!
b1 G!
b1011 c!
b1011 4!
b0 5!
b1100110001101110 V!
b101 T!
b1 U!
b1011 8!
b0 9!
1\!
#22000
0!
0Q
#24000
0"
#26000
1!
1Q
b11111111101010101100110001101110 W!
b11111111101010101100110001101110 B!
#28000
1"
#30000
0!
0Q
#32000
0"
#34000
1!
1Q
b11111111101010101001100011011100 W!
b11111111101010101001100011011100 B!
#36000
1"
1>
0O
1P
05
03
02
1/
1.
0,
1+
1)
1(
0&
0$
1#
0M
0L
1J
0I
1G
1E
0C
1B
0<
1;
0:
b10 5!
b1111011101000010 ;!
b10 9!
b10 F!
b1001100011011100 O!
b11010110110110000000000000000000 >!
b11010110110110000000000000000000 A!
b1101011011011000 N!
b10001 c!
b10001 4!
b0 5!
b11010110110110000000000000000000 V!
b10 T!
1o
1n
1m
1k
1j
1f
1e
1b
b10010001101000000000000000000 W!
b10001 8!
b0 9!
b10010001101000000000000000000 B!
#38000
0!
0Q
#40000
0"
#42000
1!
1Q
b10101101101100000000000000000000 W!
b10101101101100000000000000000000 B!
#44000
1"
#46000
0!
0Q
#48000
0"
#50000
1!
1Q
#52000
1"
0>
1O
0P
17
14
13
12
01
0/
1,
0+
0)
0'
1$
0#
1L
0K
1I
0H
0G
0D
1C
0B
0?
1<
0;
1:
b101 5!
b1010111000111011 ;!
b101 9!
b101 F!
b0 O!
b1010110110110000 P!
b100101000110100 >!
b100101000110100 A!
b1110001100010000 N!
b1000 c!
1g!
0f!
b1000 4!
b0 5!
b100101000110100 V!
b101 T!
02!
00!
1/!
0*!
0'!
0%!
0o
0n
0m
0k
0j
0f
0e
0b
b11111111101010101001100011011100 W!
b1000 8!
b0 9!
b11111111101010101001100011011100 B!
#54000
0!
0Q
#56000
0"
#58000
1!
1Q
b11111111101010101110001100010000 W!
b11111111101010101110001100010000 B!
#60000
1"
#62000
0!
0Q
#64000
0"
#66000
1!
1Q
b11111111101010100010110101000100 W!
b11111111101010100010110101000100 B!
#68000
1"
1=
0O
1P
10
0,
1'
1N
1K
0J
0I
1G
1D
0C
1A
1?
0<
0:
b1010011010111011 ;!
b0 F!
b10110101000100 O!
b1111111110101010 P!
b11100110100011010000000000000000 >!
b11100110100011010000000000000000 A!
b1110011010001101 N!
b1001 c!
1f!
b1001 4!
b11100110100011010000000000000000 V!
b0 T!
12!
10!
0/!
1*!
1'!
1%!
1o
1k
1i
1g
1f
1d
b11111111101010100000000000000000 W!
b1001 8!
b11111111101010100000000000000000 B!
#70000
0!
0Q
#72000
0"
#74000
1!
1Q
b11001101000110100000000000000000 W!
b11001101000110100000000000000000 B!
#76000
1"
#78000
0!
0Q
#80000
0"
#82000
1!
1Q
#84000
1"
1>
07
06
04
03
11
00
1/
0.
0-
1,
1+
1)
1%
1#
1M
0L
1J
1H
0E
0D
1B
1;
b10 5!
b1111100101100000 ;!
b10 9!
b10 F!
b0 O!
b1100110100011010 P!
b11110000110110110000000000000000 >!
b11110000110110110000000000000000 A!
b1111000011111 N!
b11101 c!
0g!
b11101 4!
b0 5!
b11110000110110110000000000000000 V!
b10 T!
1/!
0.!
0,!
0*!
0'!
0&!
0o
0k
0i
0g
0f
0d
b10101101101100000000000000000000 W!
b11101 8!
b0 9!
b10101101101100000000000000000000 B!
#86000
0!
0Q
#88000
0"
#90000
1!
1Q
b11100001101101100000000000000000 W!
b11100001101101100000000000000000 B!
#92000
1"
#94000
0!
0Q
#96000
0"
#98000
1!
1Q
#100000
1"
16
15
14
01
10
0,
0+
0(
1&
0%
1L
0J
1I
0H
1F
0B
0@
1<
b11 5!
b110000110101110 ;!
b11 9!
b11 F!
b1110000110110110 P!
b10100001101011110000000000000000 >!
b10100001101011110000000000000000 A!
b1010000110101111 N!
b11011 c!
b11011 4!
b0 5!
b10100001101011110000000000000000 V!
b11 T!
11!
00!
1.!
1,!
0)!
0(!
1&!
b11111111101010100000000000000000 W!
b11011 8!
b0 9!
b11111111101010100000000000000000 B!
#102000
0!
0Q
#104000
0"
#106000
1!
1Q
b1000011010111100000000000000000 W!
b1000011010111100000000000000000 B!
#108000
1"
#110000
0!
0Q
#112000
0"
#114000
1!
1Q
#116000
1"
0>
05
04
11
00
1.
1,
1+
1(
0$
0#
0L
0F
1E
1D
1@
0?
0<
0;
b1111101101100010 ;!
b0 F!
b100001101011110 P!
b1100110101010110000000000000000 >!
b1100110101010110000000000000000 A!
b110011010101011 N!
b11 c!
b11 4!
b1100110101010110000000000000000 V!
b0 T!
10!
0.!
1-!
0,!
1*!
0&!
0$!
b11001101000110100000000000000000 W!
b11 8!
b11001101000110100000000000000000 B!
#118000
0!
0Q
#120000
0"
#122000
1!
1Q
b11001101010101100000000000000000 W!
b11001101010101100000000000000000 B!
#124000
1"
#126000
0!
0Q
#128000
0"
#130000
1!
1Q
#132000
1"
1>
0=
06
14
02
10
1-
0+
0*
0(
1#
1L
1J
0I
0G
0E
0D
1C
0@
1<
19
b1001 5!
b100111111001000 ;!
b1001 9!
b1010011010111011 <!
1a
1`
1^
1]
1\
1Z
1X
1W
1T
1R
b1001 F!
b1100110101010110 P!
b101000000111110000000000000000 >!
b101000000111110000000000000000 A!
b1000000101100100 N!
b10011 c!
b10011 4!
b0 5!
b101000000111110000000000000000 V!
b1001 T!
00!
0*!
1)!
1(!
1$!
b11111111101010100000000000000000 W!
b10011 8!
b0 9!
b0 <!
b11111111101010100000000000000000 B!
0a
0`
0^
0]
0\
0Z
0X
0W
0T
0R
#134000
0!
0Q
#136000
0"
#138000
1!
1Q
b1010000001111100000000000000000 W!
b1010000001111100000000000000000 B!
#140000
1"
#142000
0!
0Q
#144000
0"
#146000
1!
1Q
#148000
1"
0>
1=
1O
0P
00
0/
0.
1+
1*
0)
0&
1%
0#
0N
1H
0C
1?
0<
1;
b1010 5!
b11110001001000 ;!
b1010 9!
b1010 F!
b101000000111110 P!
b1010000001011110 >!
b1010000001011110 A!
b1010000001011110 N!
b101 c!
b101 4!
b0 5!
b1010000001011110 V!
b1010 T!
10!
1.!
0-!
0+!
0)!
0(!
1'!
0$!
b11111111101010100000000000000000 W!
b101 8!
b0 9!
b11111111101010100000000000000000 B!
#150000
0!
0Q
#152000
0"
#154000
1!
1Q
b11111111101010101010000001011110 W!
b11111111101010101010000001011110 B!
#156000
1"
#158000
0!
0Q
#160000
0"
#162000
1!
1Q
b11111111101010100100000010111100 W!
b11111111101010100100000010111100 B!
#164000
1"
1>
0=
0O
1P
17
15
04
12
01
10
1/
0,
0+
1(
0%
1$
1#
0M
0L
1I
0H
1F
1E
1B
1<
09
b11 5!
b1010010110100101 ;!
b11 9!
b1111101101100010 <!
1`
1\
1[
1Y
1X
1V
1U
1T
1S
1R
b11 F!
b100000010111100 O!
b1111111110101010 P!
b10110011001110000000000000000000 >!
b10110011001110000000000000000000 A!
b1011011111010110 N!
b11001 c!
1g!
b11001 4!
b0 5!
b10110011001110000000000000000000 V!
b11 T!
01!
0/!
1,!
1+!
1*!
1)!
1(!
1&!
1$!
1o
1n
1m
1l
1j
1c
b1000011010111100000000000000000 W!
b11001 8!
b0 9!
b0 <!
b1000011010111100000000000000000 B!
0`
0\
0[
0Y
0X
0V
0U
0T
0S
0R
#166000
0!
0Q
#168000
0"
#170000
1!
1Q
b1100110011100000000000000000000 W!
b1100110011100000000000000000000 B!
#172000
1"
#174000
0!
0Q
#176000
0"
#178000
1!
1Q
#180000
1"
0>
1=
07
16
14
13
00
0-
1+
1)
0$
1N
1M
1L
0J
0I
1G
0F
0E
1D
0B
1@
0;
1:
b101 5!
b1111000100111110 ;!
b101 9!
b111100010010000 <!
1]
1Z
1V
1U
1T
1S
b101 F!
b0 O!
b110011001110000 P!
b11100100100011110000000000000000 >!
b11100100100011110000000000000000 A!
b1010110010111011 N!
b10001 c!
0g!
b10001 4!
b0 5!
b11100100100011110000000000000000 V!
b101 T!
02!
00!
1/!
1-!
0,!
0+!
0(!
0'!
0$!
0o
0n
0m
0l
0j
0c
b11111111101010100010110101000100 W!
b10001 8!
b0 9!
b0 <!
b11111111101010100010110101000100 B!
0]
0Z
0V
0U
0T
0S
#182000
0!
0Q
#184000
0"
#186000
1!
1Q
b11001001000111100010110101000100 W!
b11001001000111100010110101000100 B!
#188000
1"
#190000
0!
0Q
#192000
0"
#194000
1!
1Q
#196000
1"
17
06
02
0/
1-
0'
1&
1$
0N
0M
0L
1J
1I
1H
1F
1C
0A
0<
1;
0:
b10 5!
b1111010000011101 ;!
b10 9!
b10 F!
b10110101000100 O!
b1100100100011110 P!
b11001101111110000000000000000000 >!
b11001101111110000000000000000000 A!
b1100110111111000 N!
b11010 c!
1g!
0f!
b11010 4!
b0 5!
b11001101111110000000000000000000 V!
b10 T!
12!
11!
10!
0.!
0-!
1+!
0*!
0)!
1(!
0&!
1$!
1o
1k
1i
1g
1f
1d
b11100001101101100000000000000000 W!
b11010 8!
b0 9!
b11100001101101100000000000000000 B!
#198000
0!
0Q
#200000
0"
#202000
1!
1Q
b10011011111100000000000000000000 W!
b10011011111100000000000000000000 B!
#204000
1"
#206000
0!
0Q
#208000
0"
#210000
1!
1Q
#212000
1"
1>
1O
0P
07
16
05
03
12
10
1/
0*
0)
0(
1'
0#
0J
0G
0D
0C
0?
19
b1010 5!
b1010110101010 ;!
b1010 9!
b1010 F!
b0 O!
b1001101111110000 P!
b100000101101000 >!
b100000101101000 A!
b110111010101100 N!
b1011 c!
0g!
1f!
b1011 4!
b0 5!
b100000101101000 V!
b1010 T!
02!
01!
00!
1.!
1-!
1,!
1*!
1'!
0%!
0o
0k
0i
0g
0f
0d
b11111111101010100100000010111100 W!
b1011 8!
b0 9!
b11111111101010100100000010111100 B!
#214000
0!
0Q
#216000
0"
#218000
1!
1Q
b11111111101010101000001000100100 W!
b11111111101010101000001000100100 B!
#220000
1"
#222000
0!
0Q
#224000
0"
#226000
1!
1Q
b11111111101010101100001110001100 W!
b11111111101010101100001110001100 B!
#228000
1"
0>
17
02
00
0-
1,
1)
1(
0'
0&
0$
1#
1N
1J
0I
0H
0F
1E
1C
0@
1?
0;
1:
09
b100 5!
b1101100100001011 ;!
b100 9!
b100 F!
b1100001110001100 O!
b1111111110101010 P!
b1000101000011001 >!
b1000101000011001 A!
b1000101000011001 N!
b10000 c!
1g!
0f!
b10000 4!
b0 5!
b1000101000011001 V!
b100 T!
12!
10!
0/!
0-!
1)!
1&!
1%!
1o
1n
1j
1i
1h
1c
1b
b11111111101010100000000000000000 W!
b10000 8!
b0 9!
b11111111101010100000000000000000 B!
#230000
0!
0Q
#232000
0"
#234000
1!
1Q
b11111111101010101000101000011001 W!
b11111111101010101000101000011001 B!
#236000
1"
#238000
0!
0Q
#240000
0"
#242000
1!
1Q
b11111111101010100001010000110010 W!
b11111111101010100001010000110010 B!
#244000
1"
1>
0=
07
06
15
04
13
10
1.
0,
0+
0)
1&
1%
1$
1M
1L
0K
0J
1I
1G
0E
1B
1@
1<
0:
b1 5!
b1000001110010100 ;!
b1 9!
b1100000011001110 <!
1`
1_
1^
1[
1Z
1S
1R
b1 F!
b1010000110010 O!
b1101100010100111 >!
b1101100010100111 A!
b1101101101100101 N!
b11110 c!
0g!
b11110 4!
b0 5!
b1101100010100111 V!
b1 T!
1p
0o
0n
1m
1l
0j
0i
0h
1g
1e
0c
0b
b11111111101010100000000000000000 W!
b11110 8!
b0 9!
b0 <!
b11111111101010100000000000000000 B!
0`
0_
0^
0[
0Z
0S
0R
#246000
0!
0Q
#248000
0"
#250000
1!
1Q
b11111111101010101101100010100111 W!
b11111111101010101101100010100111 B!
#252000
1"
#254000
0!
0Q
#256000
0"
#258000
1!
1Q
b11111111101010101011000101001110 W!
b11111111101010101011000101001110 B!
#260000
1"
0>
1=
16
05
14
12
00
0/
0.
1-
1,
1*
0&
0#
0I
1H
0G
0C
0B
1A
0@
0<
1;
b10 5!
b1010110000111010 ;!
b10 9!
b10 F!
b1011000101001110 O!
b1010000001000111 >!
b1010000001000111 A!
b1011010001111001 N!
b1100 c!
b1100 4!
b0 5!
b1010000001000111 V!
b10 T!
1o
1n
0m
0l
1k
1i
0g
1d
1b
b10011011111100000000000000000000 W!
b1100 8!
b0 9!
b10011011111100000000000000000000 B!
#262000
0!
0Q
#264000
0"
#266000
1!
1Q
b10011011111100001010000001000111 W!
b10011011111100001010000001000111 B!
#268000
1"
#270000
0!
0Q
#272000
0"
#274000
1!
1Q
b10011011111100000100000010001110 W!
b10011011111100000100000010001110 B!
#276000
1"
1>
0=
0O
1P
06
04
03
1/
1.
0,
1+
0$
1#
0L
1K
1J
0H
1F
1D
1C
1B
1@
0?
b1011011100100000 ;!
b100000010001110 O!
b1001101111110000 P!
b1111101000110110000000000000000 >!
b1111101000110110000000000000000 A!
b10111001101001 N!
b10100 c!
b10100 4!
b1111101000110110000000000000000 V!
02!
00!
1/!
1-!
0)!
0&!
0%!
0k
1j
0i
0e
0d
1c
0b
b10100 8!
#278000
0!
0Q
#280000
0"
#282000
1!
1Q
b11111010001101100100000010001110 W!
b11111010001101100100000010001110 B!
#284000
1"
#286000
0!
0Q
#288000
0"
#290000
1!
1Q
#292000
1"
1=
1O
0P
14
11
10
0/
0-
0+
1&
0#
0N
0M
0J
1I
1E
0B
0A
0;
19
b1000 5!
b1010001011101000 ;!
b1000 9!
b1010111000111011 <!
1a
1`
1^
1]
1\
1X
1W
1V
1T
1R
b1000 F!
b1111101000110110 P!
b100111100101000 >!
b100111100101000 A!
b1110000101111011 N!
b110 c!
b110 4!
b0 5!
b100111100101000 V!
b1000 T!
12!
11!
0-!
0,!
0+!
1&!
1%!
b11111111101010100000000000000000 W!
b110 8!
b0 9!
b0 <!
b11111111101010100000000000000000 B!
0a
0`
0^
0]
0\
0X
0W
0V
0T
0R
#294000
0!
0Q
#296000
0"
#298000
1!
1Q
b11111111101010100100111100101000 W!
b11111111101010100100111100101000 B!
#300000
1"
#302000
0!
0Q
#304000
0"
#306000
1!
1Q
b11111111101010101001111001010000 W!
b11111111101010101001111001010000 B!
#308000
1"
0O
1P
17
15
13
1/
0.
1,
0*
1)
0&
1#
1L
0K
0I
1H
0F
1A
0@
1?
b1100100111111101 ;!
b1001111001010000 O!
b1111111110101010 P!
b10101110010001000000000000000000 >!
b10101110010001000000000000000000 A!
b1110111011010010 N!
b10100 c!
1g!
b10100 4!
b10101110010001000000000000000000 V!
01!
10!
0/!
1,!
1+!
1)!
0p
0o
0n
1m
1k
0j
1h
1g
1f
1e
0c
1b
b10100 8!
#310000
0!
0Q
#312000
0"
#314000
1!
1Q
b1011100100010001001111001010000 W!
b1011100100010001001111001010000 B!
#316000
1"
#318000
0!
0Q
#320000
0"
#322000
1!
1Q
