testbench/tbenchoutputs/upstream/upstreamdump.vcd
$date
	Thu Mar 10 09:33:54 2022
$end
$version
	QuestaSim Version 10.7c
$end
$timescale
	1ps
$end

$scope module tb_top_UPSTREAM $end
$var reg 1 ! clk $end
$var reg 1 " slowclk $end

$scope module UPSTREAM $end
$var wire 1 # clk $end
$var wire 1 $ new_order $end
$var wire 1 % new_max $end
$var wire 1 & client_id [4] $end
$var wire 1 ' client_id [3] $end
$var wire 1 ( client_id [2] $end
$var wire 1 ) client_id [1] $end
$var wire 1 * client_id [0] $end
$var wire 1 + amount [31] $end
$var wire 1 , amount [30] $end
$var wire 1 - amount [29] $end
$var wire 1 . amount [28] $end
$var wire 1 / amount [27] $end
$var wire 1 0 amount [26] $end
$var wire 1 1 amount [25] $end
$var wire 1 2 amount [24] $end
$var wire 1 3 amount [23] $end
$var wire 1 4 amount [22] $end
$var wire 1 5 amount [21] $end
$var wire 1 6 amount [20] $end
$var wire 1 7 amount [19] $end
$var wire 1 8 amount [18] $end
$var wire 1 9 amount [17] $end
$var wire 1 : amount [16] $end
$var wire 1 ; amount [15] $end
$var wire 1 < amount [14] $end
$var wire 1 = amount [13] $end
$var wire 1 > amount [12] $end
$var wire 1 ? amount [11] $end
$var wire 1 @ amount [10] $end
$var wire 1 A amount [9] $end
$var wire 1 B amount [8] $end
$var wire 1 C amount [7] $end
$var wire 1 D amount [6] $end
$var wire 1 E amount [5] $end
$var wire 1 F amount [4] $end
$var wire 1 G amount [3] $end
$var wire 1 H amount [2] $end
$var wire 1 I amount [1] $end
$var wire 1 J amount [0] $end
$var wire 1 K thenewmax $end
$var reg 1 L old_client $end
$var reg 1 M old_amount $end
$var reg 1 N pass_checks $end
$var reg 1 O upstream_enable $end
$var reg 1 P check_risk $end
$var reg 1 Q send_order $end
$var reg 1 R update_max $end
$var wire 1 S cancelled_orders [31] $end
$var wire 1 T cancelled_orders [30] $end
$var wire 1 U cancelled_orders [29] $end
$var wire 1 V cancelled_orders [28] $end
$var wire 1 W cancelled_orders [27] $end
$var wire 1 X cancelled_orders [26] $end
$var wire 1 Y cancelled_orders [25] $end
$var wire 1 Z cancelled_orders [24] $end
$var wire 1 [ cancelled_orders [23] $end
$var wire 1 \ cancelled_orders [22] $end
$var wire 1 ] cancelled_orders [21] $end
$var wire 1 ^ cancelled_orders [20] $end
$var wire 1 _ cancelled_orders [19] $end
$var wire 1 ` cancelled_orders [18] $end
$var wire 1 a cancelled_orders [17] $end
$var wire 1 b cancelled_orders [16] $end
$var wire 1 c cancelled_orders [15] $end
$var wire 1 d cancelled_orders [14] $end
$var wire 1 e cancelled_orders [13] $end
$var wire 1 f cancelled_orders [12] $end
$var wire 1 g cancelled_orders [11] $end
$var wire 1 h cancelled_orders [10] $end
$var wire 1 i cancelled_orders [9] $end
$var wire 1 j cancelled_orders [8] $end
$var wire 1 k cancelled_orders [7] $end
$var wire 1 l cancelled_orders [6] $end
$var wire 1 m cancelled_orders [5] $end
$var wire 1 n cancelled_orders [4] $end
$var wire 1 o cancelled_orders [3] $end
$var wire 1 p cancelled_orders [2] $end
$var wire 1 q cancelled_orders [1] $end
$var wire 1 r cancelled_orders [0] $end
$var wire 1 s accumulated_orders [31] $end
$var wire 1 t accumulated_orders [30] $end
$var wire 1 u accumulated_orders [29] $end
$var wire 1 v accumulated_orders [28] $end
$var wire 1 w accumulated_orders [27] $end
$var wire 1 x accumulated_orders [26] $end
$var wire 1 y accumulated_orders [25] $end
$var wire 1 z accumulated_orders [24] $end
$var wire 1 { accumulated_orders [23] $end
$var wire 1 | accumulated_orders [22] $end
$var wire 1 } accumulated_orders [21] $end
$var wire 1 ~ accumulated_orders [20] $end
$var wire 1 !! accumulated_orders [19] $end
$var wire 1 "! accumulated_orders [18] $end
$var wire 1 #! accumulated_orders [17] $end
$var wire 1 $! accumulated_orders [16] $end
$var wire 1 %! accumulated_orders [15] $end
$var wire 1 &! accumulated_orders [14] $end
$var wire 1 '! accumulated_orders [13] $end
$var wire 1 (! accumulated_orders [12] $end
$var wire 1 )! accumulated_orders [11] $end
$var wire 1 *! accumulated_orders [10] $end
$var wire 1 +! accumulated_orders [9] $end
$var wire 1 ,! accumulated_orders [8] $end
$var wire 1 -! accumulated_orders [7] $end
$var wire 1 .! accumulated_orders [6] $end
$var wire 1 /! accumulated_orders [5] $end
$var wire 1 0! accumulated_orders [4] $end
$var wire 1 1! accumulated_orders [3] $end
$var wire 1 2! accumulated_orders [2] $end
$var wire 1 3! accumulated_orders [1] $end
$var wire 1 4! accumulated_orders [0] $end
$var wire 1 5! max_to_trade [31] $end
$var wire 1 6! max_to_trade [30] $end
$var wire 1 7! max_to_trade [29] $end
$var wire 1 8! max_to_trade [28] $end
$var wire 1 9! max_to_trade [27] $end
$var wire 1 :! max_to_trade [26] $end
$var wire 1 ;! max_to_trade [25] $end
$var wire 1 <! max_to_trade [24] $end
$var wire 1 =! max_to_trade [23] $end
$var wire 1 >! max_to_trade [22] $end
$var wire 1 ?! max_to_trade [21] $end
$var wire 1 @! max_to_trade [20] $end
$var wire 1 A! max_to_trade [19] $end
$var wire 1 B! max_to_trade [18] $end
$var wire 1 C! max_to_trade [17] $end
$var wire 1 D! max_to_trade [16] $end
$var wire 1 E! max_to_trade [15] $end
$var wire 1 F! max_to_trade [14] $end
$var wire 1 G! max_to_trade [13] $end
$var wire 1 H! max_to_trade [12] $end
$var wire 1 I! max_to_trade [11] $end
$var wire 1 J! max_to_trade [10] $end
$var wire 1 K! max_to_trade [9] $end
$var wire 1 L! max_to_trade [8] $end
$var wire 1 M! max_to_trade [7] $end
$var wire 1 N! max_to_trade [6] $end
$var wire 1 O! max_to_trade [5] $end
$var wire 1 P! max_to_trade [4] $end
$var wire 1 Q! max_to_trade [3] $end
$var wire 1 R! max_to_trade [2] $end
$var wire 1 S! max_to_trade [1] $end
$var wire 1 T! max_to_trade [0] $end
$var reg 1 U! memwr $end
$var reg 1 V! nocare $end

$scope module RAMUPSTREAM $end
$var parameter 32 W! D_WIDTH $end
$var parameter 32 X! A_WIDTH $end
$var parameter 32 Y! A_MAX $end
$var wire 1 # clk_write $end
$var wire 1 Z! change_max $end
$var wire 1 [! address_write [9] $end
$var wire 1 \! address_write [8] $end
$var wire 1 ]! address_write [7] $end
$var wire 1 ^! address_write [6] $end
$var wire 1 _! address_write [5] $end
$var wire 1 & address_write [4] $end
$var wire 1 ' address_write [3] $end
$var wire 1 ( address_write [2] $end
$var wire 1 ) address_write [1] $end
$var wire 1 * address_write [0] $end
$var wire 1 + data_write [31] $end
$var wire 1 , data_write [30] $end
$var wire 1 - data_write [29] $end
$var wire 1 . data_write [28] $end
$var wire 1 / data_write [27] $end
$var wire 1 0 data_write [26] $end
$var wire 1 1 data_write [25] $end
$var wire 1 2 data_write [24] $end
$var wire 1 3 data_write [23] $end
$var wire 1 4 data_write [22] $end
$var wire 1 5 data_write [21] $end
$var wire 1 6 data_write [20] $end
$var wire 1 7 data_write [19] $end
$var wire 1 8 data_write [18] $end
$var wire 1 9 data_write [17] $end
$var wire 1 : data_write [16] $end
$var wire 1 ; data_write [15] $end
$var wire 1 < data_write [14] $end
$var wire 1 = data_write [13] $end
$var wire 1 > data_write [12] $end
$var wire 1 ? data_write [11] $end
$var wire 1 @ data_write [10] $end
$var wire 1 A data_write [9] $end
$var wire 1 B data_write [8] $end
$var wire 1 C data_write [7] $end
$var wire 1 D data_write [6] $end
$var wire 1 E data_write [5] $end
$var wire 1 F data_write [4] $end
$var wire 1 G data_write [3] $end
$var wire 1 H data_write [2] $end
$var wire 1 I data_write [1] $end
$var wire 1 J data_write [0] $end
$var wire 1 `! write_enable $end
$var wire 1 # clk_read $end
$var wire 1 a! address_read [9] $end
$var wire 1 b! address_read [8] $end
$var wire 1 c! address_read [7] $end
$var wire 1 d! address_read [6] $end
$var wire 1 e! address_read [5] $end
$var wire 1 & address_read [4] $end
$var wire 1 ' address_read [3] $end
$var wire 1 ( address_read [2] $end
$var wire 1 ) address_read [1] $end
$var wire 1 * address_read [0] $end
$var reg 32 f! accumulated_orders [31:0] $end
$var reg 32 g! max_to_trade [31:0] $end
$var reg 1 h! memwr $end
$var reg 32 i! accumulated_read [31:0] $end
$var integer 32 j! i $end
$upscope $end

$scope module RAMDOWNSTREAM $end
$var parameter 32 k! D_WIDTH $end
$var parameter 32 l! A_WIDTH $end
$var parameter 32 m! A_MAX $end
$var wire 1 # clk_write $end
$var wire 1 & downstream_address_write [4] $end
$var wire 1 ' downstream_address_write [3] $end
$var wire 1 ( downstream_address_write [2] $end
$var wire 1 ) downstream_address_write [1] $end
$var wire 1 * downstream_address_write [0] $end
$var wire 1 + data_write [31] $end
$var wire 1 , data_write [30] $end
$var wire 1 - data_write [29] $end
$var wire 1 . data_write [28] $end
$var wire 1 / data_write [27] $end
$var wire 1 0 data_write [26] $end
$var wire 1 1 data_write [25] $end
$var wire 1 2 data_write [24] $end
$var wire 1 3 data_write [23] $end
$var wire 1 4 data_write [22] $end
$var wire 1 5 data_write [21] $end
$var wire 1 6 data_write [20] $end
$var wire 1 7 data_write [19] $end
$var wire 1 8 data_write [18] $end
$var wire 1 9 data_write [17] $end
$var wire 1 : data_write [16] $end
$var wire 1 ; data_write [15] $end
$var wire 1 < data_write [14] $end
$var wire 1 = data_write [13] $end
$var wire 1 > data_write [12] $end
$var wire 1 ? data_write [11] $end
$var wire 1 @ data_write [10] $end
$var wire 1 A data_write [9] $end
$var wire 1 B data_write [8] $end
$var wire 1 C data_write [7] $end
$var wire 1 D data_write [6] $end
$var wire 1 E data_write [5] $end
$var wire 1 F data_write [4] $end
$var wire 1 G data_write [3] $end
$var wire 1 H data_write [2] $end
$var wire 1 I data_write [1] $end
$var wire 1 J data_write [0] $end
$var wire 1 n! downstream_write_enable $end
$var wire 1 # clk_read $end
$var wire 1 & address_read [4] $end
$var wire 1 ' address_read [3] $end
$var wire 1 ( address_read [2] $end
$var wire 1 ) address_read [1] $end
$var wire 1 * address_read [0] $end
$var reg 32 o! data_read [31:0] $end
$var reg 1 p! memwr $end
$var integer 32 q! i $end
$upscope $end

$scope module UPSTREAMPROCESSOR $end
$var parameter 5 r! IDLE $end
$var parameter 5 s! STATE_RISKCHECK $end
$var parameter 5 t! STATE_SENDORDER $end
$var parameter 5 u! STATE_NEWMAX $end
$var parameter 5 v! STATE_RISKCHK_SENDORDER $end
$var wire 1 # clk $end
$var wire 1 w! risk_ok $end
$var wire 1 $ new_order $end
$var wire 1 % new_max $end
$var wire 1 x! memwr $end
$var wire 1 y! check_risk $end
$var wire 1 z! send_order $end
$var wire 1 {! update_max $end
$var reg 5 |! state [4:0] $end
$upscope $end
$upscope $end
$upscope $end

$scope begin tb_top_UPSTREAM_sv_unit $end
$upscope $end

$scope begin std $end
$upscope $end
$enddefinitions $end
#0
$dumpvars
0!
0"
xL
xM
xN
xO
xP
xQ
xR
xU!
xV!
b0xxxxxxxxxxxxxxxx f!
b0xxxxxxxxxxxxxxxx g!
xh!
bx i!
bx o!
xp!
bx |!
b100000 W!
b1010 X!
b10000000000 Y!
b100000 k!
b101 l!
b100000 m!
b1 r!
b10 s!
b100 t!
b1000 u!
b10000 v!
b10000000000 j!
b100000 q!
xr
xq
xp
xo
xn
xm
xl
xk
xj
xi
xh
xg
xf
xe
xd
xc
xb
xa
x`
x_
x^
x]
x\
x[
xZ
xY
xX
xW
xV
xU
xT
xS
0#
x*
x)
x(
x'
x&
xJ
xI
xH
xG
xF
xE
xD
xC
xB
xA
x@
x?
x>
x=
x<
x;
x:
x9
x8
x7
x6
x5
x4
x3
x2
x1
x0
x/
x.
x-
x,
x+
x$
x%
x4!
x3!
x2!
x1!
x0!
x/!
x.!
x-!
x,!
x+!
x*!
x)!
x(!
x'!
x&!
x%!
0$!
0#!
0"!
0!!
0~
0}
0|
0{
0z
0y
0x
0w
0v
0u
0t
0s
xT!
xS!
xR!
xQ!
xP!
xO!
xN!
xM!
xL!
xK!
xJ!
xI!
xH!
xG!
xF!
xE!
0D!
0C!
0B!
0A!
0@!
0?!
0>!
0=!
0<!
0;!
0:!
09!
08!
07!
06!
05!
xK
xx!
xw!
0n!
0e!
0d!
0c!
0b!
0a!
xZ!
x`!
0_!
0^!
0]!
0\!
0[!
xy!
xz!
x{!
$end
#2000
1!
1#
0h!
0p!
b1 |!
0V!
0U!
0{!
0z!
0y!
0P
0Q
0R
0`!
0K
0Z!
0x!
#12000
1"
1J
1I
1H
1G
0F
1E
0D
1C
0B
0A
1@
0?
0>
1=
1<
0;
0:
19
18
17
16
05
04
13
02
01
10
1/
1.
1-
1,
0+
0*
0)
1(
0'
0&
0$
1%
b0 f!
b0 g!
b0 o!
0r
0q
0p
0o
0n
0m
0l
0k
0j
0i
0h
0g
0f
0e
0d
0c
0b
0a
0`
0_
0^
0]
0\
0[
0Z
0Y
0X
0W
0V
0U
0T
0S
0T!
0S!
0R!
0Q!
0P!
0O!
0N!
0M!
0L!
0K!
0J!
0I!
0H!
0G!
0F!
0E!
04!
03!
02!
01!
00!
0/!
0.!
0-!
0,!
0+!
0*!
0)!
0(!
0'!
0&!
0%!
1M
0L
b1000 |!
1N
1{!
1R
1`!
1K
1Z!
1w!
#14000
0!
0#
#24000
0"
#26000
1!
1#
1h!
1U!
b110010010101111 g!
1T!
1S!
1R!
1Q!
1O!
1M!
1J!
1G!
1F!
1x!
#36000
1"
#38000
0!
0#
#48000
0"
#50000
1!
1#
0h!
1h!
#60000
1"
0J
0I
0G
1F
0E
1D
0C
1A
1?
0=
0<
1;
08
06
15
03
12
1)
0(
1'
b0 g!
0T!
0S!
0R!
0Q!
0O!
0M!
0J!
0G!
0F!
0M
#62000
0!
0#
#72000
0"
#74000
1!
1#
0h!
1h!
b1000111001010100 g!
1R!
1P!
1N!
1K!
1J!
1I!
1E!
#84000
1"
#86000
0!
0#
#96000
0"
#98000
1!
1#
0h!
1h!
#108000
1"
1J
0D
1C
1B
0A
0?
0;
1:
14
13
0/
0.
1+
1(
0'
1&
1$
0%
b0 g!
0R!
0P!
0N!
0K!
0J!
0I!
0E!
1M
b10 |!
0{!
1y!
1P
0R
0`!
0K
0Z!
#110000
0!
0#
#120000
0"
#122000
1!
1#
b10000 |!
0h!
0U!
0y!
0P
0x!
b1 |!
#132000
1"
#134000
0!
0#
#144000
0"
#146000
1!
1#
b10 |!
1y!
1P
#156000
1"
0H
1G
0F
1E
1D
0C
0B
1A
1?
1>
1<
11
00
1/
1.
0-
0+
0(
1'
0&
0$
1%
b1000111001010100 g!
1R!
1P!
1N!
1K!
1J!
1I!
1E!
#158000
0!
0#
#168000
0"
#170000
1!
1#
#180000
1"
#182000
0!
0#
#192000
0"
#194000
1!
1#
#204000
1"
0J
1F
0A
0@
0?
0>
1=
1;
0:
16
05
04
03
01
10
0/
1-
0,
1+
1*
0)
1(
1&
b0 g!
0R!
0P!
0N!
0K!
0J!
0I!
0E!
0M
1L
#206000
0!
0#
#216000
0"
#218000
1!
1#
#228000
1"
#230000
0!
0#
#240000
0"
#242000
1!
1#
#252000
1"
1J
1I
0G
0E
0D
1B
1?
0=
0<
18
15
0.
1,
0*
1)
0'
0&
1M
0L
#254000
0!
0#
#264000
0"
#266000
1!
1#
#276000
1"
#278000
0!
0#
#288000
0"
#290000
1!
1#
#300000
1"
1G
1E
1D
1C
1@
1<
0;
1:
09
06
14
02
11
1.
0,
1*
0(
1'
1$
0%
1L
b10000 |!
0y!
0P
#302000
0!
0#
#312000
0"
#314000
1!
1#
b1 |!
#324000
1"
#326000
0!
0#
#336000
0"
#338000
1!
1#
b10 |!
1y!
1P
#348000
1"
0E
0D
0B
1A
1;
19
08
04
13
12
01
00
0+
0*
0)
1(
1&
0$
1%
0L
#350000
0!
0#
#360000
0"
#362000
1!
1#
#372000
1"
#374000
0!
0#
#384000
0"
#386000
1!
1#
#396000
1"
1H
0G
0F
1D
0@
0<
07
16
05
14
03
10
1,
1)
#398000
0!
0#
#408000
0"
#410000
1!
1#
#420000
1"
#422000
0!
0#
#432000
0"
#434000
1!
1#
#444000
1"
0H
1G
1F
0C
1B
1>
1<
0:
09
06
04
13
11
1/
0.
0-
0(
0'
0&
#446000
0!
0#
#456000
0"
#458000
1!
1#
#468000
1"
#470000
0!
0#
#480000
0"
#482000
1!
1#
#492000
1"
1H
0F
1C
0A
0?
0>
1=
0;
19
18
17
15
14
03
02
00
1.
1-
1+
1*
1(
1&
1$
0%
1L
b10000 |!
0y!
0P
#494000
0!
0#
#504000
0"
#506000
1!
1#
b1 |!
#516000
1"
#518000
0!
0#
#528000
0"
#530000
1!
1#
b10 |!
1y!
1P
#540000
1"
0I
0H
0C
1A
1@
1>
1;
1:
08
07
16
05
13
12
01
10
0/
0,
0+
0)
0&
0$
1%
#542000
0!
0#
#552000
0"
#554000
1!
1#
#564000
1"
#566000
0!
0#
#576000
0"
#578000
1!
1#
#588000
1"
0J
1H
1C
0B
0A
0@
1?
0=
0<
17
04
03
02
11
0-
1,
0*
1)
1'
1$
0%
0M
0L
b10000 |!
0y!
0P
#590000
0!
0#
#600000
0"
#602000
1!
1#
b1 |!
#612000
1"
#614000
0!
0#
#624000
0"
#626000
1!
1#
b10 |!
1y!
1P
#636000
1"
1J
0H
1F
1E
0C
0?
0>
1<
0:
18
07
13
12
1/
0.
1-
1*
0)
0(
0'
0$
1%
1M
1L
#638000
0!
0#
#648000
0"
#650000
1!
1#
#660000
1"
#662000
0!
0#
#672000
0"
#674000
1!
1#
#684000
1"
0J
0F
1C
1@
1?
1>
0;
08
17
14
0/
1.
0-
0,
0*
1)
1(
1$
0%
0M
0L
b10000 |!
0y!
0P
#686000
0!
0#
#696000
0"
#698000
1!
1#
b1 |!
#708000
1"
#710000
0!
0#
#720000
0"
#722000
1!
1#
b10 |!
1y!
1P
#732000
1"
1J
1I
1H
0G
0C
1B
1A
0>
0<
1;
1:
09
18
15
00
1/
0.
1,
1+
1*
0)
1M
1L
#734000
0!
0#
#744000
0"
#746000
1!
1#
b10000 |!
0y!
0P
#756000
1"
#758000
0!
0#
#768000
0"
#770000
1!
1#
b1 |!
#780000
1"
0I
0H
1G
0D
0@
0?
07
04
02
0,
0+
0*
1&
0L
#782000
0!
0#
#792000
0"
#794000
1!
1#
b10 |!
1y!
1P
#804000
1"
#806000
0!
0#
#816000
0"
#818000
1!
1#
b10000 |!
0y!
0P
#828000
1"
0G
1F
0B
1@
1>
1=
1<
0;
19
17
05
12
1,
1+
1'
0&
0$
1%
b1 |!
#830000
0!
0#
#840000
0"
#842000
1!
1#
b1000 |!
1{!
1R
1`!
1K
1Z!
#852000
1"
#854000
0!
0#
#864000
0"
#866000
1!
1#
1h!
1U!
b111011000110001 g!
1T!
1P!
1O!
1K!
1J!
1H!
1G!
1F!
1x!
#876000
1"
0J
1I
0F
1C
1B
0@
0<
1;
0:
09
08
07
06
14
10
0/
1.
0+
1*
0'
1&
b0 g!
0T!
0P!
0O!
0K!
0J!
0H!
0G!
0F!
0M
1L
#878000
0!
0#
#888000
0"
#890000
1!
1#
0h!
1h!
b1011001110100010 g!
1S!
1O!
1M!
1L!
1K!
1H!
1G!
1E!
#900000
1"
#902000
0!
0#
#912000
0"
#914000
1!
1#
0h!
1h!
#924000
1"
1J
0I
1H
1F
1D
0A
1@
1?
0>
0;
1:
18
16
00
1/
1+
0*
1$
0%
b0 g!
0S!
0O!
0M!
0L!
0K!
0H!
0G!
0E!
1M
0L
b10 |!
0{!
1y!
1P
0R
0`!
0K
0Z!
#926000
0!
0#
#936000
0"
#938000
1!
1#
b10000 |!
0h!
0U!
0y!
0P
0x!
b1 |!
#948000
1"
#950000
0!
0#
#960000
0"
#962000
1!
1#
b10 |!
1y!
1P
#972000
1"
1I
0H
1G
0F
0C
0B
1A
0@
0?
1>
1<
1;
0:
08
04
02
0/
0.
0+
1*
1'
1L
#974000
0!
0#
#984000
0"
#986000
1!
1#
b10000 |!
0y!
0P
#996000
1"
#998000
0!
0#
#1008000
0"
#1010000
1!
1#
b1 |!
#1020000
1"
0J
0I
0E
1B
1@
1?
0<
19
18
06
03
01
10
0,
0*
1)
0&
0$
1%
0M
0L
b1000 |!
1{!
1R
1`!
1K
1Z!
#1022000
0!
0#
#1032000
0"
#1034000
1!
1#
1h!
1U!
b1011111101001000 g!
1Q!
1N!
1L!
1K!
1J!
1I!
1H!
1G!
1E!
1x!
#1044000
1"
#1046000
0!
0#
#1056000
0"
#1058000
1!
1#
0h!
1h!
#1068000
1"
1J
1I
0G
1E
0D
1C
0B
0@
0=
1:
17
16
13
00
1-
1,
1+
0(
0'
1&
1$
0%
b0 g!
0Q!
0N!
0L!
0K!
0J!
0I!
0H!
0G!
0E!
1M
b10 |!
0{!
1y!
1P
0R
0`!
0K
0Z!
#1070000
0!
0#
#1080000
0"
#1082000
1!
1#
b10000 |!
0h!
0U!
0y!
0P
0x!
b1 |!
#1092000
1"
#1094000
0!
0#
#1104000
0"
#1106000
1!
1#
b10 |!
1y!
1P
#1116000
1"
0J
0I
1H
1F
0C
0A
1@
0;
09
08
14
10
1.
0-
0,
0+
0&
0M
#1118000
0!
0#
#1128000
0"
#1130000
1!
1#
b10000 |!
0y!
0P
#1140000
1"
#1142000
0!
0#
#1152000
0"
#1154000
1!
1#
b1 |!
#1164000
1"
1J
0H
1G
0E
1C
1B
0>
1=
07
06
15
04
03
00
1,
1+
1*
1M
1L
#1166000
0!
0#
#1176000
0"
#1178000
1!
1#
b10 |!
1y!
1P
#1188000
1"
#1190000
0!
0#
#1200000
0"
#1202000
1!
1#
b10000 |!
0y!
0P
#1212000
1"
0J
1H
0G
0F
1D
1A
0?
0=
1<
1;
0:
18
16
13
11
1/
0.
1-
0+
0*
0)
1(
1'
b111011000110001 g!
1T!
1P!
1O!
1K!
1J!
1H!
1G!
1F!
0M
0L
#1214000
0!
0#
#1224000
0"
#1226000
1!
1#
b1 |!
#1236000
1"
#1238000
0!
0#
#1248000
0"
#1250000
1!
1#
b10 |!
1y!
1P
#1260000
1"
1I
1F
0B
0A
0@
1=
19
08
17
06
05
12
10
0/
0-
0,
1+
1*
1)
b0 g!
0T!
0P!
0O!
0K!
0J!
0H!
0G!
0F!
1L
#1262000
0!
0#
#1272000
0"
#1274000
1!
1#
b10000 |!
0y!
0P
#1284000
1"
#1286000
0!
0#
#1296000
0"
#1298000
1!
1#
b1 |!
#1308000
1"
1J
0H
0F
0D
0C
1B
1?
0=
09
18
14
03
02
01
1/
1.
0+
0*
0)
0(
1M
0L
#1310000
0!
0#
#1320000
0"
#1322000
1!
1#
b10 |!
1y!
1P
#1332000
1"
#1334000
0!
0#
#1344000
0"
#1346000
1!
1#
b10000 |!
0y!
0P
#1356000
1"
0I
1H
1D
1C
1A
1@
0?
19
07
04
12
0/
1,
1(
0'
0$
1%
b110010010101111 g!
1T!
1S!
1R!
1Q!
1O!
1M!
1J!
1G!
1F!
b1 |!
#1358000
0!
0#
#1368000
0"
#1370000
1!
1#
b1000 |!
1{!
1R
1`!
1K
1Z!
#1380000
1"
#1382000
0!
0#
#1392000
0"
#1394000
1!
1#
1h!
1U!
b1100011111000101 g!
0S!
0Q!
0O!
1N!
1L!
1K!
0G!
1E!
1x!
#1404000
1"
0H
1G
1E
0A
1=
0<
09
16
14
02
11
00
1/
0.
0,
1*
1)
0(
1'
b0 g!
0T!
0R!
0N!
0M!
0L!
0K!
0J!
0F!
0E!
1L
#1406000
0!
0#
#1416000
0"
#1418000
1!
1#
0h!
1h!
b1010010111101001 g!
1T!
1Q!
1O!
1N!
1M!
1L!
1J!
1G!
1E!
#1428000
1"
#1430000
0!
0#
#1440000
0"
#1442000
1!
1#
0h!
1h!
#1452000
1"
0J
1I
0D
0C
0B
1?
1>
1:
06
15
04
13
0/
0*
0)
1(
b111011000110001 g!
0Q!
1P!
0N!
0M!
0L!
1K!
1H!
1F!
0E!
0M
0L
#1454000
0!
0#
#1464000
0"
#1466000
1!
1#
0h!
1h!
b1011110000101010 g!
0T!
1S!
1Q!
0P!
0K!
1I!
0F!
1E!
#1476000
1"
#1478000
0!
0#
#1488000
0"
#1490000
1!
1#
0h!
1h!
#1500000
1"
1H
1F
1D
1C
1B
0@
0>
1<
19
16
05
14
01
1/
1.
1,
1*
1)
1&
1$
0%
b0 g!
0S!
0Q!
0O!
0J!
0I!
0H!
0G!
0E!
1L
b10 |!
0{!
1y!
1P
0R
0`!
0K
0Z!
#1502000
0!
0#
#1512000
0"
#1514000
1!
1#
b10000 |!
0h!
0U!
0y!
0P
0x!
b1 |!
#1524000
1"
#1526000
0!
0#
#1536000
0"
#1538000
1!
1#
b10 |!
1y!
1P
#1548000
1"
1J
0F
0E
0D
0B
0?
1>
0=
0<
15
03
1-
0,
0*
0)
0&
0$
1%
b1011110000101010 g!
1S!
1Q!
1O!
1J!
1I!
1H!
1G!
1E!
1M
0L
#1550000
0!
0#
#1560000
0"
#1562000
1!
1#
#1572000
1"
#1574000
0!
0#
#1584000
0"
#1586000
1!
1#
#1596000
1"
0I
0H
1F
0C
1B
1A
1@
1<
0;
0:
08
04
13
10
0.
0-
1+
1)
1$
0%
b1011111101001000 g!
0S!
0O!
1N!
1L!
1K!
b10000 |!
0y!
0P
#1598000
0!
0#
#1608000
0"
#1610000
1!
1#
b1 |!
#1620000
1"
#1622000
0!
0#
#1632000
0"
#1634000
1!
1#
b10 |!
1y!
1P
#1644000
1"
0J
1I
0G
1D
1C
0@
1?
0>
0<
1:
09
17
06
03
00
0/
1,
1*
0)
0(
0$
1%
b0 g!
0Q!
0N!
0L!
0K!
0J!
0I!
0H!
0G!
0E!
0M
1L
#1646000
0!
0#
#1656000
0"
#1658000
1!
1#
#1668000
1"
#1670000
0!
0#
#1680000
0"
#1682000
1!
1#
#1692000
1"
1H
0F
0A
1>
1<
1;
19
18
07
16
05
13
12
10
1.
1-
0,
0+
1)
1(
0'
1&
1$
0%
b10000 |!
0y!
0P
#1694000
0!
0#
#1704000
0"
#1706000
1!
1#
b1 |!
#1716000
1"
#1718000
0!
0#
#1728000
0"
#1730000
1!
1#
b10 |!
1y!
1P
#1740000
1"
0H
1G
1E
0B
1@
0>
1=
0;
17
06
14
02
00
0.
1,
0)
0(
1'
0&
0$
1%
#1742000
0!
0#
#1752000
0"
#1754000
1!
1#
#1764000
1"
#1766000
0!
0#
#1776000
0"
#1778000
1!
1#
#1788000
1"
1H
0G
1;
0:
09
08
03
10
1/
0*
1)
1(
0'
1$
0%
0L
b10000 |!
0y!
0P
#1790000
0!
0#
#1800000
0"
#1802000
1!
1#
b1 |!
#1812000
1"
#1814000
0!
0#
#1824000
0"
#1826000
1!
1#
b10 |!
1y!
1P
#1836000
1"
0I
1G
0E
0C
1A
1>
0=
0<
18
16
13
12
11
0/
1.
0,
1+
1*
0(
1L
#1838000
0!
0#
#1848000
0"
#1850000
1!
1#
b10000 |!
0y!
0P
#1860000
1"
#1862000
0!
0#
#1872000
0"
#1874000
1!
1#
b1 |!
#1884000
1"
1I
0G
1E
1C
0>
1<
0;
19
08
07
03
02
01
00
1/
0.
0)
1'
0$
1%
b1000 |!
1{!
1R
1`!
1K
1Z!
#1886000
0!
0#
#1896000
0"
#1898000
1!
1#
1h!
1U!
b100111011100110 g!
1S!
1R!
1O!
1N!
1M!
1K!
1J!
1I!
1F!
1x!
#1908000
1"
#1910000
0!
0#
#1920000
0"
#1922000
1!
1#
0h!
1h!
#1932000
1"
1J
0I
1G
0<
1;
1:
18
17
06
13
11
10
0/
0*
1)
1(
b1011111101001000 g!
0S!
0R!
1Q!
0O!
0M!
1L!
1H!
1G!
0F!
1E!
1M
0L
#1934000
0!
0#
#1944000
0"
#1946000
1!
1#
0h!
1h!
b1000111011101101 g!
1T!
1R!
1O!
1M!
0L!
0H!
0G!
#1956000
1"
#1958000
0!
0#
#1968000
0"
#1970000
1!
1#
0h!
1h!
#1980000
1"
0J
0C
1B
0A
0@
1=
1<
16
15
12
0-
1,
0+
1*
0)
0'
b0 g!
0T!
0R!
0Q!
0O!
0N!
0M!
0K!
0J!
0I!
0E!
0M
1L
#1982000
0!
0#
#1992000
0"
#1994000
1!
1#
0h!
1h!
b1110100101101100 g!
1R!
1Q!
1O!
1N!
1L!
1I!
1G!
1F!
1E!
#2004000
1"
#2006000
0!
0#
#2016000
0"
#2018000
1!
1#
0h!
1h!
#2028000
1"
1J
0H
0E
0D
1@
0?
0<
0:
08
07
05
04
1-
0*
0(
1$
0%
b0 g!
0R!
0Q!
0O!
0N!
0L!
0I!
0G!
0F!
0E!
1M
0L
b10 |!
0{!
1y!
1P
0R
0`!
0K
0Z!
#2030000
0!
0#
#2040000
0"
#2042000
1!
1#
b10000 |!
0h!
0U!
0y!
0P
0x!
b1 |!
#2052000
1"
#2054000
0!
0#
#2064000
0"
#2066000
1!
1#
b10 |!
1y!
1P
#2076000
1"
0J
1I
1E
1D
1C
0@
0=
09
18
06
15
14
03
02
01
1/
1.
0-
0,
1+
1*
1(
1&
b1011001110100010 g!
1S!
1O!
1M!
1L!
1K!
1H!
1G!
1E!
0M
1L
#2078000
0!
0#
#2088000
0"
#2090000
1!
1#
b10000 |!
0y!
0P
#2100000
1"
#2102000
0!
0#
#2112000
0"
#2114000
1!
1#
b1 |!
#2124000
1"
0I
1F
0E
0D
0C
0B
1>
1=
1:
19
08
17
16
04
00
0/
1,
1)
0(
1'
b0 g!
0S!
0O!
0M!
0L!
0K!
0H!
0G!
0E!
#2126000
0!
0#
#2136000
0"
#2138000
1!
1#
b10 |!
1y!
1P
#2148000
1"
#2150000
0!
0#
#2160000
0"
#2162000
1!
1#
b10000 |!
0y!
0P
