testbench/tbenchoutputs/upstream/upstreamdump.vcd
$date
	Tue Apr 19 17:39:45 2022
$end
$version
	QuestaSim Version 10.7c
$end
$timescale
	1ps
$end

$scope module tb_top_UPDOWNSTREAM $end
$var reg 1 ! clk $end
$var reg 1 " slowclk $end

$scope module TOP $end
$var wire 1 # cpu_client_id [4] $end
$var wire 1 $ cpu_client_id [3] $end
$var wire 1 % cpu_client_id [2] $end
$var wire 1 & cpu_client_id [1] $end
$var wire 1 ' cpu_client_id [0] $end
$var wire 1 ( exchange_client_id [4] $end
$var wire 1 ) exchange_client_id [3] $end
$var wire 1 * exchange_client_id [2] $end
$var wire 1 + exchange_client_id [1] $end
$var wire 1 , exchange_client_id [0] $end
$var wire 1 - clk $end
$var wire 1 . cpu_go $end
$var wire 1 / HRESETn $end
$var wire 1 0 exchange_go $end
$var wire 1 1 cpu_new_max $end
$var wire 1 2 exchange_amount [15] $end
$var wire 1 3 exchange_amount [14] $end
$var wire 1 4 exchange_amount [13] $end
$var wire 1 5 exchange_amount [12] $end
$var wire 1 6 exchange_amount [11] $end
$var wire 1 7 exchange_amount [10] $end
$var wire 1 8 exchange_amount [9] $end
$var wire 1 9 exchange_amount [8] $end
$var wire 1 : exchange_amount [7] $end
$var wire 1 ; exchange_amount [6] $end
$var wire 1 < exchange_amount [5] $end
$var wire 1 = exchange_amount [4] $end
$var wire 1 > exchange_amount [3] $end
$var wire 1 ? exchange_amount [2] $end
$var wire 1 @ exchange_amount [1] $end
$var wire 1 A exchange_amount [0] $end
$var wire 1 B cancelled_orders [15] $end
$var wire 1 C cancelled_orders [14] $end
$var wire 1 D cancelled_orders [13] $end
$var wire 1 E cancelled_orders [12] $end
$var wire 1 F cancelled_orders [11] $end
$var wire 1 G cancelled_orders [10] $end
$var wire 1 H cancelled_orders [9] $end
$var wire 1 I cancelled_orders [8] $end
$var wire 1 J cancelled_orders [7] $end
$var wire 1 K cancelled_orders [6] $end
$var wire 1 L cancelled_orders [5] $end
$var wire 1 M cancelled_orders [4] $end
$var wire 1 N cancelled_orders [3] $end
$var wire 1 O cancelled_orders [2] $end
$var wire 1 P cancelled_orders [1] $end
$var wire 1 Q cancelled_orders [0] $end
$var wire 1 R accumulated_orders [31] $end
$var wire 1 S accumulated_orders [30] $end
$var wire 1 T accumulated_orders [29] $end
$var wire 1 U accumulated_orders [28] $end
$var wire 1 V accumulated_orders [27] $end
$var wire 1 W accumulated_orders [26] $end
$var wire 1 X accumulated_orders [25] $end
$var wire 1 Y accumulated_orders [24] $end
$var wire 1 Z accumulated_orders [23] $end
$var wire 1 [ accumulated_orders [22] $end
$var wire 1 \ accumulated_orders [21] $end
$var wire 1 ] accumulated_orders [20] $end
$var wire 1 ^ accumulated_orders [19] $end
$var wire 1 _ accumulated_orders [18] $end
$var wire 1 ` accumulated_orders [17] $end
$var wire 1 a accumulated_orders [16] $end
$var wire 1 b accumulated_orders [15] $end
$var wire 1 c accumulated_orders [14] $end
$var wire 1 d accumulated_orders [13] $end
$var wire 1 e accumulated_orders [12] $end
$var wire 1 f accumulated_orders [11] $end
$var wire 1 g accumulated_orders [10] $end
$var wire 1 h accumulated_orders [9] $end
$var wire 1 i accumulated_orders [8] $end
$var wire 1 j accumulated_orders [7] $end
$var wire 1 k accumulated_orders [6] $end
$var wire 1 l accumulated_orders [5] $end
$var wire 1 m accumulated_orders [4] $end
$var wire 1 n accumulated_orders [3] $end
$var wire 1 o accumulated_orders [2] $end
$var wire 1 p accumulated_orders [1] $end
$var wire 1 q accumulated_orders [0] $end
$var wire 1 r max_to_trade [31] $end
$var wire 1 s max_to_trade [30] $end
$var wire 1 t max_to_trade [29] $end
$var wire 1 u max_to_trade [28] $end
$var wire 1 v max_to_trade [27] $end
$var wire 1 w max_to_trade [26] $end
$var wire 1 x max_to_trade [25] $end
$var wire 1 y max_to_trade [24] $end
$var wire 1 z max_to_trade [23] $end
$var wire 1 { max_to_trade [22] $end
$var wire 1 | max_to_trade [21] $end
$var wire 1 } max_to_trade [20] $end
$var wire 1 ~ max_to_trade [19] $end
$var wire 1 !! max_to_trade [18] $end
$var wire 1 "! max_to_trade [17] $end
$var wire 1 #! max_to_trade [16] $end
$var wire 1 $! max_to_trade [15] $end
$var wire 1 %! max_to_trade [14] $end
$var wire 1 &! max_to_trade [13] $end
$var wire 1 '! max_to_trade [12] $end
$var wire 1 (! max_to_trade [11] $end
$var wire 1 )! max_to_trade [10] $end
$var wire 1 *! max_to_trade [9] $end
$var wire 1 +! max_to_trade [8] $end
$var wire 1 ,! max_to_trade [7] $end
$var wire 1 -! max_to_trade [6] $end
$var wire 1 .! max_to_trade [5] $end
$var wire 1 /! max_to_trade [4] $end
$var wire 1 0! max_to_trade [3] $end
$var wire 1 1! max_to_trade [2] $end
$var wire 1 2! max_to_trade [1] $end
$var wire 1 3! max_to_trade [0] $end
$var wire 1 4! cpu_amount [31] $end
$var wire 1 5! cpu_amount [30] $end
$var wire 1 6! cpu_amount [29] $end
$var wire 1 7! cpu_amount [28] $end
$var wire 1 8! cpu_amount [27] $end
$var wire 1 9! cpu_amount [26] $end
$var wire 1 :! cpu_amount [25] $end
$var wire 1 ;! cpu_amount [24] $end
$var wire 1 <! cpu_amount [23] $end
$var wire 1 =! cpu_amount [22] $end
$var wire 1 >! cpu_amount [21] $end
$var wire 1 ?! cpu_amount [20] $end
$var wire 1 @! cpu_amount [19] $end
$var wire 1 A! cpu_amount [18] $end
$var wire 1 B! cpu_amount [17] $end
$var wire 1 C! cpu_amount [16] $end
$var wire 1 D! cpu_amount [15] $end
$var wire 1 E! cpu_amount [14] $end
$var wire 1 F! cpu_amount [13] $end
$var wire 1 G! cpu_amount [12] $end
$var wire 1 H! cpu_amount [11] $end
$var wire 1 I! cpu_amount [10] $end
$var wire 1 J! cpu_amount [9] $end
$var wire 1 K! cpu_amount [8] $end
$var wire 1 L! cpu_amount [7] $end
$var wire 1 M! cpu_amount [6] $end
$var wire 1 N! cpu_amount [5] $end
$var wire 1 O! cpu_amount [4] $end
$var wire 1 P! cpu_amount [3] $end
$var wire 1 Q! cpu_amount [2] $end
$var wire 1 R! cpu_amount [1] $end
$var wire 1 S! cpu_amount [0] $end

$scope fork mem_data $end
$var reg 32 T! data [31:0] $end
$var reg 1 U! ready $end
$upscope $end

$scope fork mem_dataup $end
$var reg 32 V! data [31:0] $end
$var reg 1 W! ready $end
$upscope $end

$scope fork cpu_reqdown $end
$var reg 32 X! addr [31:0] $end
$var reg 32 Y! data [31:0] $end
$var reg 1 Z! rw $end
$var reg 1 [! valid $end
$upscope $end

$scope fork cpu_requp $end
$var reg 32 \! addr [31:0] $end
$var reg 32 ]! data [31:0] $end
$var reg 1 ^! rw $end
$var reg 1 _! valid $end
$upscope $end

$scope fork mem_req $end
$var reg 32 `! addr [31:0] $end
$var reg 128 a! data [127:0] $end
$var reg 1 b! rw $end
$var reg 1 c! valid $end
$upscope $end

$scope fork mem_requp $end
$var reg 32 d! addr [31:0] $end
$var reg 128 e! data [127:0] $end
$var reg 1 f! rw $end
$var reg 1 g! valid $end
$upscope $end

$scope fork cpu_res $end
$var reg 32 h! data [31:0] $end
$var reg 1 i! ready $end
$upscope $end

$scope fork cpu_res_up $end
$var reg 32 j! data [31:0] $end
$var reg 1 k! ready $end
$upscope $end

$scope fork updatareq $end
$var reg 10 l! index [9:0] $end
$var reg 1 m! we $end
$upscope $end
$var reg 32 n! downdatawrite [31:0] $end
$var reg 32 o! downdataread [31:0] $end
$var reg 1 p! ack $end
$var reg 1 q! update_memory $end
$var reg 5 r! updated_up_client_id [4:0] $end
$var reg 1 s! pass_checks $end
$var reg 1 t! upstream_enable $end
$var reg 1 u! check_risk $end
$var reg 1 v! send_order $end
$var reg 1 w! update_max $end
$var reg 112 x! toc [111:0] $end
$var reg 1 y! memwr_up $end

$scope module RAMUPSTREAM $end
$var reg 1 z! clk $end
$var reg 1 {! rst $end

$scope fork cpu_req $end
$var reg 32 |! addr [31:0] $end
$var reg 32 }! data [31:0] $end
$var reg 1 ~! rw $end
$var reg 1 !" valid $end
$upscope $end

$scope fork mem_data $end
$var reg 32 "" data [31:0] $end
$var reg 1 #" ready $end
$upscope $end

$scope fork mem_req $end
$var reg 32 $" addr [31:0] $end
$var reg 128 %" data [127:0] $end
$var reg 1 &" rw $end
$var reg 1 '" valid $end
$upscope $end

$scope fork cpu_res $end
$var reg 32 (" data [31:0] $end
$var reg 1 )" ready $end
$upscope $end
$var integer 32 *" vstate $end
$var integer 32 +" rstate $end
$var reg 20 ," tag_read [19:0] $end
$var reg 20 -" tag_write [19:0] $end

$scope fork tag_req $end
$var reg 10 ." index [9:0] $end
$var reg 1 /" we $end
$upscope $end
$var reg 32 0" data_read [31:0] $end
$var reg 32 1" data_write [31:0] $end

$scope fork data_req $end
$var reg 10 2" index [9:0] $end
$var reg 1 3" we $end
$upscope $end

$scope fork v_cpu_res $end
$var reg 32 4" data [31:0] $end
$var reg 1 5" ready $end
$upscope $end

$scope fork v_mem_req $end
$var reg 32 6" addr [31:0] $end
$var reg 128 7" data [127:0] $end
$var reg 1 8" rw $end
$var reg 1 9" valid $end
$upscope $end

$scope module ctag $end
$var reg 1 :" clk $end

$scope fork tag_req $end
$var reg 10 ;" index [9:0] $end
$var reg 1 <" we $end
$upscope $end
$var reg 20 =" tag_write [19:0] $end
$var reg 20 >" tag_read [19:0] $end
$upscope $end

$scope module cdata $end
$var wire 1 ?" clk $end

$scope fork data_req $end
$var reg 10 @" index [9:0] $end
$var reg 1 A" we $end
$upscope $end
$var reg 32 B" data_write [31:0] $end
$var reg 32 C" data_read [31:0] $end
$upscope $end
$upscope $end

$scope module RAMDOWNSTREAM $end
$var reg 1 D" clk $end
$var reg 1 E" rst $end

$scope fork cpu_req $end
$var reg 32 F" addr [31:0] $end
$var reg 32 G" data [31:0] $end
$var reg 1 H" rw $end
$var reg 1 I" valid $end
$upscope $end

$scope fork mem_data $end
$var reg 32 J" data [31:0] $end
$var reg 1 K" ready $end
$upscope $end

$scope fork mem_req $end
$var reg 32 L" addr [31:0] $end
$var reg 128 M" data [127:0] $end
$var reg 1 N" rw $end
$var reg 1 O" valid $end
$upscope $end

$scope fork cpu_res $end
$var reg 32 P" data [31:0] $end
$var reg 1 Q" ready $end
$upscope $end
$var integer 32 R" vstate $end
$var integer 32 S" rstate $end
$var reg 20 T" tag_read [19:0] $end
$var reg 20 U" tag_write [19:0] $end

$scope fork tag_req $end
$var reg 10 V" index [9:0] $end
$var reg 1 W" we $end
$upscope $end
$var reg 32 X" data_read [31:0] $end
$var reg 32 Y" data_write [31:0] $end

$scope fork data_req $end
$var reg 10 Z" index [9:0] $end
$var reg 1 [" we $end
$upscope $end

$scope fork v_cpu_res $end
$var reg 32 \" data [31:0] $end
$var reg 1 ]" ready $end
$upscope $end

$scope fork v_mem_req $end
$var reg 32 ^" addr [31:0] $end
$var reg 128 _" data [127:0] $end
$var reg 1 `" rw $end
$var reg 1 a" valid $end
$upscope $end

$scope module ctag $end
$var reg 1 b" clk $end

$scope fork tag_req $end
$var reg 10 c" index [9:0] $end
$var reg 1 d" we $end
$upscope $end
$var reg 20 e" tag_write [19:0] $end
$var reg 20 f" tag_read [19:0] $end
$upscope $end

$scope module cdata $end
$var wire 1 g" clk $end

$scope fork data_req $end
$var reg 10 h" index [9:0] $end
$var reg 1 i" we $end
$upscope $end
$var reg 32 j" data_write [31:0] $end
$var reg 32 k" data_read [31:0] $end
$upscope $end
$upscope $end

$scope module SLT $end
$var wire 1 r A [31] $end
$var wire 1 s A [30] $end
$var wire 1 t A [29] $end
$var wire 1 u A [28] $end
$var wire 1 v A [27] $end
$var wire 1 w A [26] $end
$var wire 1 x A [25] $end
$var wire 1 y A [24] $end
$var wire 1 z A [23] $end
$var wire 1 { A [22] $end
$var wire 1 | A [21] $end
$var wire 1 } A [20] $end
$var wire 1 ~ A [19] $end
$var wire 1 !! A [18] $end
$var wire 1 "! A [17] $end
$var wire 1 #! A [16] $end
$var wire 1 $! A [15] $end
$var wire 1 %! A [14] $end
$var wire 1 &! A [13] $end
$var wire 1 '! A [12] $end
$var wire 1 (! A [11] $end
$var wire 1 )! A [10] $end
$var wire 1 *! A [9] $end
$var wire 1 +! A [8] $end
$var wire 1 ,! A [7] $end
$var wire 1 -! A [6] $end
$var wire 1 .! A [5] $end
$var wire 1 /! A [4] $end
$var wire 1 0! A [3] $end
$var wire 1 1! A [2] $end
$var wire 1 2! A [1] $end
$var wire 1 3! A [0] $end
$var wire 1 l" B [31] $end
$var wire 1 m" B [30] $end
$var wire 1 n" B [29] $end
$var wire 1 o" B [28] $end
$var wire 1 p" B [27] $end
$var wire 1 q" B [26] $end
$var wire 1 r" B [25] $end
$var wire 1 s" B [24] $end
$var wire 1 t" B [23] $end
$var wire 1 u" B [22] $end
$var wire 1 v" B [21] $end
$var wire 1 w" B [20] $end
$var wire 1 x" B [19] $end
$var wire 1 y" B [18] $end
$var wire 1 z" B [17] $end
$var wire 1 {" B [16] $end
$var wire 1 |" B [15] $end
$var wire 1 }" B [14] $end
$var wire 1 ~" B [13] $end
$var wire 1 !# B [12] $end
$var wire 1 "# B [11] $end
$var wire 1 ## B [10] $end
$var wire 1 $# B [9] $end
$var wire 1 %# B [8] $end
$var wire 1 &# B [7] $end
$var wire 1 '# B [6] $end
$var wire 1 (# B [5] $end
$var wire 1 )# B [4] $end
$var wire 1 *# B [3] $end
$var wire 1 +# B [2] $end
$var wire 1 ,# B [1] $end
$var wire 1 -# B [0] $end
$var wire 1 .# Result $end
$var reg 1 /# sltresult $end
$upscope $end

$scope module UPSTREAMPROCESSOR $end
$var parameter 5 0# IDLE $end
$var parameter 5 1# STATE_RISKCHECK $end
$var parameter 5 2# STATE_SENDORDER $end
$var parameter 5 3# STATE_NEWMAX $end
$var wire 1 - clk $end
$var wire 1 4# risk_ok $end
$var wire 1 5# new_order $end
$var wire 1 1 new_max $end
$var wire 1 6# memwr $end
$var wire 1 / HRESETn $end
$var wire 1 7# check_risk $end
$var wire 1 8# send_order $end
$var wire 1 9# update_max $end
$var reg 5 :# state [4:0] $end
$upscope $end
$upscope $end
$upscope $end

$scope begin tb_top_UPDOWNSTREAM_sv_unit $end
$upscope $end

$scope begin std $end
$upscope $end

$scope begin cache_def $end
$var parameter 32 ;# TAGMSB $end
$var parameter 32 <# TAGLSB $end
$upscope $end

$scope begin top_sv_unit $end
$upscope $end
$enddefinitions $end
#0
$dumpvars
0!
0"
b0 n!
b0 o!
xp!
xq!
bx r!
0s!
xt!
0u!
0v!
0w!
bx x!
xy!
0z!
0{!
b0 ,"
b0 -"
b11111111101010100000000000000000 0"
b0 1"
0:"
b0 ="
b0 >"
b0 B"
b11111111101010100000000000000000 C"
0D"
0E"
b0 T"
b0 U"
b0 X"
b0 Y"
0b"
b0 e"
b0 f"
b0 j"
b0 k"
0/#
b1 :#
b0 T!
b0 U!
b0 V!
b0 W!
b0 X!
b0 Y!
b0 Z!
b0 [!
b0 \!
b0 ]!
b0 ^!
b0 _!
b0 `!
b0 a!
b0 b!
b0 c!
b0 d!
b11111111101010100000000000000000 e!
b0 f!
b0 g!
b0 h!
b0 i!
b11111111101010100000000000000000 j!
b0 k!
b0 l!
b0 m!
b0 |!
b0 }!
b0 ~!
b0 !"
b0 ""
b0 #"
b0 $"
b11111111101010100000000000000000 %"
b0 &"
b0 '"
b11111111101010100000000000000000 ("
b0 )"
b0 ."
b0 /"
b0 2"
b0 3"
b11111111101010100000000000000000 4"
b0 5"
b0 6"
b11111111101010100000000000000000 7"
b0 8"
b0 9"
b0 ;"
b0 <"
b0 @"
b0 A"
b0 F"
b0 G"
b0 H"
b0 I"
b0 J"
b0 K"
b0 L"
b0 M"
b0 N"
b0 O"
b0 P"
b0 Q"
b0 V"
b0 W"
b0 Z"
b0 ["
b0 \"
b0 ]"
b0 ^"
b0 _"
b0 `"
b0 a"
b0 c"
b0 d"
b0 h"
b0 i"
b11111 ;#
b1110 <#
b1 0#
b10 1#
b100 2#
b1000 3#
b0 *"
b0 +"
b0 R"
b0 S"
0-
x/
x'
x&
x%
x$
x#
xS!
xR!
xQ!
xP!
xO!
xN!
xM!
xL!
xK!
xJ!
xI!
xH!
xG!
xF!
xE!
xD!
xC!
xB!
xA!
x@!
x?!
x>!
x=!
x<!
x;!
x:!
x9!
x8!
x7!
x6!
x5!
x4!
x.
x1
x,
x+
x*
x)
x(
xA
x@
x?
x>
x=
x<
x;
x:
x9
x8
x7
x6
x5
x4
x3
x2
x0
0Q
0P
0O
0N
0M
0L
0K
0J
0I
0H
0G
0F
0E
0D
0C
0B
0q
0p
0o
0n
0m
0l
0k
0j
0i
0h
0g
0f
0e
0d
0c
0b
0a
0`
0_
0^
0]
0\
0[
0Z
0Y
0X
0W
0V
0U
0T
0S
0R
03!
02!
11!
00!
1/!
0.!
1-!
0,!
1+!
1*!
1)!
1(!
1'!
1&!
1%!
1$!
1#!
0"!
0!!
0~
0}
0|
0{
0z
0y
0x
0w
0v
0u
0t
0s
0r
x6#
x5#
04#
x-#
x,#
x+#
x*#
x)#
x(#
x'#
x&#
x%#
x$#
x##
x"#
x!#
x~"
x}"
x|"
x{"
xz"
xy"
xx"
xw"
xv"
xu"
xt"
xs"
xr"
xq"
xp"
xo"
xn"
xm"
xl"
0?"
0g"
0.#
07#
08#
09#
$end
#2000
1!
1-
1z!
1D"
1b"
1:"
1?"
1g"
#22000
1"
0A
1@
1?
1>
0=
0<
1;
1:
09
08
07
06
05
04
13
12
1,
0+
0*
0)
0(
1S!
0R!
0Q!
0P!
1O!
0N!
1M!
0L!
1K!
0J!
1I!
0H!
0G!
0F!
0E!
0D!
1C!
1B!
0A!
0@!
1?!
0>!
1=!
1<!
0;!
1:!
19!
18!
07!
06!
15!
14!
0'
0&
0%
1$
0#
0/
0.
11
10
1-#
0,#
0+#
0*#
1)#
0(#
1'#
0&#
1%#
0$#
1##
0"#
0!#
0~"
0}"
0|"
1{"
1z"
0y"
0x"
1w"
0v"
1u"
1t"
0s"
1r"
1q"
1p"
0o"
0n"
1m"
1l"
05#
b100001 X!
b1100000011001110 Y!
b1 Z!
b1 [!
b1100000011001110 T!
b1100000011001110 ""
b100001 F"
b1100000011001110 G"
b1 H"
b1 I"
b10 V"
b10 Z"
b1100000011001110 Y"
b100001 ^"
b1 R"
b0 4"
b11111111101010100000000000000000 1"
b0 1"
b11111111101010100000000000000000 4"
b100001 L"
b1100000011001110 j"
b10 h"
b10 c"
b100001 `!
b1000 :#
b1 :#
#24000
0!
0-
0z!
0D"
0b"
0:"
0?"
0g"
#44000
0"
#46000
1!
1-
1z!
1D"
1b"
1:"
1?"
1g"
b1 S"
b1000 :#
b1 :#
b0 Y"
b1100000011001110 Y"
b1 W"
b10000000000000000000 U"
b11000000000000000000 U"
b1 a"
b10 R"
b1 O"
b11000000000000000000 e"
b1 d"
b1 c!
#66000
1"
#68000
0!
0-
0z!
0D"
0b"
0:"
0?"
0g"
#88000
0"
#90000
1!
1-
1z!
1D"
1b"
1:"
1?"
1g"
b10 S"
b1000 :#
b1 :#
b11000000000000000000 f"
b11000000000000000000 T"
b0 U"
b0 W"
b0 Y"
b1100000011001110 Y"
b0 d"
b0 e"
#110000
1"
0>
1=
1<
0:
17
16
14
03
02
1+
1)
0S!
1R!
1Q!
1P!
0O!
1N!
0K!
1H!
1E!
1D!
0C!
1>!
0:!
09!
05!
04!
1%
0$
1.
01
00
0-#
1,#
1+#
1*#
0)#
1(#
0%#
1"#
1}"
1|"
0{"
1v"
0r"
0q"
0m"
0l"
15#
b1000 r!
b1000 X!
b1000 \!
b1000111100101100110001101110 ]!
b1000111100101100110001101110 V!
b1 ^!
b1 _!
b0 Z!
b1000111100101100110001101110 J"
b1000 |!
b1000111100101100110001101110 }!
b1 ~!
b1 !"
b1000 F"
b0 H"
b0 4"
b11111111101010100000000000000000 1"
b1000 6"
b1 *"
b0 V"
b0 Z"
b0 Y"
b1000 ^"
b1000 L"
b0 j"
b0 h"
b0 c"
b1000 $"
b11111111101010100000000000000000 B"
b0 ("
b0 j!
b1000 d!
b0 f"
b1000 `!
b0 T"
01!
0/!
0-!
0+!
0*!
0)!
0(!
0'!
0&!
0%!
0$!
0#!
1/#
b10 :#
b1 :#
1.#
1s!
14#
b10 :#
b1 :#
#112000
0!
0-
0z!
0D"
0b"
0:"
0?"
0g"
#132000
0"
#134000
1!
1-
1z!
1D"
1b"
1:"
1?"
1g"
b1 +"
b10 :#
b1 :#
b1 /"
b10000000000000000000 -"
b11000000000000000000 -"
b1 9"
b10 *"
b1 '"
b11000000000000000000 ="
b1 <"
b1 g!
#154000
1"
#156000
0!
0-
0z!
0D"
0b"
0:"
0?"
0g"
#176000
0"
#178000
1!
1-
1z!
1D"
1b"
1:"
1?"
1g"
b10 +"
b10 :#
b1 :#
b11000000000000000000 >"
b11000000000000000000 ,"
b0 -"
b0 /"
b0 <"
b0 ="
#198000
1"
0?
0=
0<
19
18
06
15
13
12
0+
0)
1(
0R!
0Q!
1O!
0N!
1L!
1J!
0H!
1G!
1@!
0=!
0<!
1:!
16!
15!
14!
0%
1$
0.
11
10
0,#
0+#
1)#
0(#
1&#
1$#
0"#
1!#
1x"
0u"
0t"
1r"
1n"
1m"
1l"
05#
b110001 X!
b1111011101000010 Y!
b1 Z!
b1111011101000010 T!
b1111011101000010 ""
b110001 F"
b1111011101000010 G"
b1 H"
b11 V"
b11 Z"
b1111011101000010 Y"
b110001 ^"
b110001 L"
b1111011101000010 j"
b11 h"
b11 c"
b110001 `!
0/#
b1000 :#
b1 :#
0.#
0s!
04#
b1000 :#
b1 :#
#200000
0!
0-
0z!
0D"
0b"
0:"
0?"
0g"
#220000
0"
#222000
1!
1-
1z!
1D"
1b"
1:"
1?"
1g"
b1000 :#
b1 :#
#242000
1"
#244000
0!
0-
0z!
0D"
0b"
0:"
0?"
0g"
#264000
0"
#266000
1!
1-
1z!
1D"
1b"
1:"
1?"
1g"
b1000 :#
b1 :#
#286000
1"
1A
1>
1=
1<
0;
09
16
05
03
0,
1)
0(
1Q!
0P!
1N!
0M!
0L!
0I!
1H!
0G!
0D!
1C!
1A!
1=!
1;!
19!
08!
17!
06!
1%
0$
1.
01
00
1+#
0*#
1(#
0'#
0&#
0##
1"#
0!#
0|"
1{"
1y"
1u"
1s"
1q"
0p"
1o"
0n"
15#
b1000 X!
b11010111011111110100101000110100 ]!
b11010111011111110100101000110100 V!
b0 Z!
b11010111011111110100101000110100 J"
b11010111011111110100101000110100 }!
b1000 F"
b0 H"
b0 V"
b0 Z"
b0 Y"
b1000 ^"
b1000 L"
b0 j"
b0 h"
b0 c"
b1000 `!
b10 :#
b1 :#
#288000
0!
0-
0z!
0D"
0b"
0:"
0?"
0g"
#308000
0"
#310000
1!
1-
1z!
1D"
1b"
1:"
1?"
1g"
b10 :#
b1 :#
#330000
1"
#332000
0!
0-
0z!
0D"
0b"
0:"
0?"
0g"
#352000
0"
#354000
1!
1-
1z!
1D"
1b"
1:"
1?"
1g"
b10 :#
b1 :#
#374000
1"
1:
06
1,
1S!
1P!
0O!
0N!
1L!
1I!
0H!
1F!
1D!
0C!
0?!
0>!
1<!
09!
18!
04!
0%
1/
1{!
1E"
0.
11
1-#
1*#
0)#
0(#
1&#
1##
0"#
1~"
1|"
0{"
0w"
0v"
1t"
0q"
1p"
0l"
05#
b1 r!
b1 X!
b1 \!
b1011011110011101110011010001101 ]!
b1011011110011101110011010001101 V!
b1011011110011101110011010001101 J"
b1 |!
b1011011110011101110011010001101 }!
b1 F"
b1011011110011101110011010001101 1"
b11111111101010100000000000000000 4"
b1 6"
b1111011101000010 Y"
b1 ^"
b1 L"
b1111011101000010 j"
b1 $"
b11111111101010100000000000000000 ("
b1011011110011101110011010001101 B"
b11111111101010100000000000000000 j!
b1 d!
b1 `!
11!
1/!
1-!
1+!
1*!
1)!
1(!
1'!
1&!
1%!
1$!
1#!
1/#
b1000 :#
1.#
19#
1w!
1s!
14#
#376000
0!
0-
0z!
0D"
0b"
0:"
0?"
0g"
#396000
0"
#398000
1!
1-
1z!
1D"
1b"
1:"
1?"
1g"
b0 S"
b0 +"
b0 *"
b0 4"
b11111111101010100000000000000000 1"
b1011011110011101110011010001101 1"
b11111111101010100000000000000000 4"
b1 *"
b0 R"
b0 Y"
b1111011101000010 Y"
b1 R"
#418000
1"
#420000
0!
0-
0z!
0D"
0b"
0:"
0?"
0g"
#440000
0"
#442000
1!
1-
1z!
1D"
1b"
1:"
1?"
1g"
#462000
1"
0A
0@
0>
0=
1;
0:
19
08
07
16
15
13
1*
1(
1R!
0Q!
1O!
1M!
0J!
0I!
1G!
0B!
0A!
0<!
0;!
0:!
19!
08!
16!
14!
1$
10
1,#
0+#
1)#
1'#
0$#
0##
1!#
0z"
0y"
0t"
0s"
0r"
1q"
0p"
1n"
1l"
b111101 X!
b1111100101100000 Y!
b1 Z!
b1111100101100000 T!
b1111100101100000 ""
b111101 F"
b1111100101100000 G"
b1 H"
b0 R"
b11 V"
b11 Z"
b0 Y"
b111101 ^"
b1 R"
b0 *"
b0 4"
b11111111101010100000000000000000 1"
b1011011110011101110011010001101 1"
b11111111101010100000000000000000 4"
b1 *"
b111101 L"
b0 j"
b11 h"
b11 c"
b111101 `!
0/#
0.#
0s!
04#
#464000
0!
0-
0z!
0D"
0b"
0:"
0?"
0g"
#484000
0"
#486000
1!
1-
1z!
1D"
1b"
1:"
1?"
1g"
#506000
1"
#508000
0!
0-
0z!
0D"
0b"
0:"
0?"
0g"
#528000
0"
#530000
1!
1-
1z!
1D"
1b"
1:"
1?"
1g"
#550000
1"
1@
1?
1>
0;
1:
06
05
02
1+
0*
1Q!
0O!
1N!
0M!
1K!
0G!
0E!
1A!
0@!
0=!
1<!
1:!
09!
18!
07!
04!
1%
1+#
0)#
1(#
0'#
1%#
0!#
0}"
1y"
0x"
0u"
1t"
1r"
0q"
1p"
0o"
0l"
1/#
1.#
1s!
14#
#552000
0!
0-
0z!
0D"
0b"
0:"
0?"
0g"
#572000
0"
#574000
1!
1-
1z!
1D"
1b"
1:"
1?"
1g"
#594000
1"
#596000
0!
0-
0z!
0D"
0b"
0:"
0?"
0g"
#616000
0"
#618000
1!
1-
1z!
1D"
1b"
1:"
1?"
1g"
#638000
1"
0?
0>
1;
0:
18
16
15
12
0)
0(
0Q!
0K!
1J!
1I!
1E!
0D!
1B!
0A!
1@!
1?!
1>!
1=!
0<!
1;!
17!
06!
05!
0%
0$
00
0+#
0%#
1$#
1##
1}"
0|"
1z"
0y"
1x"
1w"
1v"
1u"
0t"
1s"
1o"
0n"
0m"
b1 X!
b11011011110100110011010101011 ]!
b11011011110100110011010101011 V!
b0 Z!
b11011011110100110011010101011 J"
b11011011110100110011010101011 }!
b1 F"
b0 H"
b0 *"
b0 4"
b11111111101010100000000000000000 1"
b11011011110100110011010101011 1"
b11111111101010100000000000000000 4"
b1 *"
b0 R"
b0 V"
b0 Z"
b1111100101100000 Y"
b1 ^"
b1 R"
b1 L"
b1111100101100000 j"
b0 h"
b0 c"
b11011011110100110011010101011 B"
b1 `!
#640000
0!
0-
0z!
0D"
0b"
0:"
0?"
0g"
#660000
0"
#662000
1!
1-
1z!
1D"
1b"
1:"
1?"
1g"
#682000
1"
#684000
0!
0-
0z!
0D"
0b"
0:"
0?"
0g"
#704000
0"
#706000
1!
1-
1z!
1D"
1b"
1:"
1?"
1g"
#726000
1"
0@
1>
0<
1:
17
05
04
02
1(
1Q!
1O!
0N!
0L!
0J!
0I!
1H!
0E!
1C!
1A!
0@!
0;!
15!
1%
0/
0{!
0E"
10
1+#
1)#
0(#
0&#
0$#
0##
1"#
0}"
1{"
1y"
0x"
0s"
1m"
b110011 X!
b100111111001000 Y!
b1 Z!
b100111111001000 T!
b100111111001000 ""
b110011 F"
b100111111001000 G"
b1 H"
b0 R"
b11 V"
b11 Z"
b0 Y"
b100111111001000 Y"
b110011 ^"
b1 R"
b0 *"
b0 4"
b11111111101010100000000000000000 1"
b11011011110100110011010101011 1"
b11111111101010100000000000000000 4"
b1 *"
b110011 L"
b100111111001000 j"
b11 h"
b11 c"
b110011 `!
#728000
0!
0-
0z!
0D"
0b"
0:"
0?"
0g"
#748000
0"
#750000
1!
1-
1z!
1D"
1b"
1:"
1?"
1g"
b1 S"
b1 +"
b1 :#
09#
0w!
b0 4"
b11111111101010100000000000000000 1"
b11011011110100110011010101011 1"
b11111111101010100000000000000000 4"
b1 5"
b1 /"
b1 3"
b10000000000000000000 -"
b11000000000000000000 -"
b0 *"
b0 Y"
b100111111001000 Y"
b1 W"
b10000000000000000000 U"
b11000000000000000000 U"
b10 R"
b11000000000000000000 e"
b1 d"
b11000000000000000000 ="
b1 A"
b1 <"
b1 )"
b1 k!
#770000
1"
#772000
0!
0-
0z!
0D"
0b"
0:"
0?"
0g"
#792000
0"
#794000
1!
1-
1z!
1D"
1b"
1:"
1?"
1g"
b10 S"
b0 +"
b1000 :#
b1 :#
b11000000000000000000 f"
b110110111101000000000000000000 C"
b110110111101000000000000000000 0"
b11000000000000000000 T"
b0 4"
b0 5"
b0 -"
b0 /"
b0 3"
b110110111101000000000000000000 1"
b11011011110100110011010101011 1"
b110110111101000000000000000000 4"
b110110111101000000000000000000 7"
b1 *"
b0 U"
b0 W"
b0 Y"
b100111111001000 Y"
b0 d"
b0 e"
b110110111101000000000000000000 %"
b0 A"
b0 <"
b0 ="
b110110111101000000000000000000 ("
b0 )"
b110110111101000000000000000000 j!
b0 k!
b110110111101000000000000000000 e!
01!
10!
0/!
1.!
1,!
0*!
0'!
0$!
0#!
