testbench/tbenchoutputs/upstream/upstreamdump.vcd
$date
	Wed May  4 11:08:13 2022
$end
$version
	QuestaSim Version 10.7c
$end
$timescale
	1ps
$end

$scope module tb_top_UPDOWNSTREAM $end
$var reg 1 ! clk $end
$var reg 1 " slowclk $end

$scope module TOP $end
$var wire 1 # exchange_client_id [4] $end
$var wire 1 $ exchange_client_id [3] $end
$var wire 1 % exchange_client_id [2] $end
$var wire 1 & exchange_client_id [1] $end
$var wire 1 ' exchange_client_id [0] $end
$var wire 1 ( exchange_amount [15] $end
$var wire 1 ) exchange_amount [14] $end
$var wire 1 * exchange_amount [13] $end
$var wire 1 + exchange_amount [12] $end
$var wire 1 , exchange_amount [11] $end
$var wire 1 - exchange_amount [10] $end
$var wire 1 . exchange_amount [9] $end
$var wire 1 / exchange_amount [8] $end
$var wire 1 0 exchange_amount [7] $end
$var wire 1 1 exchange_amount [6] $end
$var wire 1 2 exchange_amount [5] $end
$var wire 1 3 exchange_amount [4] $end
$var wire 1 4 exchange_amount [3] $end
$var wire 1 5 exchange_amount [2] $end
$var wire 1 6 exchange_amount [1] $end
$var wire 1 7 exchange_amount [0] $end
$var wire 1 8 cpu_client_id [4] $end
$var wire 1 9 cpu_client_id [3] $end
$var wire 1 : cpu_client_id [2] $end
$var wire 1 ; cpu_client_id [1] $end
$var wire 1 < cpu_client_id [0] $end
$var wire 1 = HRESETn $end
$var wire 1 > exchange_go $end
$var wire 1 ? cpu_amount [15] $end
$var wire 1 @ cpu_amount [14] $end
$var wire 1 A cpu_amount [13] $end
$var wire 1 B cpu_amount [12] $end
$var wire 1 C cpu_amount [11] $end
$var wire 1 D cpu_amount [10] $end
$var wire 1 E cpu_amount [9] $end
$var wire 1 F cpu_amount [8] $end
$var wire 1 G cpu_amount [7] $end
$var wire 1 H cpu_amount [6] $end
$var wire 1 I cpu_amount [5] $end
$var wire 1 J cpu_amount [4] $end
$var wire 1 K cpu_amount [3] $end
$var wire 1 L cpu_amount [2] $end
$var wire 1 M cpu_amount [1] $end
$var wire 1 N cpu_amount [0] $end
$var wire 1 O cpu_go $end
$var wire 1 P cpu_new_max $end
$var wire 1 Q clk $end
$var wire 1 R cancelled_orders [15] $end
$var wire 1 S cancelled_orders [14] $end
$var wire 1 T cancelled_orders [13] $end
$var wire 1 U cancelled_orders [12] $end
$var wire 1 V cancelled_orders [11] $end
$var wire 1 W cancelled_orders [10] $end
$var wire 1 X cancelled_orders [9] $end
$var wire 1 Y cancelled_orders [8] $end
$var wire 1 Z cancelled_orders [7] $end
$var wire 1 [ cancelled_orders [6] $end
$var wire 1 \ cancelled_orders [5] $end
$var wire 1 ] cancelled_orders [4] $end
$var wire 1 ^ cancelled_orders [3] $end
$var wire 1 _ cancelled_orders [2] $end
$var wire 1 ` cancelled_orders [1] $end
$var wire 1 a cancelled_orders [0] $end
$var wire 1 b accumulated_orders [15] $end
$var wire 1 c accumulated_orders [14] $end
$var wire 1 d accumulated_orders [13] $end
$var wire 1 e accumulated_orders [12] $end
$var wire 1 f accumulated_orders [11] $end
$var wire 1 g accumulated_orders [10] $end
$var wire 1 h accumulated_orders [9] $end
$var wire 1 i accumulated_orders [8] $end
$var wire 1 j accumulated_orders [7] $end
$var wire 1 k accumulated_orders [6] $end
$var wire 1 l accumulated_orders [5] $end
$var wire 1 m accumulated_orders [4] $end
$var wire 1 n accumulated_orders [3] $end
$var wire 1 o accumulated_orders [2] $end
$var wire 1 p accumulated_orders [1] $end
$var wire 1 q accumulated_orders [0] $end
$var wire 1 r max_to_trade [31] $end
$var wire 1 s max_to_trade [30] $end
$var wire 1 t max_to_trade [29] $end
$var wire 1 u max_to_trade [28] $end
$var wire 1 v max_to_trade [27] $end
$var wire 1 w max_to_trade [26] $end
$var wire 1 x max_to_trade [25] $end
$var wire 1 y max_to_trade [24] $end
$var wire 1 z max_to_trade [23] $end
$var wire 1 { max_to_trade [22] $end
$var wire 1 | max_to_trade [21] $end
$var wire 1 } max_to_trade [20] $end
$var wire 1 ~ max_to_trade [19] $end
$var wire 1 !! max_to_trade [18] $end
$var wire 1 "! max_to_trade [17] $end
$var wire 1 #! max_to_trade [16] $end
$var wire 1 $! max_to_trade [15] $end
$var wire 1 %! max_to_trade [14] $end
$var wire 1 &! max_to_trade [13] $end
$var wire 1 '! max_to_trade [12] $end
$var wire 1 (! max_to_trade [11] $end
$var wire 1 )! max_to_trade [10] $end
$var wire 1 *! max_to_trade [9] $end
$var wire 1 +! max_to_trade [8] $end
$var wire 1 ,! max_to_trade [7] $end
$var wire 1 -! max_to_trade [6] $end
$var wire 1 .! max_to_trade [5] $end
$var wire 1 /! max_to_trade [4] $end
$var wire 1 0! max_to_trade [3] $end
$var wire 1 1! max_to_trade [2] $end
$var wire 1 2! max_to_trade [1] $end
$var wire 1 3! max_to_trade [0] $end
$var wire 1 4! thenewmax $end

$scope module UPTOP $end
$var wire 1 Q clk $end
$var wire 1 O new_order $end
$var wire 1 P new_max $end
$var wire 1 8 client_id [4] $end
$var wire 1 9 client_id [3] $end
$var wire 1 : client_id [2] $end
$var wire 1 ; client_id [1] $end
$var wire 1 < client_id [0] $end
$var wire 1 ? amount [15] $end
$var wire 1 @ amount [14] $end
$var wire 1 A amount [13] $end
$var wire 1 B amount [12] $end
$var wire 1 C amount [11] $end
$var wire 1 D amount [10] $end
$var wire 1 E amount [9] $end
$var wire 1 F amount [8] $end
$var wire 1 G amount [7] $end
$var wire 1 H amount [6] $end
$var wire 1 I amount [5] $end
$var wire 1 J amount [4] $end
$var wire 1 K amount [3] $end
$var wire 1 L amount [2] $end
$var wire 1 M amount [1] $end
$var wire 1 N amount [0] $end
$var wire 1 4! thenewmax $end
$var reg 1 5! HRESETn $end
$var reg 32 6! correct_amount [31:0] $end
$var reg 1 7! pass_checks $end
$var reg 1 8! upstream_enable $end
$var reg 32 9! mem_dataup_wr [31:0] $end
$var reg 32 :! mem_dataup [31:0] $end
$var reg 32 ;! mem_datadown [31:0] $end
$var reg 32 <! mem_datadown_wr [31:0] $end

$scope fork mem_requp $end
$var reg 10 =! index [9:0] $end
$var reg 1 >! we $end
$upscope $end

$scope fork mem_reqdown $end
$var reg 10 ?! index [9:0] $end
$var reg 1 @! we $end
$upscope $end
$var reg 1 A! check_risk $end
$var reg 1 B! send_order $end
$var reg 1 C! update_max $end
$var wire 1 D! cancelled_orders [31] $end
$var wire 1 E! cancelled_orders [30] $end
$var wire 1 F! cancelled_orders [29] $end
$var wire 1 G! cancelled_orders [28] $end
$var wire 1 H! cancelled_orders [27] $end
$var wire 1 I! cancelled_orders [26] $end
$var wire 1 J! cancelled_orders [25] $end
$var wire 1 K! cancelled_orders [24] $end
$var wire 1 L! cancelled_orders [23] $end
$var wire 1 M! cancelled_orders [22] $end
$var wire 1 N! cancelled_orders [21] $end
$var wire 1 O! cancelled_orders [20] $end
$var wire 1 P! cancelled_orders [19] $end
$var wire 1 Q! cancelled_orders [18] $end
$var wire 1 R! cancelled_orders [17] $end
$var wire 1 S! cancelled_orders [16] $end
$var wire 1 T! cancelled_orders [15] $end
$var wire 1 U! cancelled_orders [14] $end
$var wire 1 V! cancelled_orders [13] $end
$var wire 1 W! cancelled_orders [12] $end
$var wire 1 X! cancelled_orders [11] $end
$var wire 1 Y! cancelled_orders [10] $end
$var wire 1 Z! cancelled_orders [9] $end
$var wire 1 [! cancelled_orders [8] $end
$var wire 1 \! cancelled_orders [7] $end
$var wire 1 ]! cancelled_orders [6] $end
$var wire 1 ^! cancelled_orders [5] $end
$var wire 1 _! cancelled_orders [4] $end
$var wire 1 `! cancelled_orders [3] $end
$var wire 1 a! cancelled_orders [2] $end
$var wire 1 b! cancelled_orders [1] $end
$var wire 1 c! cancelled_orders [0] $end
$var wire 1 b accumulated_orders [15] $end
$var wire 1 c accumulated_orders [14] $end
$var wire 1 d accumulated_orders [13] $end
$var wire 1 e accumulated_orders [12] $end
$var wire 1 f accumulated_orders [11] $end
$var wire 1 g accumulated_orders [10] $end
$var wire 1 h accumulated_orders [9] $end
$var wire 1 i accumulated_orders [8] $end
$var wire 1 j accumulated_orders [7] $end
$var wire 1 k accumulated_orders [6] $end
$var wire 1 l accumulated_orders [5] $end
$var wire 1 m accumulated_orders [4] $end
$var wire 1 n accumulated_orders [3] $end
$var wire 1 o accumulated_orders [2] $end
$var wire 1 p accumulated_orders [1] $end
$var wire 1 q accumulated_orders [0] $end
$var wire 1 r max_to_trade [31] $end
$var wire 1 s max_to_trade [30] $end
$var wire 1 t max_to_trade [29] $end
$var wire 1 u max_to_trade [28] $end
$var wire 1 v max_to_trade [27] $end
$var wire 1 w max_to_trade [26] $end
$var wire 1 x max_to_trade [25] $end
$var wire 1 y max_to_trade [24] $end
$var wire 1 z max_to_trade [23] $end
$var wire 1 { max_to_trade [22] $end
$var wire 1 | max_to_trade [21] $end
$var wire 1 } max_to_trade [20] $end
$var wire 1 ~ max_to_trade [19] $end
$var wire 1 !! max_to_trade [18] $end
$var wire 1 "! max_to_trade [17] $end
$var wire 1 #! max_to_trade [16] $end
$var wire 1 $! max_to_trade [15] $end
$var wire 1 %! max_to_trade [14] $end
$var wire 1 &! max_to_trade [13] $end
$var wire 1 '! max_to_trade [12] $end
$var wire 1 (! max_to_trade [11] $end
$var wire 1 )! max_to_trade [10] $end
$var wire 1 *! max_to_trade [9] $end
$var wire 1 +! max_to_trade [8] $end
$var wire 1 ,! max_to_trade [7] $end
$var wire 1 -! max_to_trade [6] $end
$var wire 1 .! max_to_trade [5] $end
$var wire 1 /! max_to_trade [4] $end
$var wire 1 0! max_to_trade [3] $end
$var wire 1 1! max_to_trade [2] $end
$var wire 1 2! max_to_trade [1] $end
$var wire 1 3! max_to_trade [0] $end
$var reg 1 d! memwr $end
$var reg 1 e! nocare $end

$scope begin trade_risk_check_cpu $end
$upscope $end

$scope module RAMUPSTREAM $end
$var wire 1 Q clk $end

$scope fork data_req $end
$var reg 10 f! index [9:0] $end
$var reg 1 g! we $end
$upscope $end
$var reg 32 h! data_write [31:0] $end
$var reg 32 i! data_read [31:0] $end
$upscope $end

$scope module RAMDOWNSTREAM $end
$var wire 1 Q clk $end

$scope fork data_req $end
$var reg 10 j! index [9:0] $end
$var reg 1 k! we $end
$upscope $end
$var reg 32 l! data_write [31:0] $end
$var reg 32 m! data_read [31:0] $end
$upscope $end

$scope module UPSTREAMPROCESSOR $end
$var parameter 5 n! IDLE $end
$var parameter 5 o! STATE_RISKCHECK $end
$var parameter 5 p! STATE_SENDORDER $end
$var parameter 5 q! STATE_NEWMAX $end
$var wire 1 Q clk $end
$var wire 1 r! risk_ok $end
$var wire 1 O new_order $end
$var wire 1 P new_max $end
$var wire 1 s! memwr $end
$var wire 1 t! HRESETn $end
$var wire 1 u! check_risk $end
$var wire 1 v! send_order $end
$var wire 1 w! update_max $end
$var reg 5 x! state [4:0] $end
$upscope $end
$upscope $end

$scope module DOWNTOP $end
$var wire 1 # client_id [4] $end
$var wire 1 $ client_id [3] $end
$var wire 1 % client_id [2] $end
$var wire 1 & client_id [1] $end
$var wire 1 ' client_id [0] $end
$var wire 1 Q clk $end
$var wire 1 ( amount [15] $end
$var wire 1 ) amount [14] $end
$var wire 1 * amount [13] $end
$var wire 1 + amount [12] $end
$var wire 1 , amount [11] $end
$var wire 1 - amount [10] $end
$var wire 1 . amount [9] $end
$var wire 1 / amount [8] $end
$var wire 1 0 amount [7] $end
$var wire 1 1 amount [6] $end
$var wire 1 2 amount [5] $end
$var wire 1 3 amount [4] $end
$var wire 1 4 amount [3] $end
$var wire 1 5 amount [2] $end
$var wire 1 6 amount [1] $end
$var wire 1 7 amount [0] $end
$var wire 1 R cancelled_orders [15] $end
$var wire 1 S cancelled_orders [14] $end
$var wire 1 T cancelled_orders [13] $end
$var wire 1 U cancelled_orders [12] $end
$var wire 1 V cancelled_orders [11] $end
$var wire 1 W cancelled_orders [10] $end
$var wire 1 X cancelled_orders [9] $end
$var wire 1 Y cancelled_orders [8] $end
$var wire 1 Z cancelled_orders [7] $end
$var wire 1 [ cancelled_orders [6] $end
$var wire 1 \ cancelled_orders [5] $end
$var wire 1 ] cancelled_orders [4] $end
$var wire 1 ^ cancelled_orders [3] $end
$var wire 1 _ cancelled_orders [2] $end
$var wire 1 ` cancelled_orders [1] $end
$var wire 1 a cancelled_orders [0] $end
$var reg 1 y! old_client $end
$var reg 1 z! old_amount $end

$scope fork downdatareq $end
$var reg 10 {! index [9:0] $end
$var reg 1 |! we $end
$upscope $end
$var reg 32 }! downdatawrite [31:0] $end
$var reg 32 ~! downdataread [31:0] $end
$var reg 1 !" ack $end
$var reg 1 "" update_memory $end

$scope module RAMDOWNSTREAM $end
$var wire 1 Q clk $end

$scope fork data_req $end
$var reg 10 #" index [9:0] $end
$var reg 1 $" we $end
$upscope $end
$var reg 32 %" data_write [31:0] $end
$var reg 32 &" data_read [31:0] $end
$upscope $end
$upscope $end
$upscope $end
$upscope $end

$scope begin tb_top_UPDOWNSTREAM_sv_unit $end
$upscope $end

$scope begin std $end
$upscope $end

$scope begin cache_def $end
$var parameter 32 '" TAGMSB $end
$var parameter 32 (" TAGLSB $end
$upscope $end

$scope begin top_sv_unit $end
$upscope $end
$enddefinitions $end
#0
$dumpvars
0!
0"
05!
bx 6!
x7!
x8!
b0 9!
b11111111101010100000000000000000 :!
b0 ;!
b0 <!
xA!
xB!
xC!
xd!
xe!
b0 h!
b11111111101010100000000000000000 i!
b0 l!
b0 m!
bx x!
xy!
xz!
b0 }!
b0 ~!
x!"
x""
b0 %"
b0 &"
b0 =!
b0 >!
b0 ?!
b0 @!
b0 f!
b0 g!
b0 j!
b0 k!
b0 {!
b0 |!
b0 #"
b0 $"
b11111 '"
b1110 ("
b1 n!
b10 o!
b100 p!
b1000 q!
x4!
0c!
0b!
0a!
0`!
0_!
0^!
0]!
0\!
0[!
0Z!
0Y!
0X!
0W!
0V!
0U!
0T!
0S!
0R!
0Q!
0P!
0O!
0N!
0M!
0L!
0K!
0J!
0I!
0H!
0G!
0F!
0E!
0D!
0Q
x=
x<
x;
x:
x9
x8
xN
xM
xL
xK
xJ
xI
xH
xG
xF
xE
xD
xC
xB
xA
x@
x?
xO
xP
x'
x&
x%
x$
x#
x7
x6
x5
x4
x3
x2
x1
x0
x/
x.
x-
x,
x+
x*
x)
x(
x>
0a
0`
0_
0^
0]
0\
0[
0Z
0Y
0X
0W
0V
0U
0T
0S
0R
0q
0p
0o
0n
0m
0l
0k
0j
0i
0h
0g
0f
0e
0d
0c
0b
03!
12!
01!
10!
0/!
1.!
0-!
1,!
1+!
1*!
1)!
1(!
1'!
1&!
1%!
1$!
0#!
0"!
0!!
0~
0}
0|
0{
0z
0y
0x
0w
0v
0u
0t
0s
0r
xs!
xr!
xu!
xv!
xw!
zt!
$end
#2000
1!
1Q
b1 x!
0w!
0v!
0u!
0A!
0B!
0C!
04!
#12000
1"
1>
0=
0O
1P
07
16
15
14
03
02
11
10
0/
0.
0-
0,
0+
0*
1)
1(
1'
0&
0%
0$
0#
1N
0M
0L
0K
1J
0I
1H
0G
1F
0E
1D
0C
0B
0A
0@
0?
0<
0;
0:
19
08
b1100000011001110 %"
b1000 =!
b10101010001 6!
b10101010001 9!
b1 {!
b1 |!
0z!
1y!
b1 #"
b1 $"
b10101010001 h!
b1000 f!
17!
b1000 x!
1w!
1C!
14!
1r!
#14000
0!
0Q
#24000
0"
#26000
1!
1Q
b1100000011001110 &"
1`
1_
1^
1[
1Z
1S
1R
#36000
1"
#38000
0!
0Q
#48000
0"
#50000
1!
1Q
b11000000110011100 &"
0`
1]
0[
1Y
0S
#60000
1"
0>
1O
0P
04
13
12
00
1-
1,
1*
0)
0(
1&
1$
0N
1M
1L
1K
0J
1I
0F
1C
1@
1?
1:
09
b10110001110110 %"
b100 =!
b1100110001101110 6!
b1100110001101110 9!
b1 >!
b1011 {!
b1011 #"
b1100110001101110 h!
b100 f!
b1 g!
b0 &"
0_
0^
0]
0Z
0Y
0R
#62000
0!
0Q
#72000
0"
#74000
1!
1Q
b10110001110110 &"
b11111111101010101100110001101110 i!
b11111111101010101100110001101110 :!
1`
1_
1]
1\
1[
1W
1V
1T
1p
1o
1n
1l
1k
1g
1f
1c
1b
#84000
1"
#86000
0!
0Q
#96000
0"
#98000
1!
1Q
b11111111101010101001100011011100 i!
b101100011101100 &"
b11111111101010101001100011011100 :!
0`
1^
0]
1Z
0W
1U
0T
1S
0p
1m
0l
1j
0g
1e
0c
#108000
1"
1>
0O
1P
05
03
02
1/
1.
0,
1+
1)
1(
0&
0$
1#
0M
0L
1J
0I
1G
1E
0C
1B
0:
19
b1111011101000010 %"
b1000 =!
b1101011011011000 6!
b1101011011011000 9!
b10001 {!
b10001 #"
b1101011011011000 h!
b1000 f!
b11111111101010100000000000000000 i!
b0 &"
b11111111101010100000000000000000 :!
0_
0^
0\
0[
0Z
0V
0U
0S
0o
0n
0m
0k
0j
0f
0e
0b
07!
0r!
#110000
0!
0Q
#120000
0"
#122000
1!
1Q
b1111011101000010 &"
b11111111101010101101011011011000 i!
b11111111101010101101011011011000 :!
1`
1[
1Y
1X
1W
1U
1T
1S
1R
1n
1m
1k
1j
1h
1g
1e
1c
1b
#132000
1"
#134000
0!
0Q
#144000
0"
#146000
1!
1Q
b11111111101010101010110110110000 i!
b11110111010000100 &"
b11111111101010101010110110110000 :!
0`
1_
0[
1Z
0Y
1V
0U
0n
1l
0k
1i
0h
1f
0e
1d
0c
#156000
1"
0>
1O
0P
17
14
13
12
01
0/
1,
0+
0)
0'
1$
0#
1L
0K
1I
0H
0G
0D
1C
0B
0?
1:
09
b1010111000111011 %"
b100 =!
b100101000110100 6!
b100101000110100 9!
b0 >!
b1000 {!
1z!
0y!
b1000 #"
b100101000110100 h!
b100 f!
b0 g!
b11111111101010101001100011011100 i!
b0 &"
b11111111101010101001100011011100 :!
0_
0Z
0X
0W
0V
0T
0S
0R
1o
1n
0l
1k
0i
0g
1e
0d
17!
1r!
#158000
0!
0Q
#168000
0"
#170000
1!
1Q
b1010111000111011 &"
1a
1`
1^
1]
1\
1X
1W
1V
1T
1R
#180000
1"
#182000
0!
0Q
#192000
0"
#194000
1!
1Q
b10101110001110110 &"
0a
1_
0^
1[
0X
1U
0T
1S
0R
#204000
1"
1=
0O
1P
10
0,
1'
1N
1K
0J
0I
1G
1D
0C
1A
1?
0:
b1010011010111011 %"
b0 =!
b1110011010001101 6!
b1110011010001101 9!
b1 >!
b1001 {!
1y!
b1001 #"
b1110011010001101 h!
b0 f!
b1 g!
b11111111101010100000000000000000 i!
b0 &"
b11111111101010100000000000000000 :!
0`
0_
0]
0\
0[
0W
0V
0U
0S
0o
0n
0m
0k
0j
0f
0e
0b
07!
0r!
#206000
0!
0Q
#216000
0"
#218000
1!
1Q
b1010011010111011 &"
b11111111101010101110011010001101 i!
b11111111101010101110011010001101 :!
1a
1`
1^
1]
1\
1Z
1X
1W
1T
1R
1q
1o
1n
1j
1h
1g
1d
1c
1b
#228000
1"
#230000
0!
0Q
#240000
0"
#242000
1!
1Q
b11111111101010101100110100011010 i!
b10100110101110110 &"
b11111111101010101100110100011010 :!
0a
1_
0^
1[
0Z
1Y
0X
1V
0T
1S
0R
0q
1p
0o
1m
0j
1i
0h
1f
0d
#252000
1"
1>
07
06
04
03
11
00
1/
0.
0-
1,
1+
1)
1%
1#
1M
0L
1J
1H
0E
0D
1B
19
b1111100101100000 %"
b1000 =!
b1111000011011011 6!
b1111000011011011 9!
b0 >!
b11101 {!
0z!
b11101 #"
b1111000011011011 h!
b1000 f!
b0 g!
b11111111101010101010110110110000 i!
b0 &"
b11111111101010101010110110110000 :!
0`
0_
0]
0\
0[
0Y
0W
0V
0S
0p
0n
1l
1j
1d
0c
#254000
0!
0Q
#264000
0"
#266000
1!
1Q
b1111100101100000 &"
1\
1[
1Y
1V
1U
1T
1S
1R
#276000
1"
#278000
0!
0Q
#288000
0"
#290000
1!
1Q
b11111001011000000 &"
0\
1Z
0Y
1X
0V
#300000
1"
16
15
14
01
10
0,
0+
0(
1&
0%
1L
0J
1I
0H
1F
0B
0@
1:
b110000110101110 %"
b1100 =!
b1010000110101111 6!
b1010000110101111 9!
b11011 {!
b11011 #"
b1010000110101111 h!
b1100 f!
b11111111110011000000000000000000 i!
b0 &"
b11111111110011000000000000000000 :!
0[
0Z
0X
0U
0T
0S
0R
0m
0l
0j
0i
0g
0f
0d
0b
02!
11!
0.!
1-!
#302000
0!
0Q
#312000
0"
#314000
1!
1Q
b110000110101110 &"
1`
1_
1^
1\
1Z
1Y
1T
1S
#324000
1"
#326000
0!
0Q
#336000
0"
#338000
1!
1Q
b1100001101011100 &"
0`
1]
0\
1[
0Z
1X
0T
1R
#348000
1"
0>
05
04
11
00
1.
1,
1+
1(
0$
0#
0L
0F
1E
1D
1@
0?
0:
09
b1111101101100010 %"
b0 =!
b110011010101011 6!
b110011010101011 9!
b11 {!
b11 #"
b110011010101011 h!
b0 f!
b11111111101010101100110100011010 i!
b0 &"
b11111111101010101100110100011010 :!
0_
0^
0]
0[
0Y
0X
0S
0R
1p
1n
1m
1i
1g
1f
1c
1b
12!
01!
1.!
0-!
17!
1r!
#350000
0!
0Q
#360000
0"
#362000
1!
1Q
b1111101101100010 &"
1`
1\
1[
1Y
1X
1V
1U
1T
1S
1R
#372000
1"
#374000
0!
0Q
#384000
0"
#386000
1!
1Q
b11111011011000100 &"
0`
1_
0\
1Z
0Y
1W
0V
#396000
1"
1>
0=
06
14
02
10
1-
0+
0*
0(
1#
1L
1J
0I
0G
0E
0D
1C
0@
1:
b100111111001000 %"
b100 =!
b10100000011111 6!
b10100000011111 9!
b1 >!
b10011 {!
b10011 #"
b10100000011111 h!
b100 f!
b1 g!
b11111111101010101001100011011100 i!
b0 &"
b11111111101010101001100011011100 :!
0_
0[
0Z
0X
0W
0U
0T
0S
0R
0p
1o
1k
1j
0i
0g
1e
0c
#398000
0!
0Q
#408000
0"
#410000
1!
1Q
b100111111001000 &"
b11111111101010101100000011111011 i!
b11111111101010101100000011111011 :!
1^
1[
1Z
1Y
1X
1W
1V
1S
1q
1p
0o
1l
0f
0e
1c
#420000
1"
#422000
0!
0Q
#432000
0"
#434000
1!
1Q
b11111111101010101110100100011010 i!
b1001111110010000 &"
b11111111101010101110100100011010 :!
0^
1]
0[
1U
0S
1R
0q
0l
0k
0j
1i
1f
1d
#444000
1"
0>
1=
1O
0P
00
0/
0.
1+
1*
0)
0&
1%
0#
0N
1H
0C
1?
0:
19
b11110001001000 %"
b1000 =!
b1010000001011110 6!
b1010000001011110 9!
b101 {!
b101 #"
b1010000001011110 h!
b1000 f!
b11111111101010101010110110110000 i!
b0 &"
b11111111101010101010110110110000 :!
0]
0Z
0Y
0X
0W
0V
0U
0R
0p
0n
1l
1j
1g
0c
07!
0r!
#446000
0!
0Q
#456000
0"
#458000
1!
1Q
b11110001001000 &"
b11111111101010100100111000001110 i!
b11111111101010100100111000001110 :!
1^
1[
1W
1V
1U
1T
1p
1o
1n
0m
0l
0j
0i
1h
0d
1c
0b
#468000
1"
#470000
0!
0Q
#480000
0"
#482000
1!
1Q
b11111111101010101110111001101100 i!
b111100010010000 &"
b11111111101010101110111001101100 :!
0^
1]
0[
1Z
0W
1S
0p
1l
1k
1d
1b
#492000
1"
1>
0=
0O
1P
17
15
04
12
01
10
1/
0,
0+
1(
0%
1$
1#
0M
0L
1I
0H
1F
1E
1B
1:
b1010010110100101 %"
b1100 =!
b1011001100111000 6!
b1011001100111000 9!
b0 >!
b11001 {!
1z!
b11001 #"
b1011001100111000 h!
b1100 f!
b0 g!
b11111111110011000000000000000000 i!
b0 &"
b11111111110011000000000000000000 :!
0]
0Z
0V
0U
0T
0S
0o
0n
0l
0k
0h
0g
0f
0d
0c
0b
02!
11!
0.!
1-!
#494000
0!
0Q
#504000
0"
#506000
1!
1Q
b1010010110100101 &"
1a
1_
1\
1Z
1Y
1W
1T
1R
#516000
1"
#518000
0!
0Q
#528000
0"
#530000
1!
1Q
b10100101101001010 &"
0a
1`
0_
1^
0\
1[
0Z
1X
0W
1V
0T
1S
0R
#540000
1"
0>
1=
07
16
14
13
00
0-
1+
1)
0$
1N
1M
1L
0J
0I
1G
0F
0E
1D
0B
1@
09
b1111000100111110 %"
b100 =!
b1110010010001111 6!
b1110010010001111 9!
b10001 {!
0z!
b10001 #"
b1110010010001111 h!
b100 f!
b11111111101010101110100100011010 i!
b11110111010000100 &"
b11111111101010101110100100011010 :!
0`
1_
0^
0[
1Z
0Y
1W
1T
1R
1p
1n
1m
1i
1f
1d
1c
1b
12!
01!
1.!
0-!
17!
1r!
#542000
0!
0Q
#552000
0"
#554000
1!
1Q
b101101111111000010 &"
1`
0_
1[
1Y
1U
0T
#564000
1"
#566000
0!
0Q
#576000
0"
#578000
1!
1Q
b111101000100000000 &"
0`
0[
0Z
0X
0W
0V
#588000
1"
17
06
02
0/
1-
0'
1&
1$
0N
0M
0L
1J
1I
1H
1F
1C
0A
0:
19
b1111010000011101 %"
b1000 =!
b1100110111111000 6!
b1100110111111000 9!
b1 >!
b11010 {!
1z!
0y!
b11010 #"
b1100110111111000 h!
b1000 f!
b1 g!
b11111111101010101110111001101100 i!
b0 &"
b11111111101010101110111001101100 :!
0Y
0U
0S
0R
0p
1o
0m
1l
1k
0i
1h
1g
07!
0r!
#590000
0!
0Q
#600000
0"
#602000
1!
1Q
b1111010000011101 &"
b11111111101010101011110001100100 i!
b11111111101010101011110001100100 :!
1a
1_
1^
1]
1W
1U
1T
1S
1R
0n
0h
1e
0c
#612000
1"
#614000
0!
0Q
#624000
0"
#626000
1!
1Q
b11111111101010101000101001011100 i!
b11110100000111010 &"
b11111111101010101000101001011100 :!
0a
1`
0_
1\
0W
1V
0U
1n
1m
0l
1h
0g
0e
0d
#636000
1"
1>
1O
0P
07
16
05
03
12
10
1/
0*
0)
0(
1'
0#
0J
0G
0D
0C
0?
b1010110101010 %"
b100000101101000 6!
b100000101101000 9!
b0 >!
b1011 {!
0z!
1y!
b1011 #"
b0 g!
b100000101101000 h!
b101100011101100 &"
0`
1_
0]
1[
1Z
1U
0T
0R
17!
1r!
#638000
0!
0Q
#648000
0"
#650000
1!
1Q
b110111010010110 &"
1`
0^
1]
0\
0[
1X
1W
0U
1T
#660000
1"
#662000
0!
0Q
#672000
0"
#674000
1!
1Q
b1000010001000000 &"
0`
0_
0]
1[
0Z
0X
0V
0T
0S
1R
#684000
1"
0>
17
02
00
0-
1,
1)
1(
0'
0&
0$
1#
1N
1J
0I
0H
0F
1E
1C
0@
1?
09
b1101100100001011 %"
b0 =!
b1000101000011001 6!
b1000101000011001 9!
b1 >!
b10000 {!
1z!
0y!
b10000 #"
b1000101000011001 h!
b0 f!
b1 g!
b11111111101010101100110100011010 i!
b0 &"
b11111111101010101100110100011010 :!
0[
0W
0R
1p
0o
0k
1i
0h
1g
1c
07!
0r!
#686000
0!
0Q
#696000
0"
#698000
1!
1Q
b1101100100001011 &"
b11111111101010100101011100110011 i!
b11111111101010100101011100110011 :!
1a
1`
1^
1Y
1V
1U
1S
1R
1q
0n
1l
1h
0f
1e
0b
#708000
1"
#710000
0!
0Q
#720000
0"
#722000
1!
1Q
b11111111101010101110000101001100 i!
b11011001000010110 &"
b11111111101010101110000101001100 :!
0a
1_
0^
1]
0Y
1X
0V
1T
0S
0q
0p
1o
1n
0m
0l
1k
0h
0g
0e
1d
1b
#732000
1"
1>
0=
07
06
15
04
13
10
1.
0,
0+
0)
1&
1%
1$
1M
1L
0K
0J
1I
1G
0E
1B
1@
1:
b1000001110010100 %"
b100 =!
b1101100010100111 6!
b1101100010100111 9!
b0 >!
b11110 {!
0z!
b11110 #"
b1101100010100111 h!
b100 f!
b0 g!
b11111111101010101110100100011010 i!
b0 &"
b11111111101010101110100100011010 :!
0`
0_
0]
0X
0U
0T
0R
1p
0o
1m
0k
1f
#734000
0!
0Q
#744000
0"
#746000
1!
1Q
b1000001110010100 &"
1_
1]
1Z
1Y
1X
1R
#756000
1"
#758000
0!
0Q
#768000
0"
#770000
1!
1Q
b10000011100101000 &"
0_
1^
0]
1\
0Z
1W
0R
#780000
1"
0>
1=
16
05
14
12
00
0/
0.
1-
1,
1*
0&
0#
0I
1H
0G
0C
0B
1A
0@
0:
19
b1010110000111010 %"
b1000 =!
b1010000001000111 6!
b1010000001000111 9!
b1100 {!
b1100 #"
b1010000001000111 h!
b1000 f!
b11111111101010101000101001011100 i!
b0 &"
b11111111101010101000101001011100 :!
0^
0\
0Y
0X
0W
0p
1o
1k
0i
1h
0d
0c
#782000
0!
0Q
#792000
0"
#794000
1!
1Q
b1010110000111010 &"
1`
1^
1]
1\
1W
1V
1T
1R
#804000
1"
#806000
0!
0Q
#816000
0"
#818000
1!
1Q
b10101100001110100 &"
0`
1_
0^
1[
0W
1U
0T
1S
0R
#828000
1"
1>
0=
0O
1P
06
04
03
1/
1.
0,
1+
0$
1#
0L
1K
1J
0H
1F
1D
1C
1B
1@
0?
b1011011100100000 %"
b111110100011011 6!
b111110100011011 9!
b10100 {!
b10100 #"
b111110100011011 h!
b0 &"
0_
0]
0\
0[
0V
0U
0S
#830000
0!
0Q
#840000
0"
#842000
1!
1Q
b1011011100100000 &"
1\
1Y
1X
1W
1U
1T
1R
#852000
1"
#854000
0!
0Q
#864000
0"
#866000
1!
1Q
b10110111001000000 &"
0\
1[
0Y
1V
0U
1S
0R
