testbench/tbenchoutputs/upstream/upstreamdump.vcd
$date
	Fri Mar 11 13:19:45 2022
$end
$version
	QuestaSim Version 10.7c
$end
$timescale
	1ps
$end

$scope module tb_top_UPDOWNSTREAM $end
$var reg 1 ! clk $end
$var reg 1 " slowclk $end

$scope module TOP $end
$var wire 1 # cpu_client_id [4] $end
$var wire 1 $ cpu_client_id [3] $end
$var wire 1 % cpu_client_id [2] $end
$var wire 1 & cpu_client_id [1] $end
$var wire 1 ' cpu_client_id [0] $end
$var wire 1 ( exchange_client_id [4] $end
$var wire 1 ) exchange_client_id [3] $end
$var wire 1 * exchange_client_id [2] $end
$var wire 1 + exchange_client_id [1] $end
$var wire 1 , exchange_client_id [0] $end
$var wire 1 - clk $end
$var wire 1 . cpu_go $end
$var wire 1 / HRESETn $end
$var wire 1 0 exchange_go $end
$var wire 1 1 cpu_new_max $end
$var wire 1 2 exchange_amount [15] $end
$var wire 1 3 exchange_amount [14] $end
$var wire 1 4 exchange_amount [13] $end
$var wire 1 5 exchange_amount [12] $end
$var wire 1 6 exchange_amount [11] $end
$var wire 1 7 exchange_amount [10] $end
$var wire 1 8 exchange_amount [9] $end
$var wire 1 9 exchange_amount [8] $end
$var wire 1 : exchange_amount [7] $end
$var wire 1 ; exchange_amount [6] $end
$var wire 1 < exchange_amount [5] $end
$var wire 1 = exchange_amount [4] $end
$var wire 1 > exchange_amount [3] $end
$var wire 1 ? exchange_amount [2] $end
$var wire 1 @ exchange_amount [1] $end
$var wire 1 A exchange_amount [0] $end
$var wire 1 B cancelled_orders [15] $end
$var wire 1 C cancelled_orders [14] $end
$var wire 1 D cancelled_orders [13] $end
$var wire 1 E cancelled_orders [12] $end
$var wire 1 F cancelled_orders [11] $end
$var wire 1 G cancelled_orders [10] $end
$var wire 1 H cancelled_orders [9] $end
$var wire 1 I cancelled_orders [8] $end
$var wire 1 J cancelled_orders [7] $end
$var wire 1 K cancelled_orders [6] $end
$var wire 1 L cancelled_orders [5] $end
$var wire 1 M cancelled_orders [4] $end
$var wire 1 N cancelled_orders [3] $end
$var wire 1 O cancelled_orders [2] $end
$var wire 1 P cancelled_orders [1] $end
$var wire 1 Q cancelled_orders [0] $end
$var wire 1 R cpu_amount [31] $end
$var wire 1 S cpu_amount [30] $end
$var wire 1 T cpu_amount [29] $end
$var wire 1 U cpu_amount [28] $end
$var wire 1 V cpu_amount [27] $end
$var wire 1 W cpu_amount [26] $end
$var wire 1 X cpu_amount [25] $end
$var wire 1 Y cpu_amount [24] $end
$var wire 1 Z cpu_amount [23] $end
$var wire 1 [ cpu_amount [22] $end
$var wire 1 \ cpu_amount [21] $end
$var wire 1 ] cpu_amount [20] $end
$var wire 1 ^ cpu_amount [19] $end
$var wire 1 _ cpu_amount [18] $end
$var wire 1 ` cpu_amount [17] $end
$var wire 1 a cpu_amount [16] $end
$var wire 1 b cpu_amount [15] $end
$var wire 1 c cpu_amount [14] $end
$var wire 1 d cpu_amount [13] $end
$var wire 1 e cpu_amount [12] $end
$var wire 1 f cpu_amount [11] $end
$var wire 1 g cpu_amount [10] $end
$var wire 1 h cpu_amount [9] $end
$var wire 1 i cpu_amount [8] $end
$var wire 1 j cpu_amount [7] $end
$var wire 1 k cpu_amount [6] $end
$var wire 1 l cpu_amount [5] $end
$var wire 1 m cpu_amount [4] $end
$var wire 1 n cpu_amount [3] $end
$var wire 1 o cpu_amount [2] $end
$var wire 1 p cpu_amount [1] $end
$var wire 1 q cpu_amount [0] $end

$scope fork downdatareq $end
$var reg 10 r index [9:0] $end
$var reg 1 s we $end
$upscope $end
$var reg 128 t downdatawrite [127:0] $end
$var reg 128 u downdataread [127:0] $end
$var reg 1 v ack $end
$var reg 1 w update_memory $end
$var reg 5 x client_id [4:0] $end
$var reg 10 y upstreamclient_id [9:0] $end
$var reg 1 z pass_checks $end
$var reg 1 { upstream_enable $end
$var reg 1 | check_risk $end
$var reg 1 } send_order $end
$var reg 1 ~ update_max $end
$var wire 1 !! accumulated_orders [31] $end
$var wire 1 "! accumulated_orders [30] $end
$var wire 1 #! accumulated_orders [29] $end
$var wire 1 $! accumulated_orders [28] $end
$var wire 1 %! accumulated_orders [27] $end
$var wire 1 &! accumulated_orders [26] $end
$var wire 1 '! accumulated_orders [25] $end
$var wire 1 (! accumulated_orders [24] $end
$var wire 1 )! accumulated_orders [23] $end
$var wire 1 *! accumulated_orders [22] $end
$var wire 1 +! accumulated_orders [21] $end
$var wire 1 ,! accumulated_orders [20] $end
$var wire 1 -! accumulated_orders [19] $end
$var wire 1 .! accumulated_orders [18] $end
$var wire 1 /! accumulated_orders [17] $end
$var wire 1 0! accumulated_orders [16] $end
$var wire 1 1! accumulated_orders [15] $end
$var wire 1 2! accumulated_orders [14] $end
$var wire 1 3! accumulated_orders [13] $end
$var wire 1 4! accumulated_orders [12] $end
$var wire 1 5! accumulated_orders [11] $end
$var wire 1 6! accumulated_orders [10] $end
$var wire 1 7! accumulated_orders [9] $end
$var wire 1 8! accumulated_orders [8] $end
$var wire 1 9! accumulated_orders [7] $end
$var wire 1 :! accumulated_orders [6] $end
$var wire 1 ;! accumulated_orders [5] $end
$var wire 1 <! accumulated_orders [4] $end
$var wire 1 =! accumulated_orders [3] $end
$var wire 1 >! accumulated_orders [2] $end
$var wire 1 ?! accumulated_orders [1] $end
$var wire 1 @! accumulated_orders [0] $end
$var wire 1 A! max_to_trade [31] $end
$var wire 1 B! max_to_trade [30] $end
$var wire 1 C! max_to_trade [29] $end
$var wire 1 D! max_to_trade [28] $end
$var wire 1 E! max_to_trade [27] $end
$var wire 1 F! max_to_trade [26] $end
$var wire 1 G! max_to_trade [25] $end
$var wire 1 H! max_to_trade [24] $end
$var wire 1 I! max_to_trade [23] $end
$var wire 1 J! max_to_trade [22] $end
$var wire 1 K! max_to_trade [21] $end
$var wire 1 L! max_to_trade [20] $end
$var wire 1 M! max_to_trade [19] $end
$var wire 1 N! max_to_trade [18] $end
$var wire 1 O! max_to_trade [17] $end
$var wire 1 P! max_to_trade [16] $end
$var wire 1 Q! max_to_trade [15] $end
$var wire 1 R! max_to_trade [14] $end
$var wire 1 S! max_to_trade [13] $end
$var wire 1 T! max_to_trade [12] $end
$var wire 1 U! max_to_trade [11] $end
$var wire 1 V! max_to_trade [10] $end
$var wire 1 W! max_to_trade [9] $end
$var wire 1 X! max_to_trade [8] $end
$var wire 1 Y! max_to_trade [7] $end
$var wire 1 Z! max_to_trade [6] $end
$var wire 1 [! max_to_trade [5] $end
$var wire 1 \! max_to_trade [4] $end
$var wire 1 ]! max_to_trade [3] $end
$var wire 1 ^! max_to_trade [2] $end
$var wire 1 _! max_to_trade [1] $end
$var wire 1 `! max_to_trade [0] $end
$var reg 112 a! toc [111:0] $end
$var reg 1 b! memwr_up $end

$scope module RAMDOWNSTREAM $end
$var wire 1 - clk $end

$scope fork data_req $end
$var reg 10 c! index [9:0] $end
$var reg 1 d! we $end
$upscope $end
$var reg 128 e! data_write [127:0] $end
$var reg 128 f! data_read [127:0] $end
$upscope $end

$scope module RAMUPSTREAM $end
$var parameter 32 g! D_WIDTH $end
$var parameter 32 h! A_WIDTH $end
$var parameter 32 i! A_MAX $end
$var wire 1 - clk_write $end
$var wire 1 j! change_max $end
$var wire 1 k! address_write [9] $end
$var wire 1 l! address_write [8] $end
$var wire 1 m! address_write [7] $end
$var wire 1 n! address_write [6] $end
$var wire 1 o! address_write [5] $end
$var wire 1 # address_write [4] $end
$var wire 1 $ address_write [3] $end
$var wire 1 % address_write [2] $end
$var wire 1 & address_write [1] $end
$var wire 1 ' address_write [0] $end
$var wire 1 R data_write [31] $end
$var wire 1 S data_write [30] $end
$var wire 1 T data_write [29] $end
$var wire 1 U data_write [28] $end
$var wire 1 V data_write [27] $end
$var wire 1 W data_write [26] $end
$var wire 1 X data_write [25] $end
$var wire 1 Y data_write [24] $end
$var wire 1 Z data_write [23] $end
$var wire 1 [ data_write [22] $end
$var wire 1 \ data_write [21] $end
$var wire 1 ] data_write [20] $end
$var wire 1 ^ data_write [19] $end
$var wire 1 _ data_write [18] $end
$var wire 1 ` data_write [17] $end
$var wire 1 a data_write [16] $end
$var wire 1 b data_write [15] $end
$var wire 1 c data_write [14] $end
$var wire 1 d data_write [13] $end
$var wire 1 e data_write [12] $end
$var wire 1 f data_write [11] $end
$var wire 1 g data_write [10] $end
$var wire 1 h data_write [9] $end
$var wire 1 i data_write [8] $end
$var wire 1 j data_write [7] $end
$var wire 1 k data_write [6] $end
$var wire 1 l data_write [5] $end
$var wire 1 m data_write [4] $end
$var wire 1 n data_write [3] $end
$var wire 1 o data_write [2] $end
$var wire 1 p data_write [1] $end
$var wire 1 q data_write [0] $end
$var wire 1 p! write_enable $end
$var wire 1 - clk_read $end
$var wire 1 q! address_read [9] $end
$var wire 1 r! address_read [8] $end
$var wire 1 s! address_read [7] $end
$var wire 1 t! address_read [6] $end
$var wire 1 u! address_read [5] $end
$var wire 1 # address_read [4] $end
$var wire 1 $ address_read [3] $end
$var wire 1 % address_read [2] $end
$var wire 1 & address_read [1] $end
$var wire 1 ' address_read [0] $end
$var reg 32 v! accumulated_orders [31:0] $end
$var reg 32 w! max_to_trade [31:0] $end
$var reg 1 x! memwr $end
$var reg 32 y! accumulated_read [31:0] $end
$var integer 32 z! i $end
$upscope $end

$scope module SLT $end
$var wire 1 A! A [31] $end
$var wire 1 B! A [30] $end
$var wire 1 C! A [29] $end
$var wire 1 D! A [28] $end
$var wire 1 E! A [27] $end
$var wire 1 F! A [26] $end
$var wire 1 G! A [25] $end
$var wire 1 H! A [24] $end
$var wire 1 I! A [23] $end
$var wire 1 J! A [22] $end
$var wire 1 K! A [21] $end
$var wire 1 L! A [20] $end
$var wire 1 M! A [19] $end
$var wire 1 N! A [18] $end
$var wire 1 O! A [17] $end
$var wire 1 P! A [16] $end
$var wire 1 Q! A [15] $end
$var wire 1 R! A [14] $end
$var wire 1 S! A [13] $end
$var wire 1 T! A [12] $end
$var wire 1 U! A [11] $end
$var wire 1 V! A [10] $end
$var wire 1 W! A [9] $end
$var wire 1 X! A [8] $end
$var wire 1 Y! A [7] $end
$var wire 1 Z! A [6] $end
$var wire 1 [! A [5] $end
$var wire 1 \! A [4] $end
$var wire 1 ]! A [3] $end
$var wire 1 ^! A [2] $end
$var wire 1 _! A [1] $end
$var wire 1 `! A [0] $end
$var wire 1 {! B [31] $end
$var wire 1 |! B [30] $end
$var wire 1 }! B [29] $end
$var wire 1 ~! B [28] $end
$var wire 1 !" B [27] $end
$var wire 1 "" B [26] $end
$var wire 1 #" B [25] $end
$var wire 1 $" B [24] $end
$var wire 1 %" B [23] $end
$var wire 1 &" B [22] $end
$var wire 1 '" B [21] $end
$var wire 1 (" B [20] $end
$var wire 1 )" B [19] $end
$var wire 1 *" B [18] $end
$var wire 1 +" B [17] $end
$var wire 1 ," B [16] $end
$var wire 1 -" B [15] $end
$var wire 1 ." B [14] $end
$var wire 1 /" B [13] $end
$var wire 1 0" B [12] $end
$var wire 1 1" B [11] $end
$var wire 1 2" B [10] $end
$var wire 1 3" B [9] $end
$var wire 1 4" B [8] $end
$var wire 1 5" B [7] $end
$var wire 1 6" B [6] $end
$var wire 1 7" B [5] $end
$var wire 1 8" B [4] $end
$var wire 1 9" B [3] $end
$var wire 1 :" B [2] $end
$var wire 1 ;" B [1] $end
$var wire 1 <" B [0] $end
$var wire 1 =" Result $end
$var reg 1 >" sltresult $end
$upscope $end

$scope module UPSTREAMPROCESSOR $end
$var parameter 5 ?" IDLE $end
$var parameter 5 @" STATE_RISKCHECK $end
$var parameter 5 A" STATE_SENDORDER $end
$var parameter 5 B" STATE_NEWMAX $end
$var wire 1 - clk $end
$var wire 1 C" risk_ok $end
$var wire 1 D" new_order $end
$var wire 1 1 new_max $end
$var wire 1 E" memwr $end
$var wire 1 / HRESETn $end
$var wire 1 F" check_risk $end
$var wire 1 G" send_order $end
$var wire 1 H" update_max $end
$var reg 5 I" state [4:0] $end
$upscope $end
$upscope $end
$upscope $end

$scope begin tb_top_UPDOWNSTREAM_sv_unit $end
$upscope $end

$scope begin std $end
$upscope $end

$scope begin cache_def $end
$var parameter 32 J" TAGMSB $end
$var parameter 32 K" TAGLSB $end
$upscope $end

$scope begin top_sv_unit $end
$upscope $end
$enddefinitions $end
#0
$dumpvars
0!
0"
b0 t
b0 u
xv
xw
bx x
bx y
0z
x{
0|
0}
0~
b0 a!
xb!
b0 e!
b0 f!
b0xxxxxxxxxxxxxxxx v!
b0xxxxxxxxxxxxxxxx w!
xx!
bx y!
0>"
b1 I"
b0 r
b0 s
b0 c!
b0 d!
b11111 J"
b1110 K"
b100000 g!
b1010 h!
b10000000000 i!
b1 ?"
b10 @"
b100 A"
b1000 B"
b10000000000 z!
0-
x/
x'
x&
x%
x$
x#
xq
xp
xo
xn
xm
xl
xk
xj
xi
xh
xg
xf
xe
xd
xc
xb
xa
x`
x_
x^
x]
x\
x[
xZ
xY
xX
xW
xV
xU
xT
xS
xR
x.
x1
x,
x+
x*
x)
x(
xA
x@
x?
x>
x=
x<
x;
x:
x9
x8
x7
x6
x5
x4
x3
x2
x0
0Q
0P
0O
0N
0M
0L
0K
0J
0I
0H
0G
0F
0E
0D
0C
0B
x@!
x?!
x>!
x=!
x<!
x;!
x:!
x9!
x8!
x7!
x6!
x5!
x4!
x3!
x2!
x1!
00!
0/!
0.!
0-!
0,!
0+!
0*!
0)!
0(!
0'!
0&!
0%!
0$!
0#!
0"!
0!!
x`!
x_!
x^!
x]!
x\!
x[!
xZ!
xY!
xX!
xW!
xV!
xU!
xT!
xS!
xR!
xQ!
0P!
0O!
0N!
0M!
0L!
0K!
0J!
0I!
0H!
0G!
0F!
0E!
0D!
0C!
0B!
0A!
xE"
xD"
0C"
x<"
x;"
x:"
x9"
x8"
x7"
x6"
x5"
x4"
x3"
x2"
x1"
x0"
x/"
x."
x-"
x,"
x+"
x*"
x)"
x("
x'"
x&"
x%"
x$"
x#"
x""
x!"
x~!
x}!
x|!
x{!
0u!
0t!
0s!
0r!
0q!
0j!
0p!
0o!
0n!
0m!
0l!
0k!
0="
0F"
0G"
0H"
$end
#2000
1!
1-
0x!
0b!
0E"
#22000
1"
0,
1+
1*
1)
0(
0A
1@
1?
1>
0=
0<
1;
1:
09
08
07
06
05
04
13
12
1q
0p
0o
0n
1m
0l
1k
0j
1i
0h
1g
0f
0e
0d
0c
0b
1a
1`
0_
0^
1]
0\
1[
1Z
0Y
1X
1W
1V
0U
0T
1S
1R
0'
1&
1%
0$
0#
0/
b0 v!
b0 w!
b1100000011001110 e!
0@!
0?!
0>!
0=!
0<!
0;!
0:!
09!
08!
07!
06!
05!
04!
03!
02!
01!
0.
11
10
0`!
0_!
0^!
0]!
0\!
0[!
0Z!
0Y!
0X!
0W!
0V!
0U!
0T!
0S!
0R!
0Q!
1<"
0;"
0:"
09"
18"
07"
16"
05"
14"
03"
12"
01"
00"
0/"
0."
0-"
1,"
1+"
0*"
0)"
1("
0'"
1&"
1%"
0$"
1#"
1""
1!"
0~!
0}!
1|!
1{!
0D"
b1110 r
b1 s
b1110 c!
b1 d!
b1000 I"
b1 I"
#24000
0!
0-
#44000
0"
#46000
1!
1-
b1000 I"
b1 I"
b1100000011001110 f!
1P
1O
1N
1K
1J
1C
1B
1;"
08"
06"
15"
04"
1."
0,"
#66000
1"
#68000
0!
0-
#88000
0"
#90000
1!
1-
b1000 I"
b1 I"
b11000000110011100 f!
0P
1M
0K
1I
0C
b1 a!
0;"
1:"
18"
17"
14"
13"
02"
0."
1-"
#110000
1"
0)
1(
0>
1=
1<
0:
17
16
14
03
02
0q
1p
1o
1n
0m
1l
0i
1f
1c
1b
0a
1\
0X
0W
0S
0R
1'
0&
b10110001110110 e!
1.
01
00
0<"
1;"
0:"
07"
16"
04"
11"
1."
0-"
1'"
0#"
0""
0|!
0{!
1D"
b101 x
b101 r
b0 s
b101 c!
b0 d!
b0 f!
0O
0N
0M
0J
0I
0B
b0 a!
1:"
19"
08"
17"
05"
03"
12"
1-"
1>"
b10 I"
b1 I"
1="
1z
1C"
b10 I"
b1 I"
#112000
0!
0-
#132000
0"
#134000
1!
1-
b10 I"
b1 I"
#154000
1"
#156000
0!
0-
#176000
0"
#178000
1!
1-
b10 I"
b1 I"
#198000
1"
0*
0(
0?
0=
0<
19
18
06
15
13
12
0p
0o
1m
0l
1j
1h
0f
1e
1^
0[
0Z
1X
1T
1S
1R
0'
1&
0%
1#
b1111011101000010 e!
0.
11
10
0;"
0:"
18"
07"
15"
13"
01"
10"
1)"
0&"
0%"
1#"
1}!
1|!
1{!
0D"
b10 r
b1 s
b10 c!
b1 d!
0>"
b1000 I"
b1 I"
0="
0z
0C"
b1000 I"
b1 I"
#200000
0!
0-
#220000
0"
#222000
1!
1-
b1000 I"
b1 I"
b1111011101000010 f!
1P
1K
1I
1H
1G
1E
1D
1C
1B
1;"
1:"
09"
06"
14"
11"
1,"
0+"
#242000
1"
#244000
0!
0-
#264000
0"
#266000
1!
1-
b1000 I"
b1 I"
b11110111010000100 f!
0P
1O
0K
1J
0I
1F
0E
b1 a!
0;"
16"
05"
04"
03"
02"
00"
1/"
#286000
1"
1,
1)
1(
1A
1>
1=
1<
0;
09
16
05
03
1o
0n
1l
0k
0j
0g
1f
0e
0b
1a
1_
1[
1Y
1W
0V
1U
0T
1'
0&
1%
0#
b1010111000111011 e!
1.
01
00
0:"
17"
06"
15"
14"
13"
10"
0/"
0-"
0,"
1+"
1*"
1&"
1$"
1""
0!"
1~!
0}!
1D"
b101 r
b0 s
b101 c!
b0 d!
b0 f!
0O
0J
0H
0G
0F
0D
0C
0B
b0 a!
1:"
05"
04"
00"
1,"
b10 I"
b1 I"
#288000
0!
0-
#308000
0"
#310000
1!
1-
b10 I"
b1 I"
#330000
1"
#332000
0!
0-
#352000
0"
#354000
1!
1-
b10 I"
b1 I"
#374000
1"
1:
06
1q
1n
0m
0l
1j
1g
0f
1d
1b
0a
0]
0\
1Z
0W
1V
0R
0'
0%
1#
1/
b1010011010111011 e!
0.
11
1<"
19"
08"
07"
15"
12"
01"
1/"
1-"
0,"
0("
0'"
1%"
0""
1!"
0{!
0D"
b10000 x
b10000 r
b10000 c!
1>"
b1000 I"
1="
1H"
1~
1z
1p!
1j!
1C"
#376000
0!
0-
#396000
0"
#398000
1!
1-
1x!
1b!
b1110011010001101 w!
1E"
1`!
1^!
1]!
1Y!
1W!
1V!
1S!
1R!
1Q!
#418000
1"
#420000
0!
0-
#440000
0"
#442000
1!
1-
0x!
1x!
#462000
1"
0,
0+
0)
0(
0A
0@
0>
0=
1;
0:
19
08
07
16
15
13
1p
0o
1m
1k
0h
0g
1e
0`
0_
0Z
0Y
0X
1W
0V
1T
1R
1&
0#
b0 w!
b1111100101100000 e!
10
0`!
0^!
0]!
0Y!
0W!
0V!
0S!
0R!
0Q!
1;"
0:"
18"
16"
03"
02"
10"
0+"
0*"
0%"
0$"
0#"
1""
0!"
1}!
1{!
b0 r
b1 s
b0 c!
b1 d!
0>"
0="
0z
0C"
#464000
0!
0-
#484000
0"
#486000
1!
1-
0x!
1x!
b1111000011011011 w!
b1111100101100000 f!
1L
1K
1I
1F
1E
1D
1C
1B
17"
05"
14"
13"
12"
1,"
1+"
1*"
0)"
1`!
1_!
1]!
1\!
1Z!
1Y!
1T!
1S!
1R!
1Q!
#506000
1"
#508000
0!
0-
#528000
0"
#530000
1!
1-
0x!
1x!
b11111001011000000 f!
0L
1J
0I
1H
0F
b1 a!
07"
06"
04"
11"
#550000
1"
1+
1*
1)
1@
1?
1>
0;
1:
06
05
02
1o
0m
1l
0k
1i
0e
0c
1_
0^
0[
1Z
1X
0W
1V
0U
0R
1'
1#
b0 w!
b110000110101110 e!
0`!
0_!
0]!
0\!
0Z!
0Y!
0T!
0S!
0R!
0Q!
1:"
08"
17"
16"
15"
00"
0."
0*"
0&"
1%"
1#"
0""
1!"
0~!
0{!
1>"
1="
1z
1C"
#552000
0!
0-
#572000
0"
#574000
1!
1-
0x!
1x!
b1010000110101111 w!
b100101010001101110 f!
1P
1O
1N
1L
0J
0H
1G
0D
0B
b10 a!
0;"
0:"
09"
07"
05"
14"
03"
0/"
1."
0-"
0,"
0+"
1*"
1`!
1_!
1^!
1]!
1[!
1Y!
1X!
1S!
1Q!
#594000
1"
#596000
0!
0-
#616000
0"
#618000
1!
1-
0x!
1x!
b101011011000011100 f!
0P
1M
0L
0K
1H
1D
0C
1B
1;"
18"
06"
15"
13"
02"
1/"
1-"
1,"
1+"
0*"
#638000
1"
0*
0)
0?
0>
1;
0:
18
16
15
12
0o
0i
1h
1g
1c
0b
1`
0_
1^
1]
1\
1[
0Z
1Y
1U
0T
0S
0'
0&
b1110011010001101 w!
b1111101101100010 e!
00
0_!
0[!
0X!
1W!
1V!
1R!
1:"
19"
08"
04"
03"
01"
10"
0."
0+"
1)"
1("
1'"
1&"
0%"
1$"
1~!
0}!
0|!
b10000 r
b0 s
b10000 c!
b0 d!
b0 f!
0O
0N
0M
0H
0G
0E
0D
0B
b0 a!
0:"
17"
13"
12"
00"
1."
0-"
0,"
1+"
#640000
0!
0-
#660000
0"
#662000
1!
1-
0x!
1x!
b110011010101011 w!
1_!
0^!
1[!
0Q!
#682000
1"
#684000
0!
0-
#704000
0"
#706000
1!
1-
0x!
1x!
#726000
1"
0+
1)
0@
1>
0<
1:
17
05
04
02
1o
1m
0l
0j
0h
0g
1f
0c
1a
1_
0^
0Y
1S
1'
1$
0/
b0 w!
b100111111001000 e!
10
0`!
0_!
0]!
0[!
0Y!
0W!
0V!
0S!
0R!
1:"
18"
07"
05"
03"
02"
11"
0."
1,"
1*"
0)"
0$"
1|!
b1000 r
b1 s
b1000 c!
b1 d!
#728000
0!
0-
#748000
0"
#750000
1!
1-
b1 I"
0x!
1x!
b10100000011111 w!
b100111111001000 f!
0H"
0~
1N
1K
1J
1I
1H
1G
1F
1C
0p!
0j!
09"
16"
10"
0/"
1."
1-"
0,"
1`!
1_!
1^!
1]!
1\!
1U!
1S!
#770000
1"
#772000
0!
0-
#792000
0"
#794000
1!
1-
0x!
b1000 I"
b1 I"
b1001111110010000 f!
0b!
0N
1M
0K
1E
0C
1B
0E"
19"
08"
06"
15"
00"
0."
b1000 I"
b1 I"
#814000
1"
0:
09
08
15
14
03
0q
1k
0f
1b
0a
0`
0_
1^
0]
0X
0V
0U
1R
0'
1&
0#
1/
b0 w!
b11110001001000 e!
1.
01
00
0`!
0_!
0^!
0]!
0\!
0U!
0S!
0<"
16"
01"
0-"
0+"
0*"
1)"
0("
0#"
0!"
0~!
1{!
1D"
b1010 x
b1010 r
b0 s
b1010 c!
b0 d!
b0 f!
0M
0J
0I
0H
0G
0F
0E
0B
18"
05"
1/"
1-"
0>"
b10 I"
0="
1F"
1|
0z
0C"
b1 I"
0F"
0|
#816000
0!
0-
#836000
0"
#838000
1!
1-
b10 I"
1F"
1|
#858000
1"
#860000
0!
0-
#880000
0"
#882000
1!
1-
b1 I"
0F"
0|
#902000
1"
1,
1*
0)
1A
1?
0>
1<
0;
1:
19
06
05
12
0p
0o
1l
0k
1i
1h
1e
1a
0^
0\
1W
1V
1U
0R
1'
0$
0/
b1010010110100101 e!
0.
11
10
0;"
0:"
17"
06"
14"
13"
10"
1,"
0)"
0'"
1""
1!"
1~!
0{!
0D"
b101 r
b1 s
b101 c!
b1 d!
1>"
b1000 I"
b1 I"
1="
1z
1C"
b1000 I"
b1 I"
#904000
0!
0-
#924000
0"
#926000
1!
1-
b1000 I"
b1 I"
b1010010110100101 f!
1Q
1O
1L
1J
1I
1G
1D
1B
1<"
1;"
09"
07"
15"
03"
12"
11"
00"
0/"
0-"
#946000
1"
#948000
0!
0-
#968000
0"
#970000
1!
1-
b1000 I"
b1 I"
b10100101101001010 f!
0Q
1P
0O
1N
0L
1K
0J
1H
0G
1F
0D
1C
0B
b1 a!
0<"
1:"
19"
08"
17"
16"
13"
01"
1/"
1."
#990000
1"
0,
1+
1)
1(
0A
1@
1>
1=
0:
07
15
13
1q
1p
1o
0m
0l
1j
0i
0h
1g
0e
1c
0a
1`
1_
1]
1X
1T
1R
0&
1%
1/
b1111000100111110 e!
00
1<"
0;"
09"
07"
05"
03"
02"
11"
10"
0/"
0."
1-"
0,"
1+"
1*"
1("
1#"
1}!
1{!
b101 x
b0 s
b0 d!
0>"
0="
0z
0C"
b1000 I"
1H"
1~
1p!
1j!
#992000
0!
0-
#1012000
0"
#1014000
1!
1-
1x!
1b!
b1110010010001111 w!
1E"
1`!
1_!
1^!
1]!
1Y!
1V!
1S!
1R!
1Q!
#1034000
1"
#1036000
0!
0-
#1056000
0"
#1058000
1!
1-
0x!
1x!
#1078000
1"
1,
0+
1A
0@
0<
09
17
0q
0p
0o
1m
1l
1k
1i
1f
0d
0`
0_
1^
1\
0W
0V
0T
0'
1&
0%
1#
b0 w!
b1111010000011101 e!
0`!
0_!
0^!
0]!
0Y!
0V!
0S!
0R!
0Q!
0<"
1;"
19"
17"
06"
15"
04"
13"
01"
00"
0+"
0*"
1)"
1'"
0""
0!"
0}!
#1080000
0!
0-
#1100000
0"
#1102000
1!
1-
0x!
1x!
b1100110111111000 w!
1]!
1\!
1[!
1Z!
1Y!
1X!
1V!
1U!
1R!
1Q!
#1122000
1"
#1124000
0!
0-
#1144000
0"
#1146000
1!
1-
0x!
1x!
#1166000
1"
0,
1+
0*
0(
0A
1@
0?
0=
1<
1:
19
04
03
02
0m
0j
0g
0f
0b
1a
1`
1_
0^
0\
0[
1Z
0X
0S
0R
1$
0#
b0 w!
b1010110101010 e!
1.
01
10
0]!
0\!
0[!
0Z!
0Y!
0X!
0V!
0U!
0R!
0Q!
18"
07"
05"
12"
10"
1/"
1."
1+"
1*"
0)"
0'"
0&"
1%"
0#"
0|!
0{!
1D"
b1010 r
b1 s
b1010 c!
b1 d!
b0 f!
0P
0N
0K
0I
0H
0F
0C
b0 a!
0;"
0:"
08"
17"
16"
14"
03"
02"
00"
0/"
0-"
1,"
1>"
b10 I"
1="
0H"
1F"
1|
0~
1z
0p!
0j!
1C"
b100 I"
1G"
0F"
0|
1}
1p!
#1168000
0!
0-
#1188000
0"
#1190000
1!
1-
b1 I"
0x!
1x!
b100000101101000 v!
b1010110101010 f!
0G"
0}
1P
1N
1L
1J
1I
1G
1E
1=!
1;!
1:!
18!
12!
0p!
1;"
1:"
09"
06"
12"
11"
1/"
#1210000
1"
#1212000
0!
0-
#1232000
0"
#1234000
1!
1-
0x!
b10 I"
b10101101010100 f!
0b!
1F"
1|
0P
1O
0N
1M
0L
1K
0J
1H
0G
1F
0E
1D
0E"
0;"
19"
18"
16"
13"
01"
10"
0/"
b100 I"
1G"
0F"
0|
1}
1p!
#1254000
1"
1,
1A
0<
0:
07
16
13
12
1q
1m
0l
0k
0i
1h
1f
0c
1b
0a
0_
1^
0]
1[
0Z
1Y
1X
1V
1S
1R
0&
1%
0$
b0 v!
b1101100100001011 e!
0=!
0;!
0:!
08!
02!
00
1<"
09"
08"
07"
15"
04"
11"
0,"
0*"
1)"
0("
1&"
0%"
1$"
1#"
1!"
1|!
1{!
b100 x
b100 r
b0 s
b100 c!
b0 d!
b0 f!
0O
0M
0K
0I
0H
0F
0D
0:"
19"
18"
06"
05"
02"
00"
0."
1-"
0>"
0="
0z
0C"
#1256000
0!
0-
#1276000
0"
#1278000
1!
1-
1x!
1b!
b1000101000011001 v!
1@!
1=!
1<!
17!
15!
11!
1E"
0<"
1;"
09"
17"
03"
12"
01"
10"
0-"
1,"
b1 I"
0G"
0}
0p!
#1298000
1"
#1300000
0!
0-
#1320000
0"
#1322000
1!
1-
b10 I"
0x!
0b!
1F"
1|
0E"
b1 I"
0F"
0|
#1342000
1"
0,
0+
1*
0)
1(
0A
0@
1?
0>
1=
1:
18
06
05
03
1p
1o
0n
0m
1l
1j
0h
1e
1c
1\
1Z
0Y
0V
1T
1'
0%
0/
b0 v!
b1000001110010100 e!
0@!
0=!
0<!
07!
05!
01!
10
1<"
1:"
08"
15"
02"
11"
1."
1-"
0,"
1'"
1%"
0$"
0!"
1}!
b10100 r
b1 s
b10100 c!
b1 d!
#1344000
0!
0-
#1364000
0"
#1366000
1!
1-
b10 I"
b1 I"
b1000001110010100 f!
1O
1M
1J
1I
1H
1B
0:"
18"
07"
05"
14"
12"
01"
0-"
#1386000
1"
#1388000
0!
0-
#1408000
0"
#1410000
1!
1-
b10 I"
b1 I"
b10000011100101000 f!
0O
1N
0M
1L
0J
1G
0B
b1 a!
1:"
19"
17"
16"
02"
1-"
#1430000
1"
1+
0*
1)
1@
0?
1>
1<
0:
09
08
17
16
14
0l
1k
0j
0f
0e
1d
0c
1a
0`
1]
0\
0[
0Z
1Y
0R
0'
1&
1#
1/
b1100110111111000 w!
b1010110000111010 e!
00
1]!
1\!
1[!
1Z!
1Y!
1X!
1V!
1U!
1R!
1Q!
07"
06"
11"
0."
1,"
0+"
1("
0'"
0&"
0%"
1$"
0{!
b10010 x
b10010 r
b0 s
b10010 c!
b0 d!
b0 f!
0N
0L
0I
0H
0G
b0 a!
09"
08"
16"
04"
01"
00"
1/"
1>"
1="
1z
1C"
b10 I"
1F"
1|
#1432000
0!
0-
#1452000
0"
#1454000
1!
1-
b100 I"
1G"
0F"
0|
1}
1p!
#1474000
1"
#1476000
0!
0-
#1496000
0"
#1498000
1!
1-
1x!
1b!
b1010000001000111 v!
1@!
1?!
1>!
1:!
13!
11!
1E"
0<"
19"
06"
15"
0/"
1."
0-"
0,"
1+"
b1 I"
0G"
0}
0p!
