testbench/tbenchoutputs/upstream/upstreamdump.vcd
$date
	Fri Mar 11 16:43:28 2022
$end
$version
	QuestaSim Version 10.7c
$end
$timescale
	1ps
$end

$scope module tb_top_UPDOWNSTREAM $end
$var reg 1 ! clk $end
$var reg 1 " slowclk $end

$scope module TOP $end
$var wire 1 # cpu_client_id [4] $end
$var wire 1 $ cpu_client_id [3] $end
$var wire 1 % cpu_client_id [2] $end
$var wire 1 & cpu_client_id [1] $end
$var wire 1 ' cpu_client_id [0] $end
$var wire 1 ( exchange_client_id [4] $end
$var wire 1 ) exchange_client_id [3] $end
$var wire 1 * exchange_client_id [2] $end
$var wire 1 + exchange_client_id [1] $end
$var wire 1 , exchange_client_id [0] $end
$var wire 1 - clk $end
$var wire 1 . cpu_go $end
$var wire 1 / HRESETn $end
$var wire 1 0 exchange_go $end
$var wire 1 1 cpu_new_max $end
$var wire 1 2 exchange_amount [15] $end
$var wire 1 3 exchange_amount [14] $end
$var wire 1 4 exchange_amount [13] $end
$var wire 1 5 exchange_amount [12] $end
$var wire 1 6 exchange_amount [11] $end
$var wire 1 7 exchange_amount [10] $end
$var wire 1 8 exchange_amount [9] $end
$var wire 1 9 exchange_amount [8] $end
$var wire 1 : exchange_amount [7] $end
$var wire 1 ; exchange_amount [6] $end
$var wire 1 < exchange_amount [5] $end
$var wire 1 = exchange_amount [4] $end
$var wire 1 > exchange_amount [3] $end
$var wire 1 ? exchange_amount [2] $end
$var wire 1 @ exchange_amount [1] $end
$var wire 1 A exchange_amount [0] $end
$var wire 1 B cancelled_orders [15] $end
$var wire 1 C cancelled_orders [14] $end
$var wire 1 D cancelled_orders [13] $end
$var wire 1 E cancelled_orders [12] $end
$var wire 1 F cancelled_orders [11] $end
$var wire 1 G cancelled_orders [10] $end
$var wire 1 H cancelled_orders [9] $end
$var wire 1 I cancelled_orders [8] $end
$var wire 1 J cancelled_orders [7] $end
$var wire 1 K cancelled_orders [6] $end
$var wire 1 L cancelled_orders [5] $end
$var wire 1 M cancelled_orders [4] $end
$var wire 1 N cancelled_orders [3] $end
$var wire 1 O cancelled_orders [2] $end
$var wire 1 P cancelled_orders [1] $end
$var wire 1 Q cancelled_orders [0] $end
$var wire 1 R accumulated_orders [31] $end
$var wire 1 S accumulated_orders [30] $end
$var wire 1 T accumulated_orders [29] $end
$var wire 1 U accumulated_orders [28] $end
$var wire 1 V accumulated_orders [27] $end
$var wire 1 W accumulated_orders [26] $end
$var wire 1 X accumulated_orders [25] $end
$var wire 1 Y accumulated_orders [24] $end
$var wire 1 Z accumulated_orders [23] $end
$var wire 1 [ accumulated_orders [22] $end
$var wire 1 \ accumulated_orders [21] $end
$var wire 1 ] accumulated_orders [20] $end
$var wire 1 ^ accumulated_orders [19] $end
$var wire 1 _ accumulated_orders [18] $end
$var wire 1 ` accumulated_orders [17] $end
$var wire 1 a accumulated_orders [16] $end
$var wire 1 b accumulated_orders [15] $end
$var wire 1 c accumulated_orders [14] $end
$var wire 1 d accumulated_orders [13] $end
$var wire 1 e accumulated_orders [12] $end
$var wire 1 f accumulated_orders [11] $end
$var wire 1 g accumulated_orders [10] $end
$var wire 1 h accumulated_orders [9] $end
$var wire 1 i accumulated_orders [8] $end
$var wire 1 j accumulated_orders [7] $end
$var wire 1 k accumulated_orders [6] $end
$var wire 1 l accumulated_orders [5] $end
$var wire 1 m accumulated_orders [4] $end
$var wire 1 n accumulated_orders [3] $end
$var wire 1 o accumulated_orders [2] $end
$var wire 1 p accumulated_orders [1] $end
$var wire 1 q accumulated_orders [0] $end
$var wire 1 r max_to_trade [31] $end
$var wire 1 s max_to_trade [30] $end
$var wire 1 t max_to_trade [29] $end
$var wire 1 u max_to_trade [28] $end
$var wire 1 v max_to_trade [27] $end
$var wire 1 w max_to_trade [26] $end
$var wire 1 x max_to_trade [25] $end
$var wire 1 y max_to_trade [24] $end
$var wire 1 z max_to_trade [23] $end
$var wire 1 { max_to_trade [22] $end
$var wire 1 | max_to_trade [21] $end
$var wire 1 } max_to_trade [20] $end
$var wire 1 ~ max_to_trade [19] $end
$var wire 1 !! max_to_trade [18] $end
$var wire 1 "! max_to_trade [17] $end
$var wire 1 #! max_to_trade [16] $end
$var wire 1 $! max_to_trade [15] $end
$var wire 1 %! max_to_trade [14] $end
$var wire 1 &! max_to_trade [13] $end
$var wire 1 '! max_to_trade [12] $end
$var wire 1 (! max_to_trade [11] $end
$var wire 1 )! max_to_trade [10] $end
$var wire 1 *! max_to_trade [9] $end
$var wire 1 +! max_to_trade [8] $end
$var wire 1 ,! max_to_trade [7] $end
$var wire 1 -! max_to_trade [6] $end
$var wire 1 .! max_to_trade [5] $end
$var wire 1 /! max_to_trade [4] $end
$var wire 1 0! max_to_trade [3] $end
$var wire 1 1! max_to_trade [2] $end
$var wire 1 2! max_to_trade [1] $end
$var wire 1 3! max_to_trade [0] $end
$var wire 1 4! cpu_amount [31] $end
$var wire 1 5! cpu_amount [30] $end
$var wire 1 6! cpu_amount [29] $end
$var wire 1 7! cpu_amount [28] $end
$var wire 1 8! cpu_amount [27] $end
$var wire 1 9! cpu_amount [26] $end
$var wire 1 :! cpu_amount [25] $end
$var wire 1 ;! cpu_amount [24] $end
$var wire 1 <! cpu_amount [23] $end
$var wire 1 =! cpu_amount [22] $end
$var wire 1 >! cpu_amount [21] $end
$var wire 1 ?! cpu_amount [20] $end
$var wire 1 @! cpu_amount [19] $end
$var wire 1 A! cpu_amount [18] $end
$var wire 1 B! cpu_amount [17] $end
$var wire 1 C! cpu_amount [16] $end
$var wire 1 D! cpu_amount [15] $end
$var wire 1 E! cpu_amount [14] $end
$var wire 1 F! cpu_amount [13] $end
$var wire 1 G! cpu_amount [12] $end
$var wire 1 H! cpu_amount [11] $end
$var wire 1 I! cpu_amount [10] $end
$var wire 1 J! cpu_amount [9] $end
$var wire 1 K! cpu_amount [8] $end
$var wire 1 L! cpu_amount [7] $end
$var wire 1 M! cpu_amount [6] $end
$var wire 1 N! cpu_amount [5] $end
$var wire 1 O! cpu_amount [4] $end
$var wire 1 P! cpu_amount [3] $end
$var wire 1 Q! cpu_amount [2] $end
$var wire 1 R! cpu_amount [1] $end
$var wire 1 S! cpu_amount [0] $end

$scope fork mem_data $end
$var reg 128 T! data [127:0] $end
$var reg 1 U! ready $end
$upscope $end

$scope fork mem_dataup $end
$var reg 128 V! data [127:0] $end
$var reg 1 W! ready $end
$upscope $end

$scope fork cpu_reqdown $end
$var reg 32 X! addr [31:0] $end
$var reg 32 Y! data [31:0] $end
$var reg 1 Z! rw $end
$var reg 1 [! valid $end
$upscope $end

$scope fork cpu_requp $end
$var reg 32 \! addr [31:0] $end
$var reg 32 ]! data [31:0] $end
$var reg 1 ^! rw $end
$var reg 1 _! valid $end
$upscope $end

$scope fork mem_req $end
$var reg 32 `! addr [31:0] $end
$var reg 128 a! data [127:0] $end
$var reg 1 b! rw $end
$var reg 1 c! valid $end
$upscope $end

$scope fork mem_requp $end
$var reg 32 d! addr [31:0] $end
$var reg 128 e! data [127:0] $end
$var reg 1 f! rw $end
$var reg 1 g! valid $end
$upscope $end

$scope fork cpu_res $end
$var reg 32 h! data [31:0] $end
$var reg 1 i! ready $end
$upscope $end

$scope fork cpu_res_up $end
$var reg 32 j! data [31:0] $end
$var reg 1 k! ready $end
$upscope $end

$scope fork updatareq $end
$var reg 10 l! index [9:0] $end
$var reg 1 m! we $end
$upscope $end
$var reg 128 n! downdatawrite [127:0] $end
$var reg 128 o! downdataread [127:0] $end
$var reg 1 p! ack $end
$var reg 1 q! update_memory $end
$var reg 5 r! client_id [4:0] $end
$var reg 10 s! upstreamclient_id [9:0] $end
$var reg 1 t! pass_checks $end
$var reg 1 u! upstream_enable $end
$var reg 1 v! check_risk $end
$var reg 1 w! send_order $end
$var reg 1 x! update_max $end
$var reg 112 y! toc [111:0] $end
$var reg 1 z! memwr_up $end

$scope module RAMUPSTREAM $end
$var reg 1 {! clk $end
$var reg 1 |! rst $end

$scope fork cpu_req $end
$var reg 32 }! addr [31:0] $end
$var reg 32 ~! data [31:0] $end
$var reg 1 !" rw $end
$var reg 1 "" valid $end
$upscope $end

$scope fork mem_data $end
$var reg 128 #" data [127:0] $end
$var reg 1 $" ready $end
$upscope $end

$scope fork mem_req $end
$var reg 32 %" addr [31:0] $end
$var reg 128 &" data [127:0] $end
$var reg 1 '" rw $end
$var reg 1 (" valid $end
$upscope $end

$scope fork cpu_res $end
$var reg 32 )" data [31:0] $end
$var reg 1 *" ready $end
$upscope $end
$var integer 32 +" vstate $end
$var integer 32 ," rstate $end
$var reg 20 -" tag_read [19:0] $end
$var reg 20 ." tag_write [19:0] $end

$scope fork tag_req $end
$var reg 10 /" index [9:0] $end
$var reg 1 0" we $end
$upscope $end
$var reg 128 1" data_read [127:0] $end
$var reg 128 2" data_write [127:0] $end

$scope fork data_req $end
$var reg 10 3" index [9:0] $end
$var reg 1 4" we $end
$upscope $end

$scope fork v_cpu_res $end
$var reg 32 5" data [31:0] $end
$var reg 1 6" ready $end
$upscope $end

$scope fork v_mem_req $end
$var reg 32 7" addr [31:0] $end
$var reg 128 8" data [127:0] $end
$var reg 1 9" rw $end
$var reg 1 :" valid $end
$upscope $end

$scope module ctag $end
$var reg 1 ;" clk $end

$scope fork tag_req $end
$var reg 10 <" index [9:0] $end
$var reg 1 =" we $end
$upscope $end
$var reg 20 >" tag_write [19:0] $end
$var reg 20 ?" tag_read [19:0] $end
$upscope $end

$scope module cdata $end
$var wire 1 @" clk $end

$scope fork data_req $end
$var reg 10 A" index [9:0] $end
$var reg 1 B" we $end
$upscope $end
$var reg 128 C" data_write [127:0] $end
$var reg 128 D" data_read [127:0] $end
$upscope $end
$upscope $end

$scope module RAMDOWNSTREAM $end
$var reg 1 E" clk $end
$var reg 1 F" rst $end

$scope fork cpu_req $end
$var reg 32 G" addr [31:0] $end
$var reg 32 H" data [31:0] $end
$var reg 1 I" rw $end
$var reg 1 J" valid $end
$upscope $end

$scope fork mem_data $end
$var reg 128 K" data [127:0] $end
$var reg 1 L" ready $end
$upscope $end

$scope fork mem_req $end
$var reg 32 M" addr [31:0] $end
$var reg 128 N" data [127:0] $end
$var reg 1 O" rw $end
$var reg 1 P" valid $end
$upscope $end

$scope fork cpu_res $end
$var reg 32 Q" data [31:0] $end
$var reg 1 R" ready $end
$upscope $end
$var integer 32 S" vstate $end
$var integer 32 T" rstate $end
$var reg 20 U" tag_read [19:0] $end
$var reg 20 V" tag_write [19:0] $end

$scope fork tag_req $end
$var reg 10 W" index [9:0] $end
$var reg 1 X" we $end
$upscope $end
$var reg 128 Y" data_read [127:0] $end
$var reg 128 Z" data_write [127:0] $end

$scope fork data_req $end
$var reg 10 [" index [9:0] $end
$var reg 1 \" we $end
$upscope $end

$scope fork v_cpu_res $end
$var reg 32 ]" data [31:0] $end
$var reg 1 ^" ready $end
$upscope $end

$scope fork v_mem_req $end
$var reg 32 _" addr [31:0] $end
$var reg 128 `" data [127:0] $end
$var reg 1 a" rw $end
$var reg 1 b" valid $end
$upscope $end

$scope module ctag $end
$var reg 1 c" clk $end

$scope fork tag_req $end
$var reg 10 d" index [9:0] $end
$var reg 1 e" we $end
$upscope $end
$var reg 20 f" tag_write [19:0] $end
$var reg 20 g" tag_read [19:0] $end
$upscope $end

$scope module cdata $end
$var wire 1 h" clk $end

$scope fork data_req $end
$var reg 10 i" index [9:0] $end
$var reg 1 j" we $end
$upscope $end
$var reg 128 k" data_write [127:0] $end
$var reg 128 l" data_read [127:0] $end
$upscope $end
$upscope $end

$scope module SLT $end
$var wire 1 r A [31] $end
$var wire 1 s A [30] $end
$var wire 1 t A [29] $end
$var wire 1 u A [28] $end
$var wire 1 v A [27] $end
$var wire 1 w A [26] $end
$var wire 1 x A [25] $end
$var wire 1 y A [24] $end
$var wire 1 z A [23] $end
$var wire 1 { A [22] $end
$var wire 1 | A [21] $end
$var wire 1 } A [20] $end
$var wire 1 ~ A [19] $end
$var wire 1 !! A [18] $end
$var wire 1 "! A [17] $end
$var wire 1 #! A [16] $end
$var wire 1 $! A [15] $end
$var wire 1 %! A [14] $end
$var wire 1 &! A [13] $end
$var wire 1 '! A [12] $end
$var wire 1 (! A [11] $end
$var wire 1 )! A [10] $end
$var wire 1 *! A [9] $end
$var wire 1 +! A [8] $end
$var wire 1 ,! A [7] $end
$var wire 1 -! A [6] $end
$var wire 1 .! A [5] $end
$var wire 1 /! A [4] $end
$var wire 1 0! A [3] $end
$var wire 1 1! A [2] $end
$var wire 1 2! A [1] $end
$var wire 1 3! A [0] $end
$var wire 1 m" B [31] $end
$var wire 1 n" B [30] $end
$var wire 1 o" B [29] $end
$var wire 1 p" B [28] $end
$var wire 1 q" B [27] $end
$var wire 1 r" B [26] $end
$var wire 1 s" B [25] $end
$var wire 1 t" B [24] $end
$var wire 1 u" B [23] $end
$var wire 1 v" B [22] $end
$var wire 1 w" B [21] $end
$var wire 1 x" B [20] $end
$var wire 1 y" B [19] $end
$var wire 1 z" B [18] $end
$var wire 1 {" B [17] $end
$var wire 1 |" B [16] $end
$var wire 1 }" B [15] $end
$var wire 1 ~" B [14] $end
$var wire 1 !# B [13] $end
$var wire 1 "# B [12] $end
$var wire 1 ## B [11] $end
$var wire 1 $# B [10] $end
$var wire 1 %# B [9] $end
$var wire 1 &# B [8] $end
$var wire 1 '# B [7] $end
$var wire 1 (# B [6] $end
$var wire 1 )# B [5] $end
$var wire 1 *# B [4] $end
$var wire 1 +# B [3] $end
$var wire 1 ,# B [2] $end
$var wire 1 -# B [1] $end
$var wire 1 .# B [0] $end
$var wire 1 /# Result $end
$var reg 1 0# sltresult $end
$upscope $end

$scope module UPSTREAMPROCESSOR $end
$var parameter 5 1# IDLE $end
$var parameter 5 2# STATE_RISKCHECK $end
$var parameter 5 3# STATE_SENDORDER $end
$var parameter 5 4# STATE_NEWMAX $end
$var wire 1 - clk $end
$var wire 1 5# risk_ok $end
$var wire 1 6# new_order $end
$var wire 1 1 new_max $end
$var wire 1 7# memwr $end
$var wire 1 / HRESETn $end
$var wire 1 8# check_risk $end
$var wire 1 9# send_order $end
$var wire 1 :# update_max $end
$var reg 5 ;# state [4:0] $end
$upscope $end
$upscope $end
$upscope $end

$scope begin tb_top_UPDOWNSTREAM_sv_unit $end
$upscope $end

$scope begin std $end
$upscope $end

$scope begin cache_def $end
$var parameter 32 <# TAGMSB $end
$var parameter 32 =# TAGLSB $end
$upscope $end

$scope begin top_sv_unit $end
$upscope $end
$enddefinitions $end
#0
$dumpvars
0!
0"
b0 n!
b0 o!
xp!
xq!
bx r!
bx s!
0t!
xu!
0v!
0w!
0x!
bx y!
xz!
0{!
0|!
b0 -"
b0 ."
b0 1"
b0 2"
0;"
b0 >"
b0 ?"
b0 C"
b0 D"
0E"
0F"
b0 U"
b0 V"
b0 Y"
b0 Z"
0c"
b0 f"
b0 g"
b0 k"
b0 l"
00#
b1 ;#
b0 T!
b0 U!
b0 V!
b0 W!
b0 X!
b0 Y!
b0 Z!
b0 [!
b0 \!
b0 ]!
b0 ^!
b0 _!
b0 `!
b0 a!
b0 b!
b0 c!
b0 d!
b0 e!
b0 f!
b0 g!
b0 h!
b0 i!
b0 j!
b0 k!
b0 l!
b0 m!
b0 }!
b0 ~!
b0 !"
b0 ""
b0 #"
b0 $"
b0 %"
b0 &"
b0 '"
b0 ("
b0 )"
b0 *"
b0 /"
b0 0"
b0 3"
b0 4"
b0 5"
b0 6"
b0 7"
b0 8"
b0 9"
b0 :"
b0 <"
b0 ="
b0 A"
b0 B"
b0 G"
b0 H"
b0 I"
b0 J"
b0 K"
b0 L"
b0 M"
b0 N"
b0 O"
b0 P"
b0 Q"
b0 R"
b0 W"
b0 X"
b0 ["
b0 \"
b0 ]"
b0 ^"
b0 _"
b0 `"
b0 a"
b0 b"
b0 d"
b0 e"
b0 i"
b0 j"
b11111 <#
b1110 =#
b1 1#
b10 2#
b100 3#
b1000 4#
b0 +"
b0 ,"
b0 S"
b0 T"
0-
x/
x'
x&
x%
x$
x#
xS!
xR!
xQ!
xP!
xO!
xN!
xM!
xL!
xK!
xJ!
xI!
xH!
xG!
xF!
xE!
xD!
xC!
xB!
xA!
x@!
x?!
x>!
x=!
x<!
x;!
x:!
x9!
x8!
x7!
x6!
x5!
x4!
x.
x1
x,
x+
x*
x)
x(
xA
x@
x?
x>
x=
x<
x;
x:
x9
x8
x7
x6
x5
x4
x3
x2
x0
0Q
0P
0O
0N
0M
0L
0K
0J
0I
0H
0G
0F
0E
0D
0C
0B
0q
0p
0o
0n
0m
0l
0k
0j
0i
0h
0g
0f
0e
0d
0c
0b
0a
0`
0_
0^
0]
0\
0[
0Z
0Y
0X
0W
0V
0U
0T
0S
0R
03!
02!
01!
00!
0/!
0.!
0-!
0,!
0+!
0*!
0)!
0(!
0'!
0&!
0%!
0$!
0#!
0"!
0!!
0~
0}
0|
0{
0z
0y
0x
0w
0v
0u
0t
0s
0r
x7#
x6#
05#
x.#
x-#
x,#
x+#
x*#
x)#
x(#
x'#
x&#
x%#
x$#
x##
x"#
x!#
x~"
x}"
x|"
x{"
xz"
xy"
xx"
xw"
xv"
xu"
xt"
xs"
xr"
xq"
xp"
xo"
xn"
xm"
0@"
0h"
0/#
08#
09#
0:#
$end
#2000
1!
1-
1{!
1E"
1c"
1;"
1@"
1h"
#22000
1"
0,
1+
1*
1)
0(
0A
1@
1?
1>
0=
0<
1;
1:
09
08
07
06
05
04
13
12
1S!
0R!
0Q!
0P!
1O!
0N!
1M!
0L!
1K!
0J!
1I!
0H!
0G!
0F!
0E!
0D!
1C!
1B!
0A!
0@!
1?!
0>!
1=!
1<!
0;!
1:!
19!
18!
07!
06!
15!
14!
0'
1&
1%
0$
0#
0/
0.
11
10
1.#
0-#
0,#
0+#
1*#
0)#
1(#
0'#
1&#
0%#
1$#
0##
0"#
0!#
0~"
0}"
1|"
1{"
0z"
0y"
1x"
0w"
1v"
1u"
0t"
1s"
1r"
1q"
0p"
0o"
1n"
1m"
06#
b1110 X!
b1100000011001110 Y!
b1 Z!
b1 [!
b1100000011001110 T!
b1100000011001110 #"
b1110 G"
b1100000011001110 H"
b1 I"
b1 J"
b1100000011001110000000000000000000000000000000000000000000000000000000000000000000000000000000000000000000000000 Z"
b1110 _"
b1 S"
b1110 M"
b1100000011001110000000000000000000000000000000000000000000000000000000000000000000000000000000000000000000000000 k"
b1110 `!
b1000 ;#
b1 ;#
#24000
0!
0-
0{!
0E"
0c"
0;"
0@"
0h"
#44000
0"
#46000
1!
1-
1{!
1E"
1c"
1;"
1@"
1h"
b1 T"
b1000 ;#
b1 ;#
b0 Z"
b1100000011001110000000000000000000000000000000000000000000000000000000000000000000000000000000000000000000000000 Z"
b1 X"
b10000000000000000000 V"
b11000000000000000000 V"
b1 b"
b10 S"
b1 P"
b11000000000000000000 f"
b1 e"
b1 c!
#66000
1"
#68000
0!
0-
0{!
0E"
0c"
0;"
0@"
0h"
#88000
0"
#90000
1!
1-
1{!
1E"
1c"
1;"
1@"
1h"
b10 T"
b1000 ;#
b1 ;#
b11000000000000000000 g"
b11000000000000000000 U"
b0 V"
b0 X"
b0 Z"
b1100000011001110000000000000000000000000000000000000000000000000000000000000000000000000000000000000000000000000 Z"
b0 e"
b0 f"
#110000
1"
0)
1(
0>
1=
1<
0:
17
16
14
03
02
0S!
1R!
1Q!
1P!
0O!
1N!
0K!
1H!
1E!
1D!
0C!
1>!
0:!
09!
05!
04!
1'
0&
1.
01
00
0.#
1-#
1,#
1+#
0*#
1)#
0&#
1##
1~"
1}"
0|"
1w"
0s"
0r"
0n"
0m"
16#
b101 r!
b101 X!
b101 \!
b1000111100101100110001101110 ]!
b1000111100101100110001101110 V!
b1 ^!
b1 _!
b0 Z!
b1000111100101100110001101110 K"
b101 }!
b1000111100101100110001101110 ~!
b1 !"
b1 ""
b101 G"
b0 I"
b100011110010110011000110111000000000000000000000000000000000 2"
b101 7"
b1 +"
b0 Z"
b110000001100111000000000000000000000000000000000 Z"
b101 _"
b101 M"
b110000001100111000000000000000000000000000000000 k"
b101 %"
b100011110010110011000110111000000000000000000000000000000000 C"
b101 d!
b101 `!
10#
b10 ;#
b1 ;#
1/#
1t!
15#
b10 ;#
b1 ;#
#112000
0!
0-
0{!
0E"
0c"
0;"
0@"
0h"
#132000
0"
#134000
1!
1-
1{!
1E"
1c"
1;"
1@"
1h"
b1 ,"
b10 ;#
b1 ;#
b0 2"
b100011110010110011000110111000000000000000000000000000000000 2"
b1 0"
b10000000000000000000 ."
b11000000000000000000 ."
b1 :"
b10 +"
b1 ("
b11000000000000000000 >"
b1 ="
b1 g!
#154000
1"
#156000
0!
0-
0{!
0E"
0c"
0;"
0@"
0h"
#176000
0"
#178000
1!
1-
1{!
1E"
1c"
1;"
1@"
1h"
b10 ,"
b10 ;#
b1 ;#
b11000000000000000000 ?"
b11000000000000000000 -"
b0 ."
b0 0"
b0 2"
b100011110010110011000110111000000000000000000000000000000000 2"
b0 ="
b0 >"
#198000
1"
0*
0(
0?
0=
0<
19
18
06
15
13
12
0R!
0Q!
1O!
0N!
1L!
1J!
0H!
1G!
1@!
0=!
0<!
1:!
16!
15!
14!
0'
1&
0%
1#
0.
11
10
0-#
0,#
1*#
0)#
1'#
1%#
0##
1"#
1y"
0v"
0u"
1s"
1o"
1n"
1m"
06#
b10 X!
b1111011101000010 Y!
b1 Z!
b1111011101000010 T!
b1111011101000010 #"
b10 G"
b1111011101000010 H"
b1 I"
b0 Z"
b1111011101000010 Z"
b10 _"
b0 2"
b100011110010110011000110111000000000000000000000000000000000 2"
b10 M"
b1111011101000010 k"
b10 `!
00#
b1000 ;#
b1 ;#
0/#
0t!
05#
b1000 ;#
b1 ;#
#200000
0!
0-
0{!
0E"
0c"
0;"
0@"
0h"
#220000
0"
#222000
1!
1-
1{!
1E"
1c"
1;"
1@"
1h"
b1000 ;#
b1 ;#
#242000
1"
#244000
0!
0-
0{!
0E"
0c"
0;"
0@"
0h"
#264000
0"
#266000
1!
1-
1{!
1E"
1c"
1;"
1@"
1h"
b1000 ;#
b1 ;#
#286000
1"
1,
1)
1(
1A
1>
1=
1<
0;
09
16
05
03
1Q!
0P!
1N!
0M!
0L!
0I!
1H!
0G!
0D!
1C!
1A!
1=!
1;!
19!
08!
17!
06!
1'
0&
1%
0#
1.
01
00
1,#
0+#
1)#
0(#
0'#
0$#
1##
0"#
0}"
1|"
1z"
1v"
1t"
1r"
0q"
1p"
0o"
16#
b101 X!
b11010111011111110100101000110100 ]!
b11010111011111110100101000110100 V!
b0 Z!
b11010111011111110100101000110100 K"
b11010111011111110100101000110100 ~!
b101 G"
b0 I"
b0 2"
b1101011101111111010010100011010000000000000000000000000000000000 2"
b0 Z"
b111101110100001000000000000000000000000000000000 Z"
b101 _"
b101 M"
b111101110100001000000000000000000000000000000000 k"
b1101011101111111010010100011010000000000000000000000000000000000 C"
b101 `!
b10 ;#
b1 ;#
#288000
0!
0-
0{!
0E"
0c"
0;"
0@"
0h"
#308000
0"
#310000
1!
1-
1{!
1E"
1c"
1;"
1@"
1h"
b10 ;#
b1 ;#
#330000
1"
#332000
0!
0-
0{!
0E"
0c"
0;"
0@"
0h"
#352000
0"
#354000
1!
1-
1{!
1E"
1c"
1;"
1@"
1h"
b10 ;#
b1 ;#
#374000
1"
1:
06
1S!
1P!
0O!
0N!
1L!
1I!
0H!
1F!
1D!
0C!
0?!
0>!
1<!
09!
18!
04!
0'
0%
1#
1/
1|!
1F"
0.
11
1.#
1+#
0*#
0)#
1'#
1$#
0##
1!#
1}"
0|"
0x"
0w"
1u"
0r"
1q"
0m"
06#
b10000 r!
b10000 X!
b10000 \!
b1011011110011101110011010001101 ]!
b1011011110011101110011010001101 V!
b1011011110011101110011010001101 K"
b10000 }!
b1011011110011101110011010001101 ~!
b10000 G"
b1 /"
b1 3"
b0 2"
b1011011110011101110011010001101 2"
b10000 7"
b1 W"
b1 ["
b0 Z"
b1111011101000010 Z"
b10000 _"
b10000 M"
b1111011101000010 k"
b1 i"
b1 d"
b10000 %"
b1011011110011101110011010001101 C"
b1 A"
b1 <"
b0 ?"
b10000 d!
b0 g"
b10000 `!
b0 U"
b0 -"
b0 2"
b1011011110011101110011010001101 2"
b0 Z"
b1111011101000010 Z"
10#
b1000 ;#
1/#
1:#
1x!
1t!
15#
#376000
0!
0-
0{!
0E"
0c"
0;"
0@"
0h"
#396000
0"
#398000
1!
1-
1{!
1E"
1c"
1;"
1@"
1h"
b0 T"
b0 ,"
b0 +"
b0 2"
b1011011110011101110011010001101 2"
b1 +"
b0 S"
b0 Z"
b1111011101000010 Z"
b1 S"
#418000
1"
#420000
0!
0-
0{!
0E"
0c"
0;"
0@"
0h"
#440000
0"
#442000
1!
1-
1{!
1E"
1c"
1;"
1@"
1h"
#462000
1"
0,
0+
0)
0(
0A
0@
0>
0=
1;
0:
19
08
07
16
15
13
1R!
0Q!
1O!
1M!
0J!
0I!
1G!
0B!
0A!
0<!
0;!
0:!
19!
08!
16!
14!
1&
0#
10
1-#
0,#
1*#
1(#
0%#
0$#
1"#
0{"
0z"
0u"
0t"
0s"
1r"
0q"
1o"
1m"
b0 X!
b1111100101100000 Y!
b1 Z!
b1111100101100000 T!
b1111100101100000 #"
b0 G"
b1111100101100000 H"
b1 I"
b0 S"
b0 W"
b0 ["
b0 Z"
b1111100101100000 Z"
b0 _"
b1 S"
b0 +"
b0 2"
b1011011110011101110011010001101 2"
b1 +"
b0 M"
b1111100101100000 k"
b0 i"
b0 d"
b11000000000000000000 g"
b0 `!
b11000000000000000000 U"
b0 S"
b0 Z"
b1111100101100000 Z"
b1 S"
00#
0/#
0t!
05#
#464000
0!
0-
0{!
0E"
0c"
0;"
0@"
0h"
#484000
0"
#486000
1!
1-
1{!
1E"
1c"
1;"
1@"
1h"
#506000
1"
#508000
0!
0-
0{!
0E"
0c"
0;"
0@"
0h"
#528000
0"
#530000
1!
1-
1{!
1E"
1c"
1;"
1@"
1h"
#550000
1"
1+
1*
1)
1@
1?
1>
0;
1:
06
05
02
1Q!
0O!
1N!
0M!
1K!
0G!
0E!
1A!
0@!
0=!
1<!
1:!
09!
18!
07!
04!
1'
1#
1,#
0*#
1)#
0(#
1&#
0"#
0~"
1z"
0y"
0v"
1u"
1s"
0r"
1q"
0p"
0m"
10#
1/#
1t!
15#
#552000
0!
0-
0{!
0E"
0c"
0;"
0@"
0h"
#572000
0"
#574000
1!
1-
1{!
1E"
1c"
1;"
1@"
1h"
#594000
1"
#596000
0!
0-
0{!
0E"
0c"
0;"
0@"
0h"
#616000
0"
#618000
1!
1-
1{!
1E"
1c"
1;"
1@"
1h"
#638000
1"
0*
0)
0?
0>
1;
0:
18
16
15
12
0Q!
0K!
1J!
1I!
1E!
0D!
1B!
0A!
1@!
1?!
1>!
1=!
0<!
1;!
17!
06!
05!
0'
0&
00
0,#
0&#
1%#
1$#
1~"
0}"
1{"
0z"
1y"
1x"
1w"
1v"
0u"
1t"
1p"
0o"
0n"
b10000 X!
b11011011110100110011010101011 ]!
b11011011110100110011010101011 V!
b0 Z!
b11011011110100110011010101011 K"
b11011011110100110011010101011 ~!
b10000 G"
b0 I"
b0 +"
b0 2"
b11011011110100110011010101011 2"
b1 +"
b0 S"
b1 W"
b1 ["
b0 Z"
b1111100101100000 Z"
b10000 _"
b1 S"
b10000 M"
b1 i"
b1 d"
b11011011110100110011010101011 C"
b0 g"
b10000 `!
b0 U"
b0 S"
b0 Z"
b1111100101100000 Z"
b1 S"
#640000
0!
0-
0{!
0E"
0c"
0;"
0@"
0h"
#660000
0"
#662000
1!
1-
1{!
1E"
1c"
1;"
1@"
1h"
#682000
1"
#684000
0!
0-
0{!
0E"
0c"
0;"
0@"
0h"
#704000
0"
#706000
1!
1-
1{!
1E"
1c"
1;"
1@"
1h"
#726000
1"
0+
1)
0@
1>
0<
1:
17
05
04
02
1Q!
1O!
0N!
0L!
0J!
0I!
1H!
0E!
1C!
1A!
0@!
0;!
15!
1'
1$
0/
0|!
0F"
10
1,#
1*#
0)#
0'#
0%#
0$#
1##
0~"
1|"
1z"
0y"
0t"
1n"
b1000 X!
b100111111001000 Y!
b1 Z!
b100111111001000 T!
b100111111001000 #"
b1000 G"
b100111111001000 H"
b1 I"
b0 S"
b0 W"
b0 ["
b0 Z"
b1001111110010000000000000000000000000000000000000000000000000000000000000000000 Z"
b1000 _"
b1 S"
b0 +"
b0 2"
b11011011110100110011010101011 2"
b1 +"
b1000 M"
b1001111110010000000000000000000000000000000000000000000000000000000000000000000 k"
b0 i"
b0 d"
b11000000000000000000 g"
b1000 `!
b11000000000000000000 U"
b0 S"
b0 Z"
b1001111110010000000000000000000000000000000000000000000000000000000000000000000 Z"
b1 S"
#728000
0!
0-
0{!
0E"
0c"
0;"
0@"
0h"
#748000
0"
#750000
1!
1-
1{!
1E"
1c"
1;"
1@"
1h"
b1 T"
b1 ,"
b1 ;#
0:#
0x!
b0 2"
b11011011110100110011010101011 2"
b1 0"
b10000000000000000000 ."
b11000000000000000000 ."
b10 +"
b0 Z"
b1001111110010000000000000000000000000000000000000000000000000000000000000000000 Z"
b1 ^"
b1 X"
b1 \"
b10000000000000000000 V"
b11000000000000000000 V"
b0 S"
b11000000000000000000 f"
b1 j"
b1 e"
b1 R"
b11000000000000000000 >"
b1 ="
b1 i!
#770000
1"
#772000
0!
0-
0{!
0E"
0c"
0;"
0@"
0h"
#792000
0"
