testbench/tbenchoutputs/upstream/upstreamdump.vcd
$date
	Thu May  5 12:32:55 2022
$end
$version
	QuestaSim Version 10.7c
$end
$timescale
	1ps
$end

$scope module tb_top_UPDOWNSTREAM $end
$var reg 1 ! clk $end
$var reg 1 " slowclk $end

$scope module TOP $end
$var wire 1 # exchange_client_id [4] $end
$var wire 1 $ exchange_client_id [3] $end
$var wire 1 % exchange_client_id [2] $end
$var wire 1 & exchange_client_id [1] $end
$var wire 1 ' exchange_client_id [0] $end
$var wire 1 ( exchange_amount [15] $end
$var wire 1 ) exchange_amount [14] $end
$var wire 1 * exchange_amount [13] $end
$var wire 1 + exchange_amount [12] $end
$var wire 1 , exchange_amount [11] $end
$var wire 1 - exchange_amount [10] $end
$var wire 1 . exchange_amount [9] $end
$var wire 1 / exchange_amount [8] $end
$var wire 1 0 exchange_amount [7] $end
$var wire 1 1 exchange_amount [6] $end
$var wire 1 2 exchange_amount [5] $end
$var wire 1 3 exchange_amount [4] $end
$var wire 1 4 exchange_amount [3] $end
$var wire 1 5 exchange_amount [2] $end
$var wire 1 6 exchange_amount [1] $end
$var wire 1 7 exchange_amount [0] $end
$var wire 1 8 cpu_client_id [4] $end
$var wire 1 9 cpu_client_id [3] $end
$var wire 1 : cpu_client_id [2] $end
$var wire 1 ; cpu_client_id [1] $end
$var wire 1 < cpu_client_id [0] $end
$var wire 1 = HRESETn $end
$var wire 1 > exchange_go $end
$var wire 1 ? cpu_amount [15] $end
$var wire 1 @ cpu_amount [14] $end
$var wire 1 A cpu_amount [13] $end
$var wire 1 B cpu_amount [12] $end
$var wire 1 C cpu_amount [11] $end
$var wire 1 D cpu_amount [10] $end
$var wire 1 E cpu_amount [9] $end
$var wire 1 F cpu_amount [8] $end
$var wire 1 G cpu_amount [7] $end
$var wire 1 H cpu_amount [6] $end
$var wire 1 I cpu_amount [5] $end
$var wire 1 J cpu_amount [4] $end
$var wire 1 K cpu_amount [3] $end
$var wire 1 L cpu_amount [2] $end
$var wire 1 M cpu_amount [1] $end
$var wire 1 N cpu_amount [0] $end
$var wire 1 O cpu_go $end
$var wire 1 P cpu_new_max $end
$var wire 1 Q clk $end
$var wire 1 R cancelled_orders [31] $end
$var wire 1 S cancelled_orders [30] $end
$var wire 1 T cancelled_orders [29] $end
$var wire 1 U cancelled_orders [28] $end
$var wire 1 V cancelled_orders [27] $end
$var wire 1 W cancelled_orders [26] $end
$var wire 1 X cancelled_orders [25] $end
$var wire 1 Y cancelled_orders [24] $end
$var wire 1 Z cancelled_orders [23] $end
$var wire 1 [ cancelled_orders [22] $end
$var wire 1 \ cancelled_orders [21] $end
$var wire 1 ] cancelled_orders [20] $end
$var wire 1 ^ cancelled_orders [19] $end
$var wire 1 _ cancelled_orders [18] $end
$var wire 1 ` cancelled_orders [17] $end
$var wire 1 a cancelled_orders [16] $end
$var wire 1 b cancelled_orders [15] $end
$var wire 1 c cancelled_orders [14] $end
$var wire 1 d cancelled_orders [13] $end
$var wire 1 e cancelled_orders [12] $end
$var wire 1 f cancelled_orders [11] $end
$var wire 1 g cancelled_orders [10] $end
$var wire 1 h cancelled_orders [9] $end
$var wire 1 i cancelled_orders [8] $end
$var wire 1 j cancelled_orders [7] $end
$var wire 1 k cancelled_orders [6] $end
$var wire 1 l cancelled_orders [5] $end
$var wire 1 m cancelled_orders [4] $end
$var wire 1 n cancelled_orders [3] $end
$var wire 1 o cancelled_orders [2] $end
$var wire 1 p cancelled_orders [1] $end
$var wire 1 q cancelled_orders [0] $end
$var wire 1 r accumulated_orders [15] $end
$var wire 1 s accumulated_orders [14] $end
$var wire 1 t accumulated_orders [13] $end
$var wire 1 u accumulated_orders [12] $end
$var wire 1 v accumulated_orders [11] $end
$var wire 1 w accumulated_orders [10] $end
$var wire 1 x accumulated_orders [9] $end
$var wire 1 y accumulated_orders [8] $end
$var wire 1 z accumulated_orders [7] $end
$var wire 1 { accumulated_orders [6] $end
$var wire 1 | accumulated_orders [5] $end
$var wire 1 } accumulated_orders [4] $end
$var wire 1 ~ accumulated_orders [3] $end
$var wire 1 !! accumulated_orders [2] $end
$var wire 1 "! accumulated_orders [1] $end
$var wire 1 #! accumulated_orders [0] $end
$var wire 1 $! max_to_trade [31] $end
$var wire 1 %! max_to_trade [30] $end
$var wire 1 &! max_to_trade [29] $end
$var wire 1 '! max_to_trade [28] $end
$var wire 1 (! max_to_trade [27] $end
$var wire 1 )! max_to_trade [26] $end
$var wire 1 *! max_to_trade [25] $end
$var wire 1 +! max_to_trade [24] $end
$var wire 1 ,! max_to_trade [23] $end
$var wire 1 -! max_to_trade [22] $end
$var wire 1 .! max_to_trade [21] $end
$var wire 1 /! max_to_trade [20] $end
$var wire 1 0! max_to_trade [19] $end
$var wire 1 1! max_to_trade [18] $end
$var wire 1 2! max_to_trade [17] $end
$var wire 1 3! max_to_trade [16] $end
$var wire 1 4! max_to_trade [15] $end
$var wire 1 5! max_to_trade [14] $end
$var wire 1 6! max_to_trade [13] $end
$var wire 1 7! max_to_trade [12] $end
$var wire 1 8! max_to_trade [11] $end
$var wire 1 9! max_to_trade [10] $end
$var wire 1 :! max_to_trade [9] $end
$var wire 1 ;! max_to_trade [8] $end
$var wire 1 <! max_to_trade [7] $end
$var wire 1 =! max_to_trade [6] $end
$var wire 1 >! max_to_trade [5] $end
$var wire 1 ?! max_to_trade [4] $end
$var wire 1 @! max_to_trade [3] $end
$var wire 1 A! max_to_trade [2] $end
$var wire 1 B! max_to_trade [1] $end
$var wire 1 C! max_to_trade [0] $end

$scope fork downdatareq $end
$var reg 10 D! wrindex [9:0] $end
$var reg 10 E! rdindex [9:0] $end
$var reg 1 F! we $end
$upscope $end
$var wire 1 G! thenewmax $end

$scope module RAMDOWNSTREAM $end
$var wire 1 Q clk $end

$scope fork data_req $end
$var reg 10 H! wrindex [9:0] $end
$var reg 10 I! rdindex [9:0] $end
$var reg 1 J! we $end
$upscope $end
$var reg 32 K! data_write [31:0] $end
$var reg 32 L! data_read [31:0] $end
$upscope $end

$scope module UPTOP $end
$var wire 1 Q clk $end
$var wire 1 O new_order $end
$var wire 1 P new_max $end
$var wire 1 8 client_id [4] $end
$var wire 1 9 client_id [3] $end
$var wire 1 : client_id [2] $end
$var wire 1 ; client_id [1] $end
$var wire 1 < client_id [0] $end
$var wire 1 ? amount [15] $end
$var wire 1 @ amount [14] $end
$var wire 1 A amount [13] $end
$var wire 1 B amount [12] $end
$var wire 1 C amount [11] $end
$var wire 1 D amount [10] $end
$var wire 1 E amount [9] $end
$var wire 1 F amount [8] $end
$var wire 1 G amount [7] $end
$var wire 1 H amount [6] $end
$var wire 1 I amount [5] $end
$var wire 1 J amount [4] $end
$var wire 1 K amount [3] $end
$var wire 1 L amount [2] $end
$var wire 1 M amount [1] $end
$var wire 1 N amount [0] $end
$var wire 1 G! thenewmax $end
$var reg 1 M! HRESETn $end
$var reg 32 N! correct_amount [31:0] $end
$var reg 1 O! pass_checks $end
$var reg 1 P! upstream_enable $end
$var reg 32 Q! mem_dataup_wr [31:0] $end
$var reg 32 R! mem_dataup [31:0] $end
$var reg 32 S! mem_datadown [31:0] $end
$var reg 32 T! mem_datadown_wr [31:0] $end

$scope fork mem_requp $end
$var reg 10 U! wrindex [9:0] $end
$var reg 10 V! rdindex [9:0] $end
$var reg 1 W! we $end
$upscope $end

$scope fork mem_reqdown $end
$var reg 10 X! wrindex [9:0] $end
$var reg 10 Y! rdindex [9:0] $end
$var reg 1 Z! we $end
$upscope $end
$var reg 1 [! check_risk $end
$var reg 1 \! send_order $end
$var reg 1 ]! update_max $end
$var wire 1 b cancelled_orders [15] $end
$var wire 1 c cancelled_orders [14] $end
$var wire 1 d cancelled_orders [13] $end
$var wire 1 e cancelled_orders [12] $end
$var wire 1 f cancelled_orders [11] $end
$var wire 1 g cancelled_orders [10] $end
$var wire 1 h cancelled_orders [9] $end
$var wire 1 i cancelled_orders [8] $end
$var wire 1 j cancelled_orders [7] $end
$var wire 1 k cancelled_orders [6] $end
$var wire 1 l cancelled_orders [5] $end
$var wire 1 m cancelled_orders [4] $end
$var wire 1 n cancelled_orders [3] $end
$var wire 1 o cancelled_orders [2] $end
$var wire 1 p cancelled_orders [1] $end
$var wire 1 q cancelled_orders [0] $end
$var reg 16 ^! result [15:0] $end
$var reg 16 _! accumulated_orders_reg [15:0] $end
$var reg 16 `! cancelled_orders_reg [15:0] $end
$var wire 1 r accumulated_orders [15] $end
$var wire 1 s accumulated_orders [14] $end
$var wire 1 t accumulated_orders [13] $end
$var wire 1 u accumulated_orders [12] $end
$var wire 1 v accumulated_orders [11] $end
$var wire 1 w accumulated_orders [10] $end
$var wire 1 x accumulated_orders [9] $end
$var wire 1 y accumulated_orders [8] $end
$var wire 1 z accumulated_orders [7] $end
$var wire 1 { accumulated_orders [6] $end
$var wire 1 | accumulated_orders [5] $end
$var wire 1 } accumulated_orders [4] $end
$var wire 1 ~ accumulated_orders [3] $end
$var wire 1 !! accumulated_orders [2] $end
$var wire 1 "! accumulated_orders [1] $end
$var wire 1 #! accumulated_orders [0] $end
$var wire 1 $! max_to_trade [31] $end
$var wire 1 %! max_to_trade [30] $end
$var wire 1 &! max_to_trade [29] $end
$var wire 1 '! max_to_trade [28] $end
$var wire 1 (! max_to_trade [27] $end
$var wire 1 )! max_to_trade [26] $end
$var wire 1 *! max_to_trade [25] $end
$var wire 1 +! max_to_trade [24] $end
$var wire 1 ,! max_to_trade [23] $end
$var wire 1 -! max_to_trade [22] $end
$var wire 1 .! max_to_trade [21] $end
$var wire 1 /! max_to_trade [20] $end
$var wire 1 0! max_to_trade [19] $end
$var wire 1 1! max_to_trade [18] $end
$var wire 1 2! max_to_trade [17] $end
$var wire 1 3! max_to_trade [16] $end
$var wire 1 4! max_to_trade [15] $end
$var wire 1 5! max_to_trade [14] $end
$var wire 1 6! max_to_trade [13] $end
$var wire 1 7! max_to_trade [12] $end
$var wire 1 8! max_to_trade [11] $end
$var wire 1 9! max_to_trade [10] $end
$var wire 1 :! max_to_trade [9] $end
$var wire 1 ;! max_to_trade [8] $end
$var wire 1 <! max_to_trade [7] $end
$var wire 1 =! max_to_trade [6] $end
$var wire 1 >! max_to_trade [5] $end
$var wire 1 ?! max_to_trade [4] $end
$var wire 1 @! max_to_trade [3] $end
$var wire 1 A! max_to_trade [2] $end
$var wire 1 B! max_to_trade [1] $end
$var wire 1 C! max_to_trade [0] $end
$var reg 32 a! max_to_trade_reg [31:0] $end
$var reg 1 b! memwr $end
$var reg 1 c! nocare $end

$scope begin trade_pass_checks $end
$upscope $end

$scope begin trade_correctamount_cpu $end
$upscope $end

$scope begin trade_state_logic1 $end
$upscope $end

$scope begin trade_state_logic2 $end
$upscope $end

$scope begin trade_state_logic3 $end
$upscope $end

$scope module RAMUPSTREAM $end
$var wire 1 Q clk $end

$scope fork data_req $end
$var reg 10 d! wrindex [9:0] $end
$var reg 10 e! rdindex [9:0] $end
$var reg 1 f! we $end
$upscope $end
$var reg 32 g! data_write [31:0] $end
$var reg 32 h! data_read [31:0] $end

$scope begin trade_risk_check_mem $end
$upscope $end
$upscope $end

$scope module UPSTREAMPROCESSOR $end
$var parameter 5 i! IDLE $end
$var parameter 5 j! STATE_RISKCHECK $end
$var parameter 5 k! STATE_SENDORDER $end
$var parameter 5 l! STATE_NEWMAX $end
$var wire 1 Q clk $end
$var wire 1 m! risk_ok $end
$var wire 1 O new_order $end
$var wire 1 P new_max $end
$var wire 1 n! memwr $end
$var wire 1 o! HRESETn $end
$var wire 1 p! check_risk $end
$var wire 1 q! send_order $end
$var wire 1 r! update_max $end
$var reg 5 s! state [4:0] $end
$upscope $end
$upscope $end

$scope module DOWNTOP $end
$var wire 1 # client_id [4] $end
$var wire 1 $ client_id [3] $end
$var wire 1 % client_id [2] $end
$var wire 1 & client_id [1] $end
$var wire 1 ' client_id [0] $end
$var wire 1 Q clk $end
$var wire 1 ( amount [15] $end
$var wire 1 ) amount [14] $end
$var wire 1 * amount [13] $end
$var wire 1 + amount [12] $end
$var wire 1 , amount [11] $end
$var wire 1 - amount [10] $end
$var wire 1 . amount [9] $end
$var wire 1 / amount [8] $end
$var wire 1 0 amount [7] $end
$var wire 1 1 amount [6] $end
$var wire 1 2 amount [5] $end
$var wire 1 3 amount [4] $end
$var wire 1 4 amount [3] $end
$var wire 1 5 amount [2] $end
$var wire 1 6 amount [1] $end
$var wire 1 7 amount [0] $end

$scope fork downdatareq $end
$var reg 10 t! wrindex [9:0] $end
$var reg 10 u! rdindex [9:0] $end
$var reg 1 v! we $end
$upscope $end
$var reg 1 w! old_client $end
$var reg 1 x! old_amount $end

$scope begin downstream_write_enable $end
$upscope $end
$upscope $end
$upscope $end
$upscope $end

$scope begin tb_top_UPDOWNSTREAM_sv_unit $end
$upscope $end

$scope begin std $end
$upscope $end

$scope begin cache_def $end
$var parameter 32 y! TAGMSB $end
$var parameter 32 z! TAGLSB $end
$upscope $end

$scope begin top_sv_unit $end
$upscope $end
$enddefinitions $end
#0
$dumpvars
0!
0"
b0 K!
b0 L!
xM!
bx N!
xO!
xP!
b0 Q!
b11111111101010100000000000000000 R!
b0 S!
b0 T!
x[!
x\!
x]!
bx ^!
bx _!
bx `!
bx a!
xb!
xc!
b0 g!
b11111111101010100000000000000000 h!
bx s!
xw!
xx!
b0 D!
b0 E!
b0 F!
b0 H!
b0 I!
b0 J!
b0 U!
b0 V!
b0 W!
b0 X!
b0 Y!
b0 Z!
b0 d!
b0 e!
b0 f!
b0 t!
b0 u!
b0 v!
b100000 y!
b1110 z!
b1 i!
b10 j!
b100 k!
b1000 l!
xG!
0Q
x=
x<
x;
x:
x9
x8
xN
xM
xL
xK
xJ
xI
xH
xG
xF
xE
xD
xC
xB
xA
x@
x?
xO
xP
x'
x&
x%
x$
x#
x7
x6
x5
x4
x3
x2
x1
x0
x/
x.
x-
x,
x+
x*
x)
x(
x>
0q
0p
0o
0n
0m
0l
0k
0j
0i
0h
0g
0f
0e
0d
0c
0b
0a
0`
0_
0^
0]
0\
0[
0Z
0Y
0X
0W
0V
0U
0T
0S
0R
x#!
x"!
x!!
x~
x}
x|
x{
xz
xy
xx
xw
xv
xu
xt
xs
xr
xC!
xB!
xA!
x@!
x?!
x>!
x=!
x<!
x;!
x:!
x9!
x8!
x7!
x6!
x5!
x4!
x3!
x2!
x1!
x0!
x/!
x.!
x-!
x,!
x+!
x*!
x)!
x(!
x'!
x&!
x%!
x$!
xn!
1o!
xm!
xp!
xq!
xr!
$end
#2000
1!
1Q
b1 s!
0r!
0q!
0p!
0[!
0\!
0]!
0G!
#4000
1"
1>
0=
0O
1P
07
16
15
14
03
02
11
10
0/
0.
0-
0,
0+
0*
1)
1(
1'
0&
0%
0$
0#
1N
0M
0L
0K
1J
0I
1H
0G
1F
0E
1D
0C
0B
0A
0@
0?
0<
1;
1:
09
08
b110 E!
b1100000011001110 K!
b110 I!
b110 V!
b0 _!
b0 `!
b1111111110101010 a!
b101010100010000000000000000 N!
b101010100010000000000000000 Q!
b10101010001 ^!
1O!
b1 W!
b1 t!
b1 v!
0x!
1w!
b1 D!
b0 E!
b1 F!
b101010100010000000000000000 g!
b110 e!
b1 f!
0C!
1B!
0A!
1@!
0?!
1>!
0=!
1<!
1;!
1:!
19!
18!
17!
16!
15!
14!
03!
02!
01!
00!
0/!
0.!
0-!
0,!
0+!
0*!
0)!
0(!
0'!
0&!
0%!
0$!
0#!
0"!
0!!
0~
0}
0|
0{
0z
0y
0x
0w
0v
0u
0t
0s
0r
b1 H!
b0 I!
b1 J!
1m!
b1000 s!
1r!
1]!
1G!
#6000
0!
0Q
#8000
0"
#10000
1!
1Q
b1010101000100000000000000000 h!
b1010101000100000000000000000 R!
#12000
1"
#14000
0!
0Q
#16000
0"
#18000
1!
1Q
#20000
1"
0>
1O
0P
04
13
12
00
1-
1,
1*
0)
0(
1&
1$
0N
1M
1L
1K
0J
1I
0F
1C
1@
1?
1<
0;
b101 E!
b10110001110110 K!
b101 I!
b101 V!
b101010100010 a!
b1100110001101110 N!
b1100110001101110 Q!
b1100110001101110 ^!
b1011 t!
b1011 D!
b0 E!
b1100110001101110 g!
b101 e!
0@!
0;!
09!
07!
06!
05!
04!
b11111111101010100000000000000000 h!
b1011 H!
b0 I!
b11111111101010100000000000000000 R!
#22000
0!
0Q
#24000
0"
#26000
1!
1Q
b11111111101010101100110001101110 h!
b11111111101010101100110001101110 R!
#28000
1"
#30000
0!
0Q
#32000
0"
#34000
1!
1Q
b11111111101010101001100011011100 h!
b11111111101010101001100011011100 R!
#36000
1"
1>
0O
1P
05
03
02
1/
1.
0,
1+
1)
1(
0&
0$
1#
0M
0L
1J
0I
1G
1E
0C
1B
0<
1;
0:
b10 E!
b1111011101000010 K!
b10 I!
b10 V!
b1001100011011100 _!
b1111111110101010 a!
b11010110110110000000000000000000 N!
b11010110110110000000000000000000 Q!
b110111110110100 ^!
b10001 t!
b10001 D!
b0 E!
b11010110110110000000000000000000 g!
b10 e!
1@!
1;!
19!
17!
16!
15!
14!
1!!
1~
1}
1{
1z
1v
1u
1r
b10010001101000000000000000000 h!
b10001 H!
b0 I!
b10010001101000000000000000000 R!
#38000
0!
0Q
#40000
0"
#42000
1!
1Q
b10101101101100000000000000000000 h!
b10101101101100000000000000000000 R!
#44000
1"
#46000
0!
0Q
#48000
0"
#50000
1!
1Q
#52000
1"
0>
1O
0P
17
14
13
12
01
0/
1,
0+
0)
0'
1$
0#
1L
0K
1I
0H
0G
0D
1C
0B
0?
1<
0;
1:
b101 E!
b1010111000111011 K!
b101 I!
b101 V!
b0 _!
b1010110110110000 a!
b100101000110100 N!
b100101000110100 Q!
b100101000110100 ^!
b1000 t!
1x!
0w!
b1000 D!
b0 E!
b100101000110100 g!
b101 e!
0B!
0@!
1?!
0:!
07!
05!
0!!
0~
0}
0{
0z
0v
0u
0r
b11111111101010101001100011011100 h!
b1000 H!
b0 I!
b11111111101010101001100011011100 R!
#54000
0!
0Q
#56000
0"
#58000
1!
1Q
b11111111101010101110001100010000 h!
b11111111101010101110001100010000 R!
#60000
1"
#62000
0!
0Q
#64000
0"
#66000
1!
1Q
b11111111101010100010110101000100 h!
b11111111101010100010110101000100 R!
#68000
1"
1=
0O
1P
10
0,
1'
1N
1K
0J
0I
1G
1D
0C
1A
1?
0<
0:
b1010011010111011 K!
b0 V!
b10110101000100 _!
b1111111110101010 a!
b11100110100011010000000000000000 N!
b11100110100011010000000000000000 Q!
b1001111010001 ^!
b1001 t!
1w!
b1001 D!
b11100110100011010000000000000000 g!
b0 e!
1B!
1@!
0?!
1:!
17!
15!
1!!
1{
1y
1w
1v
1t
b11111111101010100000000000000000 h!
b1001 H!
b11111111101010100000000000000000 R!
#70000
0!
0Q
#72000
0"
#74000
1!
1Q
b11001101000110100000000000000000 h!
b11001101000110100000000000000000 R!
#76000
1"
#78000
0!
0Q
#80000
0"
#82000
1!
1Q
#84000
1"
1>
07
06
04
03
11
00
1/
0.
0-
1,
1+
1)
1%
1#
1M
0L
1J
1H
0E
0D
1B
1;
b10 E!
b1111100101100000 K!
b10 I!
b10 V!
b0 _!
b1100110100011010 a!
b11110000110110110000000000000000 N!
b11110000110110110000000000000000 Q!
b1111000011011011 ^!
b11101 t!
0x!
b11101 D!
b0 E!
b11110000110110110000000000000000 g!
b10 e!
1?!
0>!
0<!
0:!
07!
06!
0!!
0{
0y
0w
0v
0t
b10101101101100000000000000000000 h!
b11101 H!
b0 I!
b10101101101100000000000000000000 R!
#86000
0!
0Q
#88000
0"
#90000
1!
1Q
b11100001101101100000000000000000 h!
b11100001101101100000000000000000 R!
#92000
1"
#94000
0!
0Q
#96000
0"
#98000
1!
1Q
#100000
1"
16
15
14
01
10
0,
0+
0(
1&
0%
1L
0J
1I
0H
1F
0B
0@
1<
b11 E!
b110000110101110 K!
b11 I!
b11 V!
b1110000110110110 a!
b10100001101011110000000000000000 N!
b10100001101011110000000000000000 Q!
b1010000110101111 ^!
b11011 t!
b11011 D!
b0 E!
b10100001101011110000000000000000 g!
b11 e!
1A!
0@!
1>!
1<!
09!
08!
16!
b11111111101010100000000000000000 h!
b11011 H!
b0 I!
b11111111101010100000000000000000 R!
#102000
0!
0Q
#104000
0"
#106000
1!
1Q
b1000011010111100000000000000000 h!
b1000011010111100000000000000000 R!
#108000
1"
#110000
0!
0Q
#112000
0"
#114000
1!
1Q
#116000
1"
0>
05
04
11
00
1.
1,
1+
1(
0$
0#
0L
0F
1E
1D
1@
0?
0<
0;
b1111101101100010 K!
b0 V!
b100001101011110 a!
b1100110101010110000000000000000 N!
b1100110101010110000000000000000 Q!
b110011010101011 ^!
0O!
b0 W!
b11 t!
b11 D!
b1100110101010110000000000000000 g!
b0 e!
b0 f!
1@!
0>!
1=!
0<!
1:!
06!
04!
b11001101000110100000000000000000 h!
b11 H!
b11001101000110100000000000000000 R!
0m!
#118000
0!
0Q
#120000
0"
#122000
1!
1Q
#124000
1"
#126000
0!
0Q
#128000
0"
#130000
1!
1Q
#132000
1"
1>
0=
06
14
02
10
1-
0+
0*
0(
1#
1L
1J
0I
0G
0E
0D
1C
0@
1<
19
b1001 E!
b100111111001000 K!
b1001 I!
b1010011010111011 L!
1q
1p
1n
1m
1l
1j
1h
1g
1d
1b
b1001 V!
b1010011010111011 `!
b1100110100011010 a!
b101000000111110000000000000000 N!
b101000000111110000000000000000 Q!
b1000000101100100 ^!
1O!
b1 W!
b10011 t!
b10011 D!
b0 E!
b101000000111110000000000000000 g!
b1001 e!
b1 f!
0A!
0=!
0:!
19!
18!
14!
b11111111101010100000000000000000 h!
b10011 H!
b0 I!
b0 L!
b11111111101010100000000000000000 R!
0q
0p
0n
0m
0l
0j
0h
0g
0d
0b
1m!
#134000
0!
0Q
#136000
0"
#138000
1!
1Q
b1010000001111100000000000000000 h!
b1010000001111100000000000000000 R!
#140000
1"
#142000
0!
0Q
#144000
0"
#146000
1!
1Q
#148000
1"
0>
1=
1O
0P
00
0/
0.
1+
1*
0)
0&
1%
0#
0N
1H
0C
1?
0<
1;
b1010 E!
b11110001001000 K!
b1010 I!
b1010 V!
b0 `!
b101000000111110 a!
b1010000001011110 N!
b1010000001011110 Q!
b1010000001011110 ^!
b101 t!
b101 D!
b0 E!
b1010000001011110 g!
b1010 e!
1A!
1>!
0;!
09!
08!
17!
04!
b11111111101010100000000000000000 h!
b101 H!
b0 I!
b11111111101010100000000000000000 R!
#150000
0!
0Q
#152000
0"
#154000
1!
1Q
b11111111101010101010000001011110 h!
b11111111101010101010000001011110 R!
#156000
1"
#158000
0!
0Q
#160000
0"
#162000
1!
1Q
b11111111101010100100000010111100 h!
b11111111101010100100000010111100 R!
#164000
1"
1>
0=
0O
1P
17
15
04
12
01
10
1/
0,
0+
1(
0%
1$
1#
0M
0L
1I
0H
1F
1E
1B
1<
09
b11 E!
b1010010110100101 K!
b11 I!
b1111101101100010 L!
1p
1l
1k
1i
1h
1f
1e
1d
1c
1b
b11 V!
b100000010111100 _!
b1111101101100010 `!
b1111111110101010 a!
b10110011001110000000000000000000 N!
b10110011001110000000000000000000 Q!
b1111100010010010 ^!
b11001 t!
1x!
b11001 D!
b0 E!
b10110011001110000000000000000000 g!
b11 e!
0A!
0?!
1<!
1;!
1:!
19!
18!
16!
14!
1!!
1~
1}
1|
1z
1s
b1000011010111100000000000000000 h!
b11001 H!
b0 I!
b0 L!
b1000011010111100000000000000000 R!
0p
0l
0k
0i
0h
0f
0e
0d
0c
0b
#166000
0!
0Q
#168000
0"
#170000
1!
1Q
b1100110011100000000000000000000 h!
b1100110011100000000000000000000 R!
#172000
1"
#174000
0!
0Q
#176000
0"
#178000
1!
1Q
#180000
1"
0>
1=
07
16
14
13
00
0-
1+
1)
0$
1N
1M
1L
0J
0I
1G
0F
0E
1D
0B
1@
0;
1:
b101 E!
b1111000100111110 K!
b101 I!
b111100010010000 L!
1m
1j
1f
1e
1d
1c
b101 V!
b0 _!
b111100010010000 `!
b110011001110000 a!
b11100100100011110000000000000000 N!
b11100100100011110000000000000000 Q!
b110101111111111 ^!
0O!
b0 W!
b10001 t!
0x!
b10001 D!
b0 E!
b11100100100011110000000000000000 g!
b101 e!
b0 f!
0B!
0@!
1?!
1=!
0<!
0;!
08!
07!
04!
0!!
0~
0}
0|
0z
0s
b11111111101010100010110101000100 h!
b10001 H!
b0 I!
b0 L!
b11111111101010100010110101000100 R!
0m
0j
0f
0e
0d
0c
0m!
#182000
0!
0Q
#184000
0"
#186000
1!
1Q
#188000
1"
#190000
0!
0Q
#192000
0"
#194000
1!
1Q
#196000
1"
17
06
02
0/
1-
0'
1&
1$
0N
0M
0L
1J
1I
1H
1F
1C
0A
0<
1;
0:
b10 E!
b1111010000011101 K!
b10 I!
b10 V!
b10110101000100 _!
b0 `!
b1111111110101010 a!
b11001101111110000000000000000000 N!
b11001101111110000000000000000000 Q!
b1111101100111100 ^!
1O!
b1 W!
b11010 t!
1x!
0w!
b11010 D!
b0 E!
b11001101111110000000000000000000 g!
b10 e!
b1 f!
1B!
1@!
0?!
0=!
1<!
1;!
18!
17!
14!
1!!
1{
1y
1w
1v
1t
b11100001101101100000000000000000 h!
b11010 H!
b0 I!
b11100001101101100000000000000000 R!
1m!
#198000
0!
0Q
#200000
0"
#202000
1!
1Q
b10011011111100000000000000000000 h!
b10011011111100000000000000000000 R!
#204000
1"
#206000
0!
0Q
#208000
0"
#210000
1!
1Q
#212000
1"
1>
1O
0P
07
16
05
03
12
10
1/
0*
0)
0(
1'
0#
0J
0G
0D
0C
0?
19
b1010 E!
b1010110101010 K!
b1010 I!
b1010 V!
b0 _!
b1001101111110000 a!
b100000101101000 N!
b100000101101000 Q!
b100000101101000 ^!
b1011 t!
0x!
1w!
b1011 D!
b0 E!
b100000101101000 g!
b1010 e!
0B!
0@!
1?!
1=!
09!
06!
05!
0!!
0{
0y
0w
0v
0t
b11111111101010100100000010111100 h!
b1011 H!
b0 I!
b11111111101010100100000010111100 R!
#214000
0!
0Q
#216000
0"
#218000
1!
1Q
b11111111101010101000001000100100 h!
b11111111101010101000001000100100 R!
#220000
1"
#222000
0!
0Q
#224000
0"
#226000
1!
1Q
b11111111101010101100001110001100 h!
b11111111101010101100001110001100 R!
#228000
1"
0>
17
02
00
0-
1,
1)
1(
0'
0&
0$
1#
1N
1J
0I
0H
0F
1E
1C
0@
1?
0;
1:
09
b100 E!
b1101100100001011 K!
b100 I!
b100 V!
b1100001110001100 _!
b1111111110101010 a!
b1000101000011001 N!
b1000101000011001 Q!
b100110110100101 ^!
b10000 t!
1x!
0w!
b10000 D!
b0 E!
b1000101000011001 g!
b100 e!
1B!
1@!
0?!
0=!
19!
16!
15!
1!!
1~
1z
1y
1x
1s
1r
b11111111101010100000000000000000 h!
b10000 H!
b0 I!
b11111111101010100000000000000000 R!
#230000
0!
0Q
#232000
0"
#234000
1!
1Q
b11111111101010101000101000011001 h!
b11111111101010101000101000011001 R!
#236000
1"
#238000
0!
0Q
#240000
0"
#242000
1!
1Q
b11111111101010100001010000110010 h!
b11111111101010100001010000110010 R!
#244000
1"
1>
0=
07
06
15
04
13
10
1.
0,
0+
0)
1&
1%
1$
1M
1L
0K
0J
1I
1G
0E
1B
1@
1<
0:
b1 E!
b1000001110010100 K!
b1 I!
b1100000011001110 L!
1p
1o
1n
1k
1j
1c
1b
b1 V!
b1010000110010 _!
b1100000011001110 `!
b1101100010100111 N!
b1101100010100111 Q!
b10110000001011 ^!
b11110 t!
0x!
b11110 D!
b0 E!
b1101100010100111 g!
b1 e!
1"!
0!!
0~
1}
1|
0z
0y
0x
1w
1u
0s
0r
b11111111101010100000000000000000 h!
b11110 H!
b0 I!
b0 L!
b11111111101010100000000000000000 R!
0p
0o
0n
0k
0j
0c
0b
#246000
0!
0Q
#248000
0"
#250000
1!
1Q
b11111111101010101101100010100111 h!
b11111111101010101101100010100111 R!
#252000
1"
#254000
0!
0Q
#256000
0"
#258000
1!
1Q
b11111111101010101011000101001110 h!
b11111111101010101011000101001110 R!
#260000
1"
0>
1=
16
05
14
12
00
0/
0.
1-
1,
1*
0&
0#
0I
1H
0G
0C
0B
1A
0@
0<
1;
b10 E!
b1010110000111010 K!
b10 I!
b10 V!
b1011000101001110 _!
b0 `!
b1010000001000111 N!
b1010000001000111 Q!
b101000110010101 ^!
b1100 t!
b1100 D!
b0 E!
b1010000001000111 g!
b10 e!
1!!
1~
0}
0|
1{
1y
0w
1t
1r
b10011011111100000000000000000000 h!
b1100 H!
b0 I!
b10011011111100000000000000000000 R!
#262000
0!
0Q
#264000
0"
#266000
1!
1Q
b10011011111100001010000001000111 h!
b10011011111100001010000001000111 R!
#268000
1"
#270000
0!
0Q
#272000
0"
#274000
1!
1Q
b10011011111100000100000010001110 h!
b10011011111100000100000010001110 R!
#276000
1"
1>
0=
0O
1P
06
04
03
1/
1.
0,
1+
0$
1#
0L
1K
1J
0H
1F
1D
1C
1B
1@
0?
b1011011100100000 K!
b100000010001110 _!
b1001101111110000 a!
b1111101000110110000000000000000 N!
b1111101000110110000000000000000 Q!
b1011110110101001 ^!
b10100 t!
b10100 D!
b1111101000110110000000000000000 g!
0B!
0@!
1?!
1=!
09!
06!
05!
0{
1z
0y
0u
0t
1s
0r
b10100 H!
#278000
0!
0Q
#280000
0"
#282000
1!
1Q
b11111010001101100100000010001110 h!
b11111010001101100100000010001110 R!
#284000
1"
#286000
0!
0Q
#288000
0"
#290000
1!
1Q
