testbench/tbenchoutputs/upstream/upstreamdump.vcd
$date
	Thu May 26 15:23:31 2022
$end
$version
	QuestaSim Version 10.7c
$end
$timescale
	1ps
$end

$scope module tb_top_UPDOWNSTREAM $end
$var reg 1 ! clk $end
$var reg 1 " slowclk $end

$scope module TOP $end
$var wire 1 # exchange_client_id [4] $end
$var wire 1 $ exchange_client_id [3] $end
$var wire 1 % exchange_client_id [2] $end
$var wire 1 & exchange_client_id [1] $end
$var wire 1 ' exchange_client_id [0] $end
$var wire 1 ( exchange_amount [15] $end
$var wire 1 ) exchange_amount [14] $end
$var wire 1 * exchange_amount [13] $end
$var wire 1 + exchange_amount [12] $end
$var wire 1 , exchange_amount [11] $end
$var wire 1 - exchange_amount [10] $end
$var wire 1 . exchange_amount [9] $end
$var wire 1 / exchange_amount [8] $end
$var wire 1 0 exchange_amount [7] $end
$var wire 1 1 exchange_amount [6] $end
$var wire 1 2 exchange_amount [5] $end
$var wire 1 3 exchange_amount [4] $end
$var wire 1 4 exchange_amount [3] $end
$var wire 1 5 exchange_amount [2] $end
$var wire 1 6 exchange_amount [1] $end
$var wire 1 7 exchange_amount [0] $end
$var wire 1 8 cpu_client_id [9] $end
$var wire 1 9 cpu_client_id [8] $end
$var wire 1 : cpu_client_id [7] $end
$var wire 1 ; cpu_client_id [6] $end
$var wire 1 < cpu_client_id [5] $end
$var wire 1 = cpu_client_id [4] $end
$var wire 1 > cpu_client_id [3] $end
$var wire 1 ? cpu_client_id [2] $end
$var wire 1 @ cpu_client_id [1] $end
$var wire 1 A cpu_client_id [0] $end
$var wire 1 B HRESETn $end
$var wire 1 C exchange_go $end
$var wire 1 D cpu_amount [15] $end
$var wire 1 E cpu_amount [14] $end
$var wire 1 F cpu_amount [13] $end
$var wire 1 G cpu_amount [12] $end
$var wire 1 H cpu_amount [11] $end
$var wire 1 I cpu_amount [10] $end
$var wire 1 J cpu_amount [9] $end
$var wire 1 K cpu_amount [8] $end
$var wire 1 L cpu_amount [7] $end
$var wire 1 M cpu_amount [6] $end
$var wire 1 N cpu_amount [5] $end
$var wire 1 O cpu_amount [4] $end
$var wire 1 P cpu_amount [3] $end
$var wire 1 Q cpu_amount [2] $end
$var wire 1 R cpu_amount [1] $end
$var wire 1 S cpu_amount [0] $end
$var wire 1 T cpu_go $end
$var wire 1 U cpu_new_max $end
$var wire 1 V clk $end
$var wire 1 W cancelled_orders [31] $end
$var wire 1 X cancelled_orders [30] $end
$var wire 1 Y cancelled_orders [29] $end
$var wire 1 Z cancelled_orders [28] $end
$var wire 1 [ cancelled_orders [27] $end
$var wire 1 \ cancelled_orders [26] $end
$var wire 1 ] cancelled_orders [25] $end
$var wire 1 ^ cancelled_orders [24] $end
$var wire 1 _ cancelled_orders [23] $end
$var wire 1 ` cancelled_orders [22] $end
$var wire 1 a cancelled_orders [21] $end
$var wire 1 b cancelled_orders [20] $end
$var wire 1 c cancelled_orders [19] $end
$var wire 1 d cancelled_orders [18] $end
$var wire 1 e cancelled_orders [17] $end
$var wire 1 f cancelled_orders [16] $end
$var wire 1 g cancelled_orders [15] $end
$var wire 1 h cancelled_orders [14] $end
$var wire 1 i cancelled_orders [13] $end
$var wire 1 j cancelled_orders [12] $end
$var wire 1 k cancelled_orders [11] $end
$var wire 1 l cancelled_orders [10] $end
$var wire 1 m cancelled_orders [9] $end
$var wire 1 n cancelled_orders [8] $end
$var wire 1 o cancelled_orders [7] $end
$var wire 1 p cancelled_orders [6] $end
$var wire 1 q cancelled_orders [5] $end
$var wire 1 r cancelled_orders [4] $end
$var wire 1 s cancelled_orders [3] $end
$var wire 1 t cancelled_orders [2] $end
$var wire 1 u cancelled_orders [1] $end
$var wire 1 v cancelled_orders [0] $end
$var wire 1 w accumulated_orders [15] $end
$var wire 1 x accumulated_orders [14] $end
$var wire 1 y accumulated_orders [13] $end
$var wire 1 z accumulated_orders [12] $end
$var wire 1 { accumulated_orders [11] $end
$var wire 1 | accumulated_orders [10] $end
$var wire 1 } accumulated_orders [9] $end
$var wire 1 ~ accumulated_orders [8] $end
$var wire 1 !! accumulated_orders [7] $end
$var wire 1 "! accumulated_orders [6] $end
$var wire 1 #! accumulated_orders [5] $end
$var wire 1 $! accumulated_orders [4] $end
$var wire 1 %! accumulated_orders [3] $end
$var wire 1 &! accumulated_orders [2] $end
$var wire 1 '! accumulated_orders [1] $end
$var wire 1 (! accumulated_orders [0] $end
$var wire 1 )! max_to_trade [31] $end
$var wire 1 *! max_to_trade [30] $end
$var wire 1 +! max_to_trade [29] $end
$var wire 1 ,! max_to_trade [28] $end
$var wire 1 -! max_to_trade [27] $end
$var wire 1 .! max_to_trade [26] $end
$var wire 1 /! max_to_trade [25] $end
$var wire 1 0! max_to_trade [24] $end
$var wire 1 1! max_to_trade [23] $end
$var wire 1 2! max_to_trade [22] $end
$var wire 1 3! max_to_trade [21] $end
$var wire 1 4! max_to_trade [20] $end
$var wire 1 5! max_to_trade [19] $end
$var wire 1 6! max_to_trade [18] $end
$var wire 1 7! max_to_trade [17] $end
$var wire 1 8! max_to_trade [16] $end
$var wire 1 9! max_to_trade [15] $end
$var wire 1 :! max_to_trade [14] $end
$var wire 1 ;! max_to_trade [13] $end
$var wire 1 <! max_to_trade [12] $end
$var wire 1 =! max_to_trade [11] $end
$var wire 1 >! max_to_trade [10] $end
$var wire 1 ?! max_to_trade [9] $end
$var wire 1 @! max_to_trade [8] $end
$var wire 1 A! max_to_trade [7] $end
$var wire 1 B! max_to_trade [6] $end
$var wire 1 C! max_to_trade [5] $end
$var wire 1 D! max_to_trade [4] $end
$var wire 1 E! max_to_trade [3] $end
$var wire 1 F! max_to_trade [2] $end
$var wire 1 G! max_to_trade [1] $end
$var wire 1 H! max_to_trade [0] $end
$var reg 32 I! cancelled_orders_reg [31:0] $end

$scope fork downdatareq $end
$var reg 10 J! wrindex [9:0] $end
$var reg 10 K! rdindex [9:0] $end
$var reg 32 L! data [31:0] $end
$var reg 1 M! rw $end
$var reg 1 N! valid $end
$upscope $end

$scope fork mem_data $end
$var reg 129 O! data [128:0] $end
$var reg 1 P! ready $end
$upscope $end

$scope fork mem_req $end
$var reg 10 Q! addr [9:0] $end
$var reg 10 R! wraddr [9:0] $end
$var reg 128 S! data [127:0] $end
$var reg 1 T! rw $end
$var reg 1 U! valid $end
$upscope $end

$scope fork downexchrest $end
$var reg 32 V! data [31:0] $end
$var reg 1 W! ready $end
$upscope $end
$var wire 1 X! thenewmax $end

$scope module CACHEDOWNSTREAM $end
$var reg 1 Y! clk $end
$var reg 1 Z! rst $end

$scope fork cpu_req $end
$var reg 10 [! wrindex [9:0] $end
$var reg 10 \! rdindex [9:0] $end
$var reg 32 ]! data [31:0] $end
$var reg 1 ^! rw $end
$var reg 1 _! valid $end
$upscope $end

$scope fork mem_data_down $end
$var reg 129 `! data [128:0] $end
$var reg 1 a! ready $end
$upscope $end

$scope fork mem_req $end
$var reg 10 b! addr [9:0] $end
$var reg 10 c! wraddr [9:0] $end
$var reg 128 d! data [127:0] $end
$var reg 1 e! rw $end
$var reg 1 f! valid $end
$upscope $end

$scope fork cpu_res $end
$var reg 32 g! data [31:0] $end
$var reg 1 h! ready $end
$upscope $end
$var integer 32 i! vstate $end
$var integer 32 j! rstate $end
$var reg 15 k! tag_read [14:0] $end
$var reg 15 l! tag_write [14:0] $end

$scope fork tag_req $end
$var reg 10 m! wrindex [9:0] $end
$var reg 10 n! rdindex [9:0] $end
$var reg 1 o! we $end
$upscope $end
$var reg 129 p! data_read [128:0] $end
$var reg 129 q! data_write [128:0] $end

$scope fork data_req $end
$var reg 10 r! wrindex [9:0] $end
$var reg 10 s! rdindex [9:0] $end
$var reg 1 t! we $end
$upscope $end

$scope fork v_cpu_res $end
$var reg 32 u! data [31:0] $end
$var reg 1 v! ready $end
$upscope $end

$scope fork v_mem_req $end
$var reg 10 w! addr [9:0] $end
$var reg 10 x! wraddr [9:0] $end
$var reg 128 y! data [127:0] $end
$var reg 1 z! rw $end
$var reg 1 {! valid $end
$upscope $end

$scope module ctag $end
$var reg 1 |! clk $end

$scope fork tag_req $end
$var reg 10 }! wrindex [9:0] $end
$var reg 10 ~! rdindex [9:0] $end
$var reg 1 !" we $end
$upscope $end
$var reg 15 "" tag_write [14:0] $end
$var reg 15 #" tag_read [14:0] $end
$upscope $end

$scope module cdata $end
$var wire 1 $" clk $end

$scope fork data_req $end
$var reg 10 %" wrindex [9:0] $end
$var reg 10 &" rdindex [9:0] $end
$var reg 1 '" we $end
$upscope $end
$var reg 129 (" data_write [128:0] $end
$var reg 129 )" data_read [128:0] $end
$var reg 5 *" i [4:0] $end
$var reg 13 +" totalsent [12:0] $end
$upscope $end

$scope module cmem $end
$var reg 1 ," clk $end

$scope fork mem_data_down $end
$var reg 129 -" data [128:0] $end
$var reg 1 ." ready $end
$upscope $end

$scope fork mem_req $end
$var reg 10 /" addr [9:0] $end
$var reg 10 0" wraddr [9:0] $end
$var reg 128 1" data [127:0] $end
$var reg 1 2" rw $end
$var reg 1 3" valid $end
$upscope $end
$var reg 5 4" i [4:0] $end
$var reg 128 5" datav [127:0] $end
$upscope $end
$upscope $end

$scope module UPTOP $end
$var wire 1 V clk $end
$var wire 1 T new_order $end
$var wire 1 U new_max $end
$var wire 1 8 client_id [9] $end
$var wire 1 9 client_id [8] $end
$var wire 1 : client_id [7] $end
$var wire 1 ; client_id [6] $end
$var wire 1 < client_id [5] $end
$var wire 1 = client_id [4] $end
$var wire 1 > client_id [3] $end
$var wire 1 ? client_id [2] $end
$var wire 1 @ client_id [1] $end
$var wire 1 A client_id [0] $end
$var wire 1 D amount [15] $end
$var wire 1 E amount [14] $end
$var wire 1 F amount [13] $end
$var wire 1 G amount [12] $end
$var wire 1 H amount [11] $end
$var wire 1 I amount [10] $end
$var wire 1 J amount [9] $end
$var wire 1 K amount [8] $end
$var wire 1 L amount [7] $end
$var wire 1 M amount [6] $end
$var wire 1 N amount [5] $end
$var wire 1 O amount [4] $end
$var wire 1 P amount [3] $end
$var wire 1 Q amount [2] $end
$var wire 1 R amount [1] $end
$var wire 1 S amount [0] $end
$var wire 1 X! thenewmax $end
$var reg 1 6" HRESETn $end
$var reg 32 7" correct_amount [31:0] $end
$var reg 1 8" pass_checks $end
$var reg 1 9" upstream_enable $end

$scope fork cpu_req $end
$var reg 10 :" wrindex [9:0] $end
$var reg 10 ;" rdindex [9:0] $end
$var reg 32 <" data [31:0] $end
$var reg 1 =" rw $end
$var reg 1 >" valid $end
$upscope $end

$scope fork mem_data $end
$var reg 129 ?" data [128:0] $end
$var reg 1 @" ready $end
$upscope $end

$scope fork mem_req $end
$var reg 10 A" addr [9:0] $end
$var reg 10 B" wraddr [9:0] $end
$var reg 128 C" data [127:0] $end
$var reg 1 D" rw $end
$var reg 1 E" valid $end
$upscope $end

$scope fork cpu_res $end
$var reg 32 F" data [31:0] $end
$var reg 1 G" ready $end
$upscope $end
$var reg 1 H" counter $end
$var reg 1 I" check_risk $end
$var reg 1 J" send_order $end
$var reg 1 K" update_max $end
$var wire 1 g cancelled_orders [15] $end
$var wire 1 h cancelled_orders [14] $end
$var wire 1 i cancelled_orders [13] $end
$var wire 1 j cancelled_orders [12] $end
$var wire 1 k cancelled_orders [11] $end
$var wire 1 l cancelled_orders [10] $end
$var wire 1 m cancelled_orders [9] $end
$var wire 1 n cancelled_orders [8] $end
$var wire 1 o cancelled_orders [7] $end
$var wire 1 p cancelled_orders [6] $end
$var wire 1 q cancelled_orders [5] $end
$var wire 1 r cancelled_orders [4] $end
$var wire 1 s cancelled_orders [3] $end
$var wire 1 t cancelled_orders [2] $end
$var wire 1 u cancelled_orders [1] $end
$var wire 1 v cancelled_orders [0] $end
$var reg 16 L" result [15:0] $end
$var reg 16 M" accumulated_orders_reg [15:0] $end
$var reg 16 N" cancelled_orders_reg [15:0] $end
$var wire 1 w accumulated_orders [15] $end
$var wire 1 x accumulated_orders [14] $end
$var wire 1 y accumulated_orders [13] $end
$var wire 1 z accumulated_orders [12] $end
$var wire 1 { accumulated_orders [11] $end
$var wire 1 | accumulated_orders [10] $end
$var wire 1 } accumulated_orders [9] $end
$var wire 1 ~ accumulated_orders [8] $end
$var wire 1 !! accumulated_orders [7] $end
$var wire 1 "! accumulated_orders [6] $end
$var wire 1 #! accumulated_orders [5] $end
$var wire 1 $! accumulated_orders [4] $end
$var wire 1 %! accumulated_orders [3] $end
$var wire 1 &! accumulated_orders [2] $end
$var wire 1 '! accumulated_orders [1] $end
$var wire 1 (! accumulated_orders [0] $end
$var wire 1 )! max_to_trade [31] $end
$var wire 1 *! max_to_trade [30] $end
$var wire 1 +! max_to_trade [29] $end
$var wire 1 ,! max_to_trade [28] $end
$var wire 1 -! max_to_trade [27] $end
$var wire 1 .! max_to_trade [26] $end
$var wire 1 /! max_to_trade [25] $end
$var wire 1 0! max_to_trade [24] $end
$var wire 1 1! max_to_trade [23] $end
$var wire 1 2! max_to_trade [22] $end
$var wire 1 3! max_to_trade [21] $end
$var wire 1 4! max_to_trade [20] $end
$var wire 1 5! max_to_trade [19] $end
$var wire 1 6! max_to_trade [18] $end
$var wire 1 7! max_to_trade [17] $end
$var wire 1 8! max_to_trade [16] $end
$var wire 1 9! max_to_trade [15] $end
$var wire 1 :! max_to_trade [14] $end
$var wire 1 ;! max_to_trade [13] $end
$var wire 1 <! max_to_trade [12] $end
$var wire 1 =! max_to_trade [11] $end
$var wire 1 >! max_to_trade [10] $end
$var wire 1 ?! max_to_trade [9] $end
$var wire 1 @! max_to_trade [8] $end
$var wire 1 A! max_to_trade [7] $end
$var wire 1 B! max_to_trade [6] $end
$var wire 1 C! max_to_trade [5] $end
$var wire 1 D! max_to_trade [4] $end
$var wire 1 E! max_to_trade [3] $end
$var wire 1 F! max_to_trade [2] $end
$var wire 1 G! max_to_trade [1] $end
$var wire 1 H! max_to_trade [0] $end
$var reg 32 O" max_to_trade_reg [31:0] $end
$var reg 1 P" memwr $end
$var reg 1 Q" nocare $end

$scope begin main_process $end

$scope begin read_fork $end
$upscope $end
$upscope $end

$scope begin trade_correctamount_cpu $end
$upscope $end

$scope begin trade_pass_checks $end
$upscope $end

$scope begin trade_state_logic1 $end
$upscope $end

$scope begin trade_state_logic2 $end
$upscope $end

$scope begin trade_state_logic3 $end
$upscope $end

$scope module CACHEUPSTREAM $end
$var reg 1 R" clk $end
$var reg 1 S" rst $end

$scope fork cpu_req $end
$var reg 10 T" wrindex [9:0] $end
$var reg 10 U" rdindex [9:0] $end
$var reg 32 V" data [31:0] $end
$var reg 1 W" rw $end
$var reg 1 X" valid $end
$upscope $end

$scope fork mem_data $end
$var reg 129 Y" data [128:0] $end
$var reg 1 Z" ready $end
$upscope $end

$scope fork mem_req $end
$var reg 10 [" addr [9:0] $end
$var reg 10 \" wraddr [9:0] $end
$var reg 128 ]" data [127:0] $end
$var reg 1 ^" rw $end
$var reg 1 _" valid $end
$upscope $end

$scope fork cpu_res $end
$var reg 32 `" data [31:0] $end
$var reg 1 a" ready $end
$upscope $end
$var integer 32 b" vstate $end
$var integer 32 c" rstate $end
$var reg 15 d" tag_read [14:0] $end
$var reg 15 e" tag_write [14:0] $end

$scope fork tag_req $end
$var reg 10 f" wrindex [9:0] $end
$var reg 10 g" rdindex [9:0] $end
$var reg 1 h" we $end
$upscope $end
$var reg 129 i" data_read [128:0] $end
$var reg 129 j" data_write [128:0] $end

$scope fork data_req $end
$var reg 10 k" wrindex [9:0] $end
$var reg 10 l" rdindex [9:0] $end
$var reg 1 m" we $end
$upscope $end

$scope fork v_cpu_res $end
$var reg 32 n" data [31:0] $end
$var reg 1 o" ready $end
$upscope $end

$scope fork v_mem_req $end
$var reg 10 p" addr [9:0] $end
$var reg 10 q" wraddr [9:0] $end
$var reg 128 r" data [127:0] $end
$var reg 1 s" rw $end
$var reg 1 t" valid $end
$upscope $end

$scope begin idle_state $end
$upscope $end

$scope begin compare_tag_state $end

$scope begin cache_hit $end

$scope begin write_hit $end
$upscope $end
$upscope $end

$scope begin cache_miss $end

$scope begin dirty_line_miss $end
$upscope $end
$upscope $end
$upscope $end

$scope begin allocate_state $end
$upscope $end

$scope begin write_back_state $end
$upscope $end

$scope module ctag $end
$var reg 1 u" clk $end

$scope fork tag_req $end
$var reg 10 v" wrindex [9:0] $end
$var reg 10 w" rdindex [9:0] $end
$var reg 1 x" we $end
$upscope $end
$var reg 15 y" tag_write [14:0] $end
$var reg 15 z" tag_read [14:0] $end
$var reg 1 {" tagvdirty $end
$var reg 7 |" i [6:0] $end

$scope begin dirty_wait_fork $end
$upscope $end
$upscope $end

$scope module cdata $end
$var wire 1 }" clk $end
$var reg 5 ~" i [4:0] $end
$var reg 13 !# totalsent [12:0] $end
$var reg 13 "# totalacc [12:0] $end

$scope fork data_req $end
$var reg 10 ## wrindex [9:0] $end
$var reg 10 $# rdindex [9:0] $end
$var reg 1 %# we $end
$upscope $end
$var reg 129 &# data_write [128:0] $end
$var reg 129 '# data_read [128:0] $end
$var reg 32 (# data_writeprev [31:0] $end

$scope begin trade_risk_check_mem $end
$upscope $end
$upscope $end

$scope module cmem $end
$var reg 1 )# clk $end

$scope fork mem_data $end
$var reg 129 *# data [128:0] $end
$var reg 1 +# ready $end
$upscope $end

$scope fork mem_req $end
$var reg 10 ,# addr [9:0] $end
$var reg 10 -# wraddr [9:0] $end
$var reg 128 .# data [127:0] $end
$var reg 1 /# rw $end
$var reg 1 0# valid $end
$upscope $end
$var reg 5 1# i [4:0] $end
$var reg 128 2# datav [127:0] $end
$var reg 1 3# datardy $end

$scope begin write_wait_fork $end
$upscope $end
$upscope $end
$upscope $end

$scope module UPSTREAMPROCESSOR $end
$var parameter 5 4# IDLE $end
$var parameter 5 5# STATE_RISKCHECK $end
$var parameter 5 6# STATE_SENDORDER $end
$var parameter 5 7# STATE_NEWMAX $end
$var wire 1 V clk $end
$var wire 1 8# risk_ok $end
$var wire 1 T new_order $end
$var wire 1 U new_max $end
$var wire 1 9# memwr $end
$var wire 1 :# HRESETn $end
$var wire 1 ;# check_risk $end
$var wire 1 <# send_order $end
$var wire 1 =# update_max $end
$var reg 5 ># state [4:0] $end
$upscope $end
$upscope $end

$scope module DOWNTOP $end
$var wire 1 # client_id [4] $end
$var wire 1 $ client_id [3] $end
$var wire 1 % client_id [2] $end
$var wire 1 & client_id [1] $end
$var wire 1 ' client_id [0] $end
$var wire 1 V clk $end
$var wire 1 ( amount [15] $end
$var wire 1 ) amount [14] $end
$var wire 1 * amount [13] $end
$var wire 1 + amount [12] $end
$var wire 1 , amount [11] $end
$var wire 1 - amount [10] $end
$var wire 1 . amount [9] $end
$var wire 1 / amount [8] $end
$var wire 1 0 amount [7] $end
$var wire 1 1 amount [6] $end
$var wire 1 2 amount [5] $end
$var wire 1 3 amount [4] $end
$var wire 1 4 amount [3] $end
$var wire 1 5 amount [2] $end
$var wire 1 6 amount [1] $end
$var wire 1 7 amount [0] $end

$scope fork downdatareq $end
$var reg 10 ?# wrindex [9:0] $end
$var reg 10 @# rdindex [9:0] $end
$var reg 32 A# data [31:0] $end
$var reg 1 B# rw $end
$var reg 1 C# valid $end
$upscope $end
$var reg 1 D# old_client $end
$var reg 1 E# old_amount $end

$scope begin downstream_write_enable $end
$upscope $end
$upscope $end
$upscope $end
$upscope $end

$scope begin tb_top_UPDOWNSTREAM_sv_unit $end
$upscope $end

$scope begin std $end
$upscope $end

$scope begin cache_def $end
$var parameter 32 F# TAGMSB $end
$var parameter 32 G# TAGLSB $end
$upscope $end

$scope begin top_sv_unit $end
$var parameter 32 H# TAGMAX $end
$upscope $end
$enddefinitions $end
#0
$dumpvars
0!
0"
b0 I!
0Y!
0Z!
b0 k!
b0 l!
b0 p!
b0 q!
0|!
b0 ""
b0 #"
b0 ("
b0 )"
bx *"
b0 +"
0,"
bx 4"
bx 5"
x6"
bx 7"
x8"
x9"
xH"
xI"
xJ"
xK"
bx L"
bx M"
bx N"
bx O"
xP"
xQ"
0R"
0S"
b100000000000000 d"
b0 e"
b11111111101010100000000000000000 i"
b0 j"
0u"
b0 y"
b100000000000000 z"
x{"
bx |"
bx ~"
b0 !#
b0 "#
b0 &#
b11111111101010100000000000000000 '#
b0 (#
0)#
bx 1#
bx 2#
x3#
bx >#
xD#
xE#
b0 J!
b0 K!
b0 L!
b0 M!
b1 N!
b0 O!
b0 P!
b0 Q!
b0 R!
b0 S!
b0 T!
b0 U!
b0 V!
b0 W!
b0 [!
b0 \!
b0 ]!
b0 ^!
b1 _!
b0 `!
b0 a!
b0 b!
b0 c!
b0 d!
b0 e!
b0 f!
b0 g!
b0 h!
b0 m!
b0 n!
b0 o!
b0 r!
b0 s!
b0 t!
b0 u!
b0 v!
b0 w!
b0 x!
b0 y!
b0 z!
b0 {!
b0 }!
b0 ~!
b0 !"
b0 %"
b0 &"
b0 '"
b0 -"
b1 ."
b0 /"
b0 0"
b0 1"
b0 2"
b0 3"
b0 :"
b0 ;"
b0 <"
b0 ="
b0 >"
b0 ?"
b0 @"
b0 A"
b0 B"
b0 C"
b0 D"
b0 E"
b11111111101010100000000000000000 F"
b0 G"
b0 T"
b0 U"
b0 V"
b0 W"
b0 X"
b0 Y"
b0 Z"
b0 ["
b0 \"
b0 ]"
b0 ^"
b0 _"
b11111111101010100000000000000000 `"
b0 a"
b0 f"
b0 g"
b0 h"
b0 k"
b0 l"
b0 m"
b11111111101010100000000000000000 n"
b0 o"
b0 p"
b0 q"
b0 r"
b0 s"
b0 t"
b0 v"
b0 w"
b0 x"
b0 ##
b0 $#
b0 %#
b0 *#
b0 +#
b0 ,#
b0 -#
b0 .#
b0 /#
b0 0#
b0 ?#
b0 @#
b0 A#
b0 B#
b1 C#
b10000 F#
b100 G#
b10000 H#
b1 4#
b10 5#
b100 6#
b1000 7#
b1 i!
b0 j!
b0 b"
b0 c"
xX!
0V
xB
xA
x@
x?
x>
x=
x<
x;
x:
x9
x8
xS
xR
xQ
xP
xO
xN
xM
xL
xK
xJ
xI
xH
xG
xF
xE
xD
xT
xU
x'
x&
x%
x$
x#
x7
x6
x5
x4
x3
x2
x1
x0
x/
x.
x-
x,
x+
x*
x)
x(
xC
0v
0u
0t
0s
0r
0q
0p
0o
0n
0m
0l
0k
0j
0i
0h
0g
0f
0e
0d
0c
0b
0a
0`
0_
0^
0]
0\
0[
0Z
0Y
0X
0W
x(!
x'!
x&!
x%!
x$!
x#!
x"!
x!!
x~
x}
x|
x{
xz
xy
xx
xw
xH!
xG!
xF!
xE!
xD!
xC!
xB!
xA!
x@!
x?!
x>!
x=!
x<!
x;!
x:!
x9!
x8!
x7!
x6!
x5!
x4!
x3!
x2!
x1!
x0!
x/!
x.!
x-!
x,!
x+!
x*!
x)!
0$"
x9#
1:#
x8#
0}"
x;#
x<#
x=#
$end
#2000
1!
1V
1Y!
1R"
1u"
1)#
1|!
1,"
1$"
1}"
b1 j!
b1 >#
0=#
0<#
0;#
0I"
0J"
0K"
0X!
b1 o!
b100000000000000 l!
b1 {!
b10 i!
b1 f!
b100000000000000 ""
b1 !"
b1 U!
b1 3"
#6000
1"
1C
0B
0T
1U
07
16
15
14
03
02
11
10
0/
0.
0-
0,
0+
0*
1)
1(
1'
0&
0%
0$
0#
1S
0R
0Q
0P
1O
0N
1M
0L
1K
0J
1I
0H
0G
0F
0E
0D
1A
0@
0?
0>
0=
1<
1;
1:
09
08
b0 M"
b0 N"
b1000010000 ;"
b1 >"
b1111111110101010 O"
b101010100010000000000000000 7"
b101010100010000000000000000 <"
b10101010001 L"
18"
b1 ="
b10000 ?#
b1 B#
b1100000011001110 A#
0E#
1D#
b10000 J!
b1100000011001110 L!
b1 M!
b1000010000 U"
b101010100010000000000000000 V"
b1 W"
b1 X"
0H!
1G!
0F!
1E!
0D!
1C!
0B!
1A!
1@!
1?!
1>!
1=!
1<!
1;!
1:!
19!
08!
07!
06!
05!
04!
03!
02!
01!
00!
0/!
0.!
0-!
0,!
0+!
0*!
0)!
0(!
0'!
0&!
0%!
0$!
0#!
0"!
0!!
0~
0}
0|
0{
0z
0y
0x
0w
b10000 [!
b1100000011001110 ]!
b1 ^!
18#
b1 i!
b0 l!
b0 o!
b1 m!
b1 r!
b1100000011001110 q!
b10000 x!
b1100000011001110 y!
b1 o!
b100000000000000 l!
b100000000000001 l!
b110000000000001 l!
b10 i!
b0 n"
b1 g"
b100001 l"
b101010100010000000000000000 j"
b11111111101010100000000000000000 n"
b1000010000 p"
b101010100010000000000000000 r"
b1 b"
b1000010000 ["
b101010100010000000000000000 ]"
b101010100010000000000000000 &#
b100001 $#
b1 w"
b10000 c!
b1100000011001110 d!
b1100000011001110 ("
b1 %"
b1 }!
b110000000000001 ""
b10000 R!
b1100000011001110 S!
b10000 0"
b1100000011001110 1"
b0 '#
b1000010000 A"
b101010100010000000000000000 C"
b1000010000 ,#
b101010100010000000000000000 .#
b0 i"
b0 b"
b0 n"
b1 b"
b0 2#
b0 `"
b0 F"
b1000 >#
1=#
1K"
1X!
#8000
0!
0V
0Y!
0R"
0u"
0)#
0|!
0,"
0$"
0}"
b1000010000 K!
b1000010000 \!
b1 i!
b0 l!
b0 o!
b100001 n!
b100001 s!
b0 q!
b1100000011001110 q!
b1000010000 w!
b1 o!
b100000000000000 l!
b100000000000001 l!
b110000000000001 l!
b10 i!
b1000010000 b!
b100001 &"
b100001 ~!
b1000010000 Q!
b1000010000 /"
b0 5"
b0 4"
#12000
0"
#14000
1!
1V
1Y!
1R"
1u"
1)#
1|!
1,"
1$"
1}"
b1 4"
b1 c"
b10 j!
b0 l!
b0 o!
b0 q!
b1100000011001110 q!
b1 i!
b0 q!
b1 t!
b1 h"
b100000000000000 e"
b100000000100001 e"
b110000000100001 e"
b1 t"
b10 b"
b1 _"
b110000000100001 y"
b1 x"
b1 '"
b0 ("
b0 !"
b0 ""
b1 E"
b1 0#
03#
b0 1#
#18000
1"
#20000
0!
0V
0Y!
0R"
0u"
0)#
0|!
0,"
0$"
0}"
#24000
0"
#26000
1!
1V
1Y!
1R"
1u"
1)#
1|!
1,"
1$"
1}"
b1 +"
b0 |"
b1 1#
b10 4"
b100000000100001 z"
b100000000100001 d"
b1 b"
b0 e"
b0 h"
b1 o"
b1 h"
b1 m"
b100001 e"
b100000000100001 e"
b110000000100001 e"
b0 b"
b1 %#
b1 a"
b1 G"
b101010100010000000000000000 (#
b10 c"
b1 j!
b1 !#
b0 t!
b1100000011001110 q!
b1 o!
b100000000000000 l!
b100000000000001 l!
b110000000000001 l!
b10 i!
b10 b"
b0 o"
b0 e"
b0 h"
b0 m"
b0 %#
b0 x"
b0 y"
b0 a"
b110000000000001 ""
b1 !"
b1100000011001110 ("
b0 '"
b0 G"
#30000
1"
0C
1T
0U
04
13
12
00
1-
1,
1*
0)
0(
1&
1$
0S
1R
1Q
1P
0O
1N
0K
1H
1E
1D
0A
1@
1=
0:
b1100100000 ;"
b0 O"
b1100110001101110 7"
b1100110001101110 <"
b1100110001101110 L"
b10110000 ?#
b10110001110110 A#
b10110000 J!
b0 K!
b10110001110110 L!
b1100100000 U"
b1100110001101110 V"
0G!
0E!
0C!
0A!
0@!
0?!
0>!
0=!
0<!
0;!
0:!
09!
b10110000 [!
b0 \!
b10110001110110 ]!
b1 i!
b0 l!
b0 o!
b0 n!
b1011 m!
b0 s!
b1011 r!
b0 q!
b10110001110110 q!
b0 w!
b10110000 x!
b10110001110110 y!
b1 o!
b100000000000000 l!
b100000000001011 l!
b110000000001011 l!
b10 i!
b10 g"
b110010 l"
b1100110001101110 j"
b1100100000 p"
b1100110001101110 r"
b1100100000 ["
b1100110001101110 ]"
b1100110001101110 &#
b110010 $#
b10 w"
b0 b!
b10110000 c!
b10110001110110 d!
b10110001110110 ("
b1011 %"
b0 &"
b1011 }!
b0 ~!
b110000000001011 ""
b0 Q!
b10110000 R!
b10110001110110 S!
b0 /"
b10110000 0"
b10110001110110 1"
b100000000000000 z"
b1100100000 A"
b1100110001101110 C"
b1100100000 ,#
b1100110001101110 .#
b100000000000000 d"
#32000
0!
0V
0Y!
0R"
0u"
0)#
0|!
0,"
0$"
0}"
b1100100000 K!
b1100100000 \!
b1 i!
b0 l!
b0 o!
b110010 n!
b110010 s!
b0 q!
b10110001110110 q!
b1100100000 w!
b1 o!
b100000000000000 l!
b100000000001011 l!
b110000000001011 l!
b10 i!
b1100100000 b!
b110010 &"
b110010 ~!
b1100100000 Q!
b1100100000 /"
#36000
0"
#38000
1!
1V
1Y!
1R"
1u"
1)#
1|!
1,"
1$"
1}"
b1 |"
b10 1#
b11 4"
b10 j!
b0 l!
b0 o!
b0 q!
b10110001110110 q!
b1 i!
b0 q!
b1 t!
b1 '"
b0 ("
b0 !"
b0 ""
#42000
1"
#44000
0!
0V
0Y!
0R"
0u"
0)#
0|!
0,"
0$"
0}"
#48000
0"
#50000
1!
1V
1Y!
1R"
1u"
1)#
1|!
1,"
1$"
1}"
b10 +"
b10 |"
b11 1#
b100 4"
b1 j!
b0 t!
b10110001110110 q!
b1 o!
b100000000000000 l!
b100000000001011 l!
b110000000001011 l!
b10 i!
b110000000001011 ""
b1 !"
b10110001110110 ("
b0 '"
