testbench/tbenchoutputs/upstream/upstreamdump.vcd
$date
	Wed May  4 16:23:58 2022
$end
$version
	QuestaSim Version 10.7c
$end
$timescale
	1ps
$end

$scope module tb_top_UPDOWNSTREAM $end
$var reg 1 ! clk $end
$var reg 1 " slowclk $end

$scope module TOP $end
$var wire 1 # exchange_client_id [4] $end
$var wire 1 $ exchange_client_id [3] $end
$var wire 1 % exchange_client_id [2] $end
$var wire 1 & exchange_client_id [1] $end
$var wire 1 ' exchange_client_id [0] $end
$var wire 1 ( exchange_amount [15] $end
$var wire 1 ) exchange_amount [14] $end
$var wire 1 * exchange_amount [13] $end
$var wire 1 + exchange_amount [12] $end
$var wire 1 , exchange_amount [11] $end
$var wire 1 - exchange_amount [10] $end
$var wire 1 . exchange_amount [9] $end
$var wire 1 / exchange_amount [8] $end
$var wire 1 0 exchange_amount [7] $end
$var wire 1 1 exchange_amount [6] $end
$var wire 1 2 exchange_amount [5] $end
$var wire 1 3 exchange_amount [4] $end
$var wire 1 4 exchange_amount [3] $end
$var wire 1 5 exchange_amount [2] $end
$var wire 1 6 exchange_amount [1] $end
$var wire 1 7 exchange_amount [0] $end
$var wire 1 8 cpu_client_id [4] $end
$var wire 1 9 cpu_client_id [3] $end
$var wire 1 : cpu_client_id [2] $end
$var wire 1 ; cpu_client_id [1] $end
$var wire 1 < cpu_client_id [0] $end
$var wire 1 = HRESETn $end
$var wire 1 > exchange_go $end
$var wire 1 ? cpu_amount [15] $end
$var wire 1 @ cpu_amount [14] $end
$var wire 1 A cpu_amount [13] $end
$var wire 1 B cpu_amount [12] $end
$var wire 1 C cpu_amount [11] $end
$var wire 1 D cpu_amount [10] $end
$var wire 1 E cpu_amount [9] $end
$var wire 1 F cpu_amount [8] $end
$var wire 1 G cpu_amount [7] $end
$var wire 1 H cpu_amount [6] $end
$var wire 1 I cpu_amount [5] $end
$var wire 1 J cpu_amount [4] $end
$var wire 1 K cpu_amount [3] $end
$var wire 1 L cpu_amount [2] $end
$var wire 1 M cpu_amount [1] $end
$var wire 1 N cpu_amount [0] $end
$var wire 1 O cpu_go $end
$var wire 1 P cpu_new_max $end
$var wire 1 Q clk $end
$var wire 1 R cancelled_orders [15] $end
$var wire 1 S cancelled_orders [14] $end
$var wire 1 T cancelled_orders [13] $end
$var wire 1 U cancelled_orders [12] $end
$var wire 1 V cancelled_orders [11] $end
$var wire 1 W cancelled_orders [10] $end
$var wire 1 X cancelled_orders [9] $end
$var wire 1 Y cancelled_orders [8] $end
$var wire 1 Z cancelled_orders [7] $end
$var wire 1 [ cancelled_orders [6] $end
$var wire 1 \ cancelled_orders [5] $end
$var wire 1 ] cancelled_orders [4] $end
$var wire 1 ^ cancelled_orders [3] $end
$var wire 1 _ cancelled_orders [2] $end
$var wire 1 ` cancelled_orders [1] $end
$var wire 1 a cancelled_orders [0] $end
$var wire 1 b accumulated_orders [15] $end
$var wire 1 c accumulated_orders [14] $end
$var wire 1 d accumulated_orders [13] $end
$var wire 1 e accumulated_orders [12] $end
$var wire 1 f accumulated_orders [11] $end
$var wire 1 g accumulated_orders [10] $end
$var wire 1 h accumulated_orders [9] $end
$var wire 1 i accumulated_orders [8] $end
$var wire 1 j accumulated_orders [7] $end
$var wire 1 k accumulated_orders [6] $end
$var wire 1 l accumulated_orders [5] $end
$var wire 1 m accumulated_orders [4] $end
$var wire 1 n accumulated_orders [3] $end
$var wire 1 o accumulated_orders [2] $end
$var wire 1 p accumulated_orders [1] $end
$var wire 1 q accumulated_orders [0] $end
$var wire 1 r max_to_trade [31] $end
$var wire 1 s max_to_trade [30] $end
$var wire 1 t max_to_trade [29] $end
$var wire 1 u max_to_trade [28] $end
$var wire 1 v max_to_trade [27] $end
$var wire 1 w max_to_trade [26] $end
$var wire 1 x max_to_trade [25] $end
$var wire 1 y max_to_trade [24] $end
$var wire 1 z max_to_trade [23] $end
$var wire 1 { max_to_trade [22] $end
$var wire 1 | max_to_trade [21] $end
$var wire 1 } max_to_trade [20] $end
$var wire 1 ~ max_to_trade [19] $end
$var wire 1 !! max_to_trade [18] $end
$var wire 1 "! max_to_trade [17] $end
$var wire 1 #! max_to_trade [16] $end
$var wire 1 $! max_to_trade [15] $end
$var wire 1 %! max_to_trade [14] $end
$var wire 1 &! max_to_trade [13] $end
$var wire 1 '! max_to_trade [12] $end
$var wire 1 (! max_to_trade [11] $end
$var wire 1 )! max_to_trade [10] $end
$var wire 1 *! max_to_trade [9] $end
$var wire 1 +! max_to_trade [8] $end
$var wire 1 ,! max_to_trade [7] $end
$var wire 1 -! max_to_trade [6] $end
$var wire 1 .! max_to_trade [5] $end
$var wire 1 /! max_to_trade [4] $end
$var wire 1 0! max_to_trade [3] $end
$var wire 1 1! max_to_trade [2] $end
$var wire 1 2! max_to_trade [1] $end
$var wire 1 3! max_to_trade [0] $end

$scope fork downdatareq $end
$var reg 10 4! wrindex [9:0] $end
$var reg 10 5! rdindex [9:0] $end
$var reg 1 6! we $end
$upscope $end
$var wire 1 7! thenewmax $end

$scope module RAMDOWNSTREAM $end
$var wire 1 Q clk $end

$scope fork data_req $end
$var reg 10 8! wrindex [9:0] $end
$var reg 10 9! rdindex [9:0] $end
$var reg 1 :! we $end
$upscope $end
$var reg 32 ;! data_write [31:0] $end
$var reg 32 <! data_read [31:0] $end
$upscope $end

$scope module UPTOP $end
$var wire 1 Q clk $end
$var wire 1 O new_order $end
$var wire 1 P new_max $end
$var wire 1 8 client_id [4] $end
$var wire 1 9 client_id [3] $end
$var wire 1 : client_id [2] $end
$var wire 1 ; client_id [1] $end
$var wire 1 < client_id [0] $end
$var wire 1 ? amount [15] $end
$var wire 1 @ amount [14] $end
$var wire 1 A amount [13] $end
$var wire 1 B amount [12] $end
$var wire 1 C amount [11] $end
$var wire 1 D amount [10] $end
$var wire 1 E amount [9] $end
$var wire 1 F amount [8] $end
$var wire 1 G amount [7] $end
$var wire 1 H amount [6] $end
$var wire 1 I amount [5] $end
$var wire 1 J amount [4] $end
$var wire 1 K amount [3] $end
$var wire 1 L amount [2] $end
$var wire 1 M amount [1] $end
$var wire 1 N amount [0] $end
$var wire 1 7! thenewmax $end
$var reg 1 =! HRESETn $end
$var reg 32 >! correct_amount [31:0] $end
$var reg 1 ?! pass_checks $end
$var reg 1 @! upstream_enable $end
$var reg 32 A! mem_dataup_wr [31:0] $end
$var reg 32 B! mem_dataup [31:0] $end
$var reg 32 C! mem_datadown [31:0] $end
$var reg 32 D! mem_datadown_wr [31:0] $end

$scope fork mem_requp $end
$var reg 10 E! wrindex [9:0] $end
$var reg 10 F! rdindex [9:0] $end
$var reg 1 G! we $end
$upscope $end

$scope fork mem_reqdown $end
$var reg 10 H! wrindex [9:0] $end
$var reg 10 I! rdindex [9:0] $end
$var reg 1 J! we $end
$upscope $end
$var reg 1 K! check_risk $end
$var reg 1 L! send_order $end
$var reg 1 M! update_max $end
$var wire 1 N! cancelled_orders [31] $end
$var wire 1 O! cancelled_orders [30] $end
$var wire 1 P! cancelled_orders [29] $end
$var wire 1 Q! cancelled_orders [28] $end
$var wire 1 R! cancelled_orders [27] $end
$var wire 1 S! cancelled_orders [26] $end
$var wire 1 T! cancelled_orders [25] $end
$var wire 1 U! cancelled_orders [24] $end
$var wire 1 V! cancelled_orders [23] $end
$var wire 1 W! cancelled_orders [22] $end
$var wire 1 X! cancelled_orders [21] $end
$var wire 1 Y! cancelled_orders [20] $end
$var wire 1 Z! cancelled_orders [19] $end
$var wire 1 [! cancelled_orders [18] $end
$var wire 1 \! cancelled_orders [17] $end
$var wire 1 ]! cancelled_orders [16] $end
$var wire 1 R cancelled_orders [15] $end
$var wire 1 S cancelled_orders [14] $end
$var wire 1 T cancelled_orders [13] $end
$var wire 1 U cancelled_orders [12] $end
$var wire 1 V cancelled_orders [11] $end
$var wire 1 W cancelled_orders [10] $end
$var wire 1 X cancelled_orders [9] $end
$var wire 1 Y cancelled_orders [8] $end
$var wire 1 Z cancelled_orders [7] $end
$var wire 1 [ cancelled_orders [6] $end
$var wire 1 \ cancelled_orders [5] $end
$var wire 1 ] cancelled_orders [4] $end
$var wire 1 ^ cancelled_orders [3] $end
$var wire 1 _ cancelled_orders [2] $end
$var wire 1 ` cancelled_orders [1] $end
$var wire 1 a cancelled_orders [0] $end
$var wire 1 b accumulated_orders [15] $end
$var wire 1 c accumulated_orders [14] $end
$var wire 1 d accumulated_orders [13] $end
$var wire 1 e accumulated_orders [12] $end
$var wire 1 f accumulated_orders [11] $end
$var wire 1 g accumulated_orders [10] $end
$var wire 1 h accumulated_orders [9] $end
$var wire 1 i accumulated_orders [8] $end
$var wire 1 j accumulated_orders [7] $end
$var wire 1 k accumulated_orders [6] $end
$var wire 1 l accumulated_orders [5] $end
$var wire 1 m accumulated_orders [4] $end
$var wire 1 n accumulated_orders [3] $end
$var wire 1 o accumulated_orders [2] $end
$var wire 1 p accumulated_orders [1] $end
$var wire 1 q accumulated_orders [0] $end
$var wire 1 r max_to_trade [31] $end
$var wire 1 s max_to_trade [30] $end
$var wire 1 t max_to_trade [29] $end
$var wire 1 u max_to_trade [28] $end
$var wire 1 v max_to_trade [27] $end
$var wire 1 w max_to_trade [26] $end
$var wire 1 x max_to_trade [25] $end
$var wire 1 y max_to_trade [24] $end
$var wire 1 z max_to_trade [23] $end
$var wire 1 { max_to_trade [22] $end
$var wire 1 | max_to_trade [21] $end
$var wire 1 } max_to_trade [20] $end
$var wire 1 ~ max_to_trade [19] $end
$var wire 1 !! max_to_trade [18] $end
$var wire 1 "! max_to_trade [17] $end
$var wire 1 #! max_to_trade [16] $end
$var wire 1 $! max_to_trade [15] $end
$var wire 1 %! max_to_trade [14] $end
$var wire 1 &! max_to_trade [13] $end
$var wire 1 '! max_to_trade [12] $end
$var wire 1 (! max_to_trade [11] $end
$var wire 1 )! max_to_trade [10] $end
$var wire 1 *! max_to_trade [9] $end
$var wire 1 +! max_to_trade [8] $end
$var wire 1 ,! max_to_trade [7] $end
$var wire 1 -! max_to_trade [6] $end
$var wire 1 .! max_to_trade [5] $end
$var wire 1 /! max_to_trade [4] $end
$var wire 1 0! max_to_trade [3] $end
$var wire 1 1! max_to_trade [2] $end
$var wire 1 2! max_to_trade [1] $end
$var wire 1 3! max_to_trade [0] $end
$var reg 1 ^! memwr $end
$var reg 1 _! nocare $end

$scope begin trade_risk_check_cpu $end
$upscope $end

$scope module RAMUPSTREAM $end
$var wire 1 Q clk $end

$scope fork data_req $end
$var reg 10 `! wrindex [9:0] $end
$var reg 10 a! rdindex [9:0] $end
$var reg 1 b! we $end
$upscope $end
$var reg 32 c! data_write [31:0] $end
$var reg 32 d! data_read [31:0] $end
$upscope $end

$scope module UPSTREAMPROCESSOR $end
$var parameter 5 e! IDLE $end
$var parameter 5 f! STATE_RISKCHECK $end
$var parameter 5 g! STATE_SENDORDER $end
$var parameter 5 h! STATE_NEWMAX $end
$var wire 1 Q clk $end
$var wire 1 i! risk_ok $end
$var wire 1 O new_order $end
$var wire 1 P new_max $end
$var wire 1 j! memwr $end
$var wire 1 k! HRESETn $end
$var wire 1 l! check_risk $end
$var wire 1 m! send_order $end
$var wire 1 n! update_max $end
$var reg 5 o! state [4:0] $end
$upscope $end
$upscope $end

$scope module DOWNTOP $end
$var wire 1 # client_id [4] $end
$var wire 1 $ client_id [3] $end
$var wire 1 % client_id [2] $end
$var wire 1 & client_id [1] $end
$var wire 1 ' client_id [0] $end
$var wire 1 Q clk $end
$var wire 1 8 cpu_client_id [4] $end
$var wire 1 9 cpu_client_id [3] $end
$var wire 1 : cpu_client_id [2] $end
$var wire 1 ; cpu_client_id [1] $end
$var wire 1 < cpu_client_id [0] $end
$var wire 1 ( amount [15] $end
$var wire 1 ) amount [14] $end
$var wire 1 * amount [13] $end
$var wire 1 + amount [12] $end
$var wire 1 , amount [11] $end
$var wire 1 - amount [10] $end
$var wire 1 . amount [9] $end
$var wire 1 / amount [8] $end
$var wire 1 0 amount [7] $end
$var wire 1 1 amount [6] $end
$var wire 1 2 amount [5] $end
$var wire 1 3 amount [4] $end
$var wire 1 4 amount [3] $end
$var wire 1 5 amount [2] $end
$var wire 1 6 amount [1] $end
$var wire 1 7 amount [0] $end

$scope fork downdatareq $end
$var reg 10 p! wrindex [9:0] $end
$var reg 10 q! rdindex [9:0] $end
$var reg 1 r! we $end
$upscope $end
$var reg 1 s! old_client $end
$var reg 1 t! old_amount $end
$var reg 32 u! downdatawrite [31:0] $end
$var reg 32 v! downdataread [31:0] $end
$var reg 1 w! ack $end
$var reg 1 x! update_memory $end
$upscope $end
$upscope $end
$upscope $end

$scope begin tb_top_UPDOWNSTREAM_sv_unit $end
$upscope $end

$scope begin std $end
$upscope $end

$scope begin cache_def $end
$var parameter 32 y! TAGMSB $end
$var parameter 32 z! TAGLSB $end
$upscope $end

$scope begin top_sv_unit $end
$upscope $end
$enddefinitions $end
#0
$dumpvars
0!
0"
b0 ;!
b0 <!
0=!
bx >!
x?!
x@!
b0 A!
b11111111101010100000000000000000 B!
b0 C!
b0 D!
xK!
xL!
xM!
x^!
x_!
b0 c!
b11111111101010100000000000000000 d!
bx o!
xs!
xt!
b0 u!
b0 v!
xw!
xx!
b0 4!
b0 5!
b0 6!
b0 8!
b0 9!
b0 :!
b0 E!
b0 F!
b0 G!
b0 H!
b0 I!
b0 J!
b0 `!
b0 a!
b0 b!
b0 p!
b0 q!
b0 r!
b11111 y!
b1110 z!
b1 e!
b10 f!
b100 g!
b1000 h!
x7!
0Q
x=
x<
x;
x:
x9
x8
xN
xM
xL
xK
xJ
xI
xH
xG
xF
xE
xD
xC
xB
xA
x@
x?
xO
xP
x'
x&
x%
x$
x#
x7
x6
x5
x4
x3
x2
x1
x0
x/
x.
x-
x,
x+
x*
x)
x(
x>
0a
0`
0_
0^
0]
0\
0[
0Z
0Y
0X
0W
0V
0U
0T
0S
0R
0q
0p
0o
0n
0m
0l
0k
0j
0i
0h
0g
0f
0e
0d
0c
0b
03!
12!
01!
10!
0/!
1.!
0-!
1,!
1+!
1*!
1)!
1(!
1'!
1&!
1%!
1$!
0#!
0"!
0!!
0~
0}
0|
0{
0z
0y
0x
0w
0v
0u
0t
0s
0r
0]!
0\!
0[!
0Z!
0Y!
0X!
0W!
0V!
0U!
0T!
0S!
0R!
0Q!
0P!
0O!
0N!
xj!
xi!
xl!
xm!
xn!
zk!
$end
#2000
1!
1Q
b1 o!
0n!
0m!
0l!
0K!
0L!
0M!
07!
#12000
1"
1>
0=
0O
1P
07
16
15
14
03
02
11
10
0/
0.
0-
0,
0+
0*
1)
1(
1'
0&
0%
0$
0#
1N
0M
0L
0K
1J
0I
1H
0G
1F
0E
1D
0C
0B
0A
0@
0?
0<
0;
0:
19
08
b1100000011001110 ;!
b1000 5!
b1000 F!
b10101010001 >!
b10101010001 A!
b1 p!
b1 r!
0t!
1s!
b1 4!
b0 5!
b1 6!
b10101010001 c!
b1000 a!
b1 8!
b1 :!
1?!
b1000 o!
1n!
1M!
17!
1i!
#14000
0!
0Q
#24000
0"
#26000
1!
1Q
#36000
1"
#38000
0!
0Q
#48000
0"
#50000
1!
1Q
#60000
1"
0>
1O
0P
04
13
12
00
1-
1,
1*
0)
0(
1&
1$
0N
1M
1L
1K
0J
1I
0F
1C
1@
1?
1:
09
b10110001110110 ;!
b100 5!
b100 F!
b1100110001101110 >!
b1100110001101110 A!
b1 G!
b1011 p!
b1011 4!
b0 5!
b1100110001101110 c!
b100 a!
b1 b!
b1011 8!
#62000
0!
0Q
#72000
0"
#74000
1!
1Q
b11111111101010101100110001101110 d!
b11111111101010101100110001101110 B!
1p
1o
1n
1l
1k
1g
1f
1c
1b
#84000
1"
#86000
0!
0Q
#96000
0"
#98000
1!
1Q
b11111111101010101001100011011100 d!
b11111111101010101001100011011100 B!
0p
1m
0l
1j
0g
1e
0c
#108000
1"
1>
0O
1P
05
03
02
1/
1.
0,
1+
1)
1(
0&
0$
1#
0M
0L
1J
0I
1G
1E
0C
1B
0:
19
b1111011101000010 ;!
b1000 5!
b1000 F!
b1101011011011000 >!
b1101011011011000 A!
b10001 p!
b10001 4!
b0 5!
b1101011011011000 c!
b1000 a!
b10001 8!
b11111111101010100000000000000000 d!
b11111111101010100000000000000000 B!
0o
0n
0m
0k
0j
0f
0e
0b
0?!
0i!
#110000
0!
0Q
#120000
0"
#122000
1!
1Q
b11111111101010101101011011011000 d!
b11111111101010101101011011011000 B!
1n
1m
1k
1j
1h
1g
1e
1c
1b
#132000
1"
#134000
0!
0Q
#144000
0"
#146000
1!
1Q
b11111111101010101010110110110000 d!
b11111111101010101010110110110000 B!
0n
1l
0k
1i
0h
1f
0e
1d
0c
#156000
1"
0>
1O
0P
17
14
13
12
01
0/
1,
0+
0)
0'
1$
0#
1L
0K
1I
0H
0G
0D
1C
0B
0?
1:
09
b1010111000111011 ;!
b100 5!
b100 F!
b100101000110100 >!
b100101000110100 A!
b0 G!
b1000 p!
1t!
0s!
b1000 4!
b0 5!
b100101000110100 c!
b100 a!
b0 b!
b1000 8!
b11111111101010101001100011011100 d!
b11111111101010101001100011011100 B!
1o
1n
0l
1k
0i
0g
1e
0d
1?!
1i!
#158000
0!
0Q
#168000
0"
#170000
1!
1Q
#180000
1"
#182000
0!
0Q
#192000
0"
#194000
1!
1Q
#204000
1"
1=
0O
1P
10
0,
1'
1N
1K
0J
0I
1G
1D
0C
1A
1?
0:
b1010011010111011 ;!
b0 F!
b1110011010001101 >!
b1110011010001101 A!
b1 G!
b1001 p!
1s!
b1001 4!
b1110011010001101 c!
b0 a!
b1 b!
b11111111101010100000000000000000 d!
b1001 8!
b11111111101010100000000000000000 B!
0o
0n
0m
0k
0j
0f
0e
0b
0?!
0i!
#206000
0!
0Q
#216000
0"
#218000
1!
1Q
b11111111101010101110011010001101 d!
b11111111101010101110011010001101 B!
1q
1o
1n
1j
1h
1g
1d
1c
1b
#228000
1"
#230000
0!
0Q
#240000
0"
#242000
1!
1Q
b11111111101010101100110100011010 d!
b11111111101010101100110100011010 B!
0q
1p
0o
1m
0j
1i
0h
1f
0d
#252000
1"
1>
07
06
04
03
11
00
1/
0.
0-
1,
1+
1)
1%
1#
1M
0L
1J
1H
0E
0D
1B
19
b1111100101100000 ;!
b1000 5!
b1000 F!
b1111000011011011 >!
b1111000011011011 A!
b0 G!
b11101 p!
0t!
b11101 4!
b0 5!
b1111000011011011 c!
b1000 a!
b0 b!
b11101 8!
b11111111101010101010110110110000 d!
b11111111101010101010110110110000 B!
0p
0n
1l
1j
1d
0c
#254000
0!
0Q
#264000
0"
#266000
1!
1Q
#276000
1"
#278000
0!
0Q
#288000
0"
#290000
1!
1Q
#300000
1"
16
15
14
01
10
0,
0+
0(
1&
0%
1L
0J
1I
0H
1F
0B
0@
1:
b110000110101110 ;!
b1100 5!
b1100 F!
b1010000110101111 >!
b1010000110101111 A!
b11011 p!
b11011 4!
b0 5!
b1010000110101111 c!
b1100 a!
b11011 8!
b11111111110011000000000000000000 d!
b11111111110011000000000000000000 B!
0m
0l
0j
0i
0g
0f
0d
0b
02!
11!
0.!
1-!
#302000
0!
0Q
#312000
0"
#314000
1!
1Q
#324000
1"
#326000
0!
0Q
#336000
0"
#338000
1!
1Q
#348000
1"
0>
05
04
11
00
1.
1,
1+
1(
0$
0#
0L
0F
1E
1D
1@
0?
0:
09
b1111101101100010 ;!
b0 F!
b110011010101011 >!
b110011010101011 A!
b11 p!
b11 4!
b110011010101011 c!
b0 a!
b11111111101010101100110100011010 d!
b11 8!
b11111111101010101100110100011010 B!
1p
1n
1m
1i
1g
1f
1c
1b
12!
01!
1.!
0-!
1?!
1i!
#350000
0!
0Q
#360000
0"
#362000
1!
1Q
#372000
1"
#374000
0!
0Q
#384000
0"
#386000
1!
1Q
#396000
1"
1>
0=
06
14
02
10
1-
0+
0*
0(
1#
1L
1J
0I
0G
0E
0D
1C
0@
1:
b100111111001000 ;!
b100 5!
b100 F!
b10100000011111 >!
b10100000011111 A!
b1 G!
b10011 p!
b10011 4!
b0 5!
b10100000011111 c!
b100 a!
b1 b!
b10011 8!
b11111111101010101001100011011100 d!
b11111111101010101001100011011100 B!
0p
1o
1k
1j
0i
0g
1e
0c
#398000
0!
0Q
#408000
0"
#410000
1!
1Q
b11111111101010101100000011111011 d!
b11111111101010101100000011111011 B!
1q
1p
0o
1l
0f
0e
1c
#420000
1"
#422000
0!
0Q
#432000
0"
#434000
1!
1Q
b11111111101010101110100100011010 d!
b11111111101010101110100100011010 B!
0q
0l
0k
0j
1i
1f
1d
#444000
1"
0>
1=
1O
0P
00
0/
0.
1+
1*
0)
0&
1%
0#
0N
1H
0C
1?
0:
19
b11110001001000 ;!
b1000 5!
b1000 F!
b1010000001011110 >!
b1010000001011110 A!
b101 p!
b101 4!
b0 5!
b1010000001011110 c!
b1000 a!
b101 8!
b11111111101010101010110110110000 d!
b11111111101010101010110110110000 B!
0p
0n
1l
1j
1g
0c
0?!
0i!
#446000
0!
0Q
#456000
0"
#458000
1!
1Q
b11111111101010100100111000001110 d!
b11111111101010100100111000001110 B!
1p
1o
1n
0m
0l
0j
0i
1h
0d
1c
0b
#468000
1"
#470000
0!
0Q
#480000
0"
#482000
1!
1Q
b11111111101010101110111001101100 d!
b11111111101010101110111001101100 B!
0p
1l
1k
1d
1b
#492000
1"
1>
0=
0O
1P
17
15
04
12
01
10
1/
0,
0+
1(
0%
1$
1#
0M
0L
1I
0H
1F
1E
1B
1:
b1010010110100101 ;!
b1100 5!
b1100 F!
b1011001100111000 >!
b1011001100111000 A!
b0 G!
b11001 p!
1t!
b11001 4!
b0 5!
b1011001100111000 c!
b1100 a!
b0 b!
b11001 8!
b11111111110011000000000000000000 d!
b11111111110011000000000000000000 B!
0o
0n
0l
0k
0h
0g
0f
0d
0c
0b
02!
11!
0.!
1-!
#494000
0!
0Q
#504000
0"
#506000
1!
1Q
#516000
1"
#518000
0!
0Q
#528000
0"
#530000
1!
1Q
#540000
1"
0>
1=
07
16
14
13
00
0-
1+
1)
0$
1N
1M
1L
0J
0I
1G
0F
0E
1D
0B
1@
09
b1111000100111110 ;!
b100 5!
b100 F!
b1110010010001111 >!
b1110010010001111 A!
b10001 p!
0t!
b10001 4!
b0 5!
b1110010010001111 c!
b100 a!
b10001 8!
b11111111101010101110100100011010 d!
b11111111101010101110100100011010 B!
1p
1n
1m
1i
1f
1d
1c
1b
12!
01!
1.!
0-!
1?!
1i!
#542000
0!
0Q
#552000
0"
#554000
1!
1Q
#564000
1"
#566000
0!
0Q
#576000
0"
#578000
1!
1Q
#588000
1"
17
06
02
0/
1-
0'
1&
1$
0N
0M
0L
1J
1I
1H
1F
1C
0A
0:
19
b1111010000011101 ;!
b1000 5!
b1000 F!
b1100110111111000 >!
b1100110111111000 A!
b1 G!
b11010 p!
1t!
0s!
b11010 4!
b0 5!
b1100110111111000 c!
b1000 a!
b1 b!
b11010 8!
b11111111101010101110111001101100 d!
b11111111101010101110111001101100 B!
0p
1o
0m
1l
1k
0i
1h
1g
0?!
0i!
#590000
0!
0Q
#600000
0"
#602000
1!
1Q
b11111111101010101011110001100100 d!
b11111111101010101011110001100100 B!
0n
0h
1e
0c
#612000
1"
#614000
0!
0Q
#624000
0"
#626000
1!
1Q
b11111111101010101000101001011100 d!
b11111111101010101000101001011100 B!
1n
1m
0l
1h
0g
0e
0d
#636000
1"
1>
1O
0P
07
16
05
03
12
10
1/
0*
0)
0(
1'
0#
0J
0G
0D
0C
0?
b1010110101010 ;!
b100000101101000 >!
b100000101101000 A!
b0 G!
b1011 p!
0t!
1s!
b1011 4!
b0 b!
b100000101101000 c!
b1011 8!
1?!
1i!
#638000
0!
0Q
#648000
0"
#650000
1!
1Q
#660000
1"
#662000
0!
0Q
#672000
0"
#674000
1!
1Q
#684000
1"
0>
17
02
00
0-
1,
1)
1(
0'
0&
0$
1#
1N
1J
0I
0H
0F
1E
1C
0@
1?
09
b1101100100001011 ;!
b0 F!
b1000101000011001 >!
b1000101000011001 A!
b1 G!
b10000 p!
1t!
0s!
b10000 4!
b1000101000011001 c!
b0 a!
b1 b!
b11111111101010101100110100011010 d!
b10000 8!
b11111111101010101100110100011010 B!
1p
0o
0k
1i
0h
1g
1c
0?!
0i!
#686000
0!
0Q
#696000
0"
#698000
1!
1Q
b11111111101010100101011100110011 d!
b11111111101010100101011100110011 B!
1q
0n
1l
1h
0f
1e
0b
#708000
1"
#710000
0!
0Q
#720000
0"
#722000
1!
1Q
b11111111101010101110000101001100 d!
b11111111101010101110000101001100 B!
0q
0p
1o
1n
0m
0l
1k
0h
0g
0e
1d
1b
#732000
1"
1>
0=
07
06
15
04
13
10
1.
0,
0+
0)
1&
1%
1$
1M
1L
0K
0J
1I
1G
0E
1B
1@
1:
b1000001110010100 ;!
b100 5!
b100 F!
b1101100010100111 >!
b1101100010100111 A!
b0 G!
b11110 p!
0t!
b11110 4!
b0 5!
b1101100010100111 c!
b100 a!
b0 b!
b11110 8!
b11111111101010101110100100011010 d!
b11111111101010101110100100011010 B!
1p
0o
1m
0k
1f
#734000
0!
0Q
#744000
0"
#746000
1!
1Q
#756000
1"
#758000
0!
0Q
#768000
0"
#770000
1!
1Q
#780000
1"
0>
1=
16
05
14
12
00
0/
0.
1-
1,
1*
0&
0#
0I
1H
0G
0C
0B
1A
0@
0:
19
b1010110000111010 ;!
b1000 5!
b1000 F!
b1010000001000111 >!
b1010000001000111 A!
b1100 p!
b1100 4!
b0 5!
b1010000001000111 c!
b1000 a!
b1100 8!
b11111111101010101000101001011100 d!
b11111111101010101000101001011100 B!
0p
1o
1k
0i
1h
0d
0c
#782000
0!
0Q
#792000
0"
#794000
1!
1Q
#804000
1"
#806000
0!
0Q
#816000
0"
#818000
1!
1Q
#828000
1"
1>
0=
0O
1P
06
04
03
1/
1.
0,
1+
0$
1#
0L
1K
1J
0H
1F
1D
1C
1B
1@
0?
b1011011100100000 ;!
b111110100011011 >!
b111110100011011 A!
b10100 p!
b10100 4!
b111110100011011 c!
b10100 8!
#830000
0!
0Q
#840000
0"
#842000
1!
1Q
#852000
1"
#854000
0!
0Q
#864000
0"
#866000
1!
1Q
#876000
1"
1=
1O
0P
14
11
10
0/
0-
0+
1&
0#
0N
0M
0J
1I
1E
0B
0A
09
b1010001011101000 ;!
b0 F!
b100111100101000 >!
b100111100101000 A!
b110 p!
b110 4!
b100111100101000 c!
b0 a!
b11111111101010101110000101001100 d!
b110 8!
b11111111101010101110000101001100 B!
0m
1i
0h
0f
1d
1c
1?!
1i!
#878000
0!
0Q
#888000
0"
#890000
1!
1Q
#900000
1"
#902000
0!
0Q
#912000
0"
#914000
1!
1Q
#924000
1"
0O
1P
17
15
13
1/
0.
1,
0*
1)
0&
1#
1L
0K
0I
1H
0F
1A
0@
1?
19
b1100100111111101 ;!
b1000 5!
b1000 F!
b1010111001000100 >!
b1010111001000100 A!
b1 G!
b10100 p!
1t!
b10100 4!
b0 5!
b1010111001000100 c!
b1000 a!
b1 b!
b10100 8!
b11111111101010101000101001011100 d!
b11111111101010101000101001011100 B!
1m
0i
1h
1f
0d
0c
0?!
0i!
#926000
0!
0Q
#936000
0"
#938000
1!
1Q
b11111111101010100011100010100000 d!
b11111111101010100011100010100000 B!
0o
0n
0m
1l
0k
1j
0h
1e
1d
0b
#948000
1"
#950000
0!
0Q
#960000
0"
#962000
1!
1Q
b11111111101010101110011011100100 d!
b11111111101010101110011011100100 B!
1o
1k
1h
1g
0f
0e
1c
1b
#972000
1"
0>
05
04
01
00
1-
1*
0)
0%
1$
1N
1M
0L
1G
0D
1B
0A
1@
b1010110100110001 ;!
b1101101011000011 >!
b1101101011000011 A!
b0 G!
b11000 p!
b11000 4!
b0 b!
b1101101011000011 c!
b11000 8!
#974000
0!
0Q
#984000
0"
#986000
1!
1Q
#996000
1"
#998000
0!
0Q
#1008000
0"
#1010000
1!
1Q
#1020000
1"
0=
15
03
0/
1.
0,
1+
1)
0(
1'
1%
0N
0M
1K
1I
0H
0G
1F
0C
b111011000100101 ;!
b1101001100101000 >!
b1101001100101000 A!
b11101 p!
1s!
b11101 4!
b1101001100101000 c!
b11101 8!
#1022000
0!
0Q
#1032000
0"
#1034000
1!
1Q
#1044000
1"
#1046000
0!
0Q
#1056000
0"
#1058000
1!
1Q
#1068000
1"
1=
07
05
13
10
1/
0.
1,
0+
0*
0'
1&
0#
1M
1L
0K
1J
1G
0F
1D
1C
0B
0@
0?
1:
09
b100110110110000 ;!
b100 5!
b100 F!
b111010110110 >!
b111010110110 A!
b1110 p!
0t!
0s!
b1110 4!
b0 5!
b111010110110 c!
b100 a!
b1110 8!
b11111111101010101110100100011010 d!
b11111111101010101110100100011010 B!
1p
0o
1n
1m
0l
0k
0j
1i
0h
0g
1f
1?!
1i!
#1070000
0!
0Q
#1080000
0"
#1082000
1!
1Q
#1092000
1"
#1094000
0!
0Q
#1104000
0"
#1106000
1!
1Q
#1116000
1"
0=
15
14
03
02
1+
0)
1(
0&
0%
0$
1#
0M
0L
0G
1F
0E
1@
1?
19
b1001110110001100 ;!
b1100 5!
b1100 F!
b1100110100110000 >!
b1100110100110000 A!
b1 G!
b10000 p!
b10000 4!
b0 5!
b1100110100110000 c!
b1100 a!
b1 b!
b10000 8!
b11111111110011000000000000000000 d!
b11111111110011000000000000000000 B!
0p
0n
0m
0i
0f
0d
0c
0b
02!
11!
0.!
1-!
0?!
0i!
#1118000
0!
0Q
#1128000
0"
#1130000
1!
1Q
b11111111110011001100110100110000 d!
b11111111110011001100110100110000 B!
1m
1l
1i
1g
1f
1c
1b
#1140000
1"
#1142000
0!
0Q
#1152000
0"
#1154000
1!
1Q
b11111111110011001001101001100000 d!
b11111111110011001001101001100000 B!
0m
1k
0i
1h
0g
1e
0c
