testbench/tbenchoutputs/upstream/upstreamdump.vcd
$date
	Thu May 19 13:19:43 2022
$end
$version
	QuestaSim Version 10.7c
$end
$timescale
	1ps
$end

$scope module tb_top_UPDOWNSTREAM $end
$var reg 1 ! clk $end
$var reg 1 " slowclk $end

$scope module TOP $end
$var wire 1 # exchange_client_id [4] $end
$var wire 1 $ exchange_client_id [3] $end
$var wire 1 % exchange_client_id [2] $end
$var wire 1 & exchange_client_id [1] $end
$var wire 1 ' exchange_client_id [0] $end
$var wire 1 ( exchange_amount [15] $end
$var wire 1 ) exchange_amount [14] $end
$var wire 1 * exchange_amount [13] $end
$var wire 1 + exchange_amount [12] $end
$var wire 1 , exchange_amount [11] $end
$var wire 1 - exchange_amount [10] $end
$var wire 1 . exchange_amount [9] $end
$var wire 1 / exchange_amount [8] $end
$var wire 1 0 exchange_amount [7] $end
$var wire 1 1 exchange_amount [6] $end
$var wire 1 2 exchange_amount [5] $end
$var wire 1 3 exchange_amount [4] $end
$var wire 1 4 exchange_amount [3] $end
$var wire 1 5 exchange_amount [2] $end
$var wire 1 6 exchange_amount [1] $end
$var wire 1 7 exchange_amount [0] $end
$var wire 1 8 cpu_client_id [4] $end
$var wire 1 9 cpu_client_id [3] $end
$var wire 1 : cpu_client_id [2] $end
$var wire 1 ; cpu_client_id [1] $end
$var wire 1 < cpu_client_id [0] $end
$var wire 1 = HRESETn $end
$var wire 1 > exchange_go $end
$var wire 1 ? cpu_amount [15] $end
$var wire 1 @ cpu_amount [14] $end
$var wire 1 A cpu_amount [13] $end
$var wire 1 B cpu_amount [12] $end
$var wire 1 C cpu_amount [11] $end
$var wire 1 D cpu_amount [10] $end
$var wire 1 E cpu_amount [9] $end
$var wire 1 F cpu_amount [8] $end
$var wire 1 G cpu_amount [7] $end
$var wire 1 H cpu_amount [6] $end
$var wire 1 I cpu_amount [5] $end
$var wire 1 J cpu_amount [4] $end
$var wire 1 K cpu_amount [3] $end
$var wire 1 L cpu_amount [2] $end
$var wire 1 M cpu_amount [1] $end
$var wire 1 N cpu_amount [0] $end
$var wire 1 O cpu_go $end
$var wire 1 P cpu_new_max $end
$var wire 1 Q clk $end
$var wire 1 R cancelled_orders [31] $end
$var wire 1 S cancelled_orders [30] $end
$var wire 1 T cancelled_orders [29] $end
$var wire 1 U cancelled_orders [28] $end
$var wire 1 V cancelled_orders [27] $end
$var wire 1 W cancelled_orders [26] $end
$var wire 1 X cancelled_orders [25] $end
$var wire 1 Y cancelled_orders [24] $end
$var wire 1 Z cancelled_orders [23] $end
$var wire 1 [ cancelled_orders [22] $end
$var wire 1 \ cancelled_orders [21] $end
$var wire 1 ] cancelled_orders [20] $end
$var wire 1 ^ cancelled_orders [19] $end
$var wire 1 _ cancelled_orders [18] $end
$var wire 1 ` cancelled_orders [17] $end
$var wire 1 a cancelled_orders [16] $end
$var wire 1 b cancelled_orders [15] $end
$var wire 1 c cancelled_orders [14] $end
$var wire 1 d cancelled_orders [13] $end
$var wire 1 e cancelled_orders [12] $end
$var wire 1 f cancelled_orders [11] $end
$var wire 1 g cancelled_orders [10] $end
$var wire 1 h cancelled_orders [9] $end
$var wire 1 i cancelled_orders [8] $end
$var wire 1 j cancelled_orders [7] $end
$var wire 1 k cancelled_orders [6] $end
$var wire 1 l cancelled_orders [5] $end
$var wire 1 m cancelled_orders [4] $end
$var wire 1 n cancelled_orders [3] $end
$var wire 1 o cancelled_orders [2] $end
$var wire 1 p cancelled_orders [1] $end
$var wire 1 q cancelled_orders [0] $end
$var wire 1 r accumulated_orders [15] $end
$var wire 1 s accumulated_orders [14] $end
$var wire 1 t accumulated_orders [13] $end
$var wire 1 u accumulated_orders [12] $end
$var wire 1 v accumulated_orders [11] $end
$var wire 1 w accumulated_orders [10] $end
$var wire 1 x accumulated_orders [9] $end
$var wire 1 y accumulated_orders [8] $end
$var wire 1 z accumulated_orders [7] $end
$var wire 1 { accumulated_orders [6] $end
$var wire 1 | accumulated_orders [5] $end
$var wire 1 } accumulated_orders [4] $end
$var wire 1 ~ accumulated_orders [3] $end
$var wire 1 !! accumulated_orders [2] $end
$var wire 1 "! accumulated_orders [1] $end
$var wire 1 #! accumulated_orders [0] $end
$var wire 1 $! max_to_trade [31] $end
$var wire 1 %! max_to_trade [30] $end
$var wire 1 &! max_to_trade [29] $end
$var wire 1 '! max_to_trade [28] $end
$var wire 1 (! max_to_trade [27] $end
$var wire 1 )! max_to_trade [26] $end
$var wire 1 *! max_to_trade [25] $end
$var wire 1 +! max_to_trade [24] $end
$var wire 1 ,! max_to_trade [23] $end
$var wire 1 -! max_to_trade [22] $end
$var wire 1 .! max_to_trade [21] $end
$var wire 1 /! max_to_trade [20] $end
$var wire 1 0! max_to_trade [19] $end
$var wire 1 1! max_to_trade [18] $end
$var wire 1 2! max_to_trade [17] $end
$var wire 1 3! max_to_trade [16] $end
$var wire 1 4! max_to_trade [15] $end
$var wire 1 5! max_to_trade [14] $end
$var wire 1 6! max_to_trade [13] $end
$var wire 1 7! max_to_trade [12] $end
$var wire 1 8! max_to_trade [11] $end
$var wire 1 9! max_to_trade [10] $end
$var wire 1 :! max_to_trade [9] $end
$var wire 1 ;! max_to_trade [8] $end
$var wire 1 <! max_to_trade [7] $end
$var wire 1 =! max_to_trade [6] $end
$var wire 1 >! max_to_trade [5] $end
$var wire 1 ?! max_to_trade [4] $end
$var wire 1 @! max_to_trade [3] $end
$var wire 1 A! max_to_trade [2] $end
$var wire 1 B! max_to_trade [1] $end
$var wire 1 C! max_to_trade [0] $end
$var reg 32 D! cancelled_orders_reg [31:0] $end

$scope fork downdatareq $end
$var reg 10 E! wrindex [9:0] $end
$var reg 10 F! rdindex [9:0] $end
$var reg 32 G! data [31:0] $end
$var reg 1 H! rw $end
$var reg 1 I! valid $end
$upscope $end

$scope fork mem_data $end
$var reg 129 J! data [128:0] $end
$var reg 1 K! ready $end
$upscope $end

$scope fork mem_req $end
$var reg 10 L! addr [9:0] $end
$var reg 10 M! wraddr [9:0] $end
$var reg 128 N! data [127:0] $end
$var reg 1 O! rw $end
$var reg 1 P! valid $end
$upscope $end

$scope fork downexchrest $end
$var reg 32 Q! data [31:0] $end
$var reg 1 R! ready $end
$upscope $end
$var wire 1 S! thenewmax $end

$scope module CACHEDOWNSTREAM $end
$var reg 1 T! clk $end
$var reg 1 U! rst $end

$scope fork cpu_req $end
$var reg 10 V! wrindex [9:0] $end
$var reg 10 W! rdindex [9:0] $end
$var reg 32 X! data [31:0] $end
$var reg 1 Y! rw $end
$var reg 1 Z! valid $end
$upscope $end

$scope fork mem_data_down $end
$var reg 129 [! data [128:0] $end
$var reg 1 \! ready $end
$upscope $end

$scope fork mem_req $end
$var reg 10 ]! addr [9:0] $end
$var reg 10 ^! wraddr [9:0] $end
$var reg 128 _! data [127:0] $end
$var reg 1 `! rw $end
$var reg 1 a! valid $end
$upscope $end

$scope fork cpu_res $end
$var reg 32 b! data [31:0] $end
$var reg 1 c! ready $end
$upscope $end
$var integer 32 d! vstate $end
$var integer 32 e! rstate $end
$var reg 21 f! tag_read [20:0] $end
$var reg 21 g! tag_write [20:0] $end

$scope fork tag_req $end
$var reg 10 h! wrindex [9:0] $end
$var reg 10 i! rdindex [9:0] $end
$var reg 1 j! we $end
$upscope $end
$var reg 129 k! data_read [128:0] $end
$var reg 129 l! data_write [128:0] $end

$scope fork data_req $end
$var reg 10 m! wrindex [9:0] $end
$var reg 10 n! rdindex [9:0] $end
$var reg 1 o! we $end
$upscope $end

$scope fork v_cpu_res $end
$var reg 32 p! data [31:0] $end
$var reg 1 q! ready $end
$upscope $end

$scope fork v_mem_req $end
$var reg 10 r! addr [9:0] $end
$var reg 10 s! wraddr [9:0] $end
$var reg 128 t! data [127:0] $end
$var reg 1 u! rw $end
$var reg 1 v! valid $end
$upscope $end

$scope module ctag $end
$var reg 1 w! clk $end

$scope fork tag_req $end
$var reg 10 x! wrindex [9:0] $end
$var reg 10 y! rdindex [9:0] $end
$var reg 1 z! we $end
$upscope $end
$var reg 21 {! tag_write [20:0] $end
$var reg 21 |! tag_read [20:0] $end
$upscope $end

$scope module cdata $end
$var wire 1 }! clk $end

$scope fork data_req $end
$var reg 10 ~! wrindex [9:0] $end
$var reg 10 !" rdindex [9:0] $end
$var reg 1 "" we $end
$upscope $end
$var reg 129 #" data_write [128:0] $end
$var reg 129 $" data_read [128:0] $end
$var reg 5 %" i [4:0] $end
$upscope $end

$scope module cmem $end
$var reg 1 &" clk $end

$scope fork mem_data_down $end
$var reg 129 '" data [128:0] $end
$var reg 1 (" ready $end
$upscope $end

$scope fork mem_req $end
$var reg 10 )" addr [9:0] $end
$var reg 10 *" wraddr [9:0] $end
$var reg 128 +" data [127:0] $end
$var reg 1 ," rw $end
$var reg 1 -" valid $end
$upscope $end
$var reg 5 ." i [4:0] $end
$var reg 128 /" datav [127:0] $end
$upscope $end
$upscope $end

$scope module UPTOP $end
$var wire 1 Q clk $end
$var wire 1 O new_order $end
$var wire 1 P new_max $end
$var wire 1 8 client_id [4] $end
$var wire 1 9 client_id [3] $end
$var wire 1 : client_id [2] $end
$var wire 1 ; client_id [1] $end
$var wire 1 < client_id [0] $end
$var wire 1 ? amount [15] $end
$var wire 1 @ amount [14] $end
$var wire 1 A amount [13] $end
$var wire 1 B amount [12] $end
$var wire 1 C amount [11] $end
$var wire 1 D amount [10] $end
$var wire 1 E amount [9] $end
$var wire 1 F amount [8] $end
$var wire 1 G amount [7] $end
$var wire 1 H amount [6] $end
$var wire 1 I amount [5] $end
$var wire 1 J amount [4] $end
$var wire 1 K amount [3] $end
$var wire 1 L amount [2] $end
$var wire 1 M amount [1] $end
$var wire 1 N amount [0] $end
$var wire 1 S! thenewmax $end
$var reg 1 0" HRESETn $end
$var reg 32 1" correct_amount [31:0] $end
$var reg 1 2" pass_checks $end
$var reg 1 3" upstream_enable $end

$scope fork cpu_req $end
$var reg 10 4" wrindex [9:0] $end
$var reg 10 5" rdindex [9:0] $end
$var reg 32 6" data [31:0] $end
$var reg 1 7" rw $end
$var reg 1 8" valid $end
$upscope $end

$scope fork mem_data $end
$var reg 129 9" data [128:0] $end
$var reg 1 :" ready $end
$upscope $end

$scope fork mem_req $end
$var reg 10 ;" addr [9:0] $end
$var reg 10 <" wraddr [9:0] $end
$var reg 128 =" data [127:0] $end
$var reg 1 >" rw $end
$var reg 1 ?" valid $end
$upscope $end

$scope fork cpu_res $end
$var reg 32 @" data [31:0] $end
$var reg 1 A" ready $end
$upscope $end
$var reg 1 B" counter $end
$var reg 1 C" written $end
$var reg 1 D" check_risk $end
$var reg 1 E" send_order $end
$var reg 1 F" update_max $end
$var wire 1 b cancelled_orders [15] $end
$var wire 1 c cancelled_orders [14] $end
$var wire 1 d cancelled_orders [13] $end
$var wire 1 e cancelled_orders [12] $end
$var wire 1 f cancelled_orders [11] $end
$var wire 1 g cancelled_orders [10] $end
$var wire 1 h cancelled_orders [9] $end
$var wire 1 i cancelled_orders [8] $end
$var wire 1 j cancelled_orders [7] $end
$var wire 1 k cancelled_orders [6] $end
$var wire 1 l cancelled_orders [5] $end
$var wire 1 m cancelled_orders [4] $end
$var wire 1 n cancelled_orders [3] $end
$var wire 1 o cancelled_orders [2] $end
$var wire 1 p cancelled_orders [1] $end
$var wire 1 q cancelled_orders [0] $end
$var reg 16 G" result [15:0] $end
$var reg 16 H" accumulated_orders_reg [15:0] $end
$var reg 16 I" cancelled_orders_reg [15:0] $end
$var reg 16 J" amount_reg [15:0] $end
$var wire 1 r accumulated_orders [15] $end
$var wire 1 s accumulated_orders [14] $end
$var wire 1 t accumulated_orders [13] $end
$var wire 1 u accumulated_orders [12] $end
$var wire 1 v accumulated_orders [11] $end
$var wire 1 w accumulated_orders [10] $end
$var wire 1 x accumulated_orders [9] $end
$var wire 1 y accumulated_orders [8] $end
$var wire 1 z accumulated_orders [7] $end
$var wire 1 { accumulated_orders [6] $end
$var wire 1 | accumulated_orders [5] $end
$var wire 1 } accumulated_orders [4] $end
$var wire 1 ~ accumulated_orders [3] $end
$var wire 1 !! accumulated_orders [2] $end
$var wire 1 "! accumulated_orders [1] $end
$var wire 1 #! accumulated_orders [0] $end
$var wire 1 $! max_to_trade [31] $end
$var wire 1 %! max_to_trade [30] $end
$var wire 1 &! max_to_trade [29] $end
$var wire 1 '! max_to_trade [28] $end
$var wire 1 (! max_to_trade [27] $end
$var wire 1 )! max_to_trade [26] $end
$var wire 1 *! max_to_trade [25] $end
$var wire 1 +! max_to_trade [24] $end
$var wire 1 ,! max_to_trade [23] $end
$var wire 1 -! max_to_trade [22] $end
$var wire 1 .! max_to_trade [21] $end
$var wire 1 /! max_to_trade [20] $end
$var wire 1 0! max_to_trade [19] $end
$var wire 1 1! max_to_trade [18] $end
$var wire 1 2! max_to_trade [17] $end
$var wire 1 3! max_to_trade [16] $end
$var wire 1 4! max_to_trade [15] $end
$var wire 1 5! max_to_trade [14] $end
$var wire 1 6! max_to_trade [13] $end
$var wire 1 7! max_to_trade [12] $end
$var wire 1 8! max_to_trade [11] $end
$var wire 1 9! max_to_trade [10] $end
$var wire 1 :! max_to_trade [9] $end
$var wire 1 ;! max_to_trade [8] $end
$var wire 1 <! max_to_trade [7] $end
$var wire 1 =! max_to_trade [6] $end
$var wire 1 >! max_to_trade [5] $end
$var wire 1 ?! max_to_trade [4] $end
$var wire 1 @! max_to_trade [3] $end
$var wire 1 A! max_to_trade [2] $end
$var wire 1 B! max_to_trade [1] $end
$var wire 1 C! max_to_trade [0] $end
$var reg 32 K" max_to_trade_reg [31:0] $end
$var reg 1 L" memwr $end
$var reg 1 M" nocare $end

$scope begin read_fork $end
$upscope $end

$scope begin write_fork $end
$upscope $end

$scope begin trade_pass_checks $end
$upscope $end

$scope begin trade_state_logic1 $end
$upscope $end

$scope begin trade_state_logic2 $end
$upscope $end

$scope begin trade_state_logic3 $end
$upscope $end

$scope module MEMUPSTREAM $end
$var reg 1 N" clk $end
$var reg 1 O" rst $end

$scope fork cpu_req $end
$var reg 10 P" wrindex [9:0] $end
$var reg 10 Q" rdindex [9:0] $end
$var reg 32 R" data [31:0] $end
$var reg 1 S" rw $end
$var reg 1 T" valid $end
$upscope $end
$var wire 1 U" change_max $end

$scope fork cpu_res $end
$var reg 32 V" data [31:0] $end
$var reg 1 W" ready $end
$upscope $end
$var wire 1 X" written $end
$var reg 5 Y" i [4:0] $end
$var reg 1 Z" written_reg $end

$scope begin wait_fork $end
$upscope $end
$upscope $end

$scope module UPSTREAMPROCESSOR $end
$var parameter 5 [" IDLE $end
$var parameter 5 \" STATE_RISKCHECK $end
$var parameter 5 ]" STATE_SENDORDER $end
$var parameter 5 ^" STATE_NEWMAX $end
$var wire 1 Q clk $end
$var wire 1 _" risk_ok $end
$var wire 1 O new_order $end
$var wire 1 P new_max $end
$var wire 1 `" memwr $end
$var wire 1 a" HRESETn $end
$var wire 1 b" check_risk $end
$var wire 1 c" send_order $end
$var wire 1 d" update_max $end
$var reg 5 e" state [4:0] $end
$upscope $end
$upscope $end

$scope module DOWNTOP $end
$var wire 1 # client_id [4] $end
$var wire 1 $ client_id [3] $end
$var wire 1 % client_id [2] $end
$var wire 1 & client_id [1] $end
$var wire 1 ' client_id [0] $end
$var wire 1 Q clk $end
$var wire 1 ( amount [15] $end
$var wire 1 ) amount [14] $end
$var wire 1 * amount [13] $end
$var wire 1 + amount [12] $end
$var wire 1 , amount [11] $end
$var wire 1 - amount [10] $end
$var wire 1 . amount [9] $end
$var wire 1 / amount [8] $end
$var wire 1 0 amount [7] $end
$var wire 1 1 amount [6] $end
$var wire 1 2 amount [5] $end
$var wire 1 3 amount [4] $end
$var wire 1 4 amount [3] $end
$var wire 1 5 amount [2] $end
$var wire 1 6 amount [1] $end
$var wire 1 7 amount [0] $end

$scope fork downdatareq $end
$var reg 10 f" wrindex [9:0] $end
$var reg 10 g" rdindex [9:0] $end
$var reg 32 h" data [31:0] $end
$var reg 1 i" rw $end
$var reg 1 j" valid $end
$upscope $end
$var reg 1 k" old_client $end
$var reg 1 l" old_amount $end

$scope begin downstream_write_enable $end
$upscope $end
$upscope $end
$upscope $end
$upscope $end

$scope begin tb_top_UPDOWNSTREAM_sv_unit $end
$upscope $end

$scope begin std $end
$upscope $end

$scope begin cache_def $end
$var parameter 32 m" TAGMSB $end
$var parameter 32 n" TAGLSB $end
$upscope $end

$scope begin top_sv_unit $end
$var parameter 32 o" TAGMAX $end
$upscope $end
$enddefinitions $end
#0
$dumpvars
0!
0"
b0 D!
0T!
0U!
b0 f!
b0 g!
b0 k!
b0 l!
0w!
b0 {!
b0 |!
b0 #"
b0 $"
bx %"
0&"
bx ."
bx /"
x0"
bx 1"
x2"
x3"
xB"
xC"
xD"
xE"
xF"
bx G"
bx H"
bx I"
bx J"
bx K"
xL"
xM"
0N"
0O"
bx Y"
xZ"
bx e"
xk"
xl"
b0 E!
b0 F!
b0 G!
b0 H!
b1 I!
b0 J!
b0 K!
b0 L!
b0 M!
b0 N!
b0 O!
b0 P!
b0 Q!
b0 R!
b0 V!
b0 W!
b0 X!
b0 Y!
b1 Z!
b0 [!
b0 \!
b0 ]!
b0 ^!
b0 _!
b0 `!
b0 a!
b0 b!
b0 c!
b0 h!
b0 i!
b0 j!
b0 m!
b0 n!
b0 o!
b0 p!
b0 q!
b0 r!
b0 s!
b0 t!
b0 u!
b0 v!
b0 x!
b0 y!
b0 z!
b0 ~!
b0 !"
b0 ""
b0 '"
b1 ("
b0 )"
b0 *"
b0 +"
b0 ,"
b0 -"
b0 4"
b0 5"
b0 6"
b0 7"
b0 8"
b0 9"
b0 :"
b0 ;"
b0 <"
b0 ="
b0 >"
b0 ?"
b0 @"
b0 A"
b0 P"
b0 Q"
b0 R"
b0 S"
b0 T"
b0 V"
b0 W"
b0 f"
b0 g"
b0 h"
b0 i"
b0 j"
b100000 m"
b1110 n"
b10 o"
b1 ["
b10 \"
b100 ]"
b1000 ^"
b1 d!
b0 e!
xS!
0Q
x=
x<
x;
x:
x9
x8
xN
xM
xL
xK
xJ
xI
xH
xG
xF
xE
xD
xC
xB
xA
x@
x?
xO
xP
x'
x&
x%
x$
x#
x7
x6
x5
x4
x3
x2
x1
x0
x/
x.
x-
x,
x+
x*
x)
x(
x>
0q
0p
0o
0n
0m
0l
0k
0j
0i
0h
0g
0f
0e
0d
0c
0b
0a
0`
0_
0^
0]
0\
0[
0Z
0Y
0X
0W
0V
0U
0T
0S
0R
x#!
x"!
x!!
x~
x}
x|
x{
xz
xy
xx
xw
xv
xu
xt
xs
xr
xC!
xB!
xA!
x@!
x?!
x>!
x=!
x<!
x;!
x:!
x9!
x8!
x7!
x6!
x5!
x4!
x3!
x2!
x1!
x0!
x/!
x.!
x-!
x,!
x+!
x*!
x)!
x(!
x'!
x&!
x%!
x$!
0}!
x`"
1a"
x_"
xX"
zU"
xb"
xc"
xd"
$end
#5000
1!
1Q
1T!
1N"
1w!
1&"
1}!
b1 e!
b1 e"
0d"
0c"
0b"
0D"
0E"
0F"
0S!
b1 j!
b100000000000000000000 g!
b1 v!
b10 d!
b1 a!
b100000000000000000000 {!
b1 z!
b1 P!
b1 -"
#10000
1"
1>
0=
0O
1P
07
16
15
14
03
02
11
10
0/
0.
0-
0,
0+
0*
1)
1(
1'
0&
0%
0$
0#
1N
0M
0L
0K
1J
0I
1H
0G
1F
0E
1D
0C
0B
0A
0@
0?
0<
1;
1:
09
08
b10101010001 J"
b110 5"
b1 8"
b10000 f"
b1 i"
b1 j"
b1100000011001110 h"
0l"
1k"
b10000 E!
b1100000011001110 G!
b1 H!
b110 Q"
b1 T"
b10000 V!
b1100000011001110 X!
b1 Y!
b1 d!
b0 g!
b0 j!
b1 h!
b1 m!
b1100000011001110 l!
b10000 s!
b1100000011001110 t!
b1 j!
b100000000000000000000 g!
b110000000000000000000 g!
b10 d!
b11111111101010100000000000000000 V"
b0 Y"
b11111111101010100000000000000000 @"
b10000 ^!
b1100000011001110 _!
b1100000011001110 #"
b1 ~!
b1 x!
b110000000000000000000 {!
b10000 M!
b1100000011001110 N!
b10000 *"
b1100000011001110 +"
b1000 e"
1d"
1F"
1S!
#15000
0!
0Q
0T!
0N"
0w!
0&"
0}!
b1100000 F!
b1100000 W!
b1 d!
b0 g!
b0 j!
b110 i!
b110 n!
b0 l!
b1100000011001110 l!
b1100000 r!
b1 j!
b100000000000000000000 g!
b110000000000000000000 g!
b10 d!
b1100000 ]!
b110 !"
b110 y!
b1100000 L!
b1100000 )"
b0 /"
b0 ."
#20000
0"
#25000
1!
1Q
1T!
1N"
1w!
1&"
1}!
b1 Y"
b1 ."
b10 e!
b0 g!
b0 j!
b0 l!
b1100000011001110 l!
b1 d!
b0 l!
b1 o!
b1 ""
b0 #"
b0 z!
b0 {!
#30000
1"
#35000
0!
0Q
0T!
0N"
0w!
0&"
0}!
#40000
0"
#45000
1!
1Q
1T!
1N"
1w!
1&"
1}!
b10 Y"
b10 ."
b1 e!
b0 o!
b1100000011001110 l!
b1 j!
b100000000000000000000 g!
b110000000000000000000 g!
b10 d!
b110000000000000000000 {!
b1 z!
b1100000011001110 #"
b0 ""
#50000
1"
0>
1O
0P
04
13
12
00
1-
1,
1*
0)
0(
1&
1$
0N
1M
1L
1K
0J
1I
0F
1C
1@
1?
1<
0;
b10110000 f"
b10110001110110 h"
b10110000 E!
b0 F!
b10110001110110 G!
b10110000 V!
b0 W!
b10110001110110 X!
b1 d!
b0 g!
b0 j!
b0 i!
b1011 h!
b0 n!
b1011 m!
b0 l!
b10110001110110 l!
b0 r!
b10110000 s!
b10110001110110 t!
b1 j!
b100000000000000000000 g!
b110000000000000000000 g!
b10 d!
b0 ]!
b10110000 ^!
b10110001110110 _!
b10110001110110 #"
b1011 ~!
b0 !"
b1011 x!
b0 y!
b0 L!
b10110000 M!
b10110001110110 N!
b0 )"
b10110000 *"
b10110001110110 +"
#55000
0!
0Q
0T!
0N"
0w!
0&"
0}!
b1010000 F!
b1010000 W!
b1 d!
b0 g!
b0 j!
b101 i!
b101 n!
b0 l!
b10110001110110 l!
b1010000 r!
b1 j!
b100000000000000000000 g!
b110000000000000000000 g!
b10 d!
b1010000 ]!
b101 !"
b101 y!
b1010000 L!
b1010000 )"
#60000
0"
#65000
1!
1Q
1T!
1N"
1w!
1&"
1}!
b11 Y"
b11 ."
b10 e!
b0 g!
b0 j!
b0 l!
b10110001110110 l!
b1 d!
b0 l!
b1 o!
b1 ""
b0 #"
b0 z!
b0 {!
#70000
1"
#75000
0!
0Q
0T!
0N"
0w!
0&"
0}!
#80000
0"
#85000
1!
1Q
1T!
1N"
1w!
1&"
1}!
b100 Y"
b1 W"
b100 ."
b1 A"
b0 H"
b0 I"
b1111111110101010 K"
b10101010001 1"
b10101010001 6"
b10101010001 G"
12"
b1 7"
b10101010001 R"
b1 S"
0C!
1B!
0A!
1@!
0?!
1>!
0=!
1<!
1;!
1:!
19!
18!
17!
16!
15!
14!
03!
02!
01!
00!
0/!
0.!
0-!
0,!
0+!
0*!
0)!
0(!
0'!
0&!
0%!
0$!
0#!
0"!
0!!
0~
0}
0|
0{
0z
0y
0x
0w
0v
0u
0t
0s
0r
1_"
0Z"
b0 Y"
0X"
0C"
b1 e!
b0 o!
b10110001110110 l!
b1 j!
b100000000000000000000 g!
b110000000000000000000 g!
b10 d!
b110000000000000000000 {!
b1 z!
b10110001110110 #"
b0 ""
#90000
1"
1>
0O
1P
05
03
02
1/
1.
0,
1+
1)
1(
0&
0$
1#
0M
0L
1J
0I
1G
1E
0C
1B
0<
1;
0:
b100010000 f"
b1111011101000010 h"
b100010000 E!
b0 F!
b1111011101000010 G!
b100010000 V!
b0 W!
b1111011101000010 X!
b1 d!
b0 g!
b0 j!
b0 i!
b10001 h!
b0 n!
b10001 m!
b0 l!
b1111011101000010 l!
b0 r!
b100010000 s!
b1111011101000010 t!
b1 j!
b100000000000000000000 g!
b110000000000000000000 g!
b10 d!
b0 ]!
b100010000 ^!
b1111011101000010 _!
b1111011101000010 #"
b10001 ~!
b0 !"
b10001 x!
b0 y!
b0 L!
b100010000 M!
b1111011101000010 N!
b0 )"
b100010000 *"
b1111011101000010 +"
#95000
0!
0Q
0T!
0N"
0w!
0&"
0}!
b100000 F!
b100000 W!
b1 d!
b0 g!
b0 j!
b10 i!
b10 n!
b0 l!
b1111011101000010 l!
b100000 r!
b1 j!
b100000000000000000000 g!
b110000000000000000000 g!
b10 d!
b100000 ]!
b10 !"
b10 y!
b100000 L!
b100000 )"
#100000
0"
#105000
1!
1Q
1T!
1N"
1w!
1&"
1}!
b1 Y"
b101 ."
b10 e!
b0 g!
b0 j!
b0 l!
b1111011101000010 l!
b1 d!
b0 l!
b1 o!
b1 ""
b0 #"
b0 z!
b0 {!
#110000
1"
#115000
0!
0Q
0T!
0N"
0w!
0&"
0}!
#120000
0"
#125000
1!
1Q
1T!
1N"
1w!
1&"
1}!
b10 Y"
b1 e!
b0 o!
b1111011101000010 l!
b1 j!
b100000000000000000000 g!
b110000000000000000000 g!
b10 d!
b110000000000000000000 {!
b1 z!
b1111011101000010 #"
b0 ""
#130000
1"
0>
1O
0P
17
14
13
12
01
0/
1,
0+
0)
0'
1$
0#
1L
0K
1I
0H
0G
0D
1C
0B
0?
1<
0;
1:
b10000000 f"
b1010111000111011 h"
1l"
0k"
b10000000 E!
b0 F!
b1010111000111011 G!
b10000000 V!
b0 W!
b1010111000111011 X!
b1 d!
b0 g!
b0 j!
b0 i!
b1000 h!
b0 n!
b1000 m!
b0 l!
b1010111000111011 l!
b0 r!
b10000000 s!
b1010111000111011 t!
b1 j!
b100000000000000000000 g!
b110000000000000000000 g!
b10 d!
b0 ]!
b10000000 ^!
b1010111000111011 _!
b1010111000111011 #"
b1000 ~!
b0 !"
b1000 x!
b0 y!
b0 L!
b10000000 M!
b1010111000111011 N!
b0 )"
b10000000 *"
b1010111000111011 +"
b0 ."
#135000
0!
0Q
0T!
0N"
0w!
0&"
0}!
b1010000 F!
b1010000 W!
b1 d!
b0 g!
b0 j!
b101 i!
b101 n!
b0 l!
b1010111000111011 l!
b1010000 r!
b1 j!
b100000000000000000000 g!
b110000000000000000000 g!
b10 d!
b1010000 ]!
b101 !"
b101 y!
b1010000 L!
b1010000 )"
#140000
0"
#145000
1!
1Q
1T!
1N"
1w!
1&"
1}!
b11 Y"
1Z"
b1 ."
1X"
1C"
b10 e!
b0 g!
b0 j!
b0 l!
b1010111000111011 l!
b1 d!
b0 l!
b1 o!
b1 ""
b0 #"
b0 z!
b0 {!
#150000
1"
#155000
0!
0Q
0T!
0N"
0w!
0&"
0}!
#160000
0"
#165000
1!
1Q
1T!
1N"
1w!
1&"
1}!
b10 ."
b1 e!
b0 o!
b1010111000111011 l!
b1 j!
b100000000000000000000 g!
b110000000000000000000 g!
b10 d!
b110000000000000000000 {!
b1 z!
b1010111000111011 #"
b0 ""
#170000
1"
1=
0O
1P
10
0,
1'
1N
1K
0J
0I
1G
1D
0C
1A
1?
0<
0:
b1110011010001101 J"
b0 5"
bx0000000000000000 1"
b0 6"
b1110011010001101 G"
b10010000 f"
b1010011010111011 h"
1k"
b10010000 E!
b0 F!
b1010011010111011 G!
b0 Q"
b0 R"
b10010000 V!
b0 W!
b1010011010111011 X!
b1 d!
b0 g!
b0 j!
b0 i!
b1001 h!
b0 n!
b1001 m!
b0 l!
b1010011010111011 l!
b0 r!
b10010000 s!
b1010011010111011 t!
b1 j!
b100000000000000000000 g!
b110000000000000000000 g!
b10 d!
b0 W"
b0 Y"
b0 A"
b0 ]!
b10010000 ^!
b1010011010111011 _!
b1010011010111011 #"
b1001 ~!
b0 !"
b1001 x!
b0 y!
b0 L!
b10010000 M!
b1010011010111011 N!
b0 )"
b10010000 *"
b1010011010111011 +"
#175000
0!
0Q
0T!
0N"
0w!
0&"
0}!
#180000
0"
#185000
1!
1Q
1T!
1N"
1w!
1&"
1}!
b1 Y"
b11 ."
b10 e!
b0 g!
b0 j!
b0 l!
b1010011010111011 l!
b1 d!
b0 l!
b1 o!
b1 ""
b0 #"
b0 z!
b0 {!
#190000
1"
#195000
0!
0Q
0T!
0N"
0w!
0&"
0}!
#200000
0"
#205000
1!
1Q
1T!
1N"
1w!
1&"
1}!
b10 Y"
b100 ."
b1 e!
b0 o!
b1010011010111011 l!
b1 j!
b100000000000000000000 g!
b110000000000000000000 g!
b10 d!
b110000000000000000000 {!
b1 z!
b1010011010111011 #"
b0 ""
#210000
1"
1>
07
06
04
03
11
00
1/
0.
0-
1,
1+
1)
1%
1#
1M
0L
1J
1H
0E
0D
1B
1;
b1111000011011011 J"
b10 5"
b111010000 f"
b1111100101100000 h"
0l"
b111010000 E!
b1111100101100000 G!
b10 Q"
b111010000 V!
b1111100101100000 X!
b1 d!
b0 g!
b0 j!
b11101 h!
b11101 m!
b0 l!
b1111100101100000 l!
b111010000 s!
b1111100101100000 t!
b1 j!
b100000000000000000000 g!
b110000000000000000000 g!
b10 d!
b111010000 ^!
b1111100101100000 _!
b1111100101100000 #"
b11101 ~!
b11101 x!
b111010000 M!
b1111100101100000 N!
b111010000 *"
b1111100101100000 +"
#215000
0!
0Q
0T!
0N"
0w!
0&"
0}!
b100000 F!
b100000 W!
b1 d!
b0 g!
b0 j!
b10 i!
b10 n!
b0 l!
b1111100101100000 l!
b100000 r!
b1 j!
b100000000000000000000 g!
b110000000000000000000 g!
b10 d!
b100000 ]!
b10 !"
b10 y!
b100000 L!
b100000 )"
#220000
0"
#225000
1!
1Q
1T!
1N"
1w!
1&"
1}!
b11 Y"
b101 ."
b10 e!
b0 g!
b0 j!
b0 l!
b1111100101100000 l!
b1 d!
b0 l!
b1 o!
b1 ""
b0 #"
b0 z!
b0 {!
#230000
1"
