testbench/tbenchoutputs/upstream/upstreamdump.vcd
$date
	Thu May 26 11:22:20 2022
$end
$version
	QuestaSim Version 10.7c
$end
$timescale
	1ps
$end

$scope module tb_top_UPDOWNSTREAM $end
$var reg 1 ! clk $end
$var reg 1 " slowclk $end

$scope module TOP $end
$var wire 1 # exchange_client_id [4] $end
$var wire 1 $ exchange_client_id [3] $end
$var wire 1 % exchange_client_id [2] $end
$var wire 1 & exchange_client_id [1] $end
$var wire 1 ' exchange_client_id [0] $end
$var wire 1 ( exchange_amount [15] $end
$var wire 1 ) exchange_amount [14] $end
$var wire 1 * exchange_amount [13] $end
$var wire 1 + exchange_amount [12] $end
$var wire 1 , exchange_amount [11] $end
$var wire 1 - exchange_amount [10] $end
$var wire 1 . exchange_amount [9] $end
$var wire 1 / exchange_amount [8] $end
$var wire 1 0 exchange_amount [7] $end
$var wire 1 1 exchange_amount [6] $end
$var wire 1 2 exchange_amount [5] $end
$var wire 1 3 exchange_amount [4] $end
$var wire 1 4 exchange_amount [3] $end
$var wire 1 5 exchange_amount [2] $end
$var wire 1 6 exchange_amount [1] $end
$var wire 1 7 exchange_amount [0] $end
$var wire 1 8 cpu_client_id [8] $end
$var wire 1 9 cpu_client_id [7] $end
$var wire 1 : cpu_client_id [6] $end
$var wire 1 ; cpu_client_id [5] $end
$var wire 1 < cpu_client_id [4] $end
$var wire 1 = cpu_client_id [3] $end
$var wire 1 > cpu_client_id [2] $end
$var wire 1 ? cpu_client_id [1] $end
$var wire 1 @ cpu_client_id [0] $end
$var wire 1 A HRESETn $end
$var wire 1 B exchange_go $end
$var wire 1 C cpu_amount [15] $end
$var wire 1 D cpu_amount [14] $end
$var wire 1 E cpu_amount [13] $end
$var wire 1 F cpu_amount [12] $end
$var wire 1 G cpu_amount [11] $end
$var wire 1 H cpu_amount [10] $end
$var wire 1 I cpu_amount [9] $end
$var wire 1 J cpu_amount [8] $end
$var wire 1 K cpu_amount [7] $end
$var wire 1 L cpu_amount [6] $end
$var wire 1 M cpu_amount [5] $end
$var wire 1 N cpu_amount [4] $end
$var wire 1 O cpu_amount [3] $end
$var wire 1 P cpu_amount [2] $end
$var wire 1 Q cpu_amount [1] $end
$var wire 1 R cpu_amount [0] $end
$var wire 1 S cpu_go $end
$var wire 1 T cpu_new_max $end
$var wire 1 U clk $end
$var wire 1 V cancelled_orders [31] $end
$var wire 1 W cancelled_orders [30] $end
$var wire 1 X cancelled_orders [29] $end
$var wire 1 Y cancelled_orders [28] $end
$var wire 1 Z cancelled_orders [27] $end
$var wire 1 [ cancelled_orders [26] $end
$var wire 1 \ cancelled_orders [25] $end
$var wire 1 ] cancelled_orders [24] $end
$var wire 1 ^ cancelled_orders [23] $end
$var wire 1 _ cancelled_orders [22] $end
$var wire 1 ` cancelled_orders [21] $end
$var wire 1 a cancelled_orders [20] $end
$var wire 1 b cancelled_orders [19] $end
$var wire 1 c cancelled_orders [18] $end
$var wire 1 d cancelled_orders [17] $end
$var wire 1 e cancelled_orders [16] $end
$var wire 1 f cancelled_orders [15] $end
$var wire 1 g cancelled_orders [14] $end
$var wire 1 h cancelled_orders [13] $end
$var wire 1 i cancelled_orders [12] $end
$var wire 1 j cancelled_orders [11] $end
$var wire 1 k cancelled_orders [10] $end
$var wire 1 l cancelled_orders [9] $end
$var wire 1 m cancelled_orders [8] $end
$var wire 1 n cancelled_orders [7] $end
$var wire 1 o cancelled_orders [6] $end
$var wire 1 p cancelled_orders [5] $end
$var wire 1 q cancelled_orders [4] $end
$var wire 1 r cancelled_orders [3] $end
$var wire 1 s cancelled_orders [2] $end
$var wire 1 t cancelled_orders [1] $end
$var wire 1 u cancelled_orders [0] $end
$var wire 1 v accumulated_orders [15] $end
$var wire 1 w accumulated_orders [14] $end
$var wire 1 x accumulated_orders [13] $end
$var wire 1 y accumulated_orders [12] $end
$var wire 1 z accumulated_orders [11] $end
$var wire 1 { accumulated_orders [10] $end
$var wire 1 | accumulated_orders [9] $end
$var wire 1 } accumulated_orders [8] $end
$var wire 1 ~ accumulated_orders [7] $end
$var wire 1 !! accumulated_orders [6] $end
$var wire 1 "! accumulated_orders [5] $end
$var wire 1 #! accumulated_orders [4] $end
$var wire 1 $! accumulated_orders [3] $end
$var wire 1 %! accumulated_orders [2] $end
$var wire 1 &! accumulated_orders [1] $end
$var wire 1 '! accumulated_orders [0] $end
$var wire 1 (! max_to_trade [31] $end
$var wire 1 )! max_to_trade [30] $end
$var wire 1 *! max_to_trade [29] $end
$var wire 1 +! max_to_trade [28] $end
$var wire 1 ,! max_to_trade [27] $end
$var wire 1 -! max_to_trade [26] $end
$var wire 1 .! max_to_trade [25] $end
$var wire 1 /! max_to_trade [24] $end
$var wire 1 0! max_to_trade [23] $end
$var wire 1 1! max_to_trade [22] $end
$var wire 1 2! max_to_trade [21] $end
$var wire 1 3! max_to_trade [20] $end
$var wire 1 4! max_to_trade [19] $end
$var wire 1 5! max_to_trade [18] $end
$var wire 1 6! max_to_trade [17] $end
$var wire 1 7! max_to_trade [16] $end
$var wire 1 8! max_to_trade [15] $end
$var wire 1 9! max_to_trade [14] $end
$var wire 1 :! max_to_trade [13] $end
$var wire 1 ;! max_to_trade [12] $end
$var wire 1 <! max_to_trade [11] $end
$var wire 1 =! max_to_trade [10] $end
$var wire 1 >! max_to_trade [9] $end
$var wire 1 ?! max_to_trade [8] $end
$var wire 1 @! max_to_trade [7] $end
$var wire 1 A! max_to_trade [6] $end
$var wire 1 B! max_to_trade [5] $end
$var wire 1 C! max_to_trade [4] $end
$var wire 1 D! max_to_trade [3] $end
$var wire 1 E! max_to_trade [2] $end
$var wire 1 F! max_to_trade [1] $end
$var wire 1 G! max_to_trade [0] $end
$var reg 32 H! cancelled_orders_reg [31:0] $end

$scope fork downdatareq $end
$var reg 10 I! wrindex [9:0] $end
$var reg 10 J! rdindex [9:0] $end
$var reg 32 K! data [31:0] $end
$var reg 1 L! rw $end
$var reg 1 M! valid $end
$upscope $end

$scope fork mem_data $end
$var reg 129 N! data [128:0] $end
$var reg 1 O! ready $end
$upscope $end

$scope fork mem_req $end
$var reg 10 P! addr [9:0] $end
$var reg 10 Q! wraddr [9:0] $end
$var reg 128 R! data [127:0] $end
$var reg 1 S! rw $end
$var reg 1 T! valid $end
$upscope $end

$scope fork downexchrest $end
$var reg 32 U! data [31:0] $end
$var reg 1 V! ready $end
$upscope $end
$var wire 1 W! thenewmax $end

$scope module CACHEDOWNSTREAM $end
$var reg 1 X! clk $end
$var reg 1 Y! rst $end

$scope fork cpu_req $end
$var reg 10 Z! wrindex [9:0] $end
$var reg 10 [! rdindex [9:0] $end
$var reg 32 \! data [31:0] $end
$var reg 1 ]! rw $end
$var reg 1 ^! valid $end
$upscope $end

$scope fork mem_data_down $end
$var reg 129 _! data [128:0] $end
$var reg 1 `! ready $end
$upscope $end

$scope fork mem_req $end
$var reg 10 a! addr [9:0] $end
$var reg 10 b! wraddr [9:0] $end
$var reg 128 c! data [127:0] $end
$var reg 1 d! rw $end
$var reg 1 e! valid $end
$upscope $end

$scope fork cpu_res $end
$var reg 32 f! data [31:0] $end
$var reg 1 g! ready $end
$upscope $end
$var integer 32 h! vstate $end
$var integer 32 i! rstate $end
$var reg 15 j! tag_read [14:0] $end
$var reg 15 k! tag_write [14:0] $end

$scope fork tag_req $end
$var reg 10 l! wrindex [9:0] $end
$var reg 10 m! rdindex [9:0] $end
$var reg 1 n! we $end
$upscope $end
$var reg 129 o! data_read [128:0] $end
$var reg 129 p! data_write [128:0] $end

$scope fork data_req $end
$var reg 10 q! wrindex [9:0] $end
$var reg 10 r! rdindex [9:0] $end
$var reg 1 s! we $end
$upscope $end

$scope fork v_cpu_res $end
$var reg 32 t! data [31:0] $end
$var reg 1 u! ready $end
$upscope $end

$scope fork v_mem_req $end
$var reg 10 v! addr [9:0] $end
$var reg 10 w! wraddr [9:0] $end
$var reg 128 x! data [127:0] $end
$var reg 1 y! rw $end
$var reg 1 z! valid $end
$upscope $end

$scope module ctag $end
$var reg 1 {! clk $end

$scope fork tag_req $end
$var reg 10 |! wrindex [9:0] $end
$var reg 10 }! rdindex [9:0] $end
$var reg 1 ~! we $end
$upscope $end
$var reg 15 !" tag_write [14:0] $end
$var reg 15 "" tag_read [14:0] $end
$upscope $end

$scope module cdata $end
$var wire 1 #" clk $end

$scope fork data_req $end
$var reg 10 $" wrindex [9:0] $end
$var reg 10 %" rdindex [9:0] $end
$var reg 1 &" we $end
$upscope $end
$var reg 129 '" data_write [128:0] $end
$var reg 129 (" data_read [128:0] $end
$var reg 5 )" i [4:0] $end
$var reg 13 *" totalsent [12:0] $end
$upscope $end

$scope module cmem $end
$var reg 1 +" clk $end

$scope fork mem_data_down $end
$var reg 129 ," data [128:0] $end
$var reg 1 -" ready $end
$upscope $end

$scope fork mem_req $end
$var reg 10 ." addr [9:0] $end
$var reg 10 /" wraddr [9:0] $end
$var reg 128 0" data [127:0] $end
$var reg 1 1" rw $end
$var reg 1 2" valid $end
$upscope $end
$var reg 5 3" i [4:0] $end
$var reg 128 4" datav [127:0] $end
$upscope $end
$upscope $end

$scope module UPTOP $end
$var wire 1 U clk $end
$var wire 1 S new_order $end
$var wire 1 T new_max $end
$var wire 1 8 client_id [8] $end
$var wire 1 9 client_id [7] $end
$var wire 1 : client_id [6] $end
$var wire 1 ; client_id [5] $end
$var wire 1 < client_id [4] $end
$var wire 1 = client_id [3] $end
$var wire 1 > client_id [2] $end
$var wire 1 ? client_id [1] $end
$var wire 1 @ client_id [0] $end
$var wire 1 C amount [15] $end
$var wire 1 D amount [14] $end
$var wire 1 E amount [13] $end
$var wire 1 F amount [12] $end
$var wire 1 G amount [11] $end
$var wire 1 H amount [10] $end
$var wire 1 I amount [9] $end
$var wire 1 J amount [8] $end
$var wire 1 K amount [7] $end
$var wire 1 L amount [6] $end
$var wire 1 M amount [5] $end
$var wire 1 N amount [4] $end
$var wire 1 O amount [3] $end
$var wire 1 P amount [2] $end
$var wire 1 Q amount [1] $end
$var wire 1 R amount [0] $end
$var wire 1 W! thenewmax $end
$var reg 1 5" HRESETn $end
$var reg 32 6" correct_amount [31:0] $end
$var reg 1 7" pass_checks $end
$var reg 1 8" upstream_enable $end

$scope fork cpu_req $end
$var reg 10 9" wrindex [9:0] $end
$var reg 10 :" rdindex [9:0] $end
$var reg 32 ;" data [31:0] $end
$var reg 1 <" rw $end
$var reg 1 =" valid $end
$upscope $end

$scope fork mem_data $end
$var reg 129 >" data [128:0] $end
$var reg 1 ?" ready $end
$upscope $end

$scope fork mem_req $end
$var reg 10 @" addr [9:0] $end
$var reg 10 A" wraddr [9:0] $end
$var reg 128 B" data [127:0] $end
$var reg 1 C" rw $end
$var reg 1 D" valid $end
$upscope $end

$scope fork cpu_res $end
$var reg 32 E" data [31:0] $end
$var reg 1 F" ready $end
$upscope $end
$var reg 1 G" counter $end
$var reg 1 H" check_risk $end
$var reg 1 I" send_order $end
$var reg 1 J" update_max $end
$var wire 1 f cancelled_orders [15] $end
$var wire 1 g cancelled_orders [14] $end
$var wire 1 h cancelled_orders [13] $end
$var wire 1 i cancelled_orders [12] $end
$var wire 1 j cancelled_orders [11] $end
$var wire 1 k cancelled_orders [10] $end
$var wire 1 l cancelled_orders [9] $end
$var wire 1 m cancelled_orders [8] $end
$var wire 1 n cancelled_orders [7] $end
$var wire 1 o cancelled_orders [6] $end
$var wire 1 p cancelled_orders [5] $end
$var wire 1 q cancelled_orders [4] $end
$var wire 1 r cancelled_orders [3] $end
$var wire 1 s cancelled_orders [2] $end
$var wire 1 t cancelled_orders [1] $end
$var wire 1 u cancelled_orders [0] $end
$var reg 16 K" result [15:0] $end
$var reg 16 L" accumulated_orders_reg [15:0] $end
$var reg 16 M" cancelled_orders_reg [15:0] $end
$var wire 1 v accumulated_orders [15] $end
$var wire 1 w accumulated_orders [14] $end
$var wire 1 x accumulated_orders [13] $end
$var wire 1 y accumulated_orders [12] $end
$var wire 1 z accumulated_orders [11] $end
$var wire 1 { accumulated_orders [10] $end
$var wire 1 | accumulated_orders [9] $end
$var wire 1 } accumulated_orders [8] $end
$var wire 1 ~ accumulated_orders [7] $end
$var wire 1 !! accumulated_orders [6] $end
$var wire 1 "! accumulated_orders [5] $end
$var wire 1 #! accumulated_orders [4] $end
$var wire 1 $! accumulated_orders [3] $end
$var wire 1 %! accumulated_orders [2] $end
$var wire 1 &! accumulated_orders [1] $end
$var wire 1 '! accumulated_orders [0] $end
$var wire 1 (! max_to_trade [31] $end
$var wire 1 )! max_to_trade [30] $end
$var wire 1 *! max_to_trade [29] $end
$var wire 1 +! max_to_trade [28] $end
$var wire 1 ,! max_to_trade [27] $end
$var wire 1 -! max_to_trade [26] $end
$var wire 1 .! max_to_trade [25] $end
$var wire 1 /! max_to_trade [24] $end
$var wire 1 0! max_to_trade [23] $end
$var wire 1 1! max_to_trade [22] $end
$var wire 1 2! max_to_trade [21] $end
$var wire 1 3! max_to_trade [20] $end
$var wire 1 4! max_to_trade [19] $end
$var wire 1 5! max_to_trade [18] $end
$var wire 1 6! max_to_trade [17] $end
$var wire 1 7! max_to_trade [16] $end
$var wire 1 8! max_to_trade [15] $end
$var wire 1 9! max_to_trade [14] $end
$var wire 1 :! max_to_trade [13] $end
$var wire 1 ;! max_to_trade [12] $end
$var wire 1 <! max_to_trade [11] $end
$var wire 1 =! max_to_trade [10] $end
$var wire 1 >! max_to_trade [9] $end
$var wire 1 ?! max_to_trade [8] $end
$var wire 1 @! max_to_trade [7] $end
$var wire 1 A! max_to_trade [6] $end
$var wire 1 B! max_to_trade [5] $end
$var wire 1 C! max_to_trade [4] $end
$var wire 1 D! max_to_trade [3] $end
$var wire 1 E! max_to_trade [2] $end
$var wire 1 F! max_to_trade [1] $end
$var wire 1 G! max_to_trade [0] $end
$var reg 32 N" max_to_trade_reg [31:0] $end
$var reg 1 O" memwr $end
$var reg 1 P" nocare $end

$scope begin main_process $end

$scope begin read_fork $end
$upscope $end
$upscope $end

$scope begin trade_correctamount_cpu $end
$upscope $end

$scope begin trade_pass_checks $end
$upscope $end

$scope begin trade_state_logic1 $end
$upscope $end

$scope begin trade_state_logic2 $end
$upscope $end

$scope begin trade_state_logic3 $end
$upscope $end

$scope module CACHEUPSTREAM $end
$var reg 1 Q" clk $end
$var reg 1 R" rst $end

$scope fork cpu_req $end
$var reg 10 S" wrindex [9:0] $end
$var reg 10 T" rdindex [9:0] $end
$var reg 32 U" data [31:0] $end
$var reg 1 V" rw $end
$var reg 1 W" valid $end
$upscope $end

$scope fork mem_data $end
$var reg 129 X" data [128:0] $end
$var reg 1 Y" ready $end
$upscope $end

$scope fork mem_req $end
$var reg 10 Z" addr [9:0] $end
$var reg 10 [" wraddr [9:0] $end
$var reg 128 \" data [127:0] $end
$var reg 1 ]" rw $end
$var reg 1 ^" valid $end
$upscope $end

$scope fork cpu_res $end
$var reg 32 _" data [31:0] $end
$var reg 1 `" ready $end
$upscope $end
$var integer 32 a" vstate $end
$var integer 32 b" rstate $end
$var reg 15 c" tag_read [14:0] $end
$var reg 15 d" tag_write [14:0] $end

$scope fork tag_req $end
$var reg 10 e" wrindex [9:0] $end
$var reg 10 f" rdindex [9:0] $end
$var reg 1 g" we $end
$upscope $end
$var reg 129 h" data_read [128:0] $end
$var reg 129 i" data_write [128:0] $end

$scope fork data_req $end
$var reg 10 j" wrindex [9:0] $end
$var reg 10 k" rdindex [9:0] $end
$var reg 1 l" we $end
$upscope $end

$scope fork v_cpu_res $end
$var reg 32 m" data [31:0] $end
$var reg 1 n" ready $end
$upscope $end

$scope fork v_mem_req $end
$var reg 10 o" addr [9:0] $end
$var reg 10 p" wraddr [9:0] $end
$var reg 128 q" data [127:0] $end
$var reg 1 r" rw $end
$var reg 1 s" valid $end
$upscope $end

$scope begin idle_state $end
$upscope $end

$scope begin compare_tag_state $end

$scope begin cache_hit $end

$scope begin write_hit $end
$upscope $end
$upscope $end

$scope begin cache_miss $end

$scope begin dirty_line_miss $end
$upscope $end
$upscope $end
$upscope $end

$scope begin allocate_state $end
$upscope $end

$scope begin write_back_state $end
$upscope $end

$scope module ctag $end
$var reg 1 t" clk $end

$scope fork tag_req $end
$var reg 10 u" wrindex [9:0] $end
$var reg 10 v" rdindex [9:0] $end
$var reg 1 w" we $end
$upscope $end
$var reg 15 x" tag_write [14:0] $end
$var reg 15 y" tag_read [14:0] $end
$var reg 1 z" tagvdirty $end
$var reg 7 {" i [6:0] $end

$scope begin dirty_wait_fork $end
$upscope $end
$upscope $end

$scope module cdata $end
$var wire 1 |" clk $end
$var reg 5 }" i [4:0] $end
$var reg 13 ~" totalsent [12:0] $end
$var reg 13 !# totalacc [12:0] $end

$scope fork data_req $end
$var reg 10 "# wrindex [9:0] $end
$var reg 10 ## rdindex [9:0] $end
$var reg 1 $# we $end
$upscope $end
$var reg 129 %# data_write [128:0] $end
$var reg 129 &# data_read [128:0] $end
$var reg 32 '# data_writeprev [31:0] $end

$scope begin trade_risk_check_mem $end
$upscope $end
$upscope $end

$scope module cmem $end
$var reg 1 (# clk $end

$scope fork mem_data $end
$var reg 129 )# data [128:0] $end
$var reg 1 *# ready $end
$upscope $end

$scope fork mem_req $end
$var reg 10 +# addr [9:0] $end
$var reg 10 ,# wraddr [9:0] $end
$var reg 128 -# data [127:0] $end
$var reg 1 .# rw $end
$var reg 1 /# valid $end
$upscope $end
$var reg 5 0# i [4:0] $end
$var reg 128 1# datav [127:0] $end
$var reg 1 2# datardy $end

$scope begin write_wait_fork $end
$upscope $end
$upscope $end
$upscope $end

$scope module UPSTREAMPROCESSOR $end
$var parameter 5 3# IDLE $end
$var parameter 5 4# STATE_RISKCHECK $end
$var parameter 5 5# STATE_SENDORDER $end
$var parameter 5 6# STATE_NEWMAX $end
$var wire 1 U clk $end
$var wire 1 7# risk_ok $end
$var wire 1 S new_order $end
$var wire 1 T new_max $end
$var wire 1 8# memwr $end
$var wire 1 9# HRESETn $end
$var wire 1 :# check_risk $end
$var wire 1 ;# send_order $end
$var wire 1 <# update_max $end
$var reg 5 =# state [4:0] $end
$upscope $end
$upscope $end

$scope module DOWNTOP $end
$var wire 1 # client_id [4] $end
$var wire 1 $ client_id [3] $end
$var wire 1 % client_id [2] $end
$var wire 1 & client_id [1] $end
$var wire 1 ' client_id [0] $end
$var wire 1 U clk $end
$var wire 1 ( amount [15] $end
$var wire 1 ) amount [14] $end
$var wire 1 * amount [13] $end
$var wire 1 + amount [12] $end
$var wire 1 , amount [11] $end
$var wire 1 - amount [10] $end
$var wire 1 . amount [9] $end
$var wire 1 / amount [8] $end
$var wire 1 0 amount [7] $end
$var wire 1 1 amount [6] $end
$var wire 1 2 amount [5] $end
$var wire 1 3 amount [4] $end
$var wire 1 4 amount [3] $end
$var wire 1 5 amount [2] $end
$var wire 1 6 amount [1] $end
$var wire 1 7 amount [0] $end

$scope fork downdatareq $end
$var reg 10 ># wrindex [9:0] $end
$var reg 10 ?# rdindex [9:0] $end
$var reg 32 @# data [31:0] $end
$var reg 1 A# rw $end
$var reg 1 B# valid $end
$upscope $end
$var reg 1 C# old_client $end
$var reg 1 D# old_amount $end

$scope begin downstream_write_enable $end
$upscope $end
$upscope $end
$upscope $end
$upscope $end

$scope begin tb_top_UPDOWNSTREAM_sv_unit $end
$upscope $end

$scope begin std $end
$upscope $end

$scope begin cache_def $end
$var parameter 32 E# TAGMSB $end
$var parameter 32 F# TAGLSB $end
$upscope $end

$scope begin top_sv_unit $end
$var parameter 32 G# TAGMAX $end
$upscope $end
$enddefinitions $end
#0
$dumpvars
0!
0"
b0 H!
0X!
0Y!
b0 j!
b0 k!
b0 o!
b0 p!
0{!
b0 !"
b0 ""
b0 '"
b0 ("
bx )"
b0 *"
0+"
bx 3"
bx 4"
x5"
bx 6"
x7"
x8"
xG"
xH"
xI"
xJ"
bx K"
bx L"
bx M"
bx N"
xO"
xP"
0Q"
0R"
b100000000000000 c"
b0 d"
b11111111101010100000000000000000 h"
b0 i"
0t"
b0 x"
b100000000000000 y"
xz"
bx {"
bx }"
b0 ~"
b0 !#
b0 %#
b11111111101010100000000000000000 &#
b0 '#
0(#
bx 0#
bx 1#
x2#
bx =#
xC#
xD#
b0 I!
b0 J!
b0 K!
b0 L!
b1 M!
b0 N!
b0 O!
b0 P!
b0 Q!
b0 R!
b0 S!
b0 T!
b0 U!
b0 V!
b0 Z!
b0 [!
b0 \!
b0 ]!
b1 ^!
b0 _!
b0 `!
b0 a!
b0 b!
b0 c!
b0 d!
b0 e!
b0 f!
b0 g!
b0 l!
b0 m!
b0 n!
b0 q!
b0 r!
b0 s!
b0 t!
b0 u!
b0 v!
b0 w!
b0 x!
b0 y!
b0 z!
b0 |!
b0 }!
b0 ~!
b0 $"
b0 %"
b0 &"
b0 ,"
b1 -"
b0 ."
b0 /"
b0 0"
b0 1"
b0 2"
b0 9"
b0 :"
b0 ;"
b0 <"
b0 ="
b0 >"
b0 ?"
b0 @"
b0 A"
b0 B"
b0 C"
b0 D"
b11111111101010100000000000000000 E"
b0 F"
b0 S"
b0 T"
b0 U"
b0 V"
b0 W"
b0 X"
b0 Y"
b0 Z"
b0 ["
b0 \"
b0 ]"
b0 ^"
b11111111101010100000000000000000 _"
b0 `"
b0 e"
b0 f"
b0 g"
b0 j"
b0 k"
b0 l"
b11111111101010100000000000000000 m"
b0 n"
b0 o"
b0 p"
b0 q"
b0 r"
b0 s"
b0 u"
b0 v"
b0 w"
b0 "#
b0 ##
b0 $#
b0 )#
b0 *#
b0 +#
b0 ,#
b0 -#
b0 .#
b0 /#
b0 >#
b0 ?#
b0 @#
b0 A#
b1 B#
b10000 E#
b100 F#
b1100 G#
b1 3#
b10 4#
b100 5#
b1000 6#
b1 h!
b0 i!
b0 a"
b0 b"
xW!
0U
xA
x@
x?
x>
x=
x<
xR
xQ
xP
xO
xN
xM
xL
xK
xJ
xI
xH
xG
xF
xE
xD
xC
xS
xT
x'
x&
x%
x$
x#
x7
x6
x5
x4
x3
x2
x1
x0
x/
x.
x-
x,
x+
x*
x)
x(
xB
0u
0t
0s
0r
0q
0p
0o
0n
0m
0l
0k
0j
0i
0h
0g
0f
0e
0d
0c
0b
0a
0`
0_
0^
0]
0\
0[
0Z
0Y
0X
0W
0V
x'!
x&!
x%!
x$!
x#!
x"!
x!!
x~
x}
x|
x{
xz
xy
xx
xw
xv
xG!
xF!
xE!
xD!
xC!
xB!
xA!
x@!
x?!
x>!
x=!
x<!
x;!
x:!
x9!
x8!
x7!
x6!
x5!
x4!
x3!
x2!
x1!
x0!
x/!
x.!
x-!
x,!
x+!
x*!
x)!
x(!
z;
z:
z9
z8
0#"
x8#
19#
x7#
0|"
x:#
x;#
x<#
$end
#2000
1!
1U
1X!
1Q"
1t"
1(#
1{!
1+"
1#"
1|"
b1 i!
b1 =#
0<#
0;#
0:#
0H"
0I"
0J"
0W!
b1 n!
b100000000000000 k!
b1 z!
b10 h!
b1 e!
b100000000000000 !"
b1 ~!
b1 T!
b1 2"
#6000
1"
1B
0A
0S
1T
07
16
15
14
03
02
11
10
0/
0.
0-
0,
0+
0*
1)
1(
1'
0&
0%
0$
0#
1R
0Q
0P
0O
1N
0M
1L
0K
1J
0I
1H
0G
0F
0E
0D
0C
0@
1?
1>
0=
0<
b0 L"
b0 M"
b1100000 :"
b1 ="
b1111111110101010 N"
b101010100010000000000000000 6"
b101010100010000000000000000 ;"
b10101010001 K"
17"
b1 <"
b10000 >#
b1 A#
b1100000011001110 @#
0D#
1C#
b10000 I!
b1100000011001110 K!
b1 L!
b1100000 T"
b101010100010000000000000000 U"
b1 V"
b1 W"
0G!
1F!
0E!
1D!
0C!
1B!
0A!
1@!
1?!
1>!
1=!
1<!
1;!
1:!
19!
18!
07!
06!
05!
04!
03!
02!
01!
00!
0/!
0.!
0-!
0,!
0+!
0*!
0)!
0(!
0'!
0&!
0%!
0$!
0#!
0"!
0!!
0~
0}
0|
0{
0z
0y
0x
0w
0v
b10000 Z!
b1100000011001110 \!
b1 ]!
17#
b1 h!
b0 k!
b0 n!
b1 l!
b1 q!
b1100000011001110 p!
b10000 w!
b1100000011001110 x!
b1 n!
b100000000000000 k!
b100000000000001 k!
b110000000000001 k!
b10 h!
b0 m"
b110 f"
b110 k"
b101010100010000000000000000 i"
b11111111101010100000000000000000 m"
b1100000 o"
b101010100010000000000000000 q"
b1 a"
b1100000 Z"
b101010100010000000000000000 \"
b101010100010000000000000000 %#
b110 ##
b110 v"
b10000 b!
b1100000011001110 c!
b1100000011001110 '"
b1 $"
b1 |!
b110000000000001 !"
b10000 Q!
b1100000011001110 R!
b10000 /"
b1100000011001110 0"
b1100000 @"
b101010100010000000000000000 B"
b1100000 +#
b101010100010000000000000000 -#
b11111111110011000000000000000000 1#
b11111111110011000000000000000000 )#
b11111111110011000000000000000000 X"
b1000 =#
1<#
1J"
1W!
#8000
0!
0U
0X!
0Q"
0t"
0(#
0{!
0+"
0#"
0|"
b1100000 J!
b1100000 [!
b1 h!
b0 k!
b0 n!
b110 m!
b110 r!
b0 p!
b1100000011001110 p!
b1100000 v!
b1 n!
b100000000000000 k!
b100000000000001 k!
b110000000000001 k!
b10 h!
b1100000 a!
b110 %"
b110 }!
b1100000 P!
b1100000 ."
b0 4"
b0 3"
#12000
0"
#14000
1!
1U
1X!
1Q"
1t"
1(#
1{!
1+"
1#"
1|"
b1 3"
b1 b"
b10 i!
b0 k!
b0 n!
b0 p!
b1100000011001110 p!
b1 h!
b0 p!
b1 s!
b0 m"
b11111111101010100000000000000000 m"
b1 g"
b100000000000000 d"
b100000000000110 d"
b110000000000110 d"
b1 s"
b10 a"
b1 ^"
b110000000000110 x"
b1 w"
b1 &"
b0 '"
b0 ~!
b0 !"
b1 D"
b1 /#
02#
b0 0#
b1 a"
b0 m"
b0 d"
b0 g"
b11111111101010100000000000000000 m"
b1 g"
b100000000000000 d"
b100000000000110 d"
b110000000000110 d"
b10 a"
#18000
1"
#20000
0!
0U
0X!
0Q"
0t"
0(#
0{!
0+"
0#"
0|"
#24000
0"
#26000
1!
1U
1X!
1Q"
1t"
1(#
1{!
1+"
1#"
1|"
b1 *"
b0 {"
b1 0#
b10 3"
b100000000000110 y"
b100000000000110 c"
b1 a"
b0 m"
b0 d"
b0 g"
b11111111101010100000000000000000 m"
b1 n"
b1 g"
b1 l"
b110 d"
b100000000000110 d"
b110000000000110 d"
b0 a"
b1 $#
b1 `"
b1 F"
b101010100010000000000000000 '#
b10 b"
b1 i!
b1 ~"
b101010100010000000000000000 &#
b101010100010000000000000000 h"
b0 s!
b1100000011001110 p!
b1 n!
b100000000000000 k!
b100000000000001 k!
b110000000000001 k!
b10 h!
b10 a"
b0 m"
b0 n"
b0 d"
b0 g"
b0 l"
b101010100010000000000000000 m"
b0 $#
b0 w"
b0 x"
b101010100010000000000000000 _"
b0 `"
b110000000000001 !"
b1 ~!
b1100000011001110 '"
b0 &"
b101010100010000000000000000 E"
b0 F"
#30000
1"
0B
1S
0T
04
13
12
00
1-
1,
1*
0)
0(
1&
1$
0R
1Q
1P
1O
0N
1M
0J
1G
1D
1C
1@
0?
b1010000 :"
b10101010001 N"
b1100110001101110 6"
b1100110001101110 ;"
b1100110001101110 K"
b10110000 >#
b10110001110110 @#
b10110000 I!
b0 J!
b10110001110110 K!
b1010000 T"
b1100110001101110 U"
1G!
0F!
0D!
1C!
0B!
1A!
0@!
0>!
0<!
0;!
0:!
09!
08!
b10110000 Z!
b0 [!
b10110001110110 \!
b1 h!
b0 k!
b0 n!
b0 m!
b1011 l!
b0 r!
b1011 q!
b0 p!
b10110001110110 p!
b0 v!
b10110000 w!
b10110001110110 x!
b1 n!
b100000000000000 k!
b100000000001011 k!
b110000000001011 k!
b10 h!
b0 m"
b101 f"
b101 k"
b1100110001101110 i"
b101010100010000000000000000 m"
b1010000 o"
b1100110001101110 q"
b1010000 Z"
b1100110001101110 \"
b1100110001101110 %#
b101 ##
b101 v"
b0 a!
b10110000 b!
b10110001110110 c!
b10110001110110 '"
b1011 $"
b0 %"
b1011 |!
b0 }!
b110000000001011 !"
b0 P!
b10110000 Q!
b10110001110110 R!
b0 ."
b10110000 /"
b10110001110110 0"
b100000000000000 y"
b11111111101010100000000000000000 &#
b1010000 @"
b1100110001101110 B"
b1010000 +#
b1100110001101110 -#
b11111111101010100000000000000000 h"
b100000000000000 c"
b0 m"
b11111111101010100000000000000000 m"
b11111111101010100000000000000000 _"
b11111111101010100000000000000000 E"
#32000
0!
0U
0X!
0Q"
0t"
0(#
0{!
0+"
0#"
0|"
b1010000 J!
b1010000 [!
b1 h!
b0 k!
b0 n!
b101 m!
b101 r!
b0 p!
b10110001110110 p!
b1010000 v!
b1 n!
b100000000000000 k!
b100000000001011 k!
b110000000001011 k!
b10 h!
b1010000 a!
b101 %"
b101 }!
b1010000 P!
b1010000 ."
#36000
0"
#38000
1!
1U
1X!
1Q"
1t"
1(#
1{!
1+"
1#"
1|"
b1 {"
b10 0#
b11 3"
b10 i!
b0 k!
b0 n!
b0 p!
b10110001110110 p!
b1 h!
b0 p!
b1 s!
b1 &"
b0 '"
b0 ~!
b0 !"
#42000
1"
#44000
0!
0U
0X!
0Q"
0t"
0(#
0{!
0+"
0#"
0|"
#48000
0"
#50000
1!
1U
1X!
1Q"
1t"
1(#
1{!
1+"
1#"
1|"
b10 *"
b10 {"
b11 0#
b100 3"
b1 i!
b0 s!
b10110001110110 p!
b1 n!
b100000000000000 k!
b100000000001011 k!
b110000000001011 k!
b10 h!
b110000000001011 !"
b1 ~!
b10110001110110 '"
b0 &"
