testbench/tbenchoutputs/upstream/upstreamdump.vcd
$date
	Tue May 17 14:29:31 2022
$end
$version
	ModelSim Version 10.6d
$end
$timescale
	1ps
$end

$scope module tb_top_UPDOWNSTREAM $end
$var reg 1 ! clk $end
$var reg 1 " slowclk $end

$scope module TOP $end
$var wire 1 # exchange_client_id [4] $end
$var wire 1 $ exchange_client_id [3] $end
$var wire 1 % exchange_client_id [2] $end
$var wire 1 & exchange_client_id [1] $end
$var wire 1 ' exchange_client_id [0] $end
$var wire 1 ( exchange_amount [15] $end
$var wire 1 ) exchange_amount [14] $end
$var wire 1 * exchange_amount [13] $end
$var wire 1 + exchange_amount [12] $end
$var wire 1 , exchange_amount [11] $end
$var wire 1 - exchange_amount [10] $end
$var wire 1 . exchange_amount [9] $end
$var wire 1 / exchange_amount [8] $end
$var wire 1 0 exchange_amount [7] $end
$var wire 1 1 exchange_amount [6] $end
$var wire 1 2 exchange_amount [5] $end
$var wire 1 3 exchange_amount [4] $end
$var wire 1 4 exchange_amount [3] $end
$var wire 1 5 exchange_amount [2] $end
$var wire 1 6 exchange_amount [1] $end
$var wire 1 7 exchange_amount [0] $end
$var wire 1 8 cpu_client_id [4] $end
$var wire 1 9 cpu_client_id [3] $end
$var wire 1 : cpu_client_id [2] $end
$var wire 1 ; cpu_client_id [1] $end
$var wire 1 < cpu_client_id [0] $end
$var wire 1 = HRESETn $end
$var wire 1 > exchange_go $end
$var wire 1 ? cpu_amount [15] $end
$var wire 1 @ cpu_amount [14] $end
$var wire 1 A cpu_amount [13] $end
$var wire 1 B cpu_amount [12] $end
$var wire 1 C cpu_amount [11] $end
$var wire 1 D cpu_amount [10] $end
$var wire 1 E cpu_amount [9] $end
$var wire 1 F cpu_amount [8] $end
$var wire 1 G cpu_amount [7] $end
$var wire 1 H cpu_amount [6] $end
$var wire 1 I cpu_amount [5] $end
$var wire 1 J cpu_amount [4] $end
$var wire 1 K cpu_amount [3] $end
$var wire 1 L cpu_amount [2] $end
$var wire 1 M cpu_amount [1] $end
$var wire 1 N cpu_amount [0] $end
$var wire 1 O cpu_go $end
$var wire 1 P cpu_new_max $end
$var wire 1 Q clk $end
$var wire 1 R cancelled_orders [31] $end
$var wire 1 S cancelled_orders [30] $end
$var wire 1 T cancelled_orders [29] $end
$var wire 1 U cancelled_orders [28] $end
$var wire 1 V cancelled_orders [27] $end
$var wire 1 W cancelled_orders [26] $end
$var wire 1 X cancelled_orders [25] $end
$var wire 1 Y cancelled_orders [24] $end
$var wire 1 Z cancelled_orders [23] $end
$var wire 1 [ cancelled_orders [22] $end
$var wire 1 \ cancelled_orders [21] $end
$var wire 1 ] cancelled_orders [20] $end
$var wire 1 ^ cancelled_orders [19] $end
$var wire 1 _ cancelled_orders [18] $end
$var wire 1 ` cancelled_orders [17] $end
$var wire 1 a cancelled_orders [16] $end
$var wire 1 b cancelled_orders [15] $end
$var wire 1 c cancelled_orders [14] $end
$var wire 1 d cancelled_orders [13] $end
$var wire 1 e cancelled_orders [12] $end
$var wire 1 f cancelled_orders [11] $end
$var wire 1 g cancelled_orders [10] $end
$var wire 1 h cancelled_orders [9] $end
$var wire 1 i cancelled_orders [8] $end
$var wire 1 j cancelled_orders [7] $end
$var wire 1 k cancelled_orders [6] $end
$var wire 1 l cancelled_orders [5] $end
$var wire 1 m cancelled_orders [4] $end
$var wire 1 n cancelled_orders [3] $end
$var wire 1 o cancelled_orders [2] $end
$var wire 1 p cancelled_orders [1] $end
$var wire 1 q cancelled_orders [0] $end
$var wire 1 r accumulated_orders [15] $end
$var wire 1 s accumulated_orders [14] $end
$var wire 1 t accumulated_orders [13] $end
$var wire 1 u accumulated_orders [12] $end
$var wire 1 v accumulated_orders [11] $end
$var wire 1 w accumulated_orders [10] $end
$var wire 1 x accumulated_orders [9] $end
$var wire 1 y accumulated_orders [8] $end
$var wire 1 z accumulated_orders [7] $end
$var wire 1 { accumulated_orders [6] $end
$var wire 1 | accumulated_orders [5] $end
$var wire 1 } accumulated_orders [4] $end
$var wire 1 ~ accumulated_orders [3] $end
$var wire 1 !! accumulated_orders [2] $end
$var wire 1 "! accumulated_orders [1] $end
$var wire 1 #! accumulated_orders [0] $end
$var wire 1 $! max_to_trade [31] $end
$var wire 1 %! max_to_trade [30] $end
$var wire 1 &! max_to_trade [29] $end
$var wire 1 '! max_to_trade [28] $end
$var wire 1 (! max_to_trade [27] $end
$var wire 1 )! max_to_trade [26] $end
$var wire 1 *! max_to_trade [25] $end
$var wire 1 +! max_to_trade [24] $end
$var wire 1 ,! max_to_trade [23] $end
$var wire 1 -! max_to_trade [22] $end
$var wire 1 .! max_to_trade [21] $end
$var wire 1 /! max_to_trade [20] $end
$var wire 1 0! max_to_trade [19] $end
$var wire 1 1! max_to_trade [18] $end
$var wire 1 2! max_to_trade [17] $end
$var wire 1 3! max_to_trade [16] $end
$var wire 1 4! max_to_trade [15] $end
$var wire 1 5! max_to_trade [14] $end
$var wire 1 6! max_to_trade [13] $end
$var wire 1 7! max_to_trade [12] $end
$var wire 1 8! max_to_trade [11] $end
$var wire 1 9! max_to_trade [10] $end
$var wire 1 :! max_to_trade [9] $end
$var wire 1 ;! max_to_trade [8] $end
$var wire 1 <! max_to_trade [7] $end
$var wire 1 =! max_to_trade [6] $end
$var wire 1 >! max_to_trade [5] $end
$var wire 1 ?! max_to_trade [4] $end
$var wire 1 @! max_to_trade [3] $end
$var wire 1 A! max_to_trade [2] $end
$var wire 1 B! max_to_trade [1] $end
$var wire 1 C! max_to_trade [0] $end
$var reg 32 D! cancelled_orders_reg [31:0] $end

$scope fork downdatareq $end
$var reg 10 E! wrindex [9:0] $end
$var reg 10 F! rdindex [9:0] $end
$var reg 32 G! data [31:0] $end
$var reg 1 H! rw $end
$var reg 1 I! valid $end
$upscope $end

$scope fork mem_data $end
$var reg 129 J! data [128:0] $end
$var reg 1 K! ready $end
$upscope $end

$scope fork mem_req $end
$var reg 10 L! addr [9:0] $end
$var reg 10 M! wraddr [9:0] $end
$var reg 128 N! data [127:0] $end
$var reg 1 O! rw $end
$var reg 1 P! valid $end
$upscope $end

$scope fork downexchrest $end
$var reg 32 Q! data [31:0] $end
$var reg 1 R! ready $end
$upscope $end
$var wire 1 S! thenewmax $end

$scope module CACHEDOWNSTREAM $end
$var reg 1 T! clk $end
$var reg 1 U! rst $end

$scope fork cpu_req $end
$var reg 10 V! wrindex [9:0] $end
$var reg 10 W! rdindex [9:0] $end
$var reg 32 X! data [31:0] $end
$var reg 1 Y! rw $end
$var reg 1 Z! valid $end
$upscope $end

$scope fork mem_data_down $end
$var reg 129 [! data [128:0] $end
$var reg 1 \! ready $end
$upscope $end

$scope fork mem_req $end
$var reg 10 ]! addr [9:0] $end
$var reg 10 ^! wraddr [9:0] $end
$var reg 128 _! data [127:0] $end
$var reg 1 `! rw $end
$var reg 1 a! valid $end
$upscope $end

$scope fork cpu_res $end
$var reg 32 b! data [31:0] $end
$var reg 1 c! ready $end
$upscope $end
$var integer 32 d! vstate $end
$var integer 32 e! rstate $end
$var reg 21 f! tag_read [20:0] $end
$var reg 21 g! tag_write [20:0] $end

$scope fork tag_req $end
$var reg 10 h! wrindex [9:0] $end
$var reg 10 i! rdindex [9:0] $end
$var reg 1 j! we $end
$upscope $end
$var reg 129 k! data_read [128:0] $end
$var reg 129 l! data_write [128:0] $end

$scope fork data_req $end
$var reg 10 m! wrindex [9:0] $end
$var reg 10 n! rdindex [9:0] $end
$var reg 1 o! we $end
$upscope $end

$scope fork v_cpu_res $end
$var reg 32 p! data [31:0] $end
$var reg 1 q! ready $end
$upscope $end

$scope fork v_mem_req $end
$var reg 10 r! addr [9:0] $end
$var reg 10 s! wraddr [9:0] $end
$var reg 128 t! data [127:0] $end
$var reg 1 u! rw $end
$var reg 1 v! valid $end
$upscope $end

$scope module ctag $end
$var reg 1 w! clk $end

$scope fork tag_req $end
$var reg 10 x! wrindex [9:0] $end
$var reg 10 y! rdindex [9:0] $end
$var reg 1 z! we $end
$upscope $end
$var reg 21 {! tag_write [20:0] $end
$var reg 21 |! tag_read [20:0] $end
$upscope $end

$scope module cdata $end
$var wire 1 }! clk $end

$scope fork data_req $end
$var reg 10 ~! wrindex [9:0] $end
$var reg 10 !" rdindex [9:0] $end
$var reg 1 "" we $end
$upscope $end
$var reg 129 #" data_write [128:0] $end
$var reg 129 $" data_read [128:0] $end
$var reg 5 %" i [4:0] $end
$upscope $end

$scope module cmem $end
$var reg 1 &" clk $end

$scope fork mem_data_down $end
$var reg 129 '" data [128:0] $end
$var reg 1 (" ready $end
$upscope $end

$scope fork mem_req $end
$var reg 10 )" addr [9:0] $end
$var reg 10 *" wraddr [9:0] $end
$var reg 128 +" data [127:0] $end
$var reg 1 ," rw $end
$var reg 1 -" valid $end
$upscope $end
$var reg 5 ." i [4:0] $end
$var reg 128 /" datav [127:0] $end
$upscope $end
$upscope $end

$scope module UPTOP $end
$var wire 1 Q clk $end
$var wire 1 O new_order $end
$var wire 1 P new_max $end
$var wire 1 8 client_id [4] $end
$var wire 1 9 client_id [3] $end
$var wire 1 : client_id [2] $end
$var wire 1 ; client_id [1] $end
$var wire 1 < client_id [0] $end
$var wire 1 ? amount [15] $end
$var wire 1 @ amount [14] $end
$var wire 1 A amount [13] $end
$var wire 1 B amount [12] $end
$var wire 1 C amount [11] $end
$var wire 1 D amount [10] $end
$var wire 1 E amount [9] $end
$var wire 1 F amount [8] $end
$var wire 1 G amount [7] $end
$var wire 1 H amount [6] $end
$var wire 1 I amount [5] $end
$var wire 1 J amount [4] $end
$var wire 1 K amount [3] $end
$var wire 1 L amount [2] $end
$var wire 1 M amount [1] $end
$var wire 1 N amount [0] $end
$var wire 1 S! thenewmax $end
$var reg 1 0" HRESETn $end
$var reg 32 1" correct_amount [31:0] $end
$var reg 1 2" pass_checks $end
$var reg 1 3" upstream_enable $end

$scope fork cpu_req $end
$var reg 10 4" wrindex [9:0] $end
$var reg 10 5" rdindex [9:0] $end
$var reg 32 6" data [31:0] $end
$var reg 1 7" rw $end
$var reg 1 8" valid $end
$upscope $end

$scope fork mem_data $end
$var reg 129 9" data [128:0] $end
$var reg 1 :" ready $end
$upscope $end

$scope fork mem_req $end
$var reg 10 ;" addr [9:0] $end
$var reg 10 <" wraddr [9:0] $end
$var reg 128 =" data [127:0] $end
$var reg 1 >" rw $end
$var reg 1 ?" valid $end
$upscope $end

$scope fork cpu_res $end
$var reg 32 @" data [31:0] $end
$var reg 1 A" ready $end
$upscope $end
$var reg 1 B" check_risk $end
$var reg 1 C" send_order $end
$var reg 1 D" update_max $end
$var wire 1 b cancelled_orders [15] $end
$var wire 1 c cancelled_orders [14] $end
$var wire 1 d cancelled_orders [13] $end
$var wire 1 e cancelled_orders [12] $end
$var wire 1 f cancelled_orders [11] $end
$var wire 1 g cancelled_orders [10] $end
$var wire 1 h cancelled_orders [9] $end
$var wire 1 i cancelled_orders [8] $end
$var wire 1 j cancelled_orders [7] $end
$var wire 1 k cancelled_orders [6] $end
$var wire 1 l cancelled_orders [5] $end
$var wire 1 m cancelled_orders [4] $end
$var wire 1 n cancelled_orders [3] $end
$var wire 1 o cancelled_orders [2] $end
$var wire 1 p cancelled_orders [1] $end
$var wire 1 q cancelled_orders [0] $end
$var reg 16 E" result [15:0] $end
$var reg 16 F" accumulated_orders_reg [15:0] $end
$var reg 16 G" cancelled_orders_reg [15:0] $end
$var wire 1 r accumulated_orders [15] $end
$var wire 1 s accumulated_orders [14] $end
$var wire 1 t accumulated_orders [13] $end
$var wire 1 u accumulated_orders [12] $end
$var wire 1 v accumulated_orders [11] $end
$var wire 1 w accumulated_orders [10] $end
$var wire 1 x accumulated_orders [9] $end
$var wire 1 y accumulated_orders [8] $end
$var wire 1 z accumulated_orders [7] $end
$var wire 1 { accumulated_orders [6] $end
$var wire 1 | accumulated_orders [5] $end
$var wire 1 } accumulated_orders [4] $end
$var wire 1 ~ accumulated_orders [3] $end
$var wire 1 !! accumulated_orders [2] $end
$var wire 1 "! accumulated_orders [1] $end
$var wire 1 #! accumulated_orders [0] $end
$var wire 1 $! max_to_trade [31] $end
$var wire 1 %! max_to_trade [30] $end
$var wire 1 &! max_to_trade [29] $end
$var wire 1 '! max_to_trade [28] $end
$var wire 1 (! max_to_trade [27] $end
$var wire 1 )! max_to_trade [26] $end
$var wire 1 *! max_to_trade [25] $end
$var wire 1 +! max_to_trade [24] $end
$var wire 1 ,! max_to_trade [23] $end
$var wire 1 -! max_to_trade [22] $end
$var wire 1 .! max_to_trade [21] $end
$var wire 1 /! max_to_trade [20] $end
$var wire 1 0! max_to_trade [19] $end
$var wire 1 1! max_to_trade [18] $end
$var wire 1 2! max_to_trade [17] $end
$var wire 1 3! max_to_trade [16] $end
$var wire 1 4! max_to_trade [15] $end
$var wire 1 5! max_to_trade [14] $end
$var wire 1 6! max_to_trade [13] $end
$var wire 1 7! max_to_trade [12] $end
$var wire 1 8! max_to_trade [11] $end
$var wire 1 9! max_to_trade [10] $end
$var wire 1 :! max_to_trade [9] $end
$var wire 1 ;! max_to_trade [8] $end
$var wire 1 <! max_to_trade [7] $end
$var wire 1 =! max_to_trade [6] $end
$var wire 1 >! max_to_trade [5] $end
$var wire 1 ?! max_to_trade [4] $end
$var wire 1 @! max_to_trade [3] $end
$var wire 1 A! max_to_trade [2] $end
$var wire 1 B! max_to_trade [1] $end
$var wire 1 C! max_to_trade [0] $end
$var reg 32 H" max_to_trade_reg [31:0] $end
$var reg 1 I" memwr $end
$var reg 1 J" nocare $end

$scope begin trade_correctamount_cpu $end
$upscope $end

$scope begin trade_pass_checks $end
$upscope $end

$scope begin trade_state_logic1 $end
$upscope $end

$scope begin trade_state_logic2 $end
$upscope $end

$scope begin trade_state_logic3 $end
$upscope $end

$scope module CACHEUPSTREAM $end
$var reg 1 K" clk $end
$var reg 1 L" rst $end

$scope fork cpu_req $end
$var reg 10 M" wrindex [9:0] $end
$var reg 10 N" rdindex [9:0] $end
$var reg 32 O" data [31:0] $end
$var reg 1 P" rw $end
$var reg 1 Q" valid $end
$upscope $end

$scope fork mem_data $end
$var reg 129 R" data [128:0] $end
$var reg 1 S" ready $end
$upscope $end

$scope fork mem_req $end
$var reg 10 T" addr [9:0] $end
$var reg 10 U" wraddr [9:0] $end
$var reg 128 V" data [127:0] $end
$var reg 1 W" rw $end
$var reg 1 X" valid $end
$upscope $end

$scope fork cpu_res $end
$var reg 32 Y" data [31:0] $end
$var reg 1 Z" ready $end
$upscope $end
$var integer 32 [" vstate $end
$var integer 32 \" rstate $end
$var reg 21 ]" tag_read [20:0] $end
$var reg 21 ^" tag_write [20:0] $end

$scope fork tag_req $end
$var reg 10 _" wrindex [9:0] $end
$var reg 10 `" rdindex [9:0] $end
$var reg 1 a" we $end
$upscope $end
$var reg 129 b" data_read [128:0] $end
$var reg 129 c" data_write [128:0] $end

$scope fork data_req $end
$var reg 10 d" wrindex [9:0] $end
$var reg 10 e" rdindex [9:0] $end
$var reg 1 f" we $end
$upscope $end

$scope fork v_cpu_res $end
$var reg 32 g" data [31:0] $end
$var reg 1 h" ready $end
$upscope $end

$scope fork v_mem_req $end
$var reg 10 i" addr [9:0] $end
$var reg 10 j" wraddr [9:0] $end
$var reg 128 k" data [127:0] $end
$var reg 1 l" rw $end
$var reg 1 m" valid $end
$upscope $end

$scope module ctag $end
$var reg 1 n" clk $end

$scope fork tag_req $end
$var reg 10 o" wrindex [9:0] $end
$var reg 10 p" rdindex [9:0] $end
$var reg 1 q" we $end
$upscope $end
$var reg 21 r" tag_write [20:0] $end
$var reg 21 s" tag_read [20:0] $end
$upscope $end

$scope module cdata $end
$var wire 1 t" clk $end
$var reg 5 u" i [4:0] $end

$scope fork data_req $end
$var reg 10 v" wrindex [9:0] $end
$var reg 10 w" rdindex [9:0] $end
$var reg 1 x" we $end
$upscope $end
$var reg 129 y" data_write [128:0] $end
$var reg 129 z" data_read [128:0] $end

$scope begin trade_risk_check_mem $end
$upscope $end
$upscope $end

$scope module cmem $end
$var reg 1 {" clk $end

$scope fork mem_data $end
$var reg 129 |" data [128:0] $end
$var reg 1 }" ready $end
$upscope $end

$scope fork mem_req $end
$var reg 10 ~" addr [9:0] $end
$var reg 10 !# wraddr [9:0] $end
$var reg 128 "# data [127:0] $end
$var reg 1 ## rw $end
$var reg 1 $# valid $end
$upscope $end
$var reg 5 %# i [4:0] $end
$var reg 128 &# datav [127:0] $end
$upscope $end
$upscope $end

$scope module UPSTREAMPROCESSOR $end
$var parameter 5 '# IDLE $end
$var parameter 5 (# STATE_RISKCHECK $end
$var parameter 5 )# STATE_SENDORDER $end
$var parameter 5 *# STATE_NEWMAX $end
$var wire 1 Q clk $end
$var wire 1 +# risk_ok $end
$var wire 1 O new_order $end
$var wire 1 P new_max $end
$var wire 1 ,# memwr $end
$var wire 1 -# HRESETn $end
$var wire 1 .# check_risk $end
$var wire 1 /# send_order $end
$var wire 1 0# update_max $end
$var reg 5 1# state [4:0] $end
$upscope $end
$upscope $end

$scope module DOWNTOP $end
$var wire 1 # client_id [4] $end
$var wire 1 $ client_id [3] $end
$var wire 1 % client_id [2] $end
$var wire 1 & client_id [1] $end
$var wire 1 ' client_id [0] $end
$var wire 1 Q clk $end
$var wire 1 ( amount [15] $end
$var wire 1 ) amount [14] $end
$var wire 1 * amount [13] $end
$var wire 1 + amount [12] $end
$var wire 1 , amount [11] $end
$var wire 1 - amount [10] $end
$var wire 1 . amount [9] $end
$var wire 1 / amount [8] $end
$var wire 1 0 amount [7] $end
$var wire 1 1 amount [6] $end
$var wire 1 2 amount [5] $end
$var wire 1 3 amount [4] $end
$var wire 1 4 amount [3] $end
$var wire 1 5 amount [2] $end
$var wire 1 6 amount [1] $end
$var wire 1 7 amount [0] $end

$scope fork downdatareq $end
$var reg 10 2# wrindex [9:0] $end
$var reg 10 3# rdindex [9:0] $end
$var reg 32 4# data [31:0] $end
$var reg 1 5# rw $end
$var reg 1 6# valid $end
$upscope $end
$var reg 1 7# old_client $end
$var reg 1 8# old_amount $end

$scope begin downstream_write_enable $end
$upscope $end
$upscope $end
$upscope $end
$upscope $end

$scope begin tb_top_UPDOWNSTREAM_sv_unit $end
$upscope $end

$scope begin std $end
$upscope $end

$scope begin cache_def $end
$var parameter 32 9# TAGMSB $end
$var parameter 32 :# TAGLSB $end
$upscope $end

$scope begin top_sv_unit $end
$var parameter 32 ;# TAGMAX $end
$upscope $end
$enddefinitions $end
#0
$dumpvars
0!
0"
b0 D!
0T!
0U!
b0 f!
b0 g!
b0 k!
b0 l!
0w!
b0 {!
b0 |!
b0 #"
b0 $"
bx %"
0&"
bx ."
bx /"
x0"
bx 1"
x2"
x3"
xB"
xC"
xD"
bx E"
bx F"
bx G"
bx H"
xI"
xJ"
0K"
0L"
b0 ]"
b0 ^"
b11111111101010100000000000000000 b"
b0 c"
0n"
b0 r"
b0 s"
bx u"
b0 y"
b11111111101010100000000000000000 z"
0{"
bx %#
bx &#
bx 1#
x7#
x8#
b0 E!
b0 F!
b0 G!
b0 H!
b1 I!
b0 J!
b0 K!
b0 L!
b0 M!
b0 N!
b0 O!
b0 P!
b0 Q!
b0 R!
b0 V!
b0 W!
b0 X!
b0 Y!
b1 Z!
b0 [!
b0 \!
b0 ]!
b0 ^!
b0 _!
b0 `!
b0 a!
b0 b!
b0 c!
b0 h!
b0 i!
b0 j!
b0 m!
b0 n!
b0 o!
b0 p!
b0 q!
b0 r!
b0 s!
b0 t!
b0 u!
b0 v!
b0 x!
b0 y!
b0 z!
b0 ~!
b0 !"
b0 ""
b0 '"
b1 ("
b0 )"
b0 *"
b0 +"
b0 ,"
b0 -"
b0 4"
b0 5"
b0 6"
b0 7"
b0 8"
b0 9"
b0 :"
b0 ;"
b0 <"
b11111111101010100000000000000000 ="
b0 >"
b0 ?"
b11111111101010100000000000000000 @"
b0 A"
b0 M"
b0 N"
b0 O"
b0 P"
b0 Q"
b0 R"
b0 S"
b0 T"
b0 U"
b11111111101010100000000000000000 V"
b0 W"
b0 X"
b11111111101010100000000000000000 Y"
b0 Z"
b0 _"
b0 `"
b0 a"
b0 d"
b0 e"
b0 f"
b11111111101010100000000000000000 g"
b0 h"
b0 i"
b0 j"
b11111111101010100000000000000000 k"
b0 l"
b0 m"
b0 o"
b0 p"
b0 q"
b0 v"
b0 w"
b0 x"
b0 |"
b1 }"
b0 ~"
b0 !#
b11111111101010100000000000000000 "#
b0 ##
b0 $#
b0 2#
b0 3#
b0 4#
b0 5#
b0 6#
b100000 9#
b1110 :#
b100000 ;#
b1 '#
b10 (#
b100 )#
b1000 *#
b1 d!
b0 e!
b0 ["
b0 \"
xS!
0Q
x=
x<
x;
x:
x9
x8
xN
xM
xL
xK
xJ
xI
xH
xG
xF
xE
xD
xC
xB
xA
x@
x?
xO
xP
x'
x&
x%
x$
x#
x7
x6
x5
x4
x3
x2
x1
x0
x/
x.
x-
x,
x+
x*
x)
x(
x>
0q
0p
0o
0n
0m
0l
0k
0j
0i
0h
0g
0f
0e
0d
0c
0b
0a
0`
0_
0^
0]
0\
0[
0Z
0Y
0X
0W
0V
0U
0T
0S
0R
x#!
x"!
x!!
x~
x}
x|
x{
xz
xy
xx
xw
xv
xu
xt
xs
xr
xC!
xB!
xA!
x@!
x?!
x>!
x=!
x<!
x;!
x:!
x9!
x8!
x7!
x6!
x5!
x4!
x3!
x2!
x1!
x0!
x/!
x.!
x-!
x,!
x+!
x*!
x)!
x(!
x'!
x&!
x%!
x$!
0}!
x,#
1-#
x+#
0t"
x.#
x/#
x0#
$end
#2000
1!
1Q
1T!
1K"
1n"
1{"
1w!
1&"
1}!
1t"
b1 e!
b1 1#
00#
0/#
0.#
0B"
0C"
0D"
0S!
b1 j!
b100000000000000000000 g!
b1 v!
b10 d!
b1 a!
b100000000000000000000 {!
b1 z!
b1 P!
b1 -"
#4000
1"
1>
0=
0O
1P
07
16
15
14
03
02
11
10
0/
0.
0-
0,
0+
0*
1)
1(
1'
0&
0%
0$
0#
1N
0M
0L
0K
1J
0I
1H
0G
1F
0E
1D
0C
0B
0A
0@
0?
0<
1;
1:
09
08
b1100000 5"
b1 8"
b10000 2#
b1 5#
b1 6#
b1100000011001110 4#
08#
17#
b10000 E!
b1100000011001110 G!
b1 H!
b1100000 N"
b1 Q"
b10000 V!
b1100000011001110 X!
b1 Y!
b1 d!
b0 g!
b0 j!
b1 h!
b1 m!
b1100000011001110 l!
b10000 s!
b1100000011001110 t!
b1 j!
b100000000000000000000 g!
b110000000000000000000 g!
b10 d!
b0 g"
b110 `"
b110 e"
b11111111101010100000000000000000 c"
b0 c"
b11111111101010100000000000000000 g"
b1100000 i"
b1 ["
b1100000 T"
b110 w"
b110 p"
b10000 ^!
b1100000011001110 _!
b1100000011001110 #"
b1 ~!
b1 x!
b110000000000000000000 {!
b10000 M!
b1100000011001110 N!
b10000 *"
b1100000011001110 +"
b1100000 ;"
b1100000 ~"
b11111111110011000000000000000000 &#
b0 %#
b11111111110011000000000000000000 |"
b11111111110011000000000000000000 R"
b1 S"
b0 ["
b0 g"
b11111111101010100000000000000000 c"
b0 c"
b11111111101010100000000000000000 g"
b1 ["
b1000 1#
10#
1D"
1S!
#6000
0!
0Q
0T!
0K"
0n"
0{"
0w!
0&"
0}!
0t"
b1100000 F!
b1100000 W!
b1 d!
b0 g!
b0 j!
b110 i!
b110 n!
b0 l!
b1100000011001110 l!
b1100000 r!
b1 j!
b100000000000000000000 g!
b110000000000000000000 g!
b10 d!
b1100000 ]!
b110 !"
b110 y!
b1100000 L!
b1100000 )"
b0 /"
b0 ."
#8000
0"
#10000
1!
1Q
1T!
1K"
1n"
1{"
1w!
1&"
1}!
1t"
b1 %#
b1 ."
b1 \"
b10 e!
b0 g!
b0 j!
b0 l!
b1100000011001110 l!
b1 d!
b0 l!
b1 o!
b0 g"
b11111111101010100000000000000000 c"
b0 c"
b11111111101010100000000000000000 g"
b1 a"
b100000000000000000000 ^"
b1 m"
b10 ["
b1 X"
b100000000000000000000 r"
b1 q"
b1 ""
b0 #"
b0 z!
b0 {!
b1 ?"
b1 $#
#12000
1"
#14000
0!
0Q
0T!
0K"
0n"
0{"
0w!
0&"
0}!
0t"
#16000
0"
#18000
1!
1Q
1T!
1K"
1n"
1{"
1w!
1&"
1}!
1t"
b10 %#
b10 ."
b10 \"
b1 e!
b100000000000000000000 s"
b100000000000000000000 ]"
b0 o!
b1100000011001110 l!
b1 j!
b100000000000000000000 g!
b110000000000000000000 g!
b10 d!
b0 g"
b0 ^"
b0 a"
b11111111101010100000000000000000 c"
b0 c"
b11111111101010100000000000000000 g"
b1 ["
b11111111110011000000000000000000 c"
b1 f"
b1 x"
b11111111110011000000000000000000 y"
b0 q"
b0 r"
b110000000000000000000 {!
b1 z!
b1100000011001110 #"
b0 ""
#20000
1"
0>
1O
0P
04
13
12
00
1-
1,
1*
0)
0(
1&
1$
0N
1M
1L
1K
0J
1I
0F
1C
1@
1?
1<
0;
b10110000 2#
b10110001110110 4#
b10110000 E!
b0 F!
b10110001110110 G!
b10110000 V!
b0 W!
b10110001110110 X!
b1 d!
b0 g!
b0 j!
b0 i!
b1011 h!
b0 n!
b1011 m!
b0 l!
b10110001110110 l!
b0 r!
b10110000 s!
b10110001110110 t!
b1 j!
b100000000000000000000 g!
b110000000000000000000 g!
b10 d!
b0 ]!
b10110000 ^!
b10110001110110 _!
b10110001110110 #"
b1011 ~!
b0 !"
b1011 x!
b0 y!
b0 L!
b10110000 M!
b10110001110110 N!
b0 )"
b10110000 *"
b10110001110110 +"
#22000
0!
0Q
0T!
0K"
0n"
0{"
0w!
0&"
0}!
0t"
b1010000 F!
b1010000 W!
b1 d!
b0 g!
b0 j!
b101 i!
b101 n!
b0 l!
b10110001110110 l!
b1010000 r!
b1 j!
b100000000000000000000 g!
b110000000000000000000 g!
b10 d!
b1010000 ]!
b101 !"
b101 y!
b1010000 L!
b1010000 )"
#24000
0"
#26000
1!
1Q
1T!
1K"
1n"
1{"
1w!
1&"
1}!
1t"
b11 %#
b11 ."
b1 \"
b10 e!
b11111111110011000000000000000000 z"
b11111111110011000000000000000000 b"
b0 g!
b0 j!
b0 l!
b10110001110110 l!
b1 d!
b0 l!
b1 o!
b0 g"
b0 f"
b0 c"
b11111111110011000000000000000000 g"
b11111111110011000000000000000000 k"
b1 h"
b0 ["
b11111111110011000000000000000000 V"
b0 y"
b0 x"
b11111111110011000000000000000000 Y"
b1 Z"
b1 ""
b0 #"
b0 z!
b0 {!
b11111111110011000000000000000000 @"
b1 A"
b11111111110011000000000000000000 ="
b11111111110011000000000000000000 "#
b0 F"
b0 G"
b1111111111001100 H"
b1100110001101110 1"
b1100110001101110 6"
b1100110001101110 E"
12"
b1 7"
b1100110001101110 O"
b1 P"
0C!
0B!
1A!
1@!
0?!
0>!
1=!
1<!
1;!
1:!
19!
18!
17!
16!
15!
14!
03!
02!
01!
00!
0/!
0.!
0-!
0,!
0+!
0*!
0)!
0(!
0'!
0&!
0%!
0$!
0#!
0"!
0!!
0~
0}
0|
0{
0z
0y
0x
0w
0v
0u
0t
0s
0r
1+#
b1 ["
b0 g"
b0 h"
b11111111110011000000000000000000 c"
b1100110001101110 c"
b11111111110011000000000000000000 g"
b1 h"
b1 a"
b1 f"
b100000000000000000000 ^"
b110000000000000000000 ^"
b0 ["
b110000000000000000000 r"
b1 x"
b1 q"
b1100110001101110 y"
#28000
1"
#30000
0!
0Q
0T!
0K"
0n"
0{"
0w!
0&"
0}!
0t"
#32000
0"
#34000
1!
1Q
1T!
1K"
1n"
1{"
1w!
1&"
1}!
1t"
b100 %#
b100 ."
b0 \"
b1 e!
b110000000000000000000 s"
b11111111110011001100110001101110 z"
b11111111110011001100110001101110 b"
b110000000000000000000 ]"
b0 o!
b10110001110110 l!
b1 j!
b100000000000000000000 g!
b110000000000000000000 g!
b10 d!
b0 g"
b0 h"
b0 ^"
b0 a"
b0 f"
b11111111110011001100110001101110 c"
b1100110001101110 c"
b11111111110011001100110001101110 g"
b11111111110011001100110001101110 k"
b1 ["
b11111111110011001100110001101110 V"
b0 x"
b0 q"
b0 r"
b11111111110011001100110001101110 Y"
b0 Z"
b110000000000000000000 {!
b1 z!
b10110001110110 #"
b0 ""
b11111111110011001100110001101110 @"
b0 A"
b11111111110011001100110001101110 ="
b11111111110011001100110001101110 "#
#36000
1"
1>
0O
1P
05
03
02
1/
1.
0,
1+
1)
1(
0&
0$
1#
0M
0L
1J
0I
1G
1E
0C
1B
0<
1;
0:
b100000 5"
b100010000 2#
b1111011101000010 4#
b100010000 E!
b0 F!
b1111011101000010 G!
b100000 N"
b100010000 V!
b0 W!
b1111011101000010 X!
b1 d!
b0 g!
b0 j!
b0 i!
b10001 h!
b0 n!
b10001 m!
b0 l!
b1111011101000010 l!
b0 r!
b100010000 s!
b1111011101000010 t!
b1 j!
b100000000000000000000 g!
b110000000000000000000 g!
b10 d!
b0 ["
b0 g"
b10 `"
b10 e"
b11111111110011001100110001101110 c"
b1100110001101110 c"
b11111111110011001100110001101110 g"
b100000 i"
b1 ["
b100000 T"
b10 w"
b10 p"
b0 ]!
b100010000 ^!
b1111011101000010 _!
b1111011101000010 #"
b10001 ~!
b0 !"
b10001 x!
b0 y!
b0 L!
b100010000 M!
b1111011101000010 N!
b0 )"
b100010000 *"
b1111011101000010 +"
b0 s"
b10010001101000000000000000000 z"
b100000 ;"
b100000 ~"
b10010001101000000000000000000 b"
b0 ]"
b0 ["
b0 g"
b10010001101000000000000000000 c"
b1100110001101110 c"
b10010001101000000000000000000 g"
b10010001101000000000000000000 k"
b1 ["
b10010001101000000000000000000 V"
b10010001101000000000000000000 Y"
b10010001101000000000000000000 @"
b10010001101000000000000000000 ="
b10010001101000000000000000000 "#
