testbench/tbenchoutputs/upstream/upstreamdump.vcd
$date
	Fri May  6 08:50:42 2022
$end
$version
	QuestaSim Version 10.7c
$end
$timescale
	1ps
$end

$scope module tb_top_UPDOWNSTREAM $end
$var reg 1 ! clk $end
$var reg 1 " slowclk $end

$scope module TOP $end
$var wire 1 # exchange_client_id [4] $end
$var wire 1 $ exchange_client_id [3] $end
$var wire 1 % exchange_client_id [2] $end
$var wire 1 & exchange_client_id [1] $end
$var wire 1 ' exchange_client_id [0] $end
$var wire 1 ( exchange_amount [15] $end
$var wire 1 ) exchange_amount [14] $end
$var wire 1 * exchange_amount [13] $end
$var wire 1 + exchange_amount [12] $end
$var wire 1 , exchange_amount [11] $end
$var wire 1 - exchange_amount [10] $end
$var wire 1 . exchange_amount [9] $end
$var wire 1 / exchange_amount [8] $end
$var wire 1 0 exchange_amount [7] $end
$var wire 1 1 exchange_amount [6] $end
$var wire 1 2 exchange_amount [5] $end
$var wire 1 3 exchange_amount [4] $end
$var wire 1 4 exchange_amount [3] $end
$var wire 1 5 exchange_amount [2] $end
$var wire 1 6 exchange_amount [1] $end
$var wire 1 7 exchange_amount [0] $end
$var wire 1 8 cpu_client_id [4] $end
$var wire 1 9 cpu_client_id [3] $end
$var wire 1 : cpu_client_id [2] $end
$var wire 1 ; cpu_client_id [1] $end
$var wire 1 < cpu_client_id [0] $end
$var wire 1 = HRESETn $end
$var wire 1 > exchange_go $end
$var wire 1 ? cpu_amount [15] $end
$var wire 1 @ cpu_amount [14] $end
$var wire 1 A cpu_amount [13] $end
$var wire 1 B cpu_amount [12] $end
$var wire 1 C cpu_amount [11] $end
$var wire 1 D cpu_amount [10] $end
$var wire 1 E cpu_amount [9] $end
$var wire 1 F cpu_amount [8] $end
$var wire 1 G cpu_amount [7] $end
$var wire 1 H cpu_amount [6] $end
$var wire 1 I cpu_amount [5] $end
$var wire 1 J cpu_amount [4] $end
$var wire 1 K cpu_amount [3] $end
$var wire 1 L cpu_amount [2] $end
$var wire 1 M cpu_amount [1] $end
$var wire 1 N cpu_amount [0] $end
$var wire 1 O cpu_go $end
$var wire 1 P cpu_new_max $end
$var wire 1 Q clk $end
$var wire 1 R cancelled_orders [31] $end
$var wire 1 S cancelled_orders [30] $end
$var wire 1 T cancelled_orders [29] $end
$var wire 1 U cancelled_orders [28] $end
$var wire 1 V cancelled_orders [27] $end
$var wire 1 W cancelled_orders [26] $end
$var wire 1 X cancelled_orders [25] $end
$var wire 1 Y cancelled_orders [24] $end
$var wire 1 Z cancelled_orders [23] $end
$var wire 1 [ cancelled_orders [22] $end
$var wire 1 \ cancelled_orders [21] $end
$var wire 1 ] cancelled_orders [20] $end
$var wire 1 ^ cancelled_orders [19] $end
$var wire 1 _ cancelled_orders [18] $end
$var wire 1 ` cancelled_orders [17] $end
$var wire 1 a cancelled_orders [16] $end
$var wire 1 b cancelled_orders [15] $end
$var wire 1 c cancelled_orders [14] $end
$var wire 1 d cancelled_orders [13] $end
$var wire 1 e cancelled_orders [12] $end
$var wire 1 f cancelled_orders [11] $end
$var wire 1 g cancelled_orders [10] $end
$var wire 1 h cancelled_orders [9] $end
$var wire 1 i cancelled_orders [8] $end
$var wire 1 j cancelled_orders [7] $end
$var wire 1 k cancelled_orders [6] $end
$var wire 1 l cancelled_orders [5] $end
$var wire 1 m cancelled_orders [4] $end
$var wire 1 n cancelled_orders [3] $end
$var wire 1 o cancelled_orders [2] $end
$var wire 1 p cancelled_orders [1] $end
$var wire 1 q cancelled_orders [0] $end
$var wire 1 r accumulated_orders [15] $end
$var wire 1 s accumulated_orders [14] $end
$var wire 1 t accumulated_orders [13] $end
$var wire 1 u accumulated_orders [12] $end
$var wire 1 v accumulated_orders [11] $end
$var wire 1 w accumulated_orders [10] $end
$var wire 1 x accumulated_orders [9] $end
$var wire 1 y accumulated_orders [8] $end
$var wire 1 z accumulated_orders [7] $end
$var wire 1 { accumulated_orders [6] $end
$var wire 1 | accumulated_orders [5] $end
$var wire 1 } accumulated_orders [4] $end
$var wire 1 ~ accumulated_orders [3] $end
$var wire 1 !! accumulated_orders [2] $end
$var wire 1 "! accumulated_orders [1] $end
$var wire 1 #! accumulated_orders [0] $end
$var wire 1 $! max_to_trade [31] $end
$var wire 1 %! max_to_trade [30] $end
$var wire 1 &! max_to_trade [29] $end
$var wire 1 '! max_to_trade [28] $end
$var wire 1 (! max_to_trade [27] $end
$var wire 1 )! max_to_trade [26] $end
$var wire 1 *! max_to_trade [25] $end
$var wire 1 +! max_to_trade [24] $end
$var wire 1 ,! max_to_trade [23] $end
$var wire 1 -! max_to_trade [22] $end
$var wire 1 .! max_to_trade [21] $end
$var wire 1 /! max_to_trade [20] $end
$var wire 1 0! max_to_trade [19] $end
$var wire 1 1! max_to_trade [18] $end
$var wire 1 2! max_to_trade [17] $end
$var wire 1 3! max_to_trade [16] $end
$var wire 1 4! max_to_trade [15] $end
$var wire 1 5! max_to_trade [14] $end
$var wire 1 6! max_to_trade [13] $end
$var wire 1 7! max_to_trade [12] $end
$var wire 1 8! max_to_trade [11] $end
$var wire 1 9! max_to_trade [10] $end
$var wire 1 :! max_to_trade [9] $end
$var wire 1 ;! max_to_trade [8] $end
$var wire 1 <! max_to_trade [7] $end
$var wire 1 =! max_to_trade [6] $end
$var wire 1 >! max_to_trade [5] $end
$var wire 1 ?! max_to_trade [4] $end
$var wire 1 @! max_to_trade [3] $end
$var wire 1 A! max_to_trade [2] $end
$var wire 1 B! max_to_trade [1] $end
$var wire 1 C! max_to_trade [0] $end

$scope fork downdatareq $end
$var reg 10 D! wrindex [9:0] $end
$var reg 10 E! rdindex [9:0] $end
$var reg 1 F! we $end
$upscope $end
$var wire 1 G! thenewmax $end

$scope module RAMDOWNSTREAM $end
$var wire 1 Q clk $end

$scope fork data_req $end
$var reg 10 H! wrindex [9:0] $end
$var reg 10 I! rdindex [9:0] $end
$var reg 1 J! we $end
$upscope $end
$var reg 32 K! data_write [31:0] $end
$var reg 32 L! data_read [31:0] $end
$upscope $end

$scope module UPTOP $end
$var wire 1 Q clk $end
$var wire 1 O new_order $end
$var wire 1 P new_max $end
$var wire 1 8 client_id [4] $end
$var wire 1 9 client_id [3] $end
$var wire 1 : client_id [2] $end
$var wire 1 ; client_id [1] $end
$var wire 1 < client_id [0] $end
$var wire 1 ? amount [15] $end
$var wire 1 @ amount [14] $end
$var wire 1 A amount [13] $end
$var wire 1 B amount [12] $end
$var wire 1 C amount [11] $end
$var wire 1 D amount [10] $end
$var wire 1 E amount [9] $end
$var wire 1 F amount [8] $end
$var wire 1 G amount [7] $end
$var wire 1 H amount [6] $end
$var wire 1 I amount [5] $end
$var wire 1 J amount [4] $end
$var wire 1 K amount [3] $end
$var wire 1 L amount [2] $end
$var wire 1 M amount [1] $end
$var wire 1 N amount [0] $end
$var wire 1 G! thenewmax $end
$var reg 1 M! HRESETn $end
$var reg 32 N! correct_amount [31:0] $end
$var reg 1 O! pass_checks $end
$var reg 1 P! upstream_enable $end

$scope fork cpu_req $end
$var reg 10 Q! wrindex [9:0] $end
$var reg 10 R! rdindex [9:0] $end
$var reg 32 S! data [31:0] $end
$var reg 1 T! rw $end
$var reg 1 U! valid $end
$upscope $end

$scope fork mem_data $end
$var reg 32 V! data [31:0] $end
$var reg 1 W! ready $end
$upscope $end

$scope fork mem_req $end
$var reg 10 X! addr [9:0] $end
$var reg 32 Y! data [31:0] $end
$var reg 1 Z! rw $end
$var reg 1 [! valid $end
$upscope $end

$scope fork cpu_res $end
$var reg 32 \! data [31:0] $end
$var reg 1 ]! ready $end
$upscope $end
$var reg 1 ^! check_risk $end
$var reg 1 _! send_order $end
$var reg 1 `! update_max $end
$var wire 1 b cancelled_orders [15] $end
$var wire 1 c cancelled_orders [14] $end
$var wire 1 d cancelled_orders [13] $end
$var wire 1 e cancelled_orders [12] $end
$var wire 1 f cancelled_orders [11] $end
$var wire 1 g cancelled_orders [10] $end
$var wire 1 h cancelled_orders [9] $end
$var wire 1 i cancelled_orders [8] $end
$var wire 1 j cancelled_orders [7] $end
$var wire 1 k cancelled_orders [6] $end
$var wire 1 l cancelled_orders [5] $end
$var wire 1 m cancelled_orders [4] $end
$var wire 1 n cancelled_orders [3] $end
$var wire 1 o cancelled_orders [2] $end
$var wire 1 p cancelled_orders [1] $end
$var wire 1 q cancelled_orders [0] $end
$var reg 16 a! result [15:0] $end
$var reg 16 b! accumulated_orders_reg [15:0] $end
$var reg 16 c! cancelled_orders_reg [15:0] $end
$var wire 1 r accumulated_orders [15] $end
$var wire 1 s accumulated_orders [14] $end
$var wire 1 t accumulated_orders [13] $end
$var wire 1 u accumulated_orders [12] $end
$var wire 1 v accumulated_orders [11] $end
$var wire 1 w accumulated_orders [10] $end
$var wire 1 x accumulated_orders [9] $end
$var wire 1 y accumulated_orders [8] $end
$var wire 1 z accumulated_orders [7] $end
$var wire 1 { accumulated_orders [6] $end
$var wire 1 | accumulated_orders [5] $end
$var wire 1 } accumulated_orders [4] $end
$var wire 1 ~ accumulated_orders [3] $end
$var wire 1 !! accumulated_orders [2] $end
$var wire 1 "! accumulated_orders [1] $end
$var wire 1 #! accumulated_orders [0] $end
$var wire 1 $! max_to_trade [31] $end
$var wire 1 %! max_to_trade [30] $end
$var wire 1 &! max_to_trade [29] $end
$var wire 1 '! max_to_trade [28] $end
$var wire 1 (! max_to_trade [27] $end
$var wire 1 )! max_to_trade [26] $end
$var wire 1 *! max_to_trade [25] $end
$var wire 1 +! max_to_trade [24] $end
$var wire 1 ,! max_to_trade [23] $end
$var wire 1 -! max_to_trade [22] $end
$var wire 1 .! max_to_trade [21] $end
$var wire 1 /! max_to_trade [20] $end
$var wire 1 0! max_to_trade [19] $end
$var wire 1 1! max_to_trade [18] $end
$var wire 1 2! max_to_trade [17] $end
$var wire 1 3! max_to_trade [16] $end
$var wire 1 4! max_to_trade [15] $end
$var wire 1 5! max_to_trade [14] $end
$var wire 1 6! max_to_trade [13] $end
$var wire 1 7! max_to_trade [12] $end
$var wire 1 8! max_to_trade [11] $end
$var wire 1 9! max_to_trade [10] $end
$var wire 1 :! max_to_trade [9] $end
$var wire 1 ;! max_to_trade [8] $end
$var wire 1 <! max_to_trade [7] $end
$var wire 1 =! max_to_trade [6] $end
$var wire 1 >! max_to_trade [5] $end
$var wire 1 ?! max_to_trade [4] $end
$var wire 1 @! max_to_trade [3] $end
$var wire 1 A! max_to_trade [2] $end
$var wire 1 B! max_to_trade [1] $end
$var wire 1 C! max_to_trade [0] $end
$var reg 32 d! max_to_trade_reg [31:0] $end
$var reg 1 e! memwr $end
$var reg 1 f! nocare $end

$scope begin trade_pass_checks $end
$upscope $end

$scope begin trade_correctamount_cpu $end
$upscope $end

$scope begin trade_state_logic1 $end
$upscope $end

$scope begin trade_state_logic2 $end
$upscope $end

$scope begin trade_state_logic3 $end
$upscope $end

$scope module CACHEUPSTREAM $end
$var reg 1 g! clk $end
$var reg 1 h! rst $end

$scope fork cpu_req $end
$var reg 10 i! wrindex [9:0] $end
$var reg 10 j! rdindex [9:0] $end
$var reg 32 k! data [31:0] $end
$var reg 1 l! rw $end
$var reg 1 m! valid $end
$upscope $end

$scope fork mem_data $end
$var reg 32 n! data [31:0] $end
$var reg 1 o! ready $end
$upscope $end

$scope fork mem_req $end
$var reg 10 p! addr [9:0] $end
$var reg 32 q! data [31:0] $end
$var reg 1 r! rw $end
$var reg 1 s! valid $end
$upscope $end

$scope fork cpu_res $end
$var reg 32 t! data [31:0] $end
$var reg 1 u! ready $end
$upscope $end
$var integer 32 v! vstate $end
$var integer 32 w! rstate $end
$var reg 21 x! tag_read [20:0] $end
$var reg 21 y! tag_write [20:0] $end

$scope fork tag_req $end
$var reg 10 z! wrindex [9:0] $end
$var reg 10 {! rdindex [9:0] $end
$var reg 1 |! we $end
$upscope $end
$var reg 32 }! data_read [31:0] $end
$var reg 32 ~! data_write [31:0] $end

$scope fork data_req $end
$var reg 10 !" wrindex [9:0] $end
$var reg 10 "" rdindex [9:0] $end
$var reg 1 #" we $end
$upscope $end

$scope fork v_cpu_res $end
$var reg 32 $" data [31:0] $end
$var reg 1 %" ready $end
$upscope $end

$scope fork v_mem_req $end
$var reg 10 &" addr [9:0] $end
$var reg 32 '" data [31:0] $end
$var reg 1 (" rw $end
$var reg 1 )" valid $end
$upscope $end

$scope module ctag $end
$var reg 1 *" clk $end

$scope fork tag_req $end
$var reg 10 +" wrindex [9:0] $end
$var reg 10 ," rdindex [9:0] $end
$var reg 1 -" we $end
$upscope $end
$var reg 21 ." tag_write [20:0] $end
$var reg 21 /" tag_read [20:0] $end
$upscope $end

$scope module cdata $end
$var wire 1 0" clk $end
$var reg 5 1" i [4:0] $end

$scope fork data_req $end
$var reg 10 2" wrindex [9:0] $end
$var reg 10 3" rdindex [9:0] $end
$var reg 1 4" we $end
$upscope $end
$var reg 32 5" data_write [31:0] $end
$var reg 32 6" data_read [31:0] $end

$scope begin trade_risk_check_mem $end
$upscope $end
$upscope $end

$scope module cmem $end
$var reg 1 7" clk $end

$scope fork mem_data $end
$var reg 32 8" data [31:0] $end
$var reg 1 9" ready $end
$upscope $end

$scope fork mem_req $end
$var reg 10 :" addr [9:0] $end
$var reg 32 ;" data [31:0] $end
$var reg 1 <" rw $end
$var reg 1 =" valid $end
$upscope $end
$var reg 5 >" i [4:0] $end
$var reg 32 ?" datav [31:0] $end
$upscope $end
$upscope $end

$scope module UPSTREAMPROCESSOR $end
$var parameter 5 @" IDLE $end
$var parameter 5 A" STATE_RISKCHECK $end
$var parameter 5 B" STATE_SENDORDER $end
$var parameter 5 C" STATE_NEWMAX $end
$var wire 1 Q clk $end
$var wire 1 D" risk_ok $end
$var wire 1 O new_order $end
$var wire 1 P new_max $end
$var wire 1 E" memwr $end
$var wire 1 F" HRESETn $end
$var wire 1 G" check_risk $end
$var wire 1 H" send_order $end
$var wire 1 I" update_max $end
$var reg 5 J" state [4:0] $end
$upscope $end
$upscope $end

$scope module DOWNTOP $end
$var wire 1 # client_id [4] $end
$var wire 1 $ client_id [3] $end
$var wire 1 % client_id [2] $end
$var wire 1 & client_id [1] $end
$var wire 1 ' client_id [0] $end
$var wire 1 Q clk $end
$var wire 1 ( amount [15] $end
$var wire 1 ) amount [14] $end
$var wire 1 * amount [13] $end
$var wire 1 + amount [12] $end
$var wire 1 , amount [11] $end
$var wire 1 - amount [10] $end
$var wire 1 . amount [9] $end
$var wire 1 / amount [8] $end
$var wire 1 0 amount [7] $end
$var wire 1 1 amount [6] $end
$var wire 1 2 amount [5] $end
$var wire 1 3 amount [4] $end
$var wire 1 4 amount [3] $end
$var wire 1 5 amount [2] $end
$var wire 1 6 amount [1] $end
$var wire 1 7 amount [0] $end

$scope fork downdatareq $end
$var reg 10 K" wrindex [9:0] $end
$var reg 10 L" rdindex [9:0] $end
$var reg 1 M" we $end
$upscope $end
$var reg 1 N" old_client $end
$var reg 1 O" old_amount $end

$scope begin downstream_write_enable $end
$upscope $end
$upscope $end
$upscope $end
$upscope $end

$scope begin tb_top_UPDOWNSTREAM_sv_unit $end
$upscope $end

$scope begin std $end
$upscope $end

$scope begin cache_def $end
$var parameter 32 P" TAGMSB $end
$var parameter 32 Q" TAGLSB $end
$upscope $end

$scope begin top_sv_unit $end
$upscope $end
$enddefinitions $end
#0
$dumpvars
0!
0"
b0 K!
b0 L!
xM!
bx N!
xO!
xP!
x^!
x_!
x`!
bx a!
bx b!
bx c!
bx d!
xe!
xf!
0g!
0h!
b0 x!
b0 y!
b11111111101010100000000000000000 }!
b0 ~!
0*"
b0 ."
b0 /"
bx 1"
b0 5"
b11111111101010100000000000000000 6"
07"
bx >"
bx ?"
bx J"
xN"
xO"
b0 D!
b0 E!
b0 F!
b0 H!
b0 I!
b0 J!
b0 Q!
b0 R!
b0 S!
b0 T!
b0 U!
b0 V!
b0 W!
b0 X!
b11111111101010100000000000000000 Y!
b0 Z!
b0 [!
b11111111101010100000000000000000 \!
b0 ]!
b0 i!
b0 j!
b0 k!
b0 l!
b0 m!
b0 n!
b0 o!
b0 p!
b11111111101010100000000000000000 q!
b0 r!
b0 s!
b11111111101010100000000000000000 t!
b0 u!
b0 z!
b0 {!
b0 |!
b0 !"
b0 ""
b0 #"
b11111111101010100000000000000000 $"
b0 %"
b0 &"
b11111111101010100000000000000000 '"
b0 ("
b0 )"
b0 +"
b0 ,"
b0 -"
b0 2"
b0 3"
b0 4"
b0 8"
b1 9"
b0 :"
b11111111101010100000000000000000 ;"
b0 <"
b0 ="
b0 K"
b0 L"
b0 M"
b100000 P"
b1110 Q"
b1 @"
b10 A"
b100 B"
b1000 C"
b0 v!
b0 w!
xG!
0Q
x=
x<
x;
x:
x9
x8
xN
xM
xL
xK
xJ
xI
xH
xG
xF
xE
xD
xC
xB
xA
x@
x?
xO
xP
x'
x&
x%
x$
x#
x7
x6
x5
x4
x3
x2
x1
x0
x/
x.
x-
x,
x+
x*
x)
x(
x>
0q
0p
0o
0n
0m
0l
0k
0j
0i
0h
0g
0f
0e
0d
0c
0b
0a
0`
0_
0^
0]
0\
0[
0Z
0Y
0X
0W
0V
0U
0T
0S
0R
x#!
x"!
x!!
x~
x}
x|
x{
xz
xy
xx
xw
xv
xu
xt
xs
xr
xC!
xB!
xA!
x@!
x?!
x>!
x=!
x<!
x;!
x:!
x9!
x8!
x7!
x6!
x5!
x4!
x3!
x2!
x1!
x0!
x/!
x.!
x-!
x,!
x+!
x*!
x)!
x(!
x'!
x&!
x%!
x$!
xE"
1F"
xD"
00"
xG"
xH"
xI"
$end
#2000
1!
1Q
1g!
1*"
17"
10"
b0 >"
b0 1"
b1 J"
0I"
0H"
0G"
0^!
0_!
0`!
0G!
#4000
1"
1>
0=
0O
1P
07
16
15
14
03
02
11
10
0/
0.
0-
0,
0+
0*
1)
1(
1'
0&
0%
0$
0#
1N
0M
0L
0K
1J
0I
1H
0G
1F
0E
1D
0C
0B
0A
0@
0?
0<
1;
1:
09
08
b110 E!
b1100000011001110 K!
b110 I!
b110 R!
b1 U!
b1 K"
b1 M"
0O"
1N"
b1 D!
b0 E!
b1 F!
b110 j!
b1 m!
b1 H!
b0 I!
b1 J!
b0 $"
b11111111101010100000000000000000 ~!
b110 &"
b1 v!
b110 p!
b11111111101010100000000000000000 5"
b0 t!
b0 \!
b110 X!
b110 :"
b11111111101010100000000000000000 ?"
b11111111101010100000000000000000 8"
b11111111101010100000000000000000 n!
b1 o!
b0 v!
b1 v!
b1000 J"
1I"
1`!
1G!
#6000
0!
0Q
0g!
0*"
07"
00"
#8000
0"
#10000
1!
1Q
1g!
1*"
17"
10"
b1 >"
b10 >"
b1 1"
b1 w!
b1 |!
b100000000000000000000 y!
b1 )"
b10 v!
b1 s!
b100000000000000000000 ."
b1 -"
b1 [!
b1 ="
#12000
1"
#14000
0!
0Q
0g!
0*"
07"
00"
#16000
0"
#18000
1!
1Q
1g!
1*"
17"
10"
b11 >"
b100 >"
b10 1"
b10 w!
b100000000000000000000 /"
b100000000000000000000 x!
b0 y!
b0 |!
b1 v!
b1 #"
b1 4"
b0 -"
b0 ."
#20000
1"
0>
1O
0P
04
13
12
00
1-
1,
1*
0)
0(
1&
1$
0N
1M
1L
1K
0J
1I
0F
1C
1@
1?
1<
0;
b101 E!
b10110001110110 K!
b101 I!
b1011 K"
b1011 D!
b0 E!
b1011 H!
b0 I!
#22000
0!
0Q
0g!
0*"
07"
00"
#24000
0"
#26000
1!
1Q
1g!
1*"
17"
10"
b101 >"
b110 >"
b11 1"
b1 w!
b0 #"
b1 %"
b0 v!
b1 u!
b0 4"
b1 ]!
b0 b!
b0 c!
b0 d!
b1100110001101110 N!
b1100110001101110 S!
b1100110001101110 a!
1O!
b1 T!
b1100110001101110 k!
b1 l!
0C!
0B!
0A!
0@!
0?!
0>!
0=!
0<!
0;!
0:!
09!
08!
07!
06!
05!
04!
03!
02!
01!
00!
0/!
0.!
0-!
0,!
0+!
0*!
0)!
0(!
0'!
0&!
0%!
0$!
0#!
0"!
0!!
0~
0}
0|
0{
0z
0y
0x
0w
0v
0u
0t
0s
0r
1D"
b1 v!
b0 %"
b1 %"
b1 |!
b1 #"
b100000000000000000000 y!
b110000000000000000000 y!
b0 v!
b110000000000000000000 ."
b1 4"
b1 -"
#28000
1"
#30000
0!
0Q
0g!
0*"
07"
00"
#32000
0"
#34000
1!
1Q
1g!
1*"
17"
10"
b111 >"
b100 1"
b0 w!
b110000000000000000000 /"
b110000000000000000000 x!
b0 %"
b0 y!
b0 |!
b0 #"
b1 v!
b0 4"
b0 -"
b0 ."
b0 u!
b0 ]!
#36000
1"
1>
0O
1P
05
03
02
1/
1.
0,
1+
1)
1(
0&
0$
1#
0M
0L
1J
0I
1G
1E
0C
1B
0<
1;
0:
b10 E!
b1111011101000010 K!
b10 I!
b10 R!
b10001 K"
b10001 D!
b0 E!
b10 j!
b10001 H!
b0 I!
b0 v!
b1100110001101110 ~!
b11111111101010100000000000000000 $"
b10 &"
b1 v!
b10 p!
b11111111101010100000000000000000 t!
b1100110001101110 5"
b11111111101010100000000000000000 \!
b10 X!
b10 :"
b10010001101000000000000000000 ?"
b0 >"
b10010001101000000000000000000 8"
b10010001101000000000000000000 n!
b0 v!
b0 $"
b11111111101010100000000000000000 ~!
b1100110001101110 ~!
b11111111101010100000000000000000 $"
b1 v!
#38000
0!
0Q
0g!
0*"
07"
00"
#40000
0"
#42000
1!
1Q
1g!
1*"
17"
10"
b1 >"
b0 >"
b101 1"
b1 w!
b0 $"
b11111111101010100000000000000000 ~!
b1100110001101110 ~!
b11111111101010100000000000000000 $"
b1 %"
b1 |!
b1 #"
b100000000000000000000 y!
b110000000000000000000 y!
b0 v!
b110000000000000000000 ."
b1 4"
b1 -"
b1 u!
b1 ]!
b1111111110101010 d!
b11010110110110000000000000000000 N!
b11010110110110000000000000000000 S!
b1101011011011000 a!
b11010110110110000000000000000000 k!
1B!
1@!
1>!
1<!
1;!
1:!
19!
18!
17!
16!
15!
14!
b1 v!
b0 $"
b0 %"
b0 y!
b0 |!
b0 #"
b11111111101010100000000000000000 ~!
b11010110110110000000000000000000 ~!
b11111111101010100000000000000000 $"
b1 %"
b1 |!
b1 #"
b100000000000000000000 y!
b110000000000000000000 y!
b0 v!
b11010110110110000000000000000000 5"
#44000
1"
#46000
0!
0Q
0g!
0*"
07"
00"
#48000
0"
#50000
1!
1Q
1g!
1*"
17"
10"
b1 >"
b10 >"
b0 1"
b0 w!
b10101101101100000000000000000000 6"
b10101101101100000000000000000000 }!
b0 $"
b0 %"
b0 y!
b0 |!
b0 #"
b10101101101100000000000000000000 ~!
b11010110110110000000000000000000 ~!
b10101101101100000000000000000000 $"
b10101101101100000000000000000000 '"
b1 v!
b10101101101100000000000000000000 q!
b0 4"
b0 -"
b0 ."
b10101101101100000000000000000000 t!
b0 u!
b10101101101100000000000000000000 \!
b0 ]!
b10101101101100000000000000000000 Y!
b10101101101100000000000000000000 ;"
#52000
1"
0>
1O
0P
17
14
13
12
01
0/
1,
0+
0)
0'
1$
0#
1L
0K
1I
0H
0G
0D
1C
0B
0?
1<
0;
1:
b101 E!
b1010111000111011 K!
b101 I!
b101 R!
b1000 K"
1O"
0N"
b1000 D!
b0 E!
b101 j!
b1000 H!
b0 I!
b0 v!
b0 $"
b10101101101100000000000000000000 ~!
b101 &"
b1 v!
b101 p!
b10101101101100000000000000000000 5"
b0 t!
b0 \!
b101 X!
b101 :"
#54000
0!
0Q
0g!
0*"
07"
00"
#56000
0"
#58000
1!
1Q
1g!
1*"
17"
10"
b11 >"
b100 >"
b1 1"
b1 w!
b1 %"
b1 |!
b1 #"
b100000000000000000000 y!
b110000000000000000000 y!
b0 v!
b110000000000000000000 ."
b1 4"
b1 -"
b1 u!
b1 ]!
b0 d!
b100101000110100 N!
b100101000110100 S!
b100101000110100 a!
0O!
b0 T!
b100101000110100 k!
b0 l!
0B!
0@!
0>!
0<!
0;!
0:!
09!
08!
07!
06!
05!
04!
0D"
b1 v!
b0 %"
b0 y!
b0 |!
b0 #"
b1 %"
b0 v!
b0 4"
b0 -"
b0 ."
#60000
1"
#62000
0!
0Q
0g!
0*"
07"
00"
#64000
0"
#66000
1!
1Q
1g!
1*"
17"
10"
b101 >"
b110 >"
b10 1"
b0 w!
b0 %"
b1 v!
b0 u!
b0 ]!
#68000
1"
1=
0O
1P
10
0,
1'
1N
1K
0J
0I
1G
1D
0C
1A
1?
0<
0:
b1010011010111011 K!
b0 R!
b1001 K"
1N"
b1001 D!
b0 j!
b1001 H!
b0 v!
b100101000110100 ~!
b10101101101100000000000000000000 $"
b0 &"
b1 v!
b0 p!
b10101101101100000000000000000000 t!
b100101000110100 5"
b10101101101100000000000000000000 \!
b0 X!
b0 :"
#70000
0!
0Q
0g!
0*"
07"
00"
#72000
0"
#74000
1!
1Q
1g!
1*"
17"
10"
b111 >"
b11 1"
b1 w!
b0 $"
b10101101101100000000000000000000 ~!
b100101000110100 ~!
b10101101101100000000000000000000 $"
b1 %"
b0 v!
b1 u!
b1 ]!
b1010110110110000 d!
b11100110100011010000000000000000 N!
b11100110100011010000000000000000 S!
b1110011010001101 a!
1O!
b1 T!
b11100110100011010000000000000000 k!
b1 l!
1?!
1>!
1<!
1;!
19!
18!
16!
14!
1D"
b1 v!
b0 $"
b0 %"
b10101101101100000000000000000000 ~!
b11100110100011010000000000000000 ~!
b10101101101100000000000000000000 $"
b1 %"
b1 |!
b1 #"
b100000000000000000000 y!
b110000000000000000000 y!
b0 v!
b110000000000000000000 ."
b1 4"
b1 -"
b11100110100011010000000000000000 5"
#76000
1"
#78000
0!
0Q
0g!
0*"
07"
00"
#80000
0"
#82000
1!
1Q
1g!
1*"
17"
10"
b0 >"
b100 1"
b0 w!
b0 $"
b0 %"
b0 y!
b0 |!
b0 #"
b10101101101100000000000000000000 ~!
b11100110100011010000000000000000 ~!
b10101101101100000000000000000000 $"
b1 v!
b0 4"
b0 -"
b0 ."
b0 u!
b0 ]!
#84000
1"
1>
07
06
04
03
11
00
1/
0.
0-
1,
1+
1)
1%
1#
1M
0L
1J
1H
0E
0D
1B
1;
b10 E!
b1111100101100000 K!
b10 I!
b10 R!
b11101 K"
0O"
b11101 D!
b0 E!
b10 j!
b11101 H!
b0 I!
b0 v!
b0 $"
b10101101101100000000000000000000 ~!
b11100110100011010000000000000000 ~!
b10101101101100000000000000000000 $"
b10 &"
b1 v!
b10 p!
b10 X!
b10 :"
#86000
0!
0Q
0g!
0*"
07"
00"
#88000
0"
#90000
1!
1Q
1g!
1*"
17"
10"
b1 >"
b101 1"
b1 w!
b0 $"
b10101101101100000000000000000000 ~!
b11100110100011010000000000000000 ~!
b10101101101100000000000000000000 $"
b1 %"
b1 |!
b1 #"
b100000000000000000000 y!
b110000000000000000000 y!
b0 v!
b110000000000000000000 ."
b1 4"
b1 -"
b1 u!
b1 ]!
b11110000110110110000000000000000 N!
b11110000110110110000000000000000 S!
b1111000011011011 a!
b11110000110110110000000000000000 k!
b1 v!
b0 $"
b0 %"
b0 y!
b0 |!
b0 #"
b10101101101100000000000000000000 ~!
b11110000110110110000000000000000 ~!
b10101101101100000000000000000000 $"
b1 %"
b1 |!
b1 #"
b100000000000000000000 y!
b110000000000000000000 y!
b0 v!
b11110000110110110000000000000000 5"
#92000
1"
#94000
0!
0Q
0g!
0*"
07"
00"
#96000
0"
#98000
1!
1Q
1g!
1*"
17"
10"
b10 >"
b0 1"
b0 w!
b11100001101101100000000000000000 6"
b11100001101101100000000000000000 }!
b0 $"
b0 %"
b0 y!
b0 |!
b0 #"
b11100001101101100000000000000000 ~!
b11110000110110110000000000000000 ~!
b11100001101101100000000000000000 $"
b11100001101101100000000000000000 '"
b1 v!
b11100001101101100000000000000000 q!
b0 4"
b0 -"
b0 ."
b11100001101101100000000000000000 t!
b0 u!
b11100001101101100000000000000000 \!
b0 ]!
b11100001101101100000000000000000 Y!
b11100001101101100000000000000000 ;"
#100000
1"
16
15
14
01
10
0,
0+
0(
1&
0%
1L
0J
1I
0H
1F
0B
0@
1<
b11 E!
b110000110101110 K!
b11 I!
b11 R!
b11011 K"
b11011 D!
b0 E!
b11 j!
b11011 H!
b0 I!
b0 v!
b0 $"
b11100001101101100000000000000000 ~!
b11110000110110110000000000000000 ~!
b11100001101101100000000000000000 $"
b11 &"
b1 v!
b11 p!
b11 X!
b11 :"
#102000
0!
0Q
0g!
0*"
07"
00"
#104000
0"
#106000
1!
1Q
1g!
1*"
17"
10"
b11 >"
b1 1"
b1 w!
b0 $"
b11100001101101100000000000000000 ~!
b11110000110110110000000000000000 ~!
b11100001101101100000000000000000 $"
b1 %"
b1 |!
b1 #"
b100000000000000000000 y!
b110000000000000000000 y!
b0 v!
b110000000000000000000 ."
b1 4"
b1 -"
b1 u!
b1 ]!
b1110000110110110 d!
b10100001101011110000000000000000 N!
b10100001101011110000000000000000 S!
b1010000110101111 a!
b10100001101011110000000000000000 k!
1B!
1A!
09!
08!
15!
b1 v!
b0 $"
b0 %"
b0 y!
b0 |!
b0 #"
b11100001101101100000000000000000 ~!
b10100001101011110000000000000000 ~!
b11100001101101100000000000000000 $"
b1 %"
b1 |!
b1 #"
b100000000000000000000 y!
b110000000000000000000 y!
b0 v!
b10100001101011110000000000000000 5"
#108000
1"
#110000
0!
0Q
0g!
0*"
07"
00"
#112000
0"
#114000
1!
1Q
1g!
1*"
17"
10"
b100 >"
b10 1"
b0 w!
b0 $"
b0 %"
b0 y!
b0 |!
b0 #"
b11100001101101100000000000000000 ~!
b10100001101011110000000000000000 ~!
b11100001101101100000000000000000 $"
b1 v!
b0 4"
b0 -"
b0 ."
b0 u!
b0 ]!
