Documentation/models/clockedmemory/testbench/tbenchoutputs/upstream/upstreamdump.vcd
$date
	Fri Mar 11 11:17:34 2022
$end
$version
	QuestaSim Version 10.7c
$end
$timescale
	1ps
$end

$scope module tb_top_UPDOWNSTREAM $end
$var reg 1 ! clk $end
$var reg 1 " slowclk $end

$scope module TOP $end
$var wire 1 # cpu_client_id [4] $end
$var wire 1 $ cpu_client_id [3] $end
$var wire 1 % cpu_client_id [2] $end
$var wire 1 & cpu_client_id [1] $end
$var wire 1 ' cpu_client_id [0] $end
$var wire 1 ( exchange_client_id [4] $end
$var wire 1 ) exchange_client_id [3] $end
$var wire 1 * exchange_client_id [2] $end
$var wire 1 + exchange_client_id [1] $end
$var wire 1 , exchange_client_id [0] $end
$var wire 1 - clk $end
$var wire 1 . cpu_go $end
$var wire 1 / exchange_go $end
$var wire 1 0 cpu_new_max $end
$var wire 1 1 exchange_amount [15] $end
$var wire 1 2 exchange_amount [14] $end
$var wire 1 3 exchange_amount [13] $end
$var wire 1 4 exchange_amount [12] $end
$var wire 1 5 exchange_amount [11] $end
$var wire 1 6 exchange_amount [10] $end
$var wire 1 7 exchange_amount [9] $end
$var wire 1 8 exchange_amount [8] $end
$var wire 1 9 exchange_amount [7] $end
$var wire 1 : exchange_amount [6] $end
$var wire 1 ; exchange_amount [5] $end
$var wire 1 < exchange_amount [4] $end
$var wire 1 = exchange_amount [3] $end
$var wire 1 > exchange_amount [2] $end
$var wire 1 ? exchange_amount [1] $end
$var wire 1 @ exchange_amount [0] $end
$var wire 1 A cancelled_orders [15] $end
$var wire 1 B cancelled_orders [14] $end
$var wire 1 C cancelled_orders [13] $end
$var wire 1 D cancelled_orders [12] $end
$var wire 1 E cancelled_orders [11] $end
$var wire 1 F cancelled_orders [10] $end
$var wire 1 G cancelled_orders [9] $end
$var wire 1 H cancelled_orders [8] $end
$var wire 1 I cancelled_orders [7] $end
$var wire 1 J cancelled_orders [6] $end
$var wire 1 K cancelled_orders [5] $end
$var wire 1 L cancelled_orders [4] $end
$var wire 1 M cancelled_orders [3] $end
$var wire 1 N cancelled_orders [2] $end
$var wire 1 O cancelled_orders [1] $end
$var wire 1 P cancelled_orders [0] $end
$var wire 1 Q cpu_amount [31] $end
$var wire 1 R cpu_amount [30] $end
$var wire 1 S cpu_amount [29] $end
$var wire 1 T cpu_amount [28] $end
$var wire 1 U cpu_amount [27] $end
$var wire 1 V cpu_amount [26] $end
$var wire 1 W cpu_amount [25] $end
$var wire 1 X cpu_amount [24] $end
$var wire 1 Y cpu_amount [23] $end
$var wire 1 Z cpu_amount [22] $end
$var wire 1 [ cpu_amount [21] $end
$var wire 1 \ cpu_amount [20] $end
$var wire 1 ] cpu_amount [19] $end
$var wire 1 ^ cpu_amount [18] $end
$var wire 1 _ cpu_amount [17] $end
$var wire 1 ` cpu_amount [16] $end
$var wire 1 a cpu_amount [15] $end
$var wire 1 b cpu_amount [14] $end
$var wire 1 c cpu_amount [13] $end
$var wire 1 d cpu_amount [12] $end
$var wire 1 e cpu_amount [11] $end
$var wire 1 f cpu_amount [10] $end
$var wire 1 g cpu_amount [9] $end
$var wire 1 h cpu_amount [8] $end
$var wire 1 i cpu_amount [7] $end
$var wire 1 j cpu_amount [6] $end
$var wire 1 k cpu_amount [5] $end
$var wire 1 l cpu_amount [4] $end
$var wire 1 m cpu_amount [3] $end
$var wire 1 n cpu_amount [2] $end
$var wire 1 o cpu_amount [1] $end
$var wire 1 p cpu_amount [0] $end
$var reg 1 q ack $end
$var reg 1 r update_memory $end
$var reg 1 s memwr $end
$var reg 16 t amount [15:0] $end
$var reg 5 u client_id [4:0] $end
$var reg 1 v pass_checks $end
$var reg 1 w upstream_enable $end
$var reg 1 x check_risk $end
$var reg 1 y send_order $end
$var reg 1 z update_max $end
$var wire 1 { accumulated_orders [31] $end
$var wire 1 | accumulated_orders [30] $end
$var wire 1 } accumulated_orders [29] $end
$var wire 1 ~ accumulated_orders [28] $end
$var wire 1 !! accumulated_orders [27] $end
$var wire 1 "! accumulated_orders [26] $end
$var wire 1 #! accumulated_orders [25] $end
$var wire 1 $! accumulated_orders [24] $end
$var wire 1 %! accumulated_orders [23] $end
$var wire 1 &! accumulated_orders [22] $end
$var wire 1 '! accumulated_orders [21] $end
$var wire 1 (! accumulated_orders [20] $end
$var wire 1 )! accumulated_orders [19] $end
$var wire 1 *! accumulated_orders [18] $end
$var wire 1 +! accumulated_orders [17] $end
$var wire 1 ,! accumulated_orders [16] $end
$var wire 1 -! accumulated_orders [15] $end
$var wire 1 .! accumulated_orders [14] $end
$var wire 1 /! accumulated_orders [13] $end
$var wire 1 0! accumulated_orders [12] $end
$var wire 1 1! accumulated_orders [11] $end
$var wire 1 2! accumulated_orders [10] $end
$var wire 1 3! accumulated_orders [9] $end
$var wire 1 4! accumulated_orders [8] $end
$var wire 1 5! accumulated_orders [7] $end
$var wire 1 6! accumulated_orders [6] $end
$var wire 1 7! accumulated_orders [5] $end
$var wire 1 8! accumulated_orders [4] $end
$var wire 1 9! accumulated_orders [3] $end
$var wire 1 :! accumulated_orders [2] $end
$var wire 1 ;! accumulated_orders [1] $end
$var wire 1 <! accumulated_orders [0] $end
$var reg 32 =! max_to_trade [31:0] $end
$var reg 1 >! memwr_up $end
$var reg 1 ?! memwr_down $end

$scope module RAMDOWNSTREAM $end
$var parameter 32 @! D_WIDTH $end
$var parameter 32 A! A_WIDTH $end
$var parameter 32 B! A_MAX $end
$var wire 1 - clk_write $end
$var wire 1 C! downstream_address_write [4] $end
$var wire 1 D! downstream_address_write [3] $end
$var wire 1 E! downstream_address_write [2] $end
$var wire 1 F! downstream_address_write [1] $end
$var wire 1 G! downstream_address_write [0] $end
$var wire 1 H! data_write [15] $end
$var wire 1 I! data_write [14] $end
$var wire 1 J! data_write [13] $end
$var wire 1 K! data_write [12] $end
$var wire 1 L! data_write [11] $end
$var wire 1 M! data_write [10] $end
$var wire 1 N! data_write [9] $end
$var wire 1 O! data_write [8] $end
$var wire 1 P! data_write [7] $end
$var wire 1 Q! data_write [6] $end
$var wire 1 R! data_write [5] $end
$var wire 1 S! data_write [4] $end
$var wire 1 T! data_write [3] $end
$var wire 1 U! data_write [2] $end
$var wire 1 V! data_write [1] $end
$var wire 1 W! data_write [0] $end
$var wire 1 X! downstream_write_enable $end
$var wire 1 - clk_read $end
$var wire 1 Y! address_read [4] $end
$var wire 1 Z! address_read [3] $end
$var wire 1 [! address_read [2] $end
$var wire 1 \! address_read [1] $end
$var wire 1 ]! address_read [0] $end
$var reg 16 ^! data_read [15:0] $end
$var reg 1 _! memwr $end
$var integer 32 `! i $end
$upscope $end

$scope module DOWNSTREAMPROCESSOR $end
$var parameter 2 a! IDLE $end
$var parameter 2 b! STATE_UPDATE_MEM $end
$var wire 1 - clk $end
$var wire 1 . ack $end
$var wire 1 c! memwr $end
$var wire 1 d! out $end
$var reg 2 e! state [1:0] $end
$upscope $end

$scope module RAMUPSTREAM $end
$var parameter 32 f! D_WIDTH $end
$var parameter 32 g! A_WIDTH $end
$var parameter 32 h! A_MAX $end
$var wire 1 - clk_write $end
$var wire 1 i! change_max $end
$var wire 1 # address_write [4] $end
$var wire 1 $ address_write [3] $end
$var wire 1 % address_write [2] $end
$var wire 1 & address_write [1] $end
$var wire 1 ' address_write [0] $end
$var wire 1 Q data_write [31] $end
$var wire 1 R data_write [30] $end
$var wire 1 S data_write [29] $end
$var wire 1 T data_write [28] $end
$var wire 1 U data_write [27] $end
$var wire 1 V data_write [26] $end
$var wire 1 W data_write [25] $end
$var wire 1 X data_write [24] $end
$var wire 1 Y data_write [23] $end
$var wire 1 Z data_write [22] $end
$var wire 1 [ data_write [21] $end
$var wire 1 \ data_write [20] $end
$var wire 1 ] data_write [19] $end
$var wire 1 ^ data_write [18] $end
$var wire 1 _ data_write [17] $end
$var wire 1 ` data_write [16] $end
$var wire 1 a data_write [15] $end
$var wire 1 b data_write [14] $end
$var wire 1 c data_write [13] $end
$var wire 1 d data_write [12] $end
$var wire 1 e data_write [11] $end
$var wire 1 f data_write [10] $end
$var wire 1 g data_write [9] $end
$var wire 1 h data_write [8] $end
$var wire 1 i data_write [7] $end
$var wire 1 j data_write [6] $end
$var wire 1 k data_write [5] $end
$var wire 1 l data_write [4] $end
$var wire 1 m data_write [3] $end
$var wire 1 n data_write [2] $end
$var wire 1 o data_write [1] $end
$var wire 1 p data_write [0] $end
$var wire 1 j! write_enable $end
$var wire 1 - clk_read $end
$var wire 1 # address_read [4] $end
$var wire 1 $ address_read [3] $end
$var wire 1 % address_read [2] $end
$var wire 1 & address_read [1] $end
$var wire 1 ' address_read [0] $end
$var reg 32 k! accumulated_orders [31:0] $end
$var reg 32 l! max_to_trade [31:0] $end
$var reg 1 m! memwr $end
$var reg 32 n! accumulated_read [31:0] $end
$var integer 32 o! i $end
$upscope $end

$scope module SLT $end
$var wire 1 p! A [31] $end
$var wire 1 q! A [30] $end
$var wire 1 r! A [29] $end
$var wire 1 s! A [28] $end
$var wire 1 t! A [27] $end
$var wire 1 u! A [26] $end
$var wire 1 v! A [25] $end
$var wire 1 w! A [24] $end
$var wire 1 x! A [23] $end
$var wire 1 y! A [22] $end
$var wire 1 z! A [21] $end
$var wire 1 {! A [20] $end
$var wire 1 |! A [19] $end
$var wire 1 }! A [18] $end
$var wire 1 ~! A [17] $end
$var wire 1 !" A [16] $end
$var wire 1 "" A [15] $end
$var wire 1 #" A [14] $end
$var wire 1 $" A [13] $end
$var wire 1 %" A [12] $end
$var wire 1 &" A [11] $end
$var wire 1 '" A [10] $end
$var wire 1 (" A [9] $end
$var wire 1 )" A [8] $end
$var wire 1 *" A [7] $end
$var wire 1 +" A [6] $end
$var wire 1 ," A [5] $end
$var wire 1 -" A [4] $end
$var wire 1 ." A [3] $end
$var wire 1 /" A [2] $end
$var wire 1 0" A [1] $end
$var wire 1 1" A [0] $end
$var wire 1 2" B [31] $end
$var wire 1 3" B [30] $end
$var wire 1 4" B [29] $end
$var wire 1 5" B [28] $end
$var wire 1 6" B [27] $end
$var wire 1 7" B [26] $end
$var wire 1 8" B [25] $end
$var wire 1 9" B [24] $end
$var wire 1 :" B [23] $end
$var wire 1 ;" B [22] $end
$var wire 1 <" B [21] $end
$var wire 1 =" B [20] $end
$var wire 1 >" B [19] $end
$var wire 1 ?" B [18] $end
$var wire 1 @" B [17] $end
$var wire 1 A" B [16] $end
$var wire 1 B" B [15] $end
$var wire 1 C" B [14] $end
$var wire 1 D" B [13] $end
$var wire 1 E" B [12] $end
$var wire 1 F" B [11] $end
$var wire 1 G" B [10] $end
$var wire 1 H" B [9] $end
$var wire 1 I" B [8] $end
$var wire 1 J" B [7] $end
$var wire 1 K" B [6] $end
$var wire 1 L" B [5] $end
$var wire 1 M" B [4] $end
$var wire 1 N" B [3] $end
$var wire 1 O" B [2] $end
$var wire 1 P" B [1] $end
$var wire 1 Q" B [0] $end
$var wire 1 R" Result $end
$var reg 1 S" sltresult $end
$upscope $end

$scope module UPSTREAMPROCESSOR $end
$var parameter 5 T" IDLE $end
$var parameter 5 U" STATE_RISKCHECK $end
$var parameter 5 V" STATE_SENDORDER $end
$var parameter 5 W" STATE_NEWMAX $end
$var parameter 5 X" STATE_RISKCHK_SENDORDER $end
$var wire 1 - clk $end
$var wire 1 Y" risk_ok $end
$var wire 1 Z" new_order $end
$var wire 1 [" new_max $end
$var wire 1 \" memwr $end
$var wire 1 ]" check_risk $end
$var wire 1 ^" send_order $end
$var wire 1 _" update_max $end
$var reg 5 `" state [4:0] $end
$upscope $end
$upscope $end
$upscope $end

$scope begin tb_top_UPDOWNSTREAM_sv_unit $end
$upscope $end

$scope begin std $end
$upscope $end
$enddefinitions $end
#0
$dumpvars
0!
0"
xq
xr
xs
bx t
bx u
0v
xw
0x
0y
0z
b0xxxxxxxxxxxxxxxx =!
x>!
x?!
bx ^!
x_!
bx e!
b0xxxxxxxxxxxxxxxx k!
b0xxxxxxxxxxxxxxxx l!
xm!
bx n!
0S"
b1 `"
b10000 @!
b101 A!
b100000 B!
b1 a!
b10 b!
b100000 f!
b101 g!
b100000 h!
b1 T"
b10 U"
b100 V"
b1000 W"
b10000 X"
b100000 `!
b100000 o!
0-
x'
x&
x%
x$
x#
xp
xo
xn
xm
xl
xk
xj
xi
xh
xg
xf
xe
xd
xc
xb
xa
x`
x_
x^
x]
x\
x[
xZ
xY
xX
xW
xV
xU
xT
xS
xR
xQ
x.
x0
x,
x+
x*
x)
x(
x@
x?
x>
x=
x<
x;
x:
x9
x8
x7
x6
x5
x4
x3
x2
x1
x/
xP
xO
xN
xM
xL
xK
xJ
xI
xH
xG
xF
xE
xD
xC
xB
xA
x<!
x;!
x:!
x9!
x8!
x7!
x6!
x5!
x4!
x3!
x2!
x1!
x0!
x/!
x.!
x-!
0,!
0+!
0*!
0)!
0(!
0'!
0&!
0%!
0$!
0#!
0"!
0!!
0~
0}
0|
0{
x\"
x["
xZ"
0Y"
xQ"
xP"
xO"
xN"
xM"
xL"
xK"
xJ"
xI"
xH"
xG"
xF"
xE"
xD"
xC"
xB"
xA"
x@"
x?"
x>"
x="
x<"
x;"
x:"
x9"
x8"
x7"
x6"
x5"
x4"
x3"
x2"
x1"
x0"
x/"
x."
x-"
x,"
x+"
x*"
x)"
x("
x'"
x&"
x%"
x$"
x#"
x""
0!"
0~!
0}!
0|!
0{!
0z!
0y!
0x!
0w!
0v!
0u!
0t!
0s!
0r!
0q!
0p!
0i!
0j!
xc!
x]!
x\!
x[!
xZ!
xY!
xX!
xW!
xV!
xU!
xT!
xS!
xR!
xQ!
xP!
xO!
xN!
xM!
xL!
xK!
xJ!
xI!
xH!
xG!
xF!
xE!
xD!
xC!
xd!
0R"
0]"
0^"
0_"
$end
#2000
1!
1-
0_!
b1 e!
0m!
0>!
0?!
0d!
0r
0X!
0\"
0c!
#12000
1"
10
1,
1+
0*
0)
0(
1@
1?
0>
0=
0<
1;
1:
09
18
17
06
15
14
03
12
01
1p
0o
0n
0m
1l
0k
1j
0i
1h
0g
1f
0e
0d
0c
0b
0a
1`
1_
0^
0]
1\
0[
1Z
1Y
0X
1W
1V
1U
0T
0S
1R
1Q
1'
0&
1%
1$
0#
b0 k!
b0 l!
b0 =!
0<!
0;!
0:!
09!
08!
07!
06!
05!
04!
03!
02!
01!
00!
0/!
0.!
0-!
0.
1/
0Z"
01"
00"
0/"
0."
0-"
0,"
0+"
0*"
0)"
0("
0'"
0&"
0%"
0$"
0#"
0""
0["
b11 u
b101101101100011 t
1W!
1V!
0U!
0T!
0S!
1R!
1Q!
0P!
1O!
1N!
0M!
1L!
1K!
0J!
1I!
0H!
1]!
1\!
0[!
0Z!
0Y!
1G!
1F!
0E!
0D!
0C!
b0 ^!
0P
0O
0N
0M
0L
0K
0J
0I
0H
0G
0F
0E
0D
0C
0B
0A
1Q"
0P"
0O"
0N"
1M"
0L"
1K"
0J"
1I"
0H"
1G"
0F"
0E"
0D"
0C"
0B"
1A"
1@"
0?"
0>"
1="
0<"
1;"
1:"
09"
18"
17"
16"
05"
04"
13"
12"
#14000
0!
0-
#24000
0"
#26000
1!
1-
#36000
1"
#38000
0!
0-
#48000
0"
#50000
1!
1-
#60000
1"
00
1*
1)
1(
1>
1=
1<
0;
16
04
13
02
0p
1o
1n
1m
0l
1k
0h
1e
1b
1a
0`
1[
0W
0V
0R
0Q
0$
1#
1.
0/
0Q"
1P"
1O"
1N"
0M"
1L"
0I"
1F"
1C"
1B"
0A"
1<"
08"
07"
03"
02"
1Z"
b10101 u
b1100110001101110 t
0W!
1U!
1T!
0O!
0N!
1M!
0K!
1H!
0\!
1[!
1Y!
0F!
1E!
1C!
b10 `"
1S"
b10 e!
1]"
1R"
1d!
1r
1v
1x
1X!
1Y"
b10000 `"
0]"
0x
#62000
0!
0-
#72000
0"
#74000
1!
1-
1_!
b1 `"
1?!
b1100110001101110 ^!
1O
1N
1M
1K
1J
1F
1E
1B
1A
1c!
0P"
0O"
0N"
0L"
0K"
0G"
0F"
0C"
0B"
b1 e!
0d!
0r
0X!
#84000
1"
#86000
0!
0-
#96000
0"
#98000
1!
1-
b10 e!
b10 `"
0_!
0?!
1d!
1]"
1x
1r
1X!
0c!
#108000
1"
10
0,
0*
0)
0@
0>
0=
1;
07
06
05
12
11
0o
0n
1l
0k
1i
1g
0e
1d
1]
0Z
0Y
1W
1S
1R
1Q
1&
0%
0.
1/
0Z"
1["
1P"
1N"
1L"
1K"
1H"
1F"
1>"
0;"
0:"
18"
14"
13"
12"
0["
b10010 u
b1110000101110010 t
0U!
0T!
1S!
1O!
0M!
0L!
1J!
0]!
1\!
0[!
0G!
1F!
0E!
b0 ^!
0O
0N
0M
0K
0J
0F
0E
0B
0A
0P"
1M"
0L"
1J"
1G"
0F"
1E"
1C"
1B"
0S"
b100 `"
0R"
1^"
0]"
0x
1y
0v
1j!
0Y"
#110000
0!
0-
#120000
0"
#122000
1!
1-
1m!
1_!
1?!
b1110000101110010 ^!
1>!
b1101011011011000 k!
19!
18!
16!
15!
13!
12!
10!
1.!
1-!
1O
1L
1K
1J
1H
1C
1B
1A
1c!
1\"
1P"
1O"
1L"
0K"
0J"
0H"
1F"
0E"
b1 `"
b1 e!
0^"
0d!
0r
0y
0j!
0X!
#132000
1"
#134000
0!
0-
#144000
0"
#146000
1!
1-
0_!
0m!
0>!
0?!
0\"
0c!
#156000
1"
00
0+
1*
0(
0?
1>
0<
19
03
02
1n
0m
1k
0j
0i
0f
1e
0d
0a
1`
1^
1Z
1X
1V
0U
1T
0S
1%
0#
b0 k!
09!
08!
06!
05!
03!
02!
00!
0.!
0-!
1.
0/
0O"
0N"
0M"
0L"
1K"
1J"
0G"
1D"
0B"
1?"
1;"
19"
17"
06"
15"
04"
1Z"
b111 u
b100101000110100 t
0V!
1U!
0Q!
0O!
1N!
1L!
0J!
0H!
1]!
1[!
0Y!
1G!
1E!
0C!
b0 ^!
0O
0L
0K
0J
0H
0C
0B
0A
0P"
1O"
1M"
1L"
0K"
0J"
1H"
0D"
1A"
b10 `"
b10 e!
1]"
1d!
1r
1x
1X!
#158000
0!
0-
#168000
0"
#170000
1!
1-
b1 `"
1_!
1?!
b100101000110100 ^!
0]"
0x
1N
1L
1K
1G
1E
1B
1c!
0O"
0M"
0L"
0H"
0F"
0C"
b1 e!
0d!
0r
0X!
#180000
1"
#182000
0!
0-
#192000
0"
#194000
1!
1-
b10 e!
0_!
b10 `"
0?!
1d!
1]"
1x
1r
1X!
0c!
#204000
1"
10
1,
1+
1)
1(
1@
1?
1=
1<
08
17
15
13
1p
1m
0l
0k
1i
1f
0e
1c
1a
0`
0\
0[
1Y
0V
1U
0Q
0'
0.
0Z"
1["
1Q"
1N"
1M"
1K"
1G"
1F"
1E"
1B"
0A"
0="
0<"
1:"
07"
16"
02"
0["
b110 u
b1110011010001101 t
1W!
1T!
0S!
0R!
1P!
1M!
0L!
1J!
1H!
0]!
0G!
b0 ^!
0N
0L
0K
0G
0E
0B
1O"
0M"
0K"
1J"
1H"
0F"
0E"
1D"
1C"
1S"
1R"
1v
1Y"
b100 `"
1^"
0]"
0x
1y
1j!
#206000
0!
0-
#216000
0"
#218000
1!
1-
1m!
1_!
1?!
b1110011010001101 ^!
1>!
b1110011010001101 k!
1<!
1:!
19!
15!
13!
12!
1/!
1.!
1-!
1P
1N
1M
1I
1G
1F
1C
1B
1A
1c!
1\"
b1 `"
b1 e!
0^"
0d!
0r
0y
0j!
0X!
#228000
1"
#230000
0!
0-
#240000
0"
#242000
1!
1-
0_!
0m!
0>!
0?!
0\"
0c!
#252000
1"
0(
0<
0;
0:
18
16
05
01
1o
0n
1l
1j
0g
0f
1d
0_
0^
0Y
0X
0W
1V
0U
1S
1Q
1'
1$
b0 k!
0<!
0:!
09!
05!
03!
02!
0/!
0.!
0-!
1/
0Q"
1P"
1K"
0J"
0G"
1F"
0D"
0C"
0B"
0@"
0?"
0:"
09"
08"
17"
06"
14"
12"
b1111 u
b10011110001111 t
1V!
1O!
0I!
0H!
1]!
1Z!
1G!
1D!
b0 ^!
0P
0N
0M
0I
0G
0F
0C
0B
0A
1Q"
0O"
1M"
1J"
0H"
0F"
1E"
1D"
1C"
1B"
0S"
0R"
0v
0Y"
#254000
0!
0-
#264000
0"
#266000
1!
1-
#276000
1"
#278000
0!
0-
#288000
0"
#290000
1!
1-
#300000
1"
0*
0>
08
06
14
03
12
11
1n
0l
1k
0j
1h
0d
0b
1^
0]
0Z
1Y
1W
0V
1U
0T
0Q
0'
0&
1O"
0M"
1L"
0K"
1I"
0E"
0C"
1?"
0>"
0;"
1:"
18"
07"
16"
05"
02"
1S"
1R"
1v
1Y"
#302000
0!
0-
#312000
0"
#314000
1!
1-
#324000
1"
#326000
0!
0-
#336000
0"
#338000
1!
1-
#348000
1"
0,
0+
0)
0@
0?
0=
1:
18
07
16
15
13
0n
0h
1g
1f
1b
0a
1_
0^
1]
1\
1[
1Z
0Y
1X
1T
0S
0R
1'
1&
0$
0/
0O"
0I"
1H"
1G"
1C"
0B"
1@"
0?"
1>"
1="
1<"
1;"
0:"
19"
15"
04"
03"
b111 u
b110011010101011 t
0U!
1R!
0O!
1I!
0Z!
0D!
b100101000110100 ^!
1N
1L
1K
1G
1E
1B
1O"
0N"
1M"
1K"
0J"
0H"
1F"
1E"
0D"
0C"
#350000
0!
0-
#360000
0"
#362000
1!
1-
#372000
1"
#374000
0!
0-
#384000
0"
#386000
1!
1-
#396000
1"
1*
1>
1;
09
08
06
05
04
03
02
01
1n
1l
0k
0i
0g
0f
1e
0b
1`
1^
0]
0X
1R
0&
0%
1$
1#
1/
0O"
1N"
0M"
1J"
1I"
1C"
1B"
1?"
0>"
09"
13"
b100 u
b1100100 t
0W!
0V!
1U!
0T!
1Q!
0P!
0N!
0M!
0J!
0I!
0]!
0\!
0G!
0F!
b0 ^!
0N
0L
0K
0G
0E
0B
1O"
1M"
0L"
0K"
0J"
0I"
0G"
0E"
1D"
0C"
0B"
1A"
#398000
0!
0-
#408000
0"
#410000
1!
1-
#420000
1"
#422000
0!
0-
#432000
0"
#434000
1!
1-
#444000
1"
00
1,
1+
1@
1?
0;
19
17
13
12
0p
1j
0e
1a
0`
0_
0^
1]
0\
0W
0U
0T
1Q
0'
1&
1%
1.
0/
0Q"
1K"
0F"
1B"
0A"
0@"
0?"
1>"
0="
08"
06"
05"
12"
1Z"
b11110 u
b1010000001011110 t
1V!
1T!
1S!
0R!
1J!
1H!
1\!
1Z!
1Y!
1F!
1D!
1C!
b10 `"
0S"
b10 e!
1]"
0R"
1d!
1r
0v
1x
1X!
0Y"
b1 `"
0]"
0x
#446000
0!
0-
#456000
0"
#458000
1!
1-
1_!
b10 `"
1?!
b1010000001011110 ^!
1]"
1x
1O
1N
1M
1L
1J
1C
1A
1c!
0P"
0O"
0N"
0M"
0K"
0D"
0B"
b1 e!
0d!
0r
0X!
#468000
1"
#470000
0!
0-
#480000
0"
#482000
1!
1-
b10 e!
b1 `"
0_!
0?!
1d!
0]"
0x
1r
1X!
0c!
#492000
1"
10
0,
0*
1)
1(
0@
0>
1=
1<
0:
18
02
0o
0n
1k
0j
1h
1g
1d
1`
0]
0[
1V
1U
1T
0Q
1'
0$
0#
0.
1/
0Z"
1["
1P"
1N"
1M"
1K"
1J"
1H"
1E"
1A"
0>"
0<"
17"
16"
15"
02"
0["
b11010 u
b10001110011010 t
0U!
0Q!
1P!
1O!
1N!
0H!
0[!
0E!
b0 ^!
0O
0N
0M
0L
0J
0C
0A
0P"
1L"
0K"
0J"
1I"
1D"
1B"
1S"
1R"
1v
1Y"
#494000
0!
0-
#504000
0"
#506000
1!
1-
1_!
1?!
b10001110011010 ^!
1O
1M
1L
1I
1H
1G
1C
1c!
1P"
1O"
0L"
1J"
1G"
1F"
0E"
0D"
b1 e!
0d!
0r
0X!
#516000
1"
#518000
0!
0-
#528000
0"
#530000
1!
1-
0_!
0?!
0c!
#540000
1"
0)
0=
1;
1:
08
07
16
14
03
12
11
1p
1o
1n
0l
0k
1i
0h
0g
1f
0d
1b
0`
1_
1^
1\
1W
1S
1Q
0'
0&
0%
1$
1#
0/
1Q"
0P"
0N"
1L"
1K"
0I"
0H"
0G"
0F"
1C"
0A"
1@"
1?"
1="
18"
14"
12"
b11000 u
b1110010010001111 t
1W!
1U!
0S!
0O!
0N!
1M!
1I!
1H!
0\!
0F!
b0 ^!
0O
0M
0L
0I
0H
0G
0C
1P"
1N"
0M"
0L"
0K"
1G"
1D"
0S"
0R"
0v
0Y"
#542000
0!
0-
#552000
0"
#554000
1!
1-
#564000
1"
#566000
0!
0-
#576000
0"
#578000
1!
1-
#588000
1"
0+
1*
0?
1>
0;
18
06
15
04
02
01
0p
0o
0n
1l
1k
1j
1h
1e
0c
0_
0^
1]
1[
0V
0U
0S
1&
1%
0$
0Q"
0P"
0O"
1M"
1L"
1K"
1I"
1F"
0D"
0@"
0?"
1>"
1<"
07"
06"
04"
#590000
0!
0-
#600000
0"
#602000
1!
1-
#612000
1"
#614000
0!
0-
#624000
0"
#626000
1!
1-
#636000
1"
00
1+
0*
0(
1?
0>
0<
0:
08
16
05
14
13
0l
0i
0f
0e
0a
1`
1_
1^
0]
0[
0Z
1Y
0W
0R
0Q
0&
0%
1$
0#
1.
1/
0M"
0J"
0G"
0F"
0B"
1A"
1@"
1?"
0>"
0<"
0;"
1:"
08"
03"
02"
1Z"
b10 u
b11010010000010 t
0W!
0U!
0T!
1K!
0I!
0H!
1\!
0Z!
0Y!
1F!
0D!
0C!
b10 `"
1S"
b10 e!
1]"
1R"
1d!
1r
1v
1x
1X!
1Y"
b10000 `"
0]"
0x
#638000
0!
0-
#648000
0"
#650000
1!
1-
1_!
b1 `"
1?!
b11010010000010 ^!
1O
1I
1F
1D
1C
1c!
1P"
1O"
0N"
1J"
0I"
1G"
1F"
0C"
b1 e!
0d!
0r
0X!
#660000
1"
#662000
0!
0-
#672000
0"
#674000
1!
1-
b10 e!
b10 `"
0_!
0?!
1d!
1]"
1x
1r
1X!
0c!
#684000
1"
1,
1*
1)
1(
1@
1>
1=
1<
1;
1:
09
18
15
04
03
11
1p
1l
0k
0j
0h
1g
1e
0b
1a
0`
0^
1]
0\
1Z
0Y
1X
1W
1U
1R
1Q
1%
0/
1Q"
1M"
0L"
0K"
1I"
0F"
1E"
1C"
0A"
0?"
1>"
0="
1;"
0:"
19"
18"
16"
13"
12"
b1100 u
b1000101000011001 t
1W!
0V!
1T!
1S!
0P!
1N!
0M!
1L!
0K!
0J!
1H!
0\!
1[!
1Z!
0F!
1E!
1D!
b0 ^!
0O
0I
0F
0D
0C
0P"
0O"
1N"
0J"
0I"
1H"
0G"
1F"
0E"
0C"
1B"
0S"
0R"
0v
0Y"
b1 `"
0]"
0x
#686000
0!
0-
#696000
0"
#698000
1!
1-
1_!
b10 `"
1?!
b1000101000011001 ^!
1]"
1x
1P
1M
1L
1G
1E
1A
1c!
0Q"
0N"
0M"
0H"
0F"
0B"
b1 e!
0d!
0r
0X!
#708000
1"
#710000
0!
0-
#720000
0"
#722000
1!
1-
b10 e!
b1 `"
0_!
0?!
1d!
0]"
0x
1r
1X!
0c!
#732000
1"
0*
0)
0(
0>
0=
0<
0;
08
12
01
1o
1n
0m
0l
1k
1i
0g
1d
1b
1[
1Y
0X
0U
1S
1'
1&
0%
1/
1P"
1O"
1N"
1J"
1H"
1G"
1F"
1C"
1<"
1:"
09"
06"
14"
b11 u
b100110001000011 t
1V!
0T!
0S!
1Q!
0N!
1M!
1I!
0H!
1]!
1\!
0[!
0Z!
1G!
1F!
0E!
0D!
b0 ^!
0P
0M
0L
0G
0E
0A
1Q"
0N"
1L"
0H"
0G"
1E"
1B"
#734000
0!
0-
#744000
0"
#746000
1!
1-
1_!
b10 `"
1?!
b100110001000011 ^!
1]"
1x
1P
1O
1J
1F
1E
1B
1c!
0Q"
0P"
1K"
0J"
1G"
0E"
0C"
b1 e!
0d!
0r
0X!
#756000
1"
#758000
0!
0-
#768000
0"
#770000
1!
1-
b10 e!
b1 `"
0_!
0?!
1d!
0]"
0x
1r
1X!
0c!
#780000
1"
0,
1*
1(
0@
1>
1<
18
17
05
14
0k
1j
0i
0e
0d
1c
0b
1`
0_
1\
0[
0Z
0Y
1X
0Q
0'
0&
1%
0$
0/
0L"
0K"
0F"
1E"
1C"
0B"
1A"
0@"
1="
0<"
0;"
0:"
19"
02"
b100 u
b1010000001000111 t
1U!
0M!
0L!
1J!
0I!
1H!
0]!
0\!
1[!
0G!
0F!
1E!
b0 ^!
0P
0O
0J
0F
0E
0B
1Q"
1P"
1K"
0G"
0E"
1D"
0C"
1B"
1S"
1R"
1v
1Y"
b10 `"
1]"
1x
#782000
0!
0-
#792000
0"
#794000
1!
1-
1_!
b10000 `"
1?!
b1010000001000111 ^!
0]"
0x
1P
1O
1N
1J
1C
1A
1c!
0Q"
0P"
0O"
0K"
0D"
0B"
b1 e!
0d!
0r
0X!
#804000
1"
#806000
0!
0-
#816000
0"
#818000
1!
1-
b10 e!
b1 `"
0_!
0?!
1d!
1r
1X!
0c!
#828000
1"
10
1)
1=
08
11
0n
1m
1l
0j
1h
1f
1e
1d
1b
0a
0]
1Z
0X
0W
1U
0T
0S
1'
0.
1/
0Z"
1["
1O"
1M"
1K"
1J"
1G"
1F"
1E"
1C"
1B"
0A"
0>"
1;"
09"
08"
16"
05"
04"
0["
b11110 u
b1101011001011110 t
0W!
1T!
1S!
1N!
1M!
1K!
0J!
1I!
1\!
1Z!
1Y!
1F!
1D!
1C!
b1010000001011110 ^!
0P
1M
1L
1Q"
1N"
1L"
0K"
#830000
0!
0-
#840000
0"
