mem-model-testbench/outputs/top/UPDOWNSTREAM_sim.txt
# vsim seg_work_opt -c -logfile mem-model-testbench/outputs/top/UPDOWNSTREAM_sim.txt -do "run -all; quit" 
# Start time: 12:20:21 on May 26,2022
# //  Questa Sim-64
# //  Version 10.7c linux_x86_64 Aug 17 2018
# //
# //  Copyright 1991-2018 Mentor Graphics Corporation
# //  All Rights Reserved.
# //
# //  QuestaSim and its associated documentation contain trade
# //  secrets and commercial or financial information that are the property of
# //  Mentor Graphics Corporation and are privileged, confidential,
# //  and exempt from disclosure under the Freedom of Information Act,
# //  5 U.S.C. Section 552. Furthermore, this information
# //  is prohibited from disclosure under the Trade Secrets Act,
# //  18 U.S.C. Section 1905.
# //
# Loading sv_std.std
# Loading work.tb_top_UPDOWNSTREAM_sv_unit(fast)
# Loading work.tb_top_UPDOWNSTREAM(fast)
# Loading work.updownstream_if(fast)
# Loading work.cache_def(fast)
# Loading work.top_sv_unit(fast)
# Loading work.top(fast)
# Loading work.dm_cache_fsm_downstream(fast)
# Loading work.dm_cache_tag_downstream(fast)
# Loading work.dm_data_downstream(fast)
# Loading work.downmem_controller(fast)
# Loading work.upstream_processor_top(fast)
# Loading work.dm_mem_upstream(fast)
# Loading work.upstream_processor(fast)
# Loading work.downstream_top(fast)
# Loading work.updownstream_if(fast)
# ** Warning: (vsim-3839) Variable '/tb_top_UPDOWNSTREAM/TOP/CACHEDOWNSTREAM/mem_data_down', driven via a port connection, is multiply driven. See mem_model_bs/shared/top.sv(60).
#    Time: 0 ps  Iteration: 0  Instance: /tb_top_UPDOWNSTREAM/TOP/CACHEDOWNSTREAM/cmem File: mem_model_bs/shared/ramdownstream.sv Line: 268
# ** Warning: (vsim-3839) Variable '/tb_top_UPDOWNSTREAM/TOP/downdatareq.rdindex[3:0]', driven via a port connection, is multiply driven. See mem_model_bs/shared/top.sv(83).
#    Time: 0 ps  Iteration: 0  Instance: /tb_top_UPDOWNSTREAM/TOP File: mem_model_bs/shared/top.sv Line: 103
# ** Warning: (vsim-3839) Variable '/tb_top_UPDOWNSTREAM/TOP/downdatareq.rdindex[9:4]', driven via a port connection, is multiply driven. See mem_model_bs/shared/top.sv(83).
#    Time: 0 ps  Iteration: 0  Instance: /tb_top_UPDOWNSTREAM/TOP File: mem_model_bs/shared/top.sv Line: 101
# ** Warning: (vsim-3839) Variable '/tb_top_UPDOWNSTREAM/TOP/downdatareq.data', driven via a port connection, is multiply driven. See mem_model_bs/shared/top.sv(83).
#    Time: 0 ps  Iteration: 0  Instance: /tb_top_UPDOWNSTREAM/TOP File: mem_model_bs/shared/top.sv Line: 97
# ** Warning: (vsim-3839) Variable '/tb_top_UPDOWNSTREAM/TOP/downdatareq.valid', driven via a port connection, is multiply driven. See mem_model_bs/shared/top.sv(83).
#    Time: 0 ps  Iteration: 0  Instance: /tb_top_UPDOWNSTREAM/TOP File: mem_model_bs/shared/top.sv Line: 96
# run -all
# Loading downstream rom.
# ** Warning: (vsim-PLI-3407) Too many data words read on line 34 of file "mem_model_bs/shared/rom_empty.mem". (Current address [33], address range [0:32])    : mem_model_bs/shared/ramdownstream.sv(26)
#    Time: 0 ps  Iteration: 0  Instance: /tb_top_UPDOWNSTREAM/TOP/CACHEDOWNSTREAM/cdata
# Loading downstream memory.
# ** Warning: (vsim-PLI-3407) Too many data words read on line 123 of file "code/shared/rom_empty.mem". (Current address [122], address range [0:121])    : mem_model_bs/shared/ramdownstream.sv(76)
#    Time: 0 ps  Iteration: 0  Instance: /tb_top_UPDOWNSTREAM/TOP/CACHEDOWNSTREAM/cmem
# Loading upstream memory.
# ** Warning: (vsim-PLI-3407) Too many data words read on line 123 of file "mem_model_bs/shared/rom_trade.mem". (Current address [122], address range [0:121])    : mem_model_bs/shared/ramupstream.sv(33)
#    Time: 0 ps  Iteration: 0  Instance: /tb_top_UPDOWNSTREAM/TOP/UPTOP/MEMUPSTREAM
# --------- [DRIVER] Reset Started ---------
# --------- [DRIVER] Reset Ended ---------
# T=5000 [Generator] starting
# repeat count = 500
# T=5000, [DRIVER] starting ---------
# T=5000, [MONITOR] starting ---------
# T=5000, [SCOREBOARD] starting ---------
# totalsent to upstream 1.
# 
#  T=30000 [MONITOR] transaction information: cpu_client_id = 0xx cpu_amount = 0x0xxxx cpu_new_max = 0xx cpu_go = 0xx exchange_client_id = 0xx exchange_amount = 0xx exchange_go = 0xx 
# 
#  T=70000 [MONITOR] transaction information: cpu_client_id = 0x6 cpu_amount = 0x551 cpu_new_max = 0x1 cpu_go = 0x0 exchange_client_id = 0x1 exchange_amount = 0xc0ce exchange_go = 0x1 
# 
#  T=110000 [MONITOR] transaction information: cpu_client_id = 0x5 cpu_amount = 0xcc6e cpu_new_max = 0x0 cpu_go = 0x1 exchange_client_id = 0xb exchange_amount = 0x2c76 exchange_go = 0x0 
# totalsent to upstream 2.
# 
#  T=150000 [MONITOR] transaction information: cpu_client_id = 0x2 cpu_amount = 0xd6d8 cpu_new_max = 0x1 cpu_go = 0x0 exchange_client_id = 0x11 exchange_amount = 0xf742 exchange_go = 0x1 
# totalsent to upstream 3.
# 
#  T=190000 [MONITOR] transaction information: cpu_client_id = 0x5 cpu_amount = 0x4a34 cpu_new_max = 0x0 cpu_go = 0x1 exchange_client_id = 0x8 exchange_amount = 0xae3b exchange_go = 0x0 
# 
#  T=230000 [MONITOR] transaction information: cpu_client_id = 0x0 cpu_amount = 0xe68d cpu_new_max = 0x1 cpu_go = 0x0 exchange_client_id = 0x9 exchange_amount = 0xa6bb exchange_go = 0x0 
# 
#  T=270000 [MONITOR] transaction information: cpu_client_id = 0x2 cpu_amount = 0xf0db cpu_new_max = 0x1 cpu_go = 0x0 exchange_client_id = 0x1d exchange_amount = 0xf960 exchange_go = 0x1 
# 
#  T=310000 [MONITOR] transaction information: cpu_client_id = 0x3 cpu_amount = 0xa1af cpu_new_max = 0x1 cpu_go = 0x0 exchange_client_id = 0x1b exchange_amount = 0x61ae exchange_go = 0x1 
# 
#  T=350000 [MONITOR] transaction information: cpu_client_id = 0x0 cpu_amount = 0x66ab cpu_new_max = 0x1 cpu_go = 0x0 exchange_client_id = 0x3 exchange_amount = 0xfb62 exchange_go = 0x0 
# 
#  T=390000 [MONITOR] transaction information: cpu_client_id = 0x9 cpu_amount = 0x281f cpu_new_max = 0x1 cpu_go = 0x0 exchange_client_id = 0x13 exchange_amount = 0x4fc8 exchange_go = 0x1 
# 
#  T=430000 [MONITOR] transaction information: cpu_client_id = 0xa cpu_amount = 0xa05e cpu_new_max = 0x0 cpu_go = 0x1 exchange_client_id = 0x5 exchange_amount = 0x3c48 exchange_go = 0x0 
# 
#  T=470000 [MONITOR] transaction information: cpu_client_id = 0x3 cpu_amount = 0xb338 cpu_new_max = 0x1 cpu_go = 0x0 exchange_client_id = 0x19 exchange_amount = 0xa5a5 exchange_go = 0x1 
# 
#  T=510000 [MONITOR] transaction information: cpu_client_id = 0x5 cpu_amount = 0xe48f cpu_new_max = 0x1 cpu_go = 0x0 exchange_client_id = 0x11 exchange_amount = 0xf13e exchange_go = 0x0 
# totalsent to upstream 4.
# 
#  T=550000 [MONITOR] transaction information: cpu_client_id = 0x2 cpu_amount = 0xcdf8 cpu_new_max = 0x1 cpu_go = 0x0 exchange_client_id = 0x1a exchange_amount = 0xf41d exchange_go = 0x0 
# totalsent to upstream 5.
# totalsent to accumulated orders 1.
# 
#  T=590000 [MONITOR] transaction information: cpu_client_id = 0xa cpu_amount = 0x4168 cpu_new_max = 0x0 cpu_go = 0x1 exchange_client_id = 0xb exchange_amount = 0x15aa exchange_go = 0x1 
# 
#  T=630000 [MONITOR] transaction information: cpu_client_id = 0x4 cpu_amount = 0x8a19 cpu_new_max = 0x0 cpu_go = 0x1 exchange_client_id = 0x10 exchange_amount = 0xd90b exchange_go = 0x0 
# 
#  T=670000 [MONITOR] transaction information: cpu_client_id = 0x1 cpu_amount = 0xd8a7 cpu_new_max = 0x0 cpu_go = 0x1 exchange_client_id = 0x1e exchange_amount = 0x8394 exchange_go = 0x1 
# totalsent to upstream 6.
# 
#  T=710000 [MONITOR] transaction information: cpu_client_id = 0x2 cpu_amount = 0xa047 cpu_new_max = 0x0 cpu_go = 0x1 exchange_client_id = 0xc exchange_amount = 0xac3a exchange_go = 0x0 
# 
#  T=750000 [MONITOR] transaction information: cpu_client_id = 0x2 cpu_amount = 0x7d1b cpu_new_max = 0x1 cpu_go = 0x0 exchange_client_id = 0x14 exchange_amount = 0xb720 exchange_go = 0x1 
# 
#  T=790000 [MONITOR] transaction information: cpu_client_id = 0x8 cpu_amount = 0x4f28 cpu_new_max = 0x0 cpu_go = 0x1 exchange_client_id = 0x6 exchange_amount = 0xa2e8 exchange_go = 0x1 
# 
#  T=830000 [MONITOR] transaction information: cpu_client_id = 0x8 cpu_amount = 0xae44 cpu_new_max = 0x1 cpu_go = 0x0 exchange_client_id = 0x14 exchange_amount = 0xc9fd exchange_go = 0x1 
# 
#  T=870000 [MONITOR] transaction information: cpu_client_id = 0x6 cpu_amount = 0xdac3 cpu_new_max = 0x1 cpu_go = 0x0 exchange_client_id = 0x18 exchange_amount = 0xad31 exchange_go = 0x0 
# 
#  T=910000 [MONITOR] transaction information: cpu_client_id = 0xa cpu_amount = 0xd328 cpu_new_max = 0x1 cpu_go = 0x0 exchange_client_id = 0x1d exchange_amount = 0x7625 exchange_go = 0x0 
# 
#  T=950000 [MONITOR] transaction information: cpu_client_id = 0x5 cpu_amount = 0xeb6 cpu_new_max = 0x1 cpu_go = 0x0 exchange_client_id = 0xe exchange_amount = 0x4db0 exchange_go = 0x0 
# 
#  T=990000 [MONITOR] transaction information: cpu_client_id = 0x8 cpu_amount = 0xcd30 cpu_new_max = 0x1 cpu_go = 0x0 exchange_client_id = 0x10 exchange_amount = 0x9d8c exchange_go = 0x0 
# 
#  T=1030000 [MONITOR] transaction information: cpu_client_id = 0x6 cpu_amount = 0x3239 cpu_new_max = 0x0 cpu_go = 0x1 exchange_client_id = 0x6 exchange_amount = 0xd668 exchange_go = 0x1 
# 
#  T=1070000 [MONITOR] transaction information: cpu_client_id = 0x7 cpu_amount = 0xaa92 cpu_new_max = 0x0 cpu_go = 0x1 exchange_client_id = 0x4 exchange_amount = 0x7032 exchange_go = 0x1 
# 
#  T=1110000 [MONITOR] transaction information: cpu_client_id = 0x6 cpu_amount = 0xf44b cpu_new_max = 0x0 cpu_go = 0x1 exchange_client_id = 0x1a exchange_amount = 0x54ae exchange_go = 0x1 
# 
#  T=1150000 [MONITOR] transaction information: cpu_client_id = 0x8 cpu_amount = 0x6c6a cpu_new_max = 0x0 cpu_go = 0x1 exchange_client_id = 0xb exchange_amount = 0x5b6d exchange_go = 0x1 
# 
#  T=1190000 [MONITOR] transaction information: cpu_client_id = 0x8 cpu_amount = 0x8d1 cpu_new_max = 0x1 cpu_go = 0x0 exchange_client_id = 0x17 exchange_amount = 0x3878 exchange_go = 0x1 
# 
#  T=1230000 [MONITOR] transaction information: cpu_client_id = 0x9 cpu_amount = 0x183c cpu_new_max = 0x1 cpu_go = 0x0 exchange_client_id = 0x1 exchange_amount = 0x31f0 exchange_go = 0x1 
# 
#  T=1270000 [MONITOR] transaction information: cpu_client_id = 0x8 cpu_amount = 0xf082 cpu_new_max = 0x0 cpu_go = 0x1 exchange_client_id = 0xf exchange_amount = 0x544f exchange_go = 0x0 
# 
#  T=1310000 [MONITOR] transaction information: cpu_client_id = 0x5 cpu_amount = 0x76 cpu_new_max = 0x1 cpu_go = 0x0 exchange_client_id = 0x18 exchange_amount = 0xb0d1 exchange_go = 0x1 
# 
#  T=1350000 [MONITOR] transaction information: cpu_client_id = 0x2 cpu_amount = 0x30ac cpu_new_max = 0x1 cpu_go = 0x0 exchange_client_id = 0x5 exchange_amount = 0xc3a1 exchange_go = 0x0 
# 
#  T=1390000 [MONITOR] transaction information: cpu_client_id = 0xa cpu_amount = 0x8e9b cpu_new_max = 0x1 cpu_go = 0x0 exchange_client_id = 0xd exchange_amount = 0xb558 exchange_go = 0x1 
# 
#  T=1430000 [MONITOR] transaction information: cpu_client_id = 0x6 cpu_amount = 0x1e98 cpu_new_max = 0x1 cpu_go = 0x0 exchange_client_id = 0x1e exchange_amount = 0xa3a2 exchange_go = 0x1 
# 
#  T=1470000 [MONITOR] transaction information: cpu_client_id = 0x4 cpu_amount = 0x5fd8 cpu_new_max = 0x0 cpu_go = 0x1 exchange_client_id = 0xc exchange_amount = 0xfd95 exchange_go = 0x0 
# 
#  T=1510000 [MONITOR] transaction information: cpu_client_id = 0x0 cpu_amount = 0xa6a6 cpu_new_max = 0x0 cpu_go = 0x1 exchange_client_id = 0x14 exchange_amount = 0x60c3 exchange_go = 0x0 
# 
#  T=1550000 [MONITOR] transaction information: cpu_client_id = 0x2 cpu_amount = 0x5c9d cpu_new_max = 0x0 cpu_go = 0x1 exchange_client_id = 0x2 exchange_amount = 0x3331 exchange_go = 0x0 
# 
#  T=1590000 [MONITOR] transaction information: cpu_client_id = 0x4 cpu_amount = 0x87b8 cpu_new_max = 0x1 cpu_go = 0x0 exchange_client_id = 0xd exchange_amount = 0x9929 exchange_go = 0x0 
# 
#  T=1630000 [MONITOR] transaction information: cpu_client_id = 0x2 cpu_amount = 0x2ff0 cpu_new_max = 0x1 cpu_go = 0x0 exchange_client_id = 0xe exchange_amount = 0x57b6 exchange_go = 0x0 
# 
#  T=1670000 [MONITOR] transaction information: cpu_client_id = 0x1 cpu_amount = 0xf9fe cpu_new_max = 0x0 cpu_go = 0x1 exchange_client_id = 0x1 exchange_amount = 0xfde8 exchange_go = 0x0 
# 
#  T=1710000 [MONITOR] transaction information: cpu_client_id = 0x9 cpu_amount = 0x2712 cpu_new_max = 0x0 cpu_go = 0x1 exchange_client_id = 0xf exchange_amount = 0x632c exchange_go = 0x0 
# 
#  T=1750000 [MONITOR] transaction information: cpu_client_id = 0x5 cpu_amount = 0x3628 cpu_new_max = 0x0 cpu_go = 0x1 exchange_client_id = 0x14 exchange_amount = 0x189c exchange_go = 0x0 
# 
#  T=1790000 [MONITOR] transaction information: cpu_client_id = 0xa cpu_amount = 0xe4a1 cpu_new_max = 0x1 cpu_go = 0x0 exchange_client_id = 0x12 exchange_amount = 0x7b8a exchange_go = 0x1 
# 
#  T=1830000 [MONITOR] transaction information: cpu_client_id = 0x6 cpu_amount = 0xbf03 cpu_new_max = 0x0 cpu_go = 0x1 exchange_client_id = 0xa exchange_amount = 0x39fb exchange_go = 0x1 
# 
#  T=1870000 [MONITOR] transaction information: cpu_client_id = 0x5 cpu_amount = 0x85e8 cpu_new_max = 0x1 cpu_go = 0x0 exchange_client_id = 0x8 exchange_amount = 0xd4fe exchange_go = 0x0 
# 
#  T=1910000 [MONITOR] transaction information: cpu_client_id = 0xa cpu_amount = 0xa727 cpu_new_max = 0x0 cpu_go = 0x1 exchange_client_id = 0x10 exchange_amount = 0xa7b5 exchange_go = 0x1 
# 
#  T=1950000 [MONITOR] transaction information: cpu_client_id = 0x7 cpu_amount = 0xafef cpu_new_max = 0x0 cpu_go = 0x1 exchange_client_id = 0x3 exchange_amount = 0x71c5 exchange_go = 0x0 
# 
#  T=1990000 [MONITOR] transaction information: cpu_client_id = 0x4 cpu_amount = 0xc01d cpu_new_max = 0x0 cpu_go = 0x1 exchange_client_id = 0x1e exchange_amount = 0xef59 exchange_go = 0x0 
# 
#  T=2030000 [MONITOR] transaction information: cpu_client_id = 0x9 cpu_amount = 0x7895 cpu_new_max = 0x0 cpu_go = 0x1 exchange_client_id = 0x1b exchange_amount = 0xf6b5 exchange_go = 0x0 
# 
#  T=2070000 [MONITOR] transaction information: cpu_client_id = 0x6 cpu_amount = 0xe414 cpu_new_max = 0x1 cpu_go = 0x0 exchange_client_id = 0xa exchange_amount = 0x63f5 exchange_go = 0x1 
# 
#  T=2110000 [MONITOR] transaction information: cpu_client_id = 0x0 cpu_amount = 0x4147 cpu_new_max = 0x0 cpu_go = 0x1 exchange_client_id = 0x5 exchange_amount = 0x1363 exchange_go = 0x1 
# 
#  T=2150000 [MONITOR] transaction information: cpu_client_id = 0x8 cpu_amount = 0x96ad cpu_new_max = 0x0 cpu_go = 0x1 exchange_client_id = 0xa exchange_amount = 0x7042 exchange_go = 0x1 
# 
#  T=2190000 [MONITOR] transaction information: cpu_client_id = 0x3 cpu_amount = 0x2b08 cpu_new_max = 0x0 cpu_go = 0x1 exchange_client_id = 0x16 exchange_amount = 0xf357 exchange_go = 0x1 
# 
#  T=2230000 [MONITOR] transaction information: cpu_client_id = 0x0 cpu_amount = 0x24aa cpu_new_max = 0x1 cpu_go = 0x0 exchange_client_id = 0xb exchange_amount = 0xe41b exchange_go = 0x1 
# 
#  T=2270000 [MONITOR] transaction information: cpu_client_id = 0x9 cpu_amount = 0xed6b cpu_new_max = 0x0 cpu_go = 0x1 exchange_client_id = 0x0 exchange_amount = 0xc134 exchange_go = 0x0 
# 
#  T=2310000 [MONITOR] transaction information: cpu_client_id = 0x0 cpu_amount = 0x42f3 cpu_new_max = 0x0 cpu_go = 0x1 exchange_client_id = 0xf exchange_amount = 0x57d5 exchange_go = 0x1 
# 
#  T=2350000 [MONITOR] transaction information: cpu_client_id = 0x0 cpu_amount = 0xfa0c cpu_new_max = 0x1 cpu_go = 0x0 exchange_client_id = 0x1b exchange_amount = 0xb3fa exchange_go = 0x0 
# 
#  T=2390000 [MONITOR] transaction information: cpu_client_id = 0x4 cpu_amount = 0xae40 cpu_new_max = 0x1 cpu_go = 0x0 exchange_client_id = 0xe exchange_amount = 0xf10f exchange_go = 0x0 
# 
#  T=2430000 [MONITOR] transaction information: cpu_client_id = 0x0 cpu_amount = 0xf248 cpu_new_max = 0x0 cpu_go = 0x1 exchange_client_id = 0x9 exchange_amount = 0x5d30 exchange_go = 0x0 
# 
#  T=2470000 [MONITOR] transaction information: cpu_client_id = 0x0 cpu_amount = 0x3b34 cpu_new_max = 0x0 cpu_go = 0x1 exchange_client_id = 0x14 exchange_amount = 0x99fa exchange_go = 0x0 
# 
#  T=2510000 [MONITOR] transaction information: cpu_client_id = 0x4 cpu_amount = 0x3843 cpu_new_max = 0x1 cpu_go = 0x0 exchange_client_id = 0x1a exchange_amount = 0xb47d exchange_go = 0x1 
# 
#  T=2550000 [MONITOR] transaction information: cpu_client_id = 0x0 cpu_amount = 0x627c cpu_new_max = 0x0 cpu_go = 0x1 exchange_client_id = 0xa exchange_amount = 0xfc80 exchange_go = 0x0 
# 
#  T=2590000 [MONITOR] transaction information: cpu_client_id = 0x7 cpu_amount = 0x822e cpu_new_max = 0x0 cpu_go = 0x1 exchange_client_id = 0x1c exchange_amount = 0x21a6 exchange_go = 0x0 
# 
#  T=2630000 [MONITOR] transaction information: cpu_client_id = 0x0 cpu_amount = 0xa449 cpu_new_max = 0x0 cpu_go = 0x1 exchange_client_id = 0xb exchange_amount = 0x4cff exchange_go = 0x0 
# 
#  T=2670000 [MONITOR] transaction information: cpu_client_id = 0x4 cpu_amount = 0x5051 cpu_new_max = 0x0 cpu_go = 0x1 exchange_client_id = 0x0 exchange_amount = 0xfedb exchange_go = 0x0 
# 
#  T=2710000 [MONITOR] transaction information: cpu_client_id = 0x5 cpu_amount = 0x95b5 cpu_new_max = 0x0 cpu_go = 0x1 exchange_client_id = 0x6 exchange_amount = 0xe979 exchange_go = 0x1 
# 
#  T=2750000 [MONITOR] transaction information: cpu_client_id = 0xa cpu_amount = 0x528e cpu_new_max = 0x0 cpu_go = 0x1 exchange_client_id = 0x11 exchange_amount = 0x6cde exchange_go = 0x1 
# 
#  T=2790000 [MONITOR] transaction information: cpu_client_id = 0x5 cpu_amount = 0x52e1 cpu_new_max = 0x0 cpu_go = 0x1 exchange_client_id = 0xc exchange_amount = 0xdc5c exchange_go = 0x0 
# 
#  T=2830000 [MONITOR] transaction information: cpu_client_id = 0xa cpu_amount = 0xb6c7 cpu_new_max = 0x0 cpu_go = 0x1 exchange_client_id = 0x1a exchange_amount = 0x4d7b exchange_go = 0x0 
# 
#  T=2870000 [MONITOR] transaction information: cpu_client_id = 0x7 cpu_amount = 0x683 cpu_new_max = 0x0 cpu_go = 0x1 exchange_client_id = 0x6 exchange_amount = 0x2f75 exchange_go = 0x1 
# 
#  T=2910000 [MONITOR] transaction information: cpu_client_id = 0xa cpu_amount = 0xb248 cpu_new_max = 0x1 cpu_go = 0x0 exchange_client_id = 0x3 exchange_amount = 0x438c exchange_go = 0x0 
# 
#  T=2950000 [MONITOR] transaction information: cpu_client_id = 0x9 cpu_amount = 0x9ea0 cpu_new_max = 0x0 cpu_go = 0x1 exchange_client_id = 0x1a exchange_amount = 0xc426 exchange_go = 0x1 
# 
#  T=2990000 [MONITOR] transaction information: cpu_client_id = 0x8 cpu_amount = 0xfed1 cpu_new_max = 0x0 cpu_go = 0x1 exchange_client_id = 0x15 exchange_amount = 0x1b12 exchange_go = 0x0 
# 
#  T=3030000 [MONITOR] transaction information: cpu_client_id = 0x6 cpu_amount = 0x8c90 cpu_new_max = 0x1 cpu_go = 0x0 exchange_client_id = 0x4 exchange_amount = 0x45e0 exchange_go = 0x1 
# 
#  T=3070000 [MONITOR] transaction information: cpu_client_id = 0x1 cpu_amount = 0xe3ae cpu_new_max = 0x1 cpu_go = 0x0 exchange_client_id = 0x1c exchange_amount = 0x44e3 exchange_go = 0x1 
# 
#  T=3110000 [MONITOR] transaction information: cpu_client_id = 0x5 cpu_amount = 0x81d7 cpu_new_max = 0x0 cpu_go = 0x1 exchange_client_id = 0x6 exchange_amount = 0xafb exchange_go = 0x0 
# 
#  T=3150000 [MONITOR] transaction information: cpu_client_id = 0x5 cpu_amount = 0xd302 cpu_new_max = 0x1 cpu_go = 0x0 exchange_client_id = 0x18 exchange_amount = 0x2 exchange_go = 0x0 
# 
#  T=3190000 [MONITOR] transaction information: cpu_client_id = 0x8 cpu_amount = 0x1c57 cpu_new_max = 0x1 cpu_go = 0x0 exchange_client_id = 0xd exchange_amount = 0x691 exchange_go = 0x0 
# 
#  T=3230000 [MONITOR] transaction information: cpu_client_id = 0x2 cpu_amount = 0xf36e cpu_new_max = 0x1 cpu_go = 0x0 exchange_client_id = 0xe exchange_amount = 0xe69b exchange_go = 0x1 
# 
#  T=3270000 [MONITOR] transaction information: cpu_client_id = 0x6 cpu_amount = 0x5538 cpu_new_max = 0x1 cpu_go = 0x0 exchange_client_id = 0x1b exchange_amount = 0x6d46 exchange_go = 0x1 
# 
#  T=3310000 [MONITOR] transaction information: cpu_client_id = 0x1 cpu_amount = 0xbf47 cpu_new_max = 0x0 cpu_go = 0x1 exchange_client_id = 0x16 exchange_amount = 0x7a97 exchange_go = 0x1 
# 
#  T=3350000 [MONITOR] transaction information: cpu_client_id = 0x1 cpu_amount = 0x1336 cpu_new_max = 0x1 cpu_go = 0x0 exchange_client_id = 0xb exchange_amount = 0x5969 exchange_go = 0x0 
# 
#  T=3390000 [MONITOR] transaction information: cpu_client_id = 0x0 cpu_amount = 0xa50a cpu_new_max = 0x1 cpu_go = 0x0 exchange_client_id = 0x10 exchange_amount = 0xe360 exchange_go = 0x1 
# 
#  T=3430000 [MONITOR] transaction information: cpu_client_id = 0x6 cpu_amount = 0x6d4 cpu_new_max = 0x0 cpu_go = 0x1 exchange_client_id = 0x1e exchange_amount = 0xd677 exchange_go = 0x1 
# 
#  T=3470000 [MONITOR] transaction information: cpu_client_id = 0x1 cpu_amount = 0x74d5 cpu_new_max = 0x0 cpu_go = 0x1 exchange_client_id = 0x1e exchange_amount = 0x9aea exchange_go = 0x1 
# 
#  T=3510000 [MONITOR] transaction information: cpu_client_id = 0x1 cpu_amount = 0xe97d cpu_new_max = 0x1 cpu_go = 0x0 exchange_client_id = 0x13 exchange_amount = 0x96a7 exchange_go = 0x1 
# 
#  T=3550000 [MONITOR] transaction information: cpu_client_id = 0x8 cpu_amount = 0x7f87 cpu_new_max = 0x1 cpu_go = 0x0 exchange_client_id = 0x0 exchange_amount = 0xefc5 exchange_go = 0x0 
# 
#  T=3590000 [MONITOR] transaction information: cpu_client_id = 0x2 cpu_amount = 0x2f04 cpu_new_max = 0x1 cpu_go = 0x0 exchange_client_id = 0x1d exchange_amount = 0x2358 exchange_go = 0x1 
# 
#  T=3630000 [MONITOR] transaction information: cpu_client_id = 0x3 cpu_amount = 0xcc4e cpu_new_max = 0x0 cpu_go = 0x1 exchange_client_id = 0x1f exchange_amount = 0x3457 exchange_go = 0x0 
# 
#  T=3670000 [MONITOR] transaction information: cpu_client_id = 0x9 cpu_amount = 0x68a6 cpu_new_max = 0x1 cpu_go = 0x0 exchange_client_id = 0x1c exchange_amount = 0xe551 exchange_go = 0x1 
# 
#  T=3710000 [MONITOR] transaction information: cpu_client_id = 0x4 cpu_amount = 0x84a5 cpu_new_max = 0x1 cpu_go = 0x0 exchange_client_id = 0x1 exchange_amount = 0xc4bc exchange_go = 0x1 
# 
#  T=3750000 [MONITOR] transaction information: cpu_client_id = 0xa cpu_amount = 0xede6 cpu_new_max = 0x1 cpu_go = 0x0 exchange_client_id = 0x16 exchange_amount = 0x6a0b exchange_go = 0x0 
# 
#  T=3790000 [MONITOR] transaction information: cpu_client_id = 0x2 cpu_amount = 0xfc96 cpu_new_max = 0x1 cpu_go = 0x0 exchange_client_id = 0x18 exchange_amount = 0xa136 exchange_go = 0x0 
# 
#  T=3830000 [MONITOR] transaction information: cpu_client_id = 0x3 cpu_amount = 0xc9b4 cpu_new_max = 0x1 cpu_go = 0x0 exchange_client_id = 0x1b exchange_amount = 0xdee exchange_go = 0x1 
# 
#  T=3870000 [MONITOR] transaction information: cpu_client_id = 0x2 cpu_amount = 0xe4b5 cpu_new_max = 0x1 cpu_go = 0x0 exchange_client_id = 0xf exchange_amount = 0x6746 exchange_go = 0x0 
# 
#  T=3910000 [MONITOR] transaction information: cpu_client_id = 0x0 cpu_amount = 0xc843 cpu_new_max = 0x0 cpu_go = 0x1 exchange_client_id = 0x0 exchange_amount = 0x8223 exchange_go = 0x1 
# 
#  T=3950000 [MONITOR] transaction information: cpu_client_id = 0x8 cpu_amount = 0x7c72 cpu_new_max = 0x1 cpu_go = 0x0 exchange_client_id = 0x13 exchange_amount = 0xea67 exchange_go = 0x1 
# 
#  T=3990000 [MONITOR] transaction information: cpu_client_id = 0x3 cpu_amount = 0x5358 cpu_new_max = 0x1 cpu_go = 0x0 exchange_client_id = 0x3 exchange_amount = 0x6fa7 exchange_go = 0x0 
# 
#  T=4030000 [MONITOR] transaction information: cpu_client_id = 0xa cpu_amount = 0xba83 cpu_new_max = 0x1 cpu_go = 0x0 exchange_client_id = 0x12 exchange_amount = 0xf6c5 exchange_go = 0x1 
# 
#  T=4070000 [MONITOR] transaction information: cpu_client_id = 0x7 cpu_amount = 0x593 cpu_new_max = 0x0 cpu_go = 0x1 exchange_client_id = 0x15 exchange_amount = 0xc937 exchange_go = 0x0 
# 
#  T=4110000 [MONITOR] transaction information: cpu_client_id = 0x0 cpu_amount = 0xd346 cpu_new_max = 0x0 cpu_go = 0x1 exchange_client_id = 0x2 exchange_amount = 0x91d2 exchange_go = 0x1 
# 
#  T=4150000 [MONITOR] transaction information: cpu_client_id = 0x0 cpu_amount = 0x241a cpu_new_max = 0x1 cpu_go = 0x0 exchange_client_id = 0x1f exchange_amount = 0x307e exchange_go = 0x1 
# 
#  T=4190000 [MONITOR] transaction information: cpu_client_id = 0xa cpu_amount = 0xb74a cpu_new_max = 0x1 cpu_go = 0x0 exchange_client_id = 0x17 exchange_amount = 0x765b exchange_go = 0x1 
# 
#  T=4230000 [MONITOR] transaction information: cpu_client_id = 0x9 cpu_amount = 0xaf80 cpu_new_max = 0x0 cpu_go = 0x1 exchange_client_id = 0x15 exchange_amount = 0x18de exchange_go = 0x0 
# 
#  T=4270000 [MONITOR] transaction information: cpu_client_id = 0x8 cpu_amount = 0x5872 cpu_new_max = 0x1 cpu_go = 0x0 exchange_client_id = 0x4 exchange_amount = 0x22a6 exchange_go = 0x0 
# 
#  T=4310000 [MONITOR] transaction information: cpu_client_id = 0x8 cpu_amount = 0xdb9 cpu_new_max = 0x0 cpu_go = 0x1 exchange_client_id = 0x10 exchange_amount = 0x9ae6 exchange_go = 0x1 
# 
#  T=4350000 [MONITOR] transaction information: cpu_client_id = 0x2 cpu_amount = 0x3340 cpu_new_max = 0x0 cpu_go = 0x1 exchange_client_id = 0xb exchange_amount = 0xd484 exchange_go = 0x1 
# 
#  T=4390000 [MONITOR] transaction information: cpu_client_id = 0x0 cpu_amount = 0x9f13 cpu_new_max = 0x1 cpu_go = 0x0 exchange_client_id = 0x3 exchange_amount = 0x9d42 exchange_go = 0x1 
# 
#  T=4430000 [MONITOR] transaction information: cpu_client_id = 0x9 cpu_amount = 0x215a cpu_new_max = 0x1 cpu_go = 0x0 exchange_client_id = 0xc exchange_amount = 0xb5c3 exchange_go = 0x0 
# 
#  T=4470000 [MONITOR] transaction information: cpu_client_id = 0x7 cpu_amount = 0x98de cpu_new_max = 0x1 cpu_go = 0x0 exchange_client_id = 0x1e exchange_amount = 0x507e exchange_go = 0x1 
# 
#  T=4510000 [MONITOR] transaction information: cpu_client_id = 0x0 cpu_amount = 0xd02c cpu_new_max = 0x1 cpu_go = 0x0 exchange_client_id = 0x10 exchange_amount = 0xd4ce exchange_go = 0x0 
# 
#  T=4550000 [MONITOR] transaction information: cpu_client_id = 0x2 cpu_amount = 0xe8f8 cpu_new_max = 0x1 cpu_go = 0x0 exchange_client_id = 0x1f exchange_amount = 0x14e7 exchange_go = 0x0 
# 
#  T=4590000 [MONITOR] transaction information: cpu_client_id = 0x4 cpu_amount = 0x8ea4 cpu_new_max = 0x1 cpu_go = 0x0 exchange_client_id = 0x15 exchange_amount = 0x997b exchange_go = 0x1 
# 
