Documentation/models/unclockedmemory/dump.vcd
$date
	Sat Mar 12 09:00:31 2022
$end
$version
	QuestaSim Version 10.7c
$end
$timescale
	1ps
$end

$scope module tb_top_UPDOWNSTREAM $end
$var reg 1 ! clk $end
$var reg 1 " slowclk $end

$scope module TOP $end
$var wire 1 # cpu_client_id [4] $end
$var wire 1 $ cpu_client_id [3] $end
$var wire 1 % cpu_client_id [2] $end
$var wire 1 & cpu_client_id [1] $end
$var wire 1 ' cpu_client_id [0] $end
$var wire 1 ( exchange_client_id [4] $end
$var wire 1 ) exchange_client_id [3] $end
$var wire 1 * exchange_client_id [2] $end
$var wire 1 + exchange_client_id [1] $end
$var wire 1 , exchange_client_id [0] $end
$var wire 1 - clk $end
$var wire 1 . cpu_go $end
$var wire 1 / HRESETn $end
$var wire 1 0 exchange_go $end
$var wire 1 1 cpu_new_max $end
$var wire 1 2 exchange_amount [15] $end
$var wire 1 3 exchange_amount [14] $end
$var wire 1 4 exchange_amount [13] $end
$var wire 1 5 exchange_amount [12] $end
$var wire 1 6 exchange_amount [11] $end
$var wire 1 7 exchange_amount [10] $end
$var wire 1 8 exchange_amount [9] $end
$var wire 1 9 exchange_amount [8] $end
$var wire 1 : exchange_amount [7] $end
$var wire 1 ; exchange_amount [6] $end
$var wire 1 < exchange_amount [5] $end
$var wire 1 = exchange_amount [4] $end
$var wire 1 > exchange_amount [3] $end
$var wire 1 ? exchange_amount [2] $end
$var wire 1 @ exchange_amount [1] $end
$var wire 1 A exchange_amount [0] $end
$var wire 1 B cancelled_orders [15] $end
$var wire 1 C cancelled_orders [14] $end
$var wire 1 D cancelled_orders [13] $end
$var wire 1 E cancelled_orders [12] $end
$var wire 1 F cancelled_orders [11] $end
$var wire 1 G cancelled_orders [10] $end
$var wire 1 H cancelled_orders [9] $end
$var wire 1 I cancelled_orders [8] $end
$var wire 1 J cancelled_orders [7] $end
$var wire 1 K cancelled_orders [6] $end
$var wire 1 L cancelled_orders [5] $end
$var wire 1 M cancelled_orders [4] $end
$var wire 1 N cancelled_orders [3] $end
$var wire 1 O cancelled_orders [2] $end
$var wire 1 P cancelled_orders [1] $end
$var wire 1 Q cancelled_orders [0] $end
$var wire 1 R cpu_amount [31] $end
$var wire 1 S cpu_amount [30] $end
$var wire 1 T cpu_amount [29] $end
$var wire 1 U cpu_amount [28] $end
$var wire 1 V cpu_amount [27] $end
$var wire 1 W cpu_amount [26] $end
$var wire 1 X cpu_amount [25] $end
$var wire 1 Y cpu_amount [24] $end
$var wire 1 Z cpu_amount [23] $end
$var wire 1 [ cpu_amount [22] $end
$var wire 1 \ cpu_amount [21] $end
$var wire 1 ] cpu_amount [20] $end
$var wire 1 ^ cpu_amount [19] $end
$var wire 1 _ cpu_amount [18] $end
$var wire 1 ` cpu_amount [17] $end
$var wire 1 a cpu_amount [16] $end
$var wire 1 b cpu_amount [15] $end
$var wire 1 c cpu_amount [14] $end
$var wire 1 d cpu_amount [13] $end
$var wire 1 e cpu_amount [12] $end
$var wire 1 f cpu_amount [11] $end
$var wire 1 g cpu_amount [10] $end
$var wire 1 h cpu_amount [9] $end
$var wire 1 i cpu_amount [8] $end
$var wire 1 j cpu_amount [7] $end
$var wire 1 k cpu_amount [6] $end
$var wire 1 l cpu_amount [5] $end
$var wire 1 m cpu_amount [4] $end
$var wire 1 n cpu_amount [3] $end
$var wire 1 o cpu_amount [2] $end
$var wire 1 p cpu_amount [1] $end
$var wire 1 q cpu_amount [0] $end

$scope fork downdatareq $end
$var reg 10 r index [9:0] $end
$var reg 1 s we $end
$upscope $end

$scope fork updatareq $end
$var reg 10 t index [9:0] $end
$var reg 1 u we $end
$upscope $end
$var reg 128 v downdatawrite [127:0] $end
$var reg 128 w downdataread [127:0] $end
$var reg 1 x ack $end
$var reg 1 y update_memory $end
$var reg 5 z client_id [4:0] $end
$var reg 10 { upstreamclient_id [9:0] $end
$var reg 1 | pass_checks $end
$var reg 1 } upstream_enable $end
$var reg 1 ~ check_risk $end
$var reg 1 !! send_order $end
$var reg 1 "! update_max $end
$var wire 1 #! accumulated_orders [31] $end
$var wire 1 $! accumulated_orders [30] $end
$var wire 1 %! accumulated_orders [29] $end
$var wire 1 &! accumulated_orders [28] $end
$var wire 1 '! accumulated_orders [27] $end
$var wire 1 (! accumulated_orders [26] $end
$var wire 1 )! accumulated_orders [25] $end
$var wire 1 *! accumulated_orders [24] $end
$var wire 1 +! accumulated_orders [23] $end
$var wire 1 ,! accumulated_orders [22] $end
$var wire 1 -! accumulated_orders [21] $end
$var wire 1 .! accumulated_orders [20] $end
$var wire 1 /! accumulated_orders [19] $end
$var wire 1 0! accumulated_orders [18] $end
$var wire 1 1! accumulated_orders [17] $end
$var wire 1 2! accumulated_orders [16] $end
$var wire 1 3! accumulated_orders [15] $end
$var wire 1 4! accumulated_orders [14] $end
$var wire 1 5! accumulated_orders [13] $end
$var wire 1 6! accumulated_orders [12] $end
$var wire 1 7! accumulated_orders [11] $end
$var wire 1 8! accumulated_orders [10] $end
$var wire 1 9! accumulated_orders [9] $end
$var wire 1 :! accumulated_orders [8] $end
$var wire 1 ;! accumulated_orders [7] $end
$var wire 1 <! accumulated_orders [6] $end
$var wire 1 =! accumulated_orders [5] $end
$var wire 1 >! accumulated_orders [4] $end
$var wire 1 ?! accumulated_orders [3] $end
$var wire 1 @! accumulated_orders [2] $end
$var wire 1 A! accumulated_orders [1] $end
$var wire 1 B! accumulated_orders [0] $end
$var wire 1 C! max_to_trade [31] $end
$var wire 1 D! max_to_trade [30] $end
$var wire 1 E! max_to_trade [29] $end
$var wire 1 F! max_to_trade [28] $end
$var wire 1 G! max_to_trade [27] $end
$var wire 1 H! max_to_trade [26] $end
$var wire 1 I! max_to_trade [25] $end
$var wire 1 J! max_to_trade [24] $end
$var wire 1 K! max_to_trade [23] $end
$var wire 1 L! max_to_trade [22] $end
$var wire 1 M! max_to_trade [21] $end
$var wire 1 N! max_to_trade [20] $end
$var wire 1 O! max_to_trade [19] $end
$var wire 1 P! max_to_trade [18] $end
$var wire 1 Q! max_to_trade [17] $end
$var wire 1 R! max_to_trade [16] $end
$var wire 1 S! max_to_trade [15] $end
$var wire 1 T! max_to_trade [14] $end
$var wire 1 U! max_to_trade [13] $end
$var wire 1 V! max_to_trade [12] $end
$var wire 1 W! max_to_trade [11] $end
$var wire 1 X! max_to_trade [10] $end
$var wire 1 Y! max_to_trade [9] $end
$var wire 1 Z! max_to_trade [8] $end
$var wire 1 [! max_to_trade [7] $end
$var wire 1 \! max_to_trade [6] $end
$var wire 1 ]! max_to_trade [5] $end
$var wire 1 ^! max_to_trade [4] $end
$var wire 1 _! max_to_trade [3] $end
$var wire 1 `! max_to_trade [2] $end
$var wire 1 a! max_to_trade [1] $end
$var wire 1 b! max_to_trade [0] $end
$var reg 112 c! toc [111:0] $end
$var reg 1 d! memwr_up $end

$scope module RAMUPSTREAM $end
$var wire 1 - clk $end
$var wire 1 e! change_max $end

$scope fork data_req $end
$var reg 10 f! index [9:0] $end
$var reg 1 g! we $end
$upscope $end
$var reg 128 h! data_write [127:0] $end
$var wire 1 3! accumulated_orders [15] $end
$var wire 1 4! accumulated_orders [14] $end
$var wire 1 5! accumulated_orders [13] $end
$var wire 1 6! accumulated_orders [12] $end
$var wire 1 7! accumulated_orders [11] $end
$var wire 1 8! accumulated_orders [10] $end
$var wire 1 9! accumulated_orders [9] $end
$var wire 1 :! accumulated_orders [8] $end
$var wire 1 ;! accumulated_orders [7] $end
$var wire 1 <! accumulated_orders [6] $end
$var wire 1 =! accumulated_orders [5] $end
$var wire 1 >! accumulated_orders [4] $end
$var wire 1 ?! accumulated_orders [3] $end
$var wire 1 @! accumulated_orders [2] $end
$var wire 1 A! accumulated_orders [1] $end
$var wire 1 B! accumulated_orders [0] $end
$var wire 1 S! max_to_trade [15] $end
$var wire 1 T! max_to_trade [14] $end
$var wire 1 U! max_to_trade [13] $end
$var wire 1 V! max_to_trade [12] $end
$var wire 1 W! max_to_trade [11] $end
$var wire 1 X! max_to_trade [10] $end
$var wire 1 Y! max_to_trade [9] $end
$var wire 1 Z! max_to_trade [8] $end
$var wire 1 [! max_to_trade [7] $end
$var wire 1 \! max_to_trade [6] $end
$var wire 1 ]! max_to_trade [5] $end
$var wire 1 ^! max_to_trade [4] $end
$var wire 1 _! max_to_trade [3] $end
$var wire 1 `! max_to_trade [2] $end
$var wire 1 a! max_to_trade [1] $end
$var wire 1 b! max_to_trade [0] $end
$upscope $end

$scope module RAMDOWNSTREAM $end
$var wire 1 - clk $end

$scope fork data_req $end
$var reg 10 i! index [9:0] $end
$var reg 1 j! we $end
$upscope $end
$var reg 128 k! data_write [127:0] $end
$var reg 128 l! data_read [127:0] $end
$upscope $end

$scope module SLT $end
$var wire 1 C! A [31] $end
$var wire 1 D! A [30] $end
$var wire 1 E! A [29] $end
$var wire 1 F! A [28] $end
$var wire 1 G! A [27] $end
$var wire 1 H! A [26] $end
$var wire 1 I! A [25] $end
$var wire 1 J! A [24] $end
$var wire 1 K! A [23] $end
$var wire 1 L! A [22] $end
$var wire 1 M! A [21] $end
$var wire 1 N! A [20] $end
$var wire 1 O! A [19] $end
$var wire 1 P! A [18] $end
$var wire 1 Q! A [17] $end
$var wire 1 R! A [16] $end
$var wire 1 S! A [15] $end
$var wire 1 T! A [14] $end
$var wire 1 U! A [13] $end
$var wire 1 V! A [12] $end
$var wire 1 W! A [11] $end
$var wire 1 X! A [10] $end
$var wire 1 Y! A [9] $end
$var wire 1 Z! A [8] $end
$var wire 1 [! A [7] $end
$var wire 1 \! A [6] $end
$var wire 1 ]! A [5] $end
$var wire 1 ^! A [4] $end
$var wire 1 _! A [3] $end
$var wire 1 `! A [2] $end
$var wire 1 a! A [1] $end
$var wire 1 b! A [0] $end
$var wire 1 m! B [31] $end
$var wire 1 n! B [30] $end
$var wire 1 o! B [29] $end
$var wire 1 p! B [28] $end
$var wire 1 q! B [27] $end
$var wire 1 r! B [26] $end
$var wire 1 s! B [25] $end
$var wire 1 t! B [24] $end
$var wire 1 u! B [23] $end
$var wire 1 v! B [22] $end
$var wire 1 w! B [21] $end
$var wire 1 x! B [20] $end
$var wire 1 y! B [19] $end
$var wire 1 z! B [18] $end
$var wire 1 {! B [17] $end
$var wire 1 |! B [16] $end
$var wire 1 }! B [15] $end
$var wire 1 ~! B [14] $end
$var wire 1 !" B [13] $end
$var wire 1 "" B [12] $end
$var wire 1 #" B [11] $end
$var wire 1 $" B [10] $end
$var wire 1 %" B [9] $end
$var wire 1 &" B [8] $end
$var wire 1 '" B [7] $end
$var wire 1 (" B [6] $end
$var wire 1 )" B [5] $end
$var wire 1 *" B [4] $end
$var wire 1 +" B [3] $end
$var wire 1 ," B [2] $end
$var wire 1 -" B [1] $end
$var wire 1 ." B [0] $end
$var wire 1 /" Result $end
$var reg 1 0" sltresult $end
$upscope $end

$scope module UPSTREAMPROCESSOR $end
$var parameter 5 1" IDLE $end
$var parameter 5 2" STATE_RISKCHECK $end
$var parameter 5 3" STATE_SENDORDER $end
$var parameter 5 4" STATE_NEWMAX $end
$var wire 1 - clk $end
$var wire 1 5" risk_ok $end
$var wire 1 6" new_order $end
$var wire 1 1 new_max $end
$var wire 1 7" memwr $end
$var wire 1 / HRESETn $end
$var wire 1 8" check_risk $end
$var wire 1 9" send_order $end
$var wire 1 :" update_max $end
$var reg 5 ;" state [4:0] $end
$upscope $end
$upscope $end
$upscope $end

$scope begin tb_top_UPDOWNSTREAM_sv_unit $end
$upscope $end

$scope begin std $end
$upscope $end

$scope begin cache_def $end
$var parameter 32 <" TAGMSB $end
$var parameter 32 =" TAGLSB $end
$upscope $end

$scope begin top_sv_unit $end
$upscope $end
$enddefinitions $end
#0
$dumpvars
0!
0"
b0 v
b0 w
xx
xy
bx z
bx {
0|
x}
0~
0!!
0"!
b0 c!
xd!
b0 h!
b0 k!
b0 l!
00"
b1 ;"
b0 r
b0 s
b0 t
b0 u
b0 f!
b0 g!
b0 i!
b0 j!
b11111 <"
b1110 ="
b1 1"
b10 2"
b100 3"
b1000 4"
0-
x/
x'
x&
x%
x$
x#
xq
xp
xo
xn
xm
xl
xk
xj
xi
xh
xg
xf
xe
xd
xc
xb
xa
x`
x_
x^
x]
x\
x[
xZ
xY
xX
xW
xV
xU
xT
xS
xR
x.
x1
x,
x+
x*
x)
x(
xA
x@
x?
x>
x=
x<
x;
x:
x9
x8
x7
x6
x5
x4
x3
x2
x0
0Q
0P
0O
0N
0M
0L
0K
0J
0I
0H
0G
0F
0E
0D
0C
0B
0B!
0A!
0@!
0?!
0>!
0=!
0<!
0;!
0:!
09!
08!
07!
06!
05!
04!
03!
z2!
z1!
z0!
z/!
z.!
z-!
z,!
z+!
z*!
z)!
z(!
z'!
z&!
z%!
z$!
z#!
0b!
0a!
0`!
0_!
0^!
0]!
0\!
0[!
0Z!
0Y!
0X!
0W!
0V!
0U!
0T!
0S!
zR!
zQ!
zP!
zO!
zN!
zM!
zL!
zK!
zJ!
zI!
zH!
zG!
zF!
zE!
zD!
zC!
x7"
x6"
05"
x."
x-"
x,"
x+"
x*"
x)"
x("
x'"
x&"
x%"
x$"
x#"
x""
x!"
x~!
x}!
x|!
x{!
xz!
xy!
xx!
xw!
xv!
xu!
xt!
xs!
xr!
xq!
xp!
xo!
xn!
xm!
0e!
0/"
08"
09"
0:"
$end
#2000
1!
1-
#22000
1"
0,
1+
1*
1)
0(
0A
1@
1?
1>
0=
0<
1;
1:
09
08
07
06
05
04
13
12
1q
0p
0o
0n
1m
0l
1k
0j
1i
0h
1g
0f
0e
0d
0c
0b
1a
1`
0_
0^
1]
0\
1[
1Z
0Y
1X
1W
1V
0U
0T
1S
1R
0'
1&
1%
0$
0#
0/
b11001110110100110000010101010001 h!
b1100000011001110 k!
0.
11
10
06"
b1110 r
b1 s
b1110 i!
b1 j!
b1000 ;"
b1 ;"
#24000
0!
0-
#44000
0"
#46000
1!
1-
b1000 ;"
b1 ;"
b1100000011001110 l!
1P
1O
1N
1K
1J
1C
1B
#66000
1"
#68000
0!
0-
#88000
0"
#90000
1!
1-
b1000 ;"
b1 ;"
b11000000110011100 l!
0P
1M
0K
1I
0C
b1 c!
#110000
1"
0)
1(
0>
1=
1<
0:
17
16
14
03
02
0q
1p
1o
1n
0m
1l
0i
1f
1c
1b
0a
1\
0X
0W
0S
0R
1'
0&
b1000111100101100110001101110 h!
b10110001110110 k!
1.
01
00
16"
b101 z
b101 r
b101 t
b1 u
b0 s
b101 f!
b1 g!
b101 i!
b0 j!
b0 l!
0O
0N
0M
0J
0I
0B
b0 c!
b10 ;"
b1 ;"
#112000
0!
0-
#132000
0"
#134000
1!
1-
b10 ;"
b1 ;"
1A!
1@!
1?!
1=!
1<!
18!
17!
14!
13!
#154000
1"
#156000
0!
0-
#176000
0"
#178000
1!
1-
b10 ;"
b1 ;"
0A!
1>!
0=!
1;!
08!
16!
04!
#198000
1"
0*
0(
0?
0=
0<
19
18
06
15
13
12
0p
0o
1m
0l
1j
1h
0f
1e
1^
0[
0Z
1X
1T
1S
1R
0'
1&
0%
1#
b11101010001110101101011011011000 h!
b1111011101000010 k!
0.
11
10
06"
b10 r
b1 s
b10 i!
b1 j!
b1000 ;"
b1 ;"
#200000
0!
0-
#220000
0"
#222000
1!
1-
b1000 ;"
b1 ;"
b1111011101000010 l!
0?!
1=!
0<!
1:!
19!
18!
06!
15!
14!
03!
1P
1K
1I
1H
1G
1E
1D
1C
1B
#242000
1"
#244000
0!
0-
#264000
0"
#266000
1!
1-
b1000 ;"
b1 ;"
b11110111010000100 l!
1?!
0>!
0=!
0:!
07!
05!
0P
1O
0K
1J
0I
1F
0E
b1 c!
#286000
1"
1,
1)
1(
1A
1>
1=
1<
0;
09
16
05
03
1o
0n
1l
0k
0j
0g
1f
0e
0b
1a
1_
1[
1Y
1W
0V
1U
0T
1'
0&
1%
0#
b11010111011111110100101000110100 h!
b1010111000111011 k!
1.
01
00
16"
b101 r
b0 s
b101 i!
b0 j!
b0 l!
0O
0J
0H
0G
0F
0D
0C
0B
b0 c!
b10 ;"
b1 ;"
#288000
0!
0-
#308000
0"
#310000
1!
1-
b10 ;"
b1 ;"
0@!
0?!
1<!
09!
08!
16!
04!
13!
#330000
1"
#332000
0!
0-
#352000
0"
#354000
1!
1-
b10 ;"
b1 ;"
1@!
1>!
1=!
19!
17!
14!
#374000
1"
1:
06
1q
1n
0m
0l
1j
1g
0f
1d
1b
0a
0]
0\
1Z
0W
1V
0R
0'
0%
1#
1/
b1011011110011101110011010001101 h!
b1010011010111011 k!
0.
11
06"
b10000 z
b10000 r
b10000 t
b10000 f!
b10000 i!
0@!
0>!
0=!
0<!
0;!
09!
07!
06!
04!
03!
b1000 ;"
1:"
1"!
1e!
#376000
0!
0-
#396000
0"
#398000
1!
1-
1b!
1`!
1_!
1[!
1Y!
1X!
1U!
1T!
1S!
#418000
1"
#420000
0!
0-
#440000
0"
#442000
1!
1-
#462000
1"
0,
0+
0)
0(
0A
0@
0>
0=
1;
0:
19
08
07
16
15
13
1p
0o
1m
1k
0h
0g
1e
0`
0_
0Z
0Y
0X
1W
0V
1T
1R
1&
0#
b11110100010010001111000011011011 h!
b1111100101100000 k!
10
b0 r
b1 s
b0 i!
b1 j!
#464000
0!
0-
#484000
0"
#486000
1!
1-
b1111100101100000 l!
1L
1K
1I
1F
1E
1D
1C
1B
1a!
0`!
1^!
1\!
0Y!
0X!
1V!
#506000
1"
#508000
0!
0-
#528000
0"
#530000
1!
1-
b11111001011000000 l!
0L
1J
0I
1H
0F
b1 c!
#550000
1"
1+
1*
1)
1@
1?
1>
0;
1:
06
05
02
1o
0m
1l
0k
1i
0e
0c
1_
0^
0[
1Z
1X
0W
1V
0U
0R
1'
1#
b1101010100001001010000110101111 h!
b110000110101110 k!
#552000
0!
0-
#572000
0"
#574000
1!
1-
b100101010001101110 l!
1P
1O
1N
1L
0J
0H
1G
0D
0B
b10 c!
1`!
0^!
1]!
0\!
1Z!
0V!
0T!
#594000
1"
#596000
0!
0-
#616000
0"
#618000
1!
1-
b101011011000011100 l!
0P
1M
0L
0K
1H
1D
0C
1B
#638000
1"
0*
0)
0?
0>
1;
0:
18
16
15
12
0o
0i
1h
1g
1c
0b
1`
0_
1^
1]
1\
1[
0Z
1Y
1U
0T
0S
0'
0&
b11011011110100110011010101011 h!
b1111101101100010 k!
00
b10000 r
b0 s
b10000 i!
b0 j!
b0 l!
0O
0N
0M
0H
0G
0E
0D
0B
b0 c!
#640000
0!
0-
#660000
0"
#662000
1!
1-
0`!
0Z!
1Y!
1X!
1T!
0S!
#682000
1"
#684000
0!
0-
#704000
0"
#706000
1!
1-
#726000
1"
0+
1)
0@
1>
0<
1:
17
05
04
02
1o
1m
0l
0j
0h
0g
1f
0c
1a
1_
0^
0Y
1S
1'
1$
0/
b1011010011101110010100000011111 h!
b100111111001000 k!
10
b1000 r
b1 s
b1000 i!
b1 j!
#728000
0!
0-
#748000
0"
#750000
1!
1-
b1 ;"
b100111111001000 l!
0:"
0"!
1N
1K
1J
1I
1H
1G
1F
1C
0e!
1`!
1^!
0]!
0[!
0Y!
0X!
1W!
0T!
#770000
1"
#772000
0!
0-
#792000
0"
#794000
1!
1-
b1000 ;"
b1 ;"
b1001111110010000 l!
1B!
1A!
1@!
1?!
1>!
17!
15!
0N
1M
0K
1E
0C
1B
#814000
1"
0:
09
08
15
14
03
0q
1k
0f
1b
0a
0`
0_
1^
0]
0X
0V
0U
1R
0'
1&
0#
1/
b11000000011010001010000001011110 h!
b11110001001000 k!
1.
01
00
16"
b1010 z
b1010 r
b1010 t
b0 s
b1010 f!
b1010 i!
b0 j!
b0 l!
0B!
0A!
0@!
0?!
0>!
07!
05!
0M
0J
0I
0H
0G
0F
0E
0B
0b!
0a!
0`!
0_!
0^!
0W!
0U!
b10 ;"
18"
1~
#816000
0!
0-
#836000
0"
#838000
1!
1-
b1 ;"
1A!
1@!
1?!
1>!
1<!
15!
13!
08"
0~
#858000
1"
#860000
0!
0-
#880000
0"
#882000
1!
1-
b10 ;"
18"
0A!
1=!
0<!
1;!
05!
14!
03!
1~
#902000
1"
1,
1*
0)
1A
1?
0>
1<
0;
1:
19
06
05
12
0p
0o
1l
0k
1i
1h
1e
1a
0^
0\
1W
1V
1U
0R
1'
0$
0/
b1011100010000011011001100111000 h!
b1010010110100101 k!
0.
11
10
06"
b101 r
b1 s
b101 i!
b1 j!
b1000 ;"
b1 ;"
08"
0~
#904000
0!
0-
#924000
0"
#926000
1!
1-
b1000 ;"
b1 ;"
b1010010110100101 l!
0?!
1<!
1:!
19!
16!
15!
13!
1Q
1O
1L
1J
1I
1G
1D
1B
#946000
1"
#948000
0!
0-
#968000
0"
#970000
1!
1-
b1000 ;"
b1 ;"
b10100101101001010 l!
1?!
0>!
0<!
0;!
18!
06!
04!
0Q
1P
0O
1N
0L
1K
0J
1H
0G
1F
0D
1C
0B
b1 c!
#990000
1"
0,
1+
1)
1(
0A
1@
1>
1=
0:
07
15
13
1q
1p
1o
0m
0l
1j
0i
0h
1g
0e
1c
0a
1`
1_
1]
1X
1T
1R
0&
1%
1/
b11111110010101101110010010001111 h!
b1111000100111110 k!
00
b101 z
b101 t
b0 s
b0 j!
b101 f!
0?!
1>!
1<!
1;!
0:!
08!
17!
16!
05!
14!
#992000
0!
0-
#1012000
0"
#1014000
1!
1-
b1000 ;"
1B!
1A!
0@!
0>!
0=!
0<!
1:!
18!
15!
04!
1:"
1"!
1e!
#1034000
1"
#1036000
0!
0-
#1056000
0"
#1058000
1!
1-
1b!
1a!
1`!
1_!
1[!
1X!
1U!
1T!
1S!
#1078000
1"
1,
0+
1A
0@
0<
09
17
0q
0p
0o
1m
1l
1k
1i
1f
0d
0`
0_
1^
1\
0W
0V
0T
0'
1&
0%
1#
b11010010011110001100110111111000 h!
b1111010000011101 k!
#1080000
0!
0-
#1100000
0"
#1102000
1!
1-
0b!
0a!
0`!
1^!
1]!
1\!
1Z!
1W!
0U!
#1122000
1"
#1124000
0!
0-
#1144000
0"
#1146000
1!
1-
#1166000
1"
0,
1+
0*
0(
0A
1@
0?
0=
1<
1:
19
04
03
02
0m
0j
0g
0f
0b
1a
1`
1_
0^
0\
0[
1Z
0X
0S
0R
1$
0#
b10000100101110100000101101000 h!
b1010110101010 k!
1.
01
10
16"
b1010 r
b1 s
b1010 i!
b1 j!
b0 l!
0P
0N
0K
0I
0H
0F
0C
b0 c!
#1168000
0!
0-
#1188000
0"
#1190000
1!
1-
b1010110101010 l!
1P
1N
1L
1J
1I
1G
1E
0^!
0[!
0X!
0W!
0S!
#1210000
1"
#1212000
0!
0-
#1232000
0"
#1234000
1!
1-
b10101101010100 l!
0P
1O
0N
1M
0L
1K
0J
1H
0G
1F
0E
1D
#1254000
1"
1,
1A
0<
0:
07
16
13
12
1q
1m
0l
0k
0i
1h
1f
0c
1b
0a
0_
1^
0]
1[
0Z
1Y
1X
1V
1S
1R
0&
1%
0$
b11011011010010101000101000011001 h!
b1101100100001011 k!
00
b100 z
b100 r
b100 t
b0 s
b100 f!
b100 i!
b0 j!
b0 l!
0B!
0A!
0;!
0:!
09!
08!
07!
06!
05!
03!
0O
0M
0K
0I
0H
0F
0D
0_!
0]!
0\!
0Z!
0T!
#1256000
0!
0-
#1276000
0"
#1278000
1!
1-
1b!
1_!
1^!
1Y!
1W!
1S!
#1298000
1"
#1300000
0!
0-
#1320000
0"
#1322000
1!
1-
#1342000
1"
0,
0+
1*
0)
1(
0A
0@
1?
0>
1=
1:
18
06
05
03
1p
1o
0n
0m
1l
1j
0h
1e
1c
1\
1Z
0Y
0V
1T
1'
0%
0/
b11110010111010101101100010100111 h!
b1000001110010100 k!
10
b10100 r
b1 s
b10100 i!
b1 j!
#1344000
0!
0-
#1364000
0"
#1366000
1!
1-
b1 ;"
b1000001110010100 l!
0:"
0"!
1O
1M
1J
1I
1H
1B
0e!
1a!
1`!
0_!
0^!
1]!
1[!
0Y!
1V!
1T!
#1386000
1"
#1388000
0!
0-
#1408000
0"
#1410000
1!
1-
b10 ;"
b1 ;"
b10000011100101000 l!
1B!
1A!
1@!
1=!
1;!
17!
16!
14!
13!
0O
1N
0M
1L
0J
1G
0B
b1 c!
#1430000
1"
1+
0*
1)
1@
0?
1>
1<
0:
09
08
17
16
14
0l
1k
0j
0f
0e
1d
0c
1a
0`
1]
0\
0[
0Z
1Y
0R
0'
1&
1#
1/
b1110011000110011010000001000111 h!
b1010110000111010 k!
00
b10010 z
b10010 r
b10010 t
b0 s
b10010 f!
b10010 i!
b0 j!
b0 l!
0B!
0A!
0@!
0=!
0;!
07!
06!
04!
03!
0N
0L
0I
0H
0G
b0 c!
0b!
0a!
0`!
0]!
0[!
0W!
0V!
0T!
0S!
#1432000
0!
0-
#1452000
0"
#1454000
1!
1-
b10 ;"
1B!
1A!
1@!
1<!
15!
13!
18"
1~
#1474000
1"
#1476000
0!
0-
#1496000
0"
#1498000
1!
1-
b1 ;"
08"
0B!
1?!
0<!
1;!
05!
14!
03!
0~
#1518000
1"
0+
0)
0(
0@
0>
0=
19
18
06
15
0o
1n
1m
0k
1i
1g
1f
1e
1c
0b
0^
1[
0Y
0X
1V
0U
0T
0#
0/
b1001000010100010111110100011011 h!
b1011011100100000 k!
0.
11
10
06"
b0 r
b1 s
b0 i!
b1 j!
b101011011000011100 l!
1O
1N
1M
1H
1G
1E
1D
1B
b10 c!
b1000 ;"
b1 ;"
#1520000
0!
0-
#1540000
0"
#1542000
1!
1-
b1000 ;"
b1 ;"
b110110110100111100 l!
1B!
0A!
0@!
1=!
1:!
18!
17!
16!
15!
04!
13!
1L
1I
0H
1F
0E
1C
0B
b11 c!
#1562000
1"
#1564000
0!
0-
#1584000
0"
#1586000
1!
1-
b1000 ;"
b1 ;"
b1000010010001011100 l!
0B!
1@!
0?!
0=!
1<!
0:!
19!
08!
03!
0L
1K
0I
0F
0C
b100 c!
#1606000
1"
1)
1>
1;
1:
09
07
05
0q
0p
0m
1l
1h
0e
0d
1^
0]
0[
1Y
1X
0V
1T
0S
1R
0&
1$
1/
b10100011000010010100111100101000 h!
b1010001011101000 k!
1.
01
16"
b1000 r
b1000 i!
b1001111110010000 l!
0O
0N
0K
1J
1I
1H
1F
1E
0D
1B
b0 c!
b10 ;"
18"
1~
#1608000
0!
0-
#1628000
0"
#1630000
1!
1-
b1 ;"
b10100001001111000 l!
1?!
1=!
1:!
09!
06!
05!
13!
08"
0~
1N
1L
1K
0J
0I
0G
0F
0E
1C
0B
b1 c!
#1650000
1"
#1652000
0!
0-
#1672000
0"
#1674000
1!
1-
b10 ;"
b11110010101100000 l!
18"
0?!
1>!
0=!
0<!
0;!
16!
14!
1~
0N
0M
1I
0H
1G
1D
1B
#1694000
1"
1,
1*
1(
1A
1?
1=
19
08
16
04
13
1o
0n
0l
1k
0i
1d
0c
1b
0a
1`
1]
1\
0X
1W
1U
0T
1S
1&
1%
1#
b11010101001110101010111001000100 h!
b1100100111111101 k!
0.
11
06"
b11101 r
b11101 i!
b0 l!
0L
0K
0I
0G
0D
0C
0B
b0 c!
b1000 ;"
1:"
08"
0~
1"!
1e!
#1696000
0!
0-
#1716000
0"
#1718000
1!
1-
b1100100111111101 l!
1Q
1O
1N
1M
1L
1K
1J
1I
1F
1C
1B
1`!
1\!
1Y!
1X!
1W!
1U!
1S!
#1738000
1"
#1740000
0!
0-
#1760000
0"
#1762000
1!
1-
b11001001111111010 l!
0Q
1P
0O
1H
0F
1E
0C
b1 c!
#1782000
1"
0*
0)
0?
0>
0;
0:
17
14
03
1q
1p
0o
1j
0g
1e
0d
1c
1_
0^
0]
0\
1[
1Z
0Y
1X
0W
1V
1T
0S
0$
0#
b10111010110001101101101011000011 h!
b1010110100110001 k!
00
b110 z
b110 r
b110 t
b0 s
b110 f!
b110 i!
b0 j!
b0 l!
0@!
0>!
0:!
07!
06!
04!
03!
0P
0N
0M
0L
0K
0J
0I
0H
0E
0B
b0 c!
0`!
0\!
0Y!
0X!
0W!
0U!
0S!
#1784000
0!
0-
#1804000
0"
#1806000
1!
1-
1b!
1a!
1\!
1[!
1Y!
1W!
1V!
1T!
1S!
#1826000
1"
#1828000
0!
0-
#1848000
0"
#1850000
1!
1-
#1870000
1"
1*
0(
1?
0=
09
18
06
15
13
02
0q
0p
1n
1l
0k
0j
1i
0f
1a
0`
0_
0[
0Z
1W
0V
0R
0%
1$
0/
b110110000000011101001100101000 h!
b111011000100101 k!
#1872000
0!
0-
#1892000
0"
#1894000
1!
1-
b1 ;"
0:"
0"!
0e!
0b!
0a!
1_!
1]!
0\!
0[!
1Z!
0W!
#1914000
1"
#1916000
0!
0-
#1936000
0"
#1938000
1!
1-
b1000 ;"
b1 ;"
1?!
1=!
1:!
19!
16!
14!
13!
#1958000
1"
0,
0*
1(
0A
0?
1=
1:
19
08
16
05
04
1p
1o
0n
1m
1j
0i
1g
1f
0e
0c
0b
0a
1`
1_
1^
1Y
0W
0U
1'
0&
1%
0$
1/
b100011000011100000111010110110 h!
b100110110110000 k!
#1960000
0!
0-
#1980000
0"
#1982000
1!
1-
b1000 ;"
1A!
1@!
1>!
0=!
1<!
1;!
09!
06!
15!
1:"
1"!
1e!
#2002000
1"
#2004000
0!
0-
#2024000
0"
#2026000
1!
1-
1a!
1`!
0_!
1^!
1[!
0Z!
1X!
1W!
0V!
0T!
0S!
#2046000
1"
1*
1)
0(
1?
1>
0=
0<
15
03
12
0p
0o
0j
1i
0h
1c
1b
1a
0`
0_
1]
0Y
1V
1U
1S
1&
0%
1$
1#
0/
b1111010000110011100110100110000 h!
b1001110110001100 k!
#2048000
0!
0-
#2068000
0"
