Documentation/models/clockedmemory_reset/testbench/outputs/Module/ramupstreamdump.vcd
$date
	Tue Nov 23 14:37:56 2021
$end
$version
	Icarus Verilog
$end
$timescale
	1s
$end
$scope module test $end
$var wire 32 ! max_to_trade [31:0] $end
$var wire 32 " accumulated_orders [31:0] $end
$var reg 5 # address_read [4:0] $end
$var reg 5 $ address_write [4:0] $end
$var reg 1 % change_max $end
$var reg 1 & clk_read $end
$var reg 1 ' clk_write $end
$var reg 32 ( data_write [31:0] $end
$var reg 1 ) write_enable $end
$upscope $end
$enddefinitions $end
#0
$dumpvars
0)
bx (
0'
0&
0%
b11011 $
b11011 #
bx "
bx !
$end
#10
b0 !
b0 "
1&
#20
b1000 (
1)
0&
#30
1'
#40
0)
0'
#50
b1000 "
1&
#60
b10110100011 (
1%
1)
0&
#70
1'
#80
0%
0)
0'
#90
b10110100011 !
1&
#100
b11 (
1)
0&
#110
1'
#120
0)
0'
#130
b1011 "
1&
