testbench/outputs/downstream/DOWNSTREAM_sim.txt
# vsim seg_work_opt -c -logfile testbench/outputs/downstream/DOWNSTREAM_sim.txt -do "run -all; quit" 
# Start time: 11:13:40 on Mar 11,2022
# //  Questa Sim-64
# //  Version 10.7c linux_x86_64 Aug 17 2018
# //
# //  Copyright 1991-2018 Mentor Graphics Corporation
# //  All Rights Reserved.
# //
# //  QuestaSim and its associated documentation contain trade
# //  secrets and commercial or financial information that are the property of
# //  Mentor Graphics Corporation and are privileged, confidential,
# //  and exempt from disclosure under the Freedom of Information Act,
# //  5 U.S.C. Section 552. Furthermore, this information
# //  is prohibited from disclosure under the Trade Secrets Act,
# //  18 U.S.C. Section 1905.
# //
# Loading sv_std.std
# Loading work.tb_top_DOWNSTREAM_sv_unit(fast)
# Loading work.tb_top_DOWNSTREAM(fast)
# Loading work.dwnstrmproc_if(fast)
# Loading work.cache_def(fast)
# Loading work.downstream_top_sv_unit(fast)
# Loading work.downstream_top(fast)
# Loading work.dm_data_downstream(fast)
# Loading work.dwnstrmproc_if(fast)
# ** Warning: (vsim-3015) [PCDPC] - Port size (128) does not match connection size (112) for port 'data_write'. The port definition is at: code/shared/ramdownstream.sv(12).
#    Time: 0 ps  Iteration: 0  Instance: /tb_top_DOWNSTREAM/DOWNSTREAM/RAMDOWNSTREAM File: code/downstream/downstream_top.sv Line: 26
# ** Warning: (vsim-3015) [PCDPC] - Port size (128) does not match connection size (16) for port 'data_read'. The port definition is at: code/shared/ramdownstream.sv(13).
#    Time: 0 ps  Iteration: 0  Instance: /tb_top_DOWNSTREAM/DOWNSTREAM/RAMDOWNSTREAM File: code/downstream/downstream_top.sv Line: 26
# run -all
# --------- [DRIVER] Reset Started ---------
# --------- [DRIVER] Reset Ended ---------
# T=2000 [Generator] starting
# repeat count = 100
# T=2000, [DRIVER] starting ---------
# T=2000, [MONITOR] starting ---------
# T=2000, [SCOREBOARD] starting ---------
# T=36000 [SCOREBOARD] transaction information: client_id = 0xx amount = 0xx 
# T=36000 [SCOREBOARD] output transaction information: 
# cancelled_orders = 0xx  
# T=84000 [SCOREBOARD] transaction information: client_id = 0xc amount = 0xe7 
# T=84000 [SCOREBOARD] output transaction information: 
# cancelled_orders = 0xe7  
# T=132000 [SCOREBOARD] transaction information: client_id = 0x8 amount = 0x42 
# T=132000 [SCOREBOARD] output transaction information: 
# cancelled_orders = 0x42  
# T=180000 [SCOREBOARD] transaction information: client_id = 0xc amount = 0x38 
# T=180000 [SCOREBOARD] output transaction information: 
# cancelled_orders = 0x206  
# T=228000 [SCOREBOARD] transaction information: client_id = 0xc amount = 0x5b 
# T=228000 [SCOREBOARD] output transaction information: 
# cancelled_orders = 0x299  
# T=276000 [SCOREBOARD] transaction information: client_id = 0x0 amount = 0x79 
# T=276000 [SCOREBOARD] output transaction information: 
# cancelled_orders = 0x79  
# T=324000 [SCOREBOARD] transaction information: client_id = 0xc amount = 0x48 
# T=324000 [SCOREBOARD] output transaction information: 
# cancelled_orders = 0x33c  
# T=372000 [SCOREBOARD] transaction information: client_id = 0x0 amount = 0x4 
# T=372000 [SCOREBOARD] output transaction information: 
# cancelled_orders = 0xf6  
# T=420000 [SCOREBOARD] transaction information: client_id = 0xc amount = 0x8c 
# T=420000 [SCOREBOARD] output transaction information: 
# cancelled_orders = 0x410  
# T=468000 [SCOREBOARD] transaction information: client_id = 0xc amount = 0xb9 
# T=468000 [SCOREBOARD] output transaction information: 
# cancelled_orders = 0x555  
# T=516000 [SCOREBOARD] transaction information: client_id = 0x4 amount = 0x20 
# T=516000 [SCOREBOARD] output transaction information: 
# cancelled_orders = 0x20  
# T=564000 [SCOREBOARD] transaction information: client_id = 0xc amount = 0xf9 
# T=564000 [SCOREBOARD] output transaction information: 
# cancelled_orders = 0x707  
# T=612000 [SCOREBOARD] transaction information: client_id = 0xc amount = 0xa3 
# T=612000 [SCOREBOARD] output transaction information: 
# cancelled_orders = 0x8a3  
# T=660000 [SCOREBOARD] transaction information: client_id = 0x8 amount = 0x82 
# T=660000 [SCOREBOARD] output transaction information: 
# cancelled_orders = 0x106  
# T=708000 [SCOREBOARD] transaction information: client_id = 0x4 amount = 0x43 
# T=708000 [SCOREBOARD] output transaction information: 
# cancelled_orders = 0x83  
# T=756000 [SCOREBOARD] transaction information: client_id = 0x0 amount = 0xde 
# T=756000 [SCOREBOARD] output transaction information: 
# cancelled_orders = 0x1d8  
# T=804000 [SCOREBOARD] transaction information: client_id = 0x14 amount = 0xff 
# T=804000 [SCOREBOARD] output transaction information: 
# cancelled_orders = 0xff  
# T=852000 [SCOREBOARD] transaction information: client_id = 0x4 amount = 0xb4 
# T=852000 [SCOREBOARD] output transaction information: 
# cancelled_orders = 0x17a  
# T=900000 [SCOREBOARD] transaction information: client_id = 0x0 amount = 0x9c 
# T=900000 [SCOREBOARD] output transaction information: 
# cancelled_orders = 0x352  
# T=948000 [SCOREBOARD] transaction information: client_id = 0x0 amount = 0x63 
# T=948000 [SCOREBOARD] output transaction information: 
# cancelled_orders = 0x451  
# T=996000 [SCOREBOARD] transaction information: client_id = 0x14 amount = 0xf 
# T=996000 [SCOREBOARD] output transaction information: 
# cancelled_orders = 0x20d  
# T=1044000 [SCOREBOARD] transaction information: client_id = 0xc amount = 0xa1 
# T=1044000 [SCOREBOARD] output transaction information: 
# cancelled_orders = 0x9e7  
# T=1092000 [SCOREBOARD] transaction information: client_id = 0x14 amount = 0xac 
# T=1092000 [SCOREBOARD] output transaction information: 
# cancelled_orders = 0x2c8  
# T=1140000 [SCOREBOARD] transaction information: client_id = 0x14 amount = 0x5c 
# T=1140000 [SCOREBOARD] output transaction information: 
# cancelled_orders = 0x3d0  
# T=1188000 [SCOREBOARD] transaction information: client_id = 0xc amount = 0x5a 
# T=1188000 [SCOREBOARD] output transaction information: 
# cancelled_orders = 0xae2  
# T=1236000 [SCOREBOARD] transaction information: client_id = 0x8 amount = 0x74 
# T=1236000 [SCOREBOARD] output transaction information: 
# cancelled_orders = 0x1fc  
# T=1284000 [SCOREBOARD] transaction information: client_id = 0xc amount = 0x76 
# T=1284000 [SCOREBOARD] output transaction information: 
# cancelled_orders = 0xbb2  
# T=1332000 [SCOREBOARD] transaction information: client_id = 0x0 amount = 0xab 
# T=1332000 [SCOREBOARD] output transaction information: 
# cancelled_orders = 0x55f  
# T=1380000 [SCOREBOARD] transaction information: client_id = 0x14 amount = 0xad 
# T=1380000 [SCOREBOARD] output transaction information: 
# cancelled_orders = 0x4d9  
# T=1428000 [SCOREBOARD] transaction information: client_id = 0xc amount = 0x29 
# T=1428000 [SCOREBOARD] output transaction information: 
# cancelled_orders = 0xc51  
# T=1476000 [SCOREBOARD] transaction information: client_id = 0xc amount = 0x21 
# T=1476000 [SCOREBOARD] output transaction information: 
# cancelled_orders = 0xc9b  
# T=1524000 [SCOREBOARD] transaction information: client_id = 0x0 amount = 0xc2 
# T=1524000 [SCOREBOARD] output transaction information: 
# cancelled_orders = 0x6cc  
# T=1572000 [SCOREBOARD] transaction information: client_id = 0xc amount = 0xf9 
# T=1572000 [SCOREBOARD] output transaction information: 
# cancelled_orders = 0xdb5  
# T=1620000 [SCOREBOARD] transaction information: client_id = 0x14 amount = 0x53 
# T=1620000 [SCOREBOARD] output transaction information: 
# cancelled_orders = 0x5d9  
# T=1668000 [SCOREBOARD] transaction information: client_id = 0x4 amount = 0xae 
# T=1668000 [SCOREBOARD] output transaction information: 
# cancelled_orders = 0x2dc  
# T=1716000 [SCOREBOARD] transaction information: client_id = 0x0 amount = 0xcf 
# T=1716000 [SCOREBOARD] output transaction information: 
# cancelled_orders = 0x85d  
# T=1764000 [SCOREBOARD] transaction information: client_id = 0x14 amount = 0xf 
# T=1764000 [SCOREBOARD] output transaction information: 
# cancelled_orders = 0x63b  
# T=1812000 [SCOREBOARD] transaction information: client_id = 0x4 amount = 0xdb 
# T=1812000 [SCOREBOARD] output transaction information: 
# cancelled_orders = 0x465  
# T=1860000 [SCOREBOARD] transaction information: client_id = 0x8 amount = 0x73 
# T=1860000 [SCOREBOARD] output transaction information: 
# cancelled_orders = 0x2e3  
# T=1908000 [SCOREBOARD] transaction information: client_id = 0x14 amount = 0x66 
# T=1908000 [SCOREBOARD] output transaction information: 
# cancelled_orders = 0x6b0  
# T=1956000 [SCOREBOARD] transaction information: client_id = 0xc amount = 0xad 
# T=1956000 [SCOREBOARD] output transaction information: 
# cancelled_orders = 0xf5b  
# T=2004000 [SCOREBOARD] transaction information: client_id = 0xc amount = 0x50 
# T=2004000 [SCOREBOARD] output transaction information: 
# cancelled_orders = 0x1058  
# T=2052000 [SCOREBOARD] transaction information: client_id = 0x8 amount = 0xd4 
# T=2052000 [SCOREBOARD] output transaction information: 
# cancelled_orders = 0x42a  
# T=2100000 [SCOREBOARD] transaction information: client_id = 0x4 amount = 0xa6 
# T=2100000 [SCOREBOARD] output transaction information: 
# cancelled_orders = 0x5e6  
# T=2148000 [SCOREBOARD] transaction information: client_id = 0x8 amount = 0x3 
# T=2148000 [SCOREBOARD] output transaction information: 
# cancelled_orders = 0x501  
# T=2196000 [SCOREBOARD] transaction information: client_id = 0x8 amount = 0x36 
# T=2196000 [SCOREBOARD] output transaction information: 
# cancelled_orders = 0x53a  
# T=2244000 [SCOREBOARD] transaction information: client_id = 0x4 amount = 0x77 
# T=2244000 [SCOREBOARD] output transaction information: 
# cancelled_orders = 0x703  
# T=2292000 [SCOREBOARD] transaction information: client_id = 0xc amount = 0xda 
# T=2292000 [SCOREBOARD] output transaction information: 
# cancelled_orders = 0x1182  
# T=2340000 [SCOREBOARD] transaction information: client_id = 0x0 amount = 0xb 
# T=2340000 [SCOREBOARD] output transaction information: 
# cancelled_orders = 0x937  
# T=2388000 [SCOREBOARD] transaction information: client_id = 0x4 amount = 0x4b 
# T=2388000 [SCOREBOARD] output transaction information: 
# cancelled_orders = 0x7c5  
# T=2436000 [SCOREBOARD] transaction information: client_id = 0x4 amount = 0xf1 
# T=2436000 [SCOREBOARD] output transaction information: 
# cancelled_orders = 0x901  
# T=2484000 [SCOREBOARD] transaction information: client_id = 0x4 amount = 0x9d 
# T=2484000 [SCOREBOARD] output transaction information: 
# cancelled_orders = 0xa8f  
# T=2532000 [SCOREBOARD] transaction information: client_id = 0xc amount = 0x39 
# T=2532000 [SCOREBOARD] output transaction information: 
# cancelled_orders = 0x1295  
# T=2580000 [SCOREBOARD] transaction information: client_id = 0x0 amount = 0xda 
# T=2580000 [SCOREBOARD] output transaction information: 
# cancelled_orders = 0xa1c  
# T=2628000 [SCOREBOARD] transaction information: client_id = 0x0 amount = 0x5f 
# T=2628000 [SCOREBOARD] output transaction information: 
# cancelled_orders = 0xb55  
# T=2676000 [SCOREBOARD] transaction information: client_id = 0x8 amount = 0xcc 
# T=2676000 [SCOREBOARD] output transaction information: 
# cancelled_orders = 0x63c  
# T=2724000 [SCOREBOARD] transaction information: client_id = 0x8 amount = 0xc9 
# T=2724000 [SCOREBOARD] output transaction information: 
# cancelled_orders = 0x7d1  
# T=2772000 [SCOREBOARD] transaction information: client_id = 0x0 amount = 0xd4 
# T=2772000 [SCOREBOARD] output transaction information: 
# cancelled_orders = 0xc88  
# T=2820000 [SCOREBOARD] transaction information: client_id = 0x0 amount = 0x8f 
# T=2820000 [SCOREBOARD] output transaction information: 
# cancelled_orders = 0xdeb  
# T=2868000 [SCOREBOARD] transaction information: client_id = 0x4 amount = 0xec 
# T=2868000 [SCOREBOARD] output transaction information: 
# cancelled_orders = 0xc18  
# T=2916000 [SCOREBOARD] transaction information: client_id = 0x8 amount = 0x8b 
# T=2916000 [SCOREBOARD] output transaction information: 
# cancelled_orders = 0x925  
# T=2964000 [SCOREBOARD] transaction information: client_id = 0x0 amount = 0x8e 
# T=2964000 [SCOREBOARD] output transaction information: 
# cancelled_orders = 0xf08  
# T=3012000 [SCOREBOARD] transaction information: client_id = 0x4 amount = 0x61 
# T=3012000 [SCOREBOARD] output transaction information: 
# cancelled_orders = 0xd65  
# T=3060000 [SCOREBOARD] transaction information: client_id = 0x8 amount = 0xd0 
# T=3060000 [SCOREBOARD] output transaction information: 
# cancelled_orders = 0xa80  
# T=3108000 [SCOREBOARD] transaction information: client_id = 0xc amount = 0x19 
# T=3108000 [SCOREBOARD] output transaction information: 
# cancelled_orders = 0x12e7  
# T=3156000 [SCOREBOARD] transaction information: client_id = 0xc amount = 0xf0 
# T=3156000 [SCOREBOARD] output transaction information: 
# cancelled_orders = 0x13f0  
# T=3204000 [SCOREBOARD] transaction information: client_id = 0x14 amount = 0x92 
# T=3204000 [SCOREBOARD] output transaction information: 
# cancelled_orders = 0x7a8  
# T=3252000 [SCOREBOARD] transaction information: client_id = 0x4 amount = 0x8d 
# T=3252000 [SCOREBOARD] output transaction information: 
# cancelled_orders = 0xe53  
# T=3300000 [SCOREBOARD] transaction information: client_id = 0x0 amount = 0xb4 
# T=3300000 [SCOREBOARD] output transaction information: 
# cancelled_orders = 0x104a  
# T=3348000 [SCOREBOARD] transaction information: client_id = 0x8 amount = 0x73 
# T=3348000 [SCOREBOARD] output transaction information: 
# cancelled_orders = 0xbc3  
# T=3396000 [SCOREBOARD] transaction information: client_id = 0x8 amount = 0xaf 
# T=3396000 [SCOREBOARD] output transaction information: 
# cancelled_orders = 0xce5  
# T=3444000 [SCOREBOARD] transaction information: client_id = 0xc amount = 0x83 
# T=3444000 [SCOREBOARD] output transaction information: 
# cancelled_orders = 0x1563  
# T=3492000 [SCOREBOARD] transaction information: client_id = 0x4 amount = 0xef 
# T=3492000 [SCOREBOARD] output transaction information: 
# cancelled_orders = 0xfcf  
# T=3540000 [SCOREBOARD] transaction information: client_id = 0x14 amount = 0x8d 
# T=3540000 [SCOREBOARD] output transaction information: 
# cancelled_orders = 0x8c7  
# T=3588000 [SCOREBOARD] transaction information: client_id = 0x0 amount = 0x2 
# T=3588000 [SCOREBOARD] output transaction information: 
# cancelled_orders = 0x1100  
# T=3636000 [SCOREBOARD] transaction information: client_id = 0x4 amount = 0x85 
# T=3636000 [SCOREBOARD] output transaction information: 
# cancelled_orders = 0x1143  
# T=3684000 [SCOREBOARD] transaction information: client_id = 0x4 amount = 0xa 
# T=3684000 [SCOREBOARD] output transaction information: 
# cancelled_orders = 0x11d2  
# T=3732000 [SCOREBOARD] transaction information: client_id = 0x14 amount = 0x85 
# T=3732000 [SCOREBOARD] output transaction information: 
# cancelled_orders = 0x9d9  
# T=3780000 [SCOREBOARD] transaction information: client_id = 0x14 amount = 0xc7 
# T=3780000 [SCOREBOARD] output transaction information: 
# cancelled_orders = 0xb25  
# T=3828000 [SCOREBOARD] transaction information: client_id = 0x4 amount = 0x7b 
# T=3828000 [SCOREBOARD] output transaction information: 
# cancelled_orders = 0x1257  
# T=3876000 [SCOREBOARD] transaction information: client_id = 0x0 amount = 0x71 
# T=3876000 [SCOREBOARD] output transaction information: 
# cancelled_orders = 0x1173  
# T=3924000 [SCOREBOARD] transaction information: client_id = 0x8 amount = 0xfc 
# T=3924000 [SCOREBOARD] output transaction information: 
# cancelled_orders = 0xe90  
# T=3972000 [SCOREBOARD] transaction information: client_id = 0xc amount = 0x8f 
# T=3972000 [SCOREBOARD] output transaction information: 
# cancelled_orders = 0x1675  
# T=4020000 [SCOREBOARD] transaction information: client_id = 0x4 amount = 0x28 
# T=4020000 [SCOREBOARD] output transaction information: 
# cancelled_orders = 0x12fa  
# T=4068000 [SCOREBOARD] transaction information: client_id = 0x4 amount = 0xbb 
# T=4068000 [SCOREBOARD] output transaction information: 
# cancelled_orders = 0x13dd  
# T=4116000 [SCOREBOARD] transaction information: client_id = 0xc amount = 0x2 
# T=4116000 [SCOREBOARD] output transaction information: 
# cancelled_orders = 0x1706  
# T=4164000 [SCOREBOARD] transaction information: client_id = 0x8 amount = 0x51 
# T=4164000 [SCOREBOARD] output transaction information: 
# cancelled_orders = 0xfdd  
# T=4212000 [SCOREBOARD] transaction information: client_id = 0x0 amount = 0x5d 
# T=4212000 [SCOREBOARD] output transaction information: 
# cancelled_orders = 0x1241  
# T=4260000 [SCOREBOARD] transaction information: client_id = 0x14 amount = 0xa7 
# T=4260000 [SCOREBOARD] output transaction information: 
# cancelled_orders = 0xc93  
# T=4308000 [SCOREBOARD] transaction information: client_id = 0xc amount = 0xcd 
# T=4308000 [SCOREBOARD] output transaction information: 
# cancelled_orders = 0x17d5  
# T=4356000 [SCOREBOARD] transaction information: client_id = 0x4 amount = 0x8c 
# T=4356000 [SCOREBOARD] output transaction information: 
# cancelled_orders = 0x1524  
# T=4404000 [SCOREBOARD] transaction information: client_id = 0x8 amount = 0xd 
# T=4404000 [SCOREBOARD] output transaction information: 
# cancelled_orders = 0x103b  
# T=4452000 [SCOREBOARD] transaction information: client_id = 0xc amount = 0x96 
# T=4452000 [SCOREBOARD] output transaction information: 
# cancelled_orders = 0x1938  
# T=4500000 [SCOREBOARD] transaction information: client_id = 0x0 amount = 0xeb 
# T=4500000 [SCOREBOARD] output transaction information: 
# cancelled_orders = 0x1389  
# T=4548000 [SCOREBOARD] transaction information: client_id = 0x14 amount = 0x26 
# T=4548000 [SCOREBOARD] output transaction information: 
# cancelled_orders = 0xd60  
# T=4596000 [SCOREBOARD] transaction information: client_id = 0x4 amount = 0xb5 
# T=4596000 [SCOREBOARD] output transaction information: 
# cancelled_orders = 0x1665  
# T=4644000 [SCOREBOARD] transaction information: client_id = 0x8 amount = 0x5d 
# T=4644000 [SCOREBOARD] output transaction information: 
# cancelled_orders = 0x10a5  
# T=4692000 [SCOREBOARD] transaction information: client_id = 0x4 amount = 0x25 
# T=4692000 [SCOREBOARD] output transaction information: 
# cancelled_orders = 0x173f  
# T=4740000 [SCOREBOARD] transaction information: client_id = 0x8 amount = 0xaa 
# T=4740000 [SCOREBOARD] output transaction information: 
# cancelled_orders = 0x11ac  
# T=4788000 [SCOREBOARD] transaction information: client_id = 0x0 amount = 0x90 
# T=4788000 [SCOREBOARD] output transaction information: 
# cancelled_orders = 0x1504  
# T=4788000 [Generator] Done generation
# Coverage_input = 100.00 %
# Coverage_output = 100.00 %
# ** Note: $stop    : testbench/unit_level/DOWNSTREAM/tb_top_DOWNSTREAM.sv(76)
#    Time: 4808 ns  Iteration: 0  Instance: /tb_top_DOWNSTREAM
# Break in Module tb_top_DOWNSTREAM at testbench/unit_level/DOWNSTREAM/tb_top_DOWNSTREAM.sv line 76
# Stopped at testbench/unit_level/DOWNSTREAM/tb_top_DOWNSTREAM.sv line 76
#  quit
# End time: 11:13:40 on Mar 11,2022, Elapsed time: 0:00:00
# Errors: 0, Warnings: 2
