testbench/tbenchoutputs/downstream/downstreamdump.vcd
$date
	Tue Mar  8 15:20:38 2022
$end
$version
	QuestaSim Version 10.7c
$end
$timescale
	1ps
$end

$scope module tb_top_DOWNSTREAM $end
$var reg 1 ! clk $end

$scope module DOWNSTREAM $end
$var wire 1 " client_id [4] $end
$var wire 1 # client_id [3] $end
$var wire 1 $ client_id [2] $end
$var wire 1 % client_id [1] $end
$var wire 1 & client_id [0] $end
$var wire 1 ' clk $end
$var wire 1 ( amount [15] $end
$var wire 1 ) amount [14] $end
$var wire 1 * amount [13] $end
$var wire 1 + amount [12] $end
$var wire 1 , amount [11] $end
$var wire 1 - amount [10] $end
$var wire 1 . amount [9] $end
$var wire 1 / amount [8] $end
$var wire 1 0 amount [7] $end
$var wire 1 1 amount [6] $end
$var wire 1 2 amount [5] $end
$var wire 1 3 amount [4] $end
$var wire 1 4 amount [3] $end
$var wire 1 5 amount [2] $end
$var wire 1 6 amount [1] $end
$var wire 1 7 amount [0] $end
$var wire 1 8 cancelled_orders [15] $end
$var wire 1 9 cancelled_orders [14] $end
$var wire 1 : cancelled_orders [13] $end
$var wire 1 ; cancelled_orders [12] $end
$var wire 1 < cancelled_orders [11] $end
$var wire 1 = cancelled_orders [10] $end
$var wire 1 > cancelled_orders [9] $end
$var wire 1 ? cancelled_orders [8] $end
$var wire 1 @ cancelled_orders [7] $end
$var wire 1 A cancelled_orders [6] $end
$var wire 1 B cancelled_orders [5] $end
$var wire 1 C cancelled_orders [4] $end
$var wire 1 D cancelled_orders [3] $end
$var wire 1 E cancelled_orders [2] $end
$var wire 1 F cancelled_orders [1] $end
$var wire 1 G cancelled_orders [0] $end
$var reg 1 H ack $end
$var reg 1 I update_memory $end
$var wire 1 J memwr $end

$scope module RAMDOWNSTREAM $end
$var parameter 32 K D_WIDTH $end
$var parameter 32 L A_WIDTH $end
$var parameter 32 M A_MAX $end
$var wire 1 ' clk_write $end
$var wire 1 " downstream_address_write [4] $end
$var wire 1 # downstream_address_write [3] $end
$var wire 1 $ downstream_address_write [2] $end
$var wire 1 % downstream_address_write [1] $end
$var wire 1 & downstream_address_write [0] $end
$var wire 1 N data_write [15] $end
$var wire 1 O data_write [14] $end
$var wire 1 P data_write [13] $end
$var wire 1 Q data_write [12] $end
$var wire 1 R data_write [11] $end
$var wire 1 S data_write [10] $end
$var wire 1 T data_write [9] $end
$var wire 1 U data_write [8] $end
$var wire 1 V data_write [7] $end
$var wire 1 W data_write [6] $end
$var wire 1 X data_write [5] $end
$var wire 1 Y data_write [4] $end
$var wire 1 Z data_write [3] $end
$var wire 1 [ data_write [2] $end
$var wire 1 \ data_write [1] $end
$var wire 1 ] data_write [0] $end
$var wire 1 ^ downstream_write_enable $end
$var wire 1 ' clk_read $end
$var wire 1 " address_read [4] $end
$var wire 1 # address_read [3] $end
$var wire 1 $ address_read [2] $end
$var wire 1 % address_read [1] $end
$var wire 1 & address_read [0] $end
$var reg 16 _ data_read [15:0] $end
$var reg 1 ` memwr $end
$var integer 32 a i $end
$upscope $end

$scope module DOWNSTREAMPROCESSOR $end
$var parameter 2 b IDLE $end
$var parameter 2 c STATE_UPDATE_MEM $end
$var wire 1 ' clk $end
$var wire 1 d ack $end
$var wire 1 J memwr $end
$var wire 1 e out $end
$var reg 2 f state [1:0] $end
$upscope $end

$scope module get_Cxl $end
$var wire 1 ' clk $end
$var wire 1 " client_id [4] $end
$var wire 1 # client_id [3] $end
$var wire 1 $ client_id [2] $end
$var wire 1 % client_id [1] $end
$var wire 1 & client_id [0] $end
$var wire 1 ( amount [15] $end
$var wire 1 ) amount [14] $end
$var wire 1 * amount [13] $end
$var wire 1 + amount [12] $end
$var wire 1 , amount [11] $end
$var wire 1 - amount [10] $end
$var wire 1 . amount [9] $end
$var wire 1 / amount [8] $end
$var wire 1 0 amount [7] $end
$var wire 1 1 amount [6] $end
$var wire 1 2 amount [5] $end
$var wire 1 3 amount [4] $end
$var wire 1 4 amount [3] $end
$var wire 1 5 amount [2] $end
$var wire 1 6 amount [1] $end
$var wire 1 7 amount [0] $end
$var wire 1 g ack $end
$var reg 5 h past_client [4:0] $end
$var reg 32 i past_amount [31:0] $end
$var reg 1 j new_cancel $end
$upscope $end
$upscope $end
$upscope $end

$scope begin tb_top_DOWNSTREAM_sv_unit $end
$upscope $end

$scope begin std $end
$upscope $end
$enddefinitions $end
#0
$dumpvars
0!
xH
xI
bx _
x`
bx f
bx h
bx i
xj
b10000 K
b101 L
b100000 M
b1 b
b10 c
b100000 a
0'
x&
x%
x$
x#
x"
x7
x6
x5
x4
x3
x2
x1
x0
x/
x.
x-
x,
x+
x*
x)
x(
xG
xF
xE
xD
xC
xB
xA
x@
x?
x>
x=
x<
x;
x:
x9
x8
xJ
xd
x^
x]
x\
x[
xZ
xY
xX
xW
xV
xU
xT
xS
xR
xQ
xP
xO
xN
xe
xg
$end
#5000
1!
1'
b0 a
b1 f
0j
b0xxxxxxxxxxxxxxxx i
0e
0g
0H
0I
0d
0^
07
06
05
04
03
02
01
00
0/
0.
0-
0,
0+
0*
0)
0(
0&
0%
0$
0#
0"
#10000
0!
0'
#15000
1!
1'
b1 a
b10 a
b0 h
b0 i
17
16
15
12
11
10
1$
1#
#20000
0!
0'
#25000
1!
1'
b11 a
b100 a
1j
b1100 h
b11100111 i
0`
1g
0J
1H
1d
#30000
0!
0'
#35000
1!
1'
b0 a
b1 a
b10 f
0j
1e
0g
0H
1I
0d
1^
07
05
02
00
0$
#40000
0!
0'
#45000
1!
1'
b10 a
b11 a
1j
b1000 h
b1000010 i
1g
1H
1d
#50000
0!
0'
#55000
1!
1'
b100 a
b101 a
0j
1`
0g
1J
0H
0d
06
14
13
12
01
1$
#60000
0!
0'
#65000
1!
1'
b110 a
b0 a
b1 f
1j
b1100 h
b111000 i
0e
1g
1H
0I
1d
0^
#70000
0!
0'
#75000
1!
1'
b1 a
b0 a
0j
b10 f
b0 _
0g
1e
0G
0F
0E
0D
0C
0B
0A
0@
0?
0>
0=
0<
0;
0:
09
08
1I
0H
0]
0\
0[
1Z
1Y
1X
0W
0V
0U
0T
0S
0R
0Q
0P
0O
0N
1^
0d
17
16
02
11
1]
1\
0X
1W
#80000
0!
0'
#85000
1!
1'
b1 a
b10 a
b1 f
1j
b1011011 i
0e
1g
1H
0I
1d
0^
#90000
0!
0'
#95000
1!
1'
b11 a
b100 a
0j
b10 f
0g
1e
1I
0H
1^
0d
06
12
0$
0#
0\
1X
#100000
0!
0'
#105000
1!
1'
b101 a
b110 a
b1 f
1j
b0 h
b1111001 i
0e
1g
1H
0I
1d
0^
#110000
0!
0'
#115000
1!
1'
b0 a
b1 a
0j
b10 f
0g
1e
1I
0H
1^
0d
07
03
02
1$
1#
0]
0Y
0X
#120000
0!
0'
#125000
1!
1'
b10 a
b11 a
b1 f
1j
b1100 h
b1001000 i
0e
1g
1H
0I
1d
0^
#130000
0!
0'
#135000
1!
1'
b100 a
b101 a
0j
b10 f
0`
0g
1e
0J
1I
0H
1^
0d
15
04
01
0$
0#
1[
0Z
0W
#140000
0!
0'
#145000
1!
1'
b110 a
b0 a
1j
b0 h
b100 i
1g
1H
1d
#150000
0!
0'
#155000
1!
1'
b1 a
b0 a
0j
b1111001 _
0g
1G
1D
1C
1B
1A
0H
1]
1Z
1Y
1X
1W
0d
14
10
1$
1#
0Z
0Y
0X
0W
1U
#160000
0!
0'
#165000
1!
1'
b1 a
b10 a
1j
b1100 h
b10001100 i
1g
1H
1d
#170000
0!
0'
#175000
1!
1'
b11 a
b100 a
0j
0g
0H
0d
17
05
13
12
0]
1\
0[
1Y
1X
#180000
0!
0'
#185000
1!
1'
b101 a
b110 a
1j
b10111001 i
1`
1g
1J
1H
1d
#190000
0!
0'
#195000
1!
1'
b0 a
b1 a
b1 f
0j
0e
0g
0H
0I
0d
0^
07
04
03
00
0#
1]
0\
1Z
0X
1V
0U
#200000
0!
0'
#205000
1!
1'
b10 a
b11 a
1j
b100 h
b100000 i
1g
1H
1d
#210000
0!
0'
#215000
1!
1'
b100 a
b101 a
b10 f
0j
0`
1e
0g
0J
0H
1I
0d
1^
17
14
13
11
10
1#
0]
1\
0Z
1X
1W
0V
1U
#220000
0!
0'
#225000
1!
1'
b110 a
b0 a
1j
b1100 h
b11111001 i
1g
1H
1d
#230000
0!
0'
#235000
1!
1'
b1 a
b0 a
0j
b100110010 _
0g
0G
1F
0D
0A
1?
0H
1]
1Z
0Y
0W
0U
1T
0d
16
04
03
01
0\
1[
0Z
1Y
0X
1W
1V
1U
0T
#240000
0!
0'
#245000
1!
1'
b1 a
b10 a
1j
b10100011 i
1g
1H
1d
#250000
0!
0'
#255000
1!
1'
b11 a
b100 a
0j
0g
0H
0d
07
02
0$
0]
1X
0W
#260000
0!
0'
#265000
1!
1'
b101 a
b110 a
1j
b1000 h
b10000010 i
1`
1g
1J
1H
1d
#270000
0!
0'
#275000
1!
1'
b0 a
b1 a
b1 f
0j
0e
0g
0H
0I
0d
0^
17
11
00
1$
0#
1]
1W
0V
#280000
0!
0'
#285000
1!
1'
b10 a
b11 a
1j
b100 h
b1000011 i
1g
1H
1d
#290000
0!
0'
#295000
1!
1'
b100 a
b101 a
b10 f
0j
0`
1e
0g
0J
0H
1I
0d
1^
07
15
14
13
10
0$
0]
0[
0X
0W
0U
1T
#300000
0!
0'
#305000
1!
1'
b110 a
b0 a
1j
b0 h
b11011110 i
1g
1H
1d
#310000
0!
0'
#315000
1!
1'
b1 a
b0 a
0j
b1111001 _
0g
1G
0F
1D
1A
0?
0H
1]
1\
1[
1W
1U
0T
0d
17
12
1$
1"
0]
0\
0[
1Z
1X
#320000
0!
0'
#325000
1!
1'
b1 a
b10 a
1j
b10100 h
b11111111 i
1g
1H
1d
#330000
0!
0'
#335000
1!
1'
b11 a
b100 a
0j
0g
0H
0d
07
06
04
01
0"
1]
1[
0Y
0W
#340000
0!
0'
#345000
1!
1'
b101 a
b110 a
1j
b100 h
b10110100 i
1`
1g
1J
1H
1d
#350000
0!
0'
#355000
1!
1'
b0 a
b1 a
b1 f
0j
0e
0g
0H
0I
0d
0^
14
02
0$
0Z
1Y
0X
#360000
0!
0'
#365000
1!
1'
b10 a
b11 a
1j
b0 h
b10011100 i
1g
1H
1d
#370000
0!
0'
#375000
1!
1'
b100 a
b101 a
b10 f
0j
0`
1e
0g
0J
0H
1I
0d
1^
17
16
05
04
03
12
11
00
0]
1Z
1W
1V
0U
#380000
0!
0'
#385000
1!
1'
b110 a
b0 a
1j
b1100011 i
1g
1H
1d
#390000
0!
0'
#395000
1!
1'
b1 a
b0 a
0j
0g
0H
0d
15
14
02
01
1$
1"
0[
0Y
0W
#400000
0!
0'
#405000
1!
1'
b1 a
b10 a
1j
b10100 h
b1111 i
1g
1H
1d
#410000
0!
0'
#415000
1!
1'
b11 a
b100 a
0j
0g
0H
0d
06
05
04
12
10
1#
0"
1\
1Y
0V
1U
#420000
0!
0'
#425000
1!
1'
b101 a
b110 a
1j
b1100 h
b10100001 i
1`
1g
1J
1H
1d
#430000
0!
0'
#435000
1!
1'
b0 a
b1 a
b1 f
0j
0e
0g
0H
0I
0d
0^
07
15
14
0#
1"
1]
0\
1[
0Z
0Y
1X
#440000
0!
0'
#445000
1!
1'
b10 a
b11 a
1j
b10100 h
b10101100 i
1g
1H
1d
#450000
0!
0'
#455000
1!
1'
b100 a
b101 a
b10 f
0j
0`
1e
0g
0J
0H
1I
0d
1^
13
02
11
00
1Y
0X
1W
1V
0U
#460000
0!
0'
#465000
1!
1'
b110 a
b0 a
1j
b1011100 i
1g
1H
1d
#470000
0!
0'
#475000
1!
1'
b1 a
b0 a
0j
b0 _
0g
0G
0D
0C
0B
0A
0H
0]
1Z
0V
0d
16
05
1#
0"
1\
0[
#480000
0!
0'
#485000
1!
1'
b1 a
b10 a
1j
b1100 h
b1011010 i
1g
1H
1d
#490000
0!
0'
#495000
1!
1'
b11 a
b100 a
0j
0g
0H
0d
06
15
04
12
0$
0\
1[
0Z
1X
#500000
0!
0'
#505000
1!
1'
b101 a
b110 a
1j
b1000 h
b1110100 i
1`
1g
1J
1H
1d
#510000
0!
0'
#515000
1!
1'
b0 a
b1 a
b1 f
0j
0e
0g
0H
0I
0d
0^
16
1$
1\
#520000
0!
0'
#525000
1!
1'
b10 a
b11 a
1j
b1100 h
b1110110 i
1g
1H
1d
#530000
0!
0'
#535000
1!
1'
b100 a
b101 a
b10 f
0j
0`
1e
0g
0J
0H
1I
0d
1^
17
05
14
03
01
10
0$
0#
1]
0[
1Z
0Y
0W
1V
#540000
0!
0'
#545000
1!
1'
b110 a
b0 a
1j
b0 h
b10101011 i
1g
1H
1d
#550000
0!
0'
#555000
1!
1'
b1 a
b0 a
0j
b1111001 _
0g
1G
1D
1C
1B
1A
0H
0]
0\
1[
0Z
0V
1U
0d
06
15
1$
1"
1\
#560000
0!
0'
#565000
1!
1'
b1 a
b10 a
1j
b10100 h
b10101101 i
1g
1H
1d
#570000
0!
0'
#575000
1!
1'
b11 a
b100 a
0j
0g
0H
0d
05
00
1#
0"
0[
1V
0U
#580000
0!
0'
#585000
1!
1'
b101 a
b110 a
1j
b1100 h
b101001 i
1`
1g
1J
1H
1d
#590000
0!
0'
#595000
1!
1'
b0 a
b1 a
b1 f
0j
0e
0g
0H
0I
0d
0^
04
1Z
1Y
0X
#600000
0!
0'
#605000
1!
1'
b10 a
b11 a
1j
b100001 i
1g
1H
1d
#610000
0!
0'
#615000
1!
1'
b100 a
b101 a
b10 f
0j
0`
1e
0g
0J
0H
1I
0d
1^
07
16
02
11
10
0$
0#
1]
1X
0V
1U
#620000
0!
0'
#625000
1!
1'
b110 a
b0 a
1j
b0 h
b11000010 i
1g
1H
1d
#630000
0!
0'
#635000
1!
1'
b1 a
b0 a
0j
0g
0H
0d
17
06
14
13
12
1$
1#
0]
0Z
1W
#640000
0!
0'
#645000
1!
1'
b1 a
b10 a
1j
b1100 h
b11111001 i
1g
1H
1d
#650000
0!
0'
#655000
1!
1'
b11 a
b100 a
0j
0g
0H
0d
16
04
02
00
0#
1"
0\
1[
1Z
0Y
0X
1V
0U
#660000
0!
0'
#665000
1!
1'
b101 a
b110 a
1j
b10100 h
b1010011 i
1`
1g
1J
1H
1d
#670000
0!
0'
#675000
1!
1'
b0 a
b1 a
b1 f
0j
0e
0g
0H
0I
0d
0^
07
15
14
03
12
01
10
0"
1]
1\
0Z
1X
0W
0V
1U
#680000
0!
0'
#685000
1!
1'
b10 a
b11 a
1j
b100 h
b10101110 i
1g
1H
1d
#690000
0!
0'
#695000
1!
1'
b100 a
b101 a
b10 f
0j
0`
1e
0g
0J
0H
1I
0d
1^
17
02
11
0$
0]
0\
0[
1Z
0X
1W
#700000
0!
0'
#705000
1!
1'
b110 a
b0 a
1j
b0 h
b11001111 i
1g
1H
1d
#710000
0!
0'
#715000
1!
1'
b1 a
b0 a
0j
0g
0H
0d
01
00
1$
1"
0W
1V
0U
#720000
0!
0'
#725000
1!
1'
b1 a
b10 a
1j
b10100 h
b1111 i
1g
1H
1d
#730000
0!
0'
#735000
1!
1'
b11 a
b100 a
0j
0g
0H
0d
05
13
11
10
0"
1[
0Z
1Y
1W
0V
1U
#740000
0!
0'
#745000
1!
1'
b101 a
b110 a
1j
b100 h
b11011011 i
1`
1g
1J
1H
1d
#750000
0!
0'
#755000
1!
1'
b0 a
b1 a
b1 f
0j
0e
0g
0H
0I
0d
0^
04
12
00
0$
1#
1Z
0Y
1X
1V
0U
#760000
0!
0'
#765000
1!
1'
b10 a
b11 a
1j
b1000 h
b1110011 i
1g
1H
1d
#770000
0!
0'
#775000
1!
1'
b100 a
b101 a
b10 f
0j
0`
1e
0g
0J
0H
1I
0d
1^
07
15
03
1$
0#
1"
1]
1\
1Y
0X
#780000
0!
0'
#785000
1!
1'
b110 a
b0 a
1j
b10100 h
b1100110 i
1g
1H
1d
#790000
0!
0'
#795000
1!
1'
b1 a
b0 a
0j
b11001100 _
0g
0G
1E
0C
0B
1@
0H
0]
0[
0Z
1X
0W
0V
1U
0d
17
06
14
01
10
1#
0"
1]
0\
1Z
1W
#800000
0!
0'
#805000
1!
1'
b1 a
b10 a
1j
b1100 h
b10101101 i
1g
1H
1d
#810000
0!
0'
#815000
1!
1'
b11 a
b100 a
0j
0g
0H
0d
07
05
04
13
02
11
00
0]
1[
0X
0W
#820000
0!
0'
#825000
1!
1'
b101 a
b110 a
1j
b1010000 i
1`
1g
1J
1H
1d
#830000
0!
0'
#835000
1!
1'
b0 a
b1 a
b1 f
0j
0e
0g
0H
0I
0d
0^
15
10
0$
0[
0Z
0Y
1X
1V
#840000
0!
0'
#845000
1!
1'
b10 a
b11 a
1j
b1000 h
b11010100 i
1g
1H
1d
#850000
0!
0'
#855000
1!
1'
b100 a
b101 a
b10 f
0j
0`
1e
0g
0J
0H
1I
0d
1^
16
03
12
01
1$
0#
1\
1Y
1W
0V
#860000
0!
0'
#865000
1!
1'
b110 a
b0 a
1j
b100 h
b10100110 i
1g
1H
1d
#870000
0!
0'
#875000
1!
1'
b1 a
b0 a
0j
b101010100 _
0g
0D
1C
0@
1?
0H
1Z
1V
0d
17
05
02
00
0$
1#
1]
1[
0Z
0X
0V
#880000
0!
0'
#885000
1!
1'
b1 a
b10 a
1j
b1000 h
b11 i
1g
1H
1d
#890000
0!
0'
#895000
1!
1'
b11 a
b100 a
0j
0g
0H
0d
07
15
13
12
0]
0[
1Z
0Y
0W
1V
#900000
0!
0'
#905000
1!
1'
b101 a
b110 a
1j
b110110 i
1`
1g
1J
1H
1d
#910000
0!
0'
#915000
1!
1'
b0 a
b1 a
b1 f
0j
0e
0g
0H
0I
0d
0^
17
11
1$
0#
1]
1W
#920000
0!
0'
#925000
1!
1'
b10 a
b11 a
1j
b100 h
b1110111 i
1g
1H
1d
#930000
0!
0'
#935000
1!
1'
b100 a
b101 a
b10 f
0j
0`
1e
0g
0J
0H
1I
0d
1^
07
05
14
02
10
1#
0]
1[
1X
0W
0V
0U
1T
#940000
0!
0'
#945000
1!
1'
b110 a
b0 a
1j
b1100 h
b11011010 i
1g
1H
1d
#950000
0!
0'
#955000
1!
1'
b1 a
b0 a
0j
b100011100 _
0g
1D
0A
0H
0Z
1Y
1W
1V
1U
0T
0d
17
03
01
00
0$
0#
1]
0Y
0W
0V
#960000
0!
0'
#965000
1!
1'
b1 a
b10 a
1j
b0 h
b1011 i
1g
1H
1d
#970000
0!
0'
#975000
1!
1'
b11 a
b100 a
0j
0g
0H
0d
11
1$
1W
#980000
0!
0'
#985000
1!
1'
b101 a
b110 a
1j
b100 h
b1001011 i
1`
1g
1J
1H
1d
#990000
0!
0'
#995000
1!
1'
b0 a
b1 a
b1 f
0j
0e
0g
0H
0I
0d
0^
06
04
13
12
10
0\
1Z
0X
0W
0U
1T
#1000000
0!
0'
#1005000
1!
1'
b10 a
b11 a
1j
b11110001 i
1g
1H
1d
#1010000
0!
0'
#1015000
1!
1'
b100 a
b101 a
b10 f
0j
0`
1e
0g
0J
0H
1I
0d
1^
15
14
02
01
0[
1Y
1X
1V
1U
0T
#1020000
0!
0'
#1025000
1!
1'
b110 a
b0 a
1j
b10011101 i
1g
1H
1d
#1030000
0!
0'
#1035000
1!
1'
b1 a
b0 a
0j
b101100111 _
0g
1G
1F
0D
0C
1B
1A
0H
0]
1[
0Z
0Y
0X
0V
0U
1T
0d
05
12
00
1#
0[
1X
1V
1U
0T
#1040000
0!
0'
#1045000
1!
1'
b1 a
b10 a
1j
b1100 h
b111001 i
1g
1H
1d
#1050000
0!
0'
#1055000
1!
1'
b11 a
b100 a
0j
0g
0H
0d
07
16
02
11
10
0$
0#
1]
0X
1W
0V
0U
1T
#1060000
0!
0'
#1065000
1!
1'
b101 a
b110 a
1j
b0 h
b11011010 i
1`
1g
1J
1H
1d
#1070000
0!
0'
#1075000
1!
1'
b0 a
b1 a
b1 f
0j
0e
0g
0H
0I
0d
0^
17
15
00
0]
1\
1[
1V
1U
0T
#1080000
0!
0'
#1085000
1!
1'
b10 a
b11 a
1j
b1011111 i
1g
1H
1d
#1090000
0!
0'
#1095000
1!
1'
b100 a
b101 a
b10 f
0j
0`
1e
0g
0J
0H
1I
0d
1^
07
06
03
10
1#
1]
0[
1Y
1X
0W
0V
0U
1T
#1100000
0!
0'
#1105000
1!
1'
b110 a
b0 a
1j
b1000 h
b11001100 i
1g
1H
1d
#1110000
0!
0'
#1115000
1!
1'
b1 a
b0 a
0j
b110001010 _
0g
0G
0E
1D
0B
0A
1@
0H
0]
1[
0X
1W
0d
17
05
1]
0[
#1120000
0!
0'
#1125000
1!
1'
b1 a
b10 a
1j
b11001001 i
1g
1H
1d
#1130000
0!
0'
#1135000
1!
1'
b11 a
b100 a
0j
0g
0H
0d
07
15
04
13
0#
0]
1[
1Z
#1140000
0!
0'
#1145000
1!
1'
b101 a
b110 a
1j
b0 h
b11010100 i
1`
1g
1J
1H
1d
#1150000
0!
0'
#1155000
1!
1'
b0 a
b1 a
b1 f
0j
0e
0g
0H
0I
0d
0^
17
16
14
03
01
1]
0\
0[
0W
#1160000
0!
0'
#1165000
1!
1'
b10 a
b11 a
1j
b10001111 i
1g
1H
1d
#1170000
0!
0'
#1175000
1!
1'
b100 a
b101 a
b10 f
0j
0`
1e
0g
0J
0H
1I
0d
1^
07
06
12
11
1$
0]
1\
1[
0Z
1X
1W
#1180000
0!
0'
#1185000
1!
1'
b110 a
b0 a
1j
b100 h
b11101100 i
1g
1H
1d
#1190000
0!
0'
#1195000
1!
1'
b1 a
b0 a
0j
b101100111 _
0g
1G
1E
0D
1B
1A
0@
0H
1]
0[
0X
0d
17
16
05
02
01
0$
1#
0]
1X
1V
1U
0T
#1200000
0!
0'
#1205000
1!
1'
b1 a
b10 a
1j
b1000 h
b10001011 i
1g
1H
1d
#1210000
0!
0'
#1215000
1!
1'
b11 a
b100 a
0j
0g
0H
0d
07
15
0#
1]
0\
1[
#1220000
0!
0'
#1225000
1!
1'
b101 a
b110 a
1j
b0 h
b10001110 i
1`
1g
1J
1H
1d
#1230000
0!
0'
#1235000
1!
1'
b0 a
b1 a
b1 f
0j
0e
0g
0H
0I
0d
0^
17
06
05
04
12
11
00
1$
0]
0[
1Z
0Y
0X
#1240000
0!
0'
#1245000
1!
1'
b10 a
b11 a
1j
b100 h
b1100001 i
1g
1H
1d
#1250000
0!
0'
#1255000
1!
1'
b100 a
b101 a
b10 f
0j
0`
1e
0g
0J
0H
1I
0d
1^
07
13
02
10
0$
1#
1]
1\
1[
0Z
1Y
1X
0W
0V
0U
1T
#1260000
0!
0'
#1265000
1!
1'
b110 a
b0 a
1j
b1000 h
b11010000 i
1g
1H
1d
#1270000
0!
0'
#1275000
1!
1'
b1 a
b0 a
0j
b110001010 _
0g
0G
0E
1D
0B
0A
1@
0H
0]
0[
1Z
0X
1W
0d
17
14
01
00
1$
1]
0Z
0Y
1X
0W
1V
1U
0T
#1280000
0!
0'
#1285000
1!
1'
b1 a
b10 a
1j
b1100 h
b11001 i
1g
1H
1d
#1290000
0!
0'
#1295000
1!
1'
b11 a
b100 a
0j
0g
0H
0d
07
04
12
11
10
0]
1Z
1Y
1W
0V
0U
1T
#1300000
0!
0'
#1305000
1!
1'
b101 a
b110 a
1j
b11110000 i
1`
1g
1J
1H
1d
#1310000
0!
0'
#1315000
1!
1'
b0 a
b1 a
b1 f
0j
0e
0g
0H
0I
0d
0^
16
02
01
0#
1"
0\
1[
0X
0W
#1320000
0!
0'
#1325000
1!
1'
b10 a
b11 a
1j
b10100 h
b10010010 i
1g
1H
1d
#1330000
0!
0'
#1335000
1!
1'
b100 a
b101 a
b10 f
0j
0`
1e
0g
0J
0H
1I
0d
1^
17
06
15
14
03
0"
1]
1\
0Z
#1340000
0!
0'
#1345000
1!
1'
b110 a
b0 a
1j
b100 h
b10001101 i
1g
1H
1d
#1350000
0!
0'
#1355000
1!
1'
b1 a
b0 a
0j
b101100111 _
0g
1G
1E
0D
1B
1A
0@
0H
0]
0\
1X
1W
1V
1U
0T
0d
07
04
13
12
0$
1]
1\
0[
1Z
0X
0W
0V
0U
1T
#1360000
0!
0'
#1365000
1!
1'
b1 a
b10 a
1j
b0 h
b10110100 i
1g
1H
1d
#1370000
0!
0'
#1375000
1!
1'
b11 a
b100 a
0j
0g
0H
0d
17
16
05
11
00
1#
0]
1W
1V
1U
0T
#1380000
0!
0'
#1385000
1!
1'
b101 a
b110 a
1j
b1000 h
b1110011 i
1`
1g
1J
1H
1d
#1390000
0!
0'
#1395000
1!
1'
b0 a
b1 a
b1 f
0j
0e
0g
0H
0I
0d
0^
15
14
03
01
10
1[
0Z
0W
0V
0U
1T
#1400000
0!
0'
#1405000
1!
1'
b10 a
b11 a
1j
b10101111 i
1g
1H
1d
#1410000
0!
0'
#1415000
1!
1'
b100 a
b101 a
b10 f
0j
0`
1e
0g
0J
0H
1I
0d
1^
05
04
02
1$
0[
1Z
0Y
1X
1W
1V
1U
0T
#1420000
0!
0'
#1425000
1!
1'
b110 a
b0 a
1j
b1100 h
b10000011 i
1g
1H
1d
#1430000
0!
0'
#1435000
1!
1'
b1 a
b0 a
0j
b1001111010 _
0g
0G
0E
1D
1C
0?
1>
0H
1]
0\
1[
1Y
0U
1T
0d
15
14
12
11
0#
0[
0Y
0V
1U
#1440000
0!
0'
#1445000
1!
1'
b1 a
b10 a
1j
b100 h
b11101111 i
1g
1H
1d
#1450000
0!
0'
#1455000
1!
1'
b11 a
b100 a
0j
0g
0H
0d
06
02
01
1"
1\
1[
0Z
0X
0W
#1460000
0!
0'
#1465000
1!
1'
b101 a
b110 a
1j
b10100 h
b10001101 i
1`
1g
1J
1H
1d
#1470000
0!
0'
#1475000
1!
1'
b0 a
b1 a
b1 f
0j
0e
0g
0H
0I
0d
0^
07
16
05
04
00
0$
0"
0]
0\
1Z
1Y
1X
1W
0U
#1480000
0!
0'
#1485000
1!
1'
b10 a
b11 a
1j
b0 h
b10 i
1g
1H
1d
#1490000
0!
0'
#1495000
1!
1'
b100 a
b101 a
b10 f
0j
0`
1e
0g
0J
0H
1I
0d
1^
17
06
15
10
1$
1]
1\
1V
#1500000
0!
0'
#1505000
1!
1'
b110 a
b0 a
1j
b100 h
b10000101 i
1g
1H
1d
#1510000
0!
0'
#1515000
1!
1'
b1 a
b0 a
0j
b101100111 _
0g
1G
1E
0D
0C
1?
0>
0H
0]
0\
0Y
1U
0T
0d
07
16
05
14
00
1]
0[
0Z
1Y
0V
#1520000
0!
0'
#1525000
1!
1'
b1 a
b10 a
1j
b1010 i
1g
1H
1d
#1530000
0!
0'
#1535000
1!
1'
b11 a
b100 a
0j
0g
0H
0d
17
06
15
04
10
1"
0]
1[
1Z
0Y
1V
#1540000
0!
0'
#1545000
1!
1'
b101 a
b110 a
1j
b10100 h
b10000101 i
1`
1g
1J
1H
1d
#1550000
0!
0'
#1555000
1!
1'
b0 a
b1 a
b1 f
0j
0e
0g
0H
0I
0d
0^
16
11
1\
0W
0V
0U
1T
#1560000
0!
0'
#1565000
1!
1'
b10 a
b11 a
1j
b11000111 i
1g
1H
1d
#1570000
0!
0'
#1575000
1!
1'
b100 a
b101 a
b10 f
0j
0`
1e
0g
0J
0H
1I
0d
1^
05
14
13
12
00
0"
0[
0Z
1W
1V
1U
0T
#1580000
0!
0'
#1585000
1!
1'
b110 a
b0 a
1j
b100 h
b1111011 i
1g
1H
1d
#1590000
0!
0'
#1595000
1!
1'
b1 a
b0 a
0j
0g
0H
0d
06
04
0$
0\
1Z
1Y
0X
#1600000
0!
0'
#1605000
1!
1'
b1 a
b10 a
1j
b0 h
b1110001 i
1g
1H
1d
#1610000
0!
0'
#1615000
1!
1'
b11 a
b100 a
0j
0g
0H
0d
07
15
14
10
1#
1]
1\
0Z
0Y
1X
0V
0U
1T
#1620000
0!
0'
#1625000
1!
1'
b101 a
b110 a
1j
b1000 h
b11111100 i
1`
1g
1J
1H
1d
#1630000
0!
0'
#1635000
1!
1'
b0 a
b1 a
b1 f
0j
0e
0g
0H
0I
0d
0^
17
16
03
02
01
1$
0]
1[
1Y
1V
1U
0T
#1640000
0!
0'
#1645000
1!
1'
b10 a
b11 a
1j
b1100 h
b10001111 i
1g
1H
1d
#1650000
0!
0'
#1655000
1!
1'
b100 a
b101 a
b10 f
0j
0`
1e
0g
0J
0H
1I
0d
1^
07
06
05
12
00
0#
1]
1Z
0Y
0X
0W
#1660000
0!
0'
#1665000
1!
1'
b110 a
b0 a
1j
b100 h
b101000 i
1g
1H
1d
#1670000
0!
0'
#1675000
1!
1'
b1 a
b0 a
0j
0g
0H
0d
17
16
13
10
0]
0[
0Z
1X
0V
0U
1T
#1680000
0!
0'
#1685000
1!
1'
b1 a
b10 a
1j
b10111011 i
1g
1H
1d
#1690000
0!
0'
#1695000
1!
1'
b11 a
b100 a
0j
0g
0H
0d
07
04
03
02
00
1#
1]
0\
1Z
1W
1U
0T
#1700000
0!
0'
#1705000
1!
1'
b101 a
b110 a
1j
b1100 h
b10 i
1`
1g
1J
1H
1d
#1710000
0!
0'
#1715000
1!
1'
b0 a
b1 a
b1 f
0j
0e
0g
0H
0I
0d
0^
17
06
13
11
0$
0]
1Y
0W
1V
#1720000
0!
0'
#1725000
1!
1'
b10 a
b11 a
1j
b1000 h
b1010001 i
1g
1H
1d
#1730000
0!
0'
#1735000
1!
1'
b100 a
b101 a
b10 f
0j
0`
1e
0g
0J
0H
1I
0d
1^
15
14
0#
1[
0Z
0Y
0X
1W
#1740000
0!
0'
#1745000
1!
1'
b110 a
b0 a
1j
b0 h
b1011101 i
1g
1H
1d
#1750000
0!
0'
