testbench/tbenchoutputs/downstream/downstreamdump.vcd
$date
	Wed May  4 10:28:29 2022
$end
$version
	QuestaSim Version 10.7c
$end
$timescale
	1ps
$end

$scope module tb_top_DOWNSTREAM $end
$var reg 1 ! clk $end
$var reg 1 " slowclk $end

$scope module DOWNSTREAM $end
$var wire 1 # client_id [4] $end
$var wire 1 $ client_id [3] $end
$var wire 1 % client_id [2] $end
$var wire 1 & client_id [1] $end
$var wire 1 ' client_id [0] $end
$var wire 1 ( clk $end
$var wire 1 ) amount [15] $end
$var wire 1 * amount [14] $end
$var wire 1 + amount [13] $end
$var wire 1 , amount [12] $end
$var wire 1 - amount [11] $end
$var wire 1 . amount [10] $end
$var wire 1 / amount [9] $end
$var wire 1 0 amount [8] $end
$var wire 1 1 amount [7] $end
$var wire 1 2 amount [6] $end
$var wire 1 3 amount [5] $end
$var wire 1 4 amount [4] $end
$var wire 1 5 amount [3] $end
$var wire 1 6 amount [2] $end
$var wire 1 7 amount [1] $end
$var wire 1 8 amount [0] $end
$var wire 1 9 cancelled_orders [15] $end
$var wire 1 : cancelled_orders [14] $end
$var wire 1 ; cancelled_orders [13] $end
$var wire 1 < cancelled_orders [12] $end
$var wire 1 = cancelled_orders [11] $end
$var wire 1 > cancelled_orders [10] $end
$var wire 1 ? cancelled_orders [9] $end
$var wire 1 @ cancelled_orders [8] $end
$var wire 1 A cancelled_orders [7] $end
$var wire 1 B cancelled_orders [6] $end
$var wire 1 C cancelled_orders [5] $end
$var wire 1 D cancelled_orders [4] $end
$var wire 1 E cancelled_orders [3] $end
$var wire 1 F cancelled_orders [2] $end
$var wire 1 G cancelled_orders [1] $end
$var wire 1 H cancelled_orders [0] $end
$var reg 1 I old_client $end
$var reg 1 J old_amount $end

$scope fork downdatareq $end
$var reg 10 K index [9:0] $end
$var reg 1 L we $end
$upscope $end
$var reg 32 M downdatawrite [31:0] $end
$var reg 32 N downdataread [31:0] $end
$var reg 1 O ack $end
$var reg 1 P update_memory $end

$scope module RAMDOWNSTREAM $end
$var wire 1 ( clk $end

$scope fork data_req $end
$var reg 10 Q index [9:0] $end
$var reg 1 R we $end
$upscope $end
$var reg 32 S data_write [31:0] $end
$var reg 32 T data_read [31:0] $end
$upscope $end
$upscope $end
$upscope $end

$scope begin tb_top_DOWNSTREAM_sv_unit $end
$upscope $end

$scope begin std $end
$upscope $end

$scope begin cache_def $end
$var parameter 32 U TAGMSB $end
$var parameter 32 V TAGLSB $end
$upscope $end

$scope begin downstream_top_sv_unit $end
$upscope $end
$enddefinitions $end
#0
$dumpvars
0!
0"
xI
xJ
b0 M
b0 N
xO
xP
b0 S
b0 T
b0 K
b0 L
b0 Q
b0 R
b11111 U
b1110 V
0(
x'
x&
x%
x$
x#
x8
x7
x6
x5
x4
x3
x2
x1
x0
x/
x.
x-
x,
x+
x*
x)
0H
0G
0F
0E
0D
0C
0B
0A
0@
0?
0>
0=
0<
0;
0:
09
$end
#2000
1!
1(
#12000
1"
18
17
16
05
04
13
12
11
00
0/
0.
0-
0,
0+
0*
0)
0'
0&
1%
1$
0#
b11100111 S
b1100 K
b1 L
1J
0I
b1100 Q
b1 R
#14000
0!
0(
#24000
0"
#26000
1!
1(
b11100111 T
1H
1G
1F
1C
1B
1A
#36000
1"
#38000
0!
0(
#48000
0"
#50000
1!
1(
b111001110 T
0H
1E
0C
1@
#60000
1"
08
06
03
01
0%
b1000010 S
b1000 K
0J
b1000 Q
b0 T
0G
0F
0E
0B
0A
0@
#62000
0!
0(
#72000
0"
#74000
1!
1(
b1000010 T
1G
1B
#84000
1"
#86000
0!
0(
#96000
0"
#98000
1!
1(
b10000100 T
0G
1F
0B
1A
#108000
1"
07
15
14
13
02
1%
b111000 S
b1100 K
b1100 Q
b111001110 T
1G
1E
1B
1@
#110000
0!
0(
#120000
0"
#122000
1!
1(
b1000000110 T
0E
0B
0A
0@
1?
#132000
1"
#134000
0!
0(
#144000
0"
#146000
1!
1(
b1000111110 T
1E
1D
1C
#156000
1"
18
17
03
12
b1011011 S
1J
#158000
0!
0(
#168000
0"
#170000
1!
1(
b1010011001 T
1H
0G
0F
0C
1A
#180000
1"
#182000
0!
0(
#192000
0"
#194000
1!
1(
b1011110100 T
0H
1F
0E
1C
1B
#204000
1"
07
13
0%
0$
b1111001 S
b0 K
b0 Q
b0 T
0F
0D
0C
0B
0A
0?
#206000
0!
0(
#216000
0"
#218000
1!
1(
b1111001 T
1H
1E
1D
1C
1B
#228000
1"
#230000
0!
0(
#240000
0"
#242000
1!
1(
b11110010 T
0H
1G
0E
1A
#252000
1"
08
04
03
1%
1$
b1001000 S
b1100 K
0J
b1100 Q
b1011110100 T
0G
1F
1?
#254000
0!
0(
#264000
0"
#266000
1!
1(
b1100111100 T
1E
0B
0A
1@
#276000
1"
#278000
0!
0(
#288000
0"
#290000
1!
1(
b1110000100 T
0E
0D
0C
1A
#300000
1"
16
05
02
0%
0$
b100 S
b0 K
b0 Q
b11110010 T
1G
0F
1D
1C
1B
0@
0?
#302000
0!
0(
#312000
0"
#314000
1!
1(
b11110110 T
1F
#324000
1"
#326000
0!
0(
#336000
0"
#338000
1!
1(
b11111010 T
0F
1E
#348000
1"
15
11
1%
1$
b10001100 S
b1100 K
b1100 Q
b1110000100 T
0G
1F
0E
0D
0C
0B
1@
1?
#350000
0!
0(
#360000
0"
#362000
1!
1(
b10000010000 T
0F
1D
0A
0@
0?
1>
#372000
1"
#374000
0!
0(
#384000
0"
#386000
1!
1(
b10010011100 T
1F
1E
1A
#396000
1"
18
06
14
13
b10111001 S
1J
#398000
0!
0(
#408000
0"
#410000
1!
1(
b10101010101 T
1H
0E
1B
0A
1@
#420000
1"
#422000
0!
0(
#432000
0"
#434000
1!
1(
b11000001110 T
0H
1G
1E
0D
0B
0@
1?
#444000
1"
08
05
04
01
0$
b100000 S
b100 K
0J
b100 Q
b0 T
0G
0F
0E
0?
0>
#446000
0!
0(
#456000
0"
#458000
1!
1(
b100000 T
1C
#468000
1"
#470000
0!
0(
#480000
0"
#482000
1!
1(
b1000000 T
0C
1B
#492000
1"
18
15
14
12
11
1$
b11111001 S
b1100 K
1J
b1100 Q
b11000001110 T
1G
1F
1E
0B
1?
1>
#494000
0!
0(
#504000
0"
#506000
1!
1(
b11100000111 T
1H
0E
1@
#516000
1"
#518000
0!
0(
#528000
0"
#530000
1!
1(
b100000000000 T
0H
0G
0F
0@
0?
0>
1=
#540000
1"
17
05
04
02
b10100011 S
#542000
0!
0(
#552000
0"
#554000
1!
1(
b100010100011 T
1H
1G
1C
1A
#564000
1"
#566000
0!
0(
#576000
0"
#578000
1!
1(
b100101000110 T
0H
1F
0C
1B
0A
1@
#588000
1"
08
03
0%
b10000010 S
b1000 K
0J
b1000 Q
b10000100 T
0G
0B
1A
0@
0=
#590000
0!
0(
#600000
0"
#602000
1!
1(
b100000110 T
1G
0A
1@
#612000
1"
#614000
0!
0(
#624000
0"
#626000
1!
1(
b110001000 T
0G
0F
1E
1A
#636000
1"
18
12
01
1%
0$
b1000011 S
b100 K
1J
b100 Q
b1000000 T
0E
1B
0A
0@
#638000
0!
0(
#648000
0"
#650000
1!
1(
b10000011 T
1H
1G
0B
1A
#660000
1"
#662000
0!
0(
#672000
0"
#674000
1!
1(
b11000110 T
0H
1F
1B
#684000
1"
08
16
15
14
11
0%
b11011110 S
b0 K
0J
b0 Q
b11111010 T
0F
1E
1D
1C
#686000
0!
0(
#696000
0"
#698000
1!
1(
b111011000 T
0G
0C
1@
#708000
1"
#710000
0!
0(
#720000
0"
#722000
1!
1(
b1010110110 T
1G
1F
0E
1C
0B
0@
1?
#732000
1"
18
13
1%
1#
b11111111 S
b10100 K
1J
b10100 Q
b0 T
0G
0F
0D
0C
0A
0?
#734000
0!
0(
#744000
0"
#746000
1!
1(
b11111111 T
1H
1G
1F
1E
1D
1C
1B
1A
#756000
1"
#758000
0!
0(
#768000
0"
#770000
1!
1(
b111111110 T
0H
1@
#780000
1"
08
07
05
02
0#
b10110100 S
b100 K
0J
b100 Q
b11000110 T
0E
0D
0C
0@
#782000
0!
0(
#792000
0"
#794000
1!
1(
b101111010 T
0F
1E
1D
1C
0A
1@
#804000
1"
#806000
0!
0(
#816000
0"
#818000
1!
1(
b1000101110 T
1F
0D
0B
0@
1?
#828000
1"
15
03
0%
b10011100 S
b0 K
b0 Q
b1010110110 T
0E
1D
1A
#830000
0!
0(
#840000
0"
#842000
1!
1(
b1101010010 T
0F
0C
1B
0A
1@
#852000
1"
#854000
0!
0(
#864000
0"
#866000
1!
1(
b1111101110 T
1F
1E
0D
1C
1A
#876000
1"
18
17
06
05
04
13
12
01
b1100011 S
1J
#878000
0!
0(
#888000
0"
#890000
1!
1(
b10001010001 T
1H
0G
0F
0E
1D
0C
0A
0@
0?
1>
#900000
1"
#902000
0!
0(
#912000
0"
#914000
1!
1(
b10010110100 T
0H
1F
1C
0B
1A
#924000
1"
16
15
03
02
1%
1#
b1111 S
b10100 K
b10100 Q
b111111110 T
1G
1E
1B
1@
0>
#926000
0!
0(
#936000
0"
#938000
1!
1(
b1000001101 T
1H
0G
0D
0C
0B
0A
0@
1?
#948000
1"
#950000
0!
0(
#960000
0"
#962000
1!
1(
b1000011100 T
0H
1D
#972000
1"
07
06
05
13
11
1$
0#
b10100001 S
b1100 K
b1100 Q
b100101000110 T
1G
0E
0D
1B
1@
0?
1=
#974000
0!
0(
#984000
0"
#986000
1!
1(
b100111100111 T
1H
1C
1A
#996000
1"
#998000
0!
0(
#1008000
0"
#1010000
1!
1(
b101010001000 T
0H
0G
0F
1E
0C
0B
0@
1?
#1020000
1"
08
16
15
0$
1#
b10101100 S
b10100 K
0J
b10100 Q
b1000011100 T
1F
1D
0A
0=
#1022000
0!
0(
#1032000
0"
#1034000
1!
1(
b1011001000 T
0F
0D
1B
1A
#1044000
1"
#1046000
0!
0(
#1056000
0"
#1058000
1!
1(
b1101110100 T
1F
0E
1D
1C
0A
1@
#1068000
1"
14
03
12
01
b1011100 S
#1070000
0!
0(
#1080000
0"
#1082000
1!
1(
b1111010000 T
0F
0C
1A
#1092000
1"
#1094000
0!
0(
#1104000
0"
#1106000
1!
1(
b10000101100 T
1F
1E
0D
1C
0B
0A
0@
0?
1>
#1116000
1"
17
06
1$
0#
b1011010 S
b1100 K
b1100 Q
b101010001000 T
0F
0C
1A
1?
0>
1=
#1118000
0!
0(
#1128000
0"
#1130000
1!
1(
b101011100010 T
1G
0E
1C
1B
#1140000
1"
#1142000
0!
0(
#1152000
0"
#1154000
1!
1(
b101100111100 T
0G
1F
1E
1D
0B
0A
1@
#1164000
1"
07
16
05
13
0%
b1110100 S
b1000 K
b1000 Q
b110001000 T
0F
0D
0C
1A
0?
0=
#1166000
0!
0(
#1176000
0"
#1178000
1!
1(
b111111100 T
1F
1D
1C
1B
#1188000
1"
#1190000
0!
0(
#1200000
0"
#1202000
1!
1(
b1001110000 T
0F
0E
0A
0@
1?
#1212000
1"
17
1%
b1110110 S
b1100 K
b1100 Q
b101100111100 T
1F
1E
0B
1@
1=
#1214000
0!
0(
#1224000
0"
#1226000
1!
1(
b101110110010 T
1G
0F
0E
1A
#1236000
1"
#1238000
0!
0(
#1248000
0"
#1250000
1!
1(
b110000101000 T
0G
1E
0D
0A
0@
0?
1>
#1260000
1"
18
06
15
04
02
11
0%
0$
b10101011 S
b0 K
1J
b0 Q
b10010110100 T
1F
0E
1D
1A
0=
#1262000
0!
0(
#1272000
0"
#1274000
1!
1(
b10101011111 T
1H
1G
1E
0C
1B
0A
1@
#1284000
1"
#1286000
0!
0(
#1296000
0"
#1298000
1!
1(
b11000001010 T
0H
0F
0D
0B
0@
1?
#1308000
1"
07
16
1%
1#
b10101101 S
b10100 K
b10100 Q
b10000101100 T
0G
1F
1C
0?
#1310000
0!
0(
#1320000
0"
#1322000
1!
1(
b10011011001 T
1H
0F
1D
0C
1B
1A
#1332000
1"
#1334000
0!
0(
#1344000
0"
#1346000
1!
1(
b10110000110 T
0H
1G
1F
0E
0D
0B
1@
#1356000
1"
06
01
1$
0#
b101001 S
b1100 K
b1100 Q
b110000101000 T
0G
0F
1E
1C
0A
0@
1=
#1358000
0!
0(
#1368000
0"
#1370000
1!
1(
b110001010001 T
1H
0E
1D
0C
1B
#1380000
1"
#1382000
0!
0(
#1392000
0"
#1394000
1!
1(
b110001111010 T
0H
1G
1E
1C
#1404000
1"
05
b100001 S
#1406000
0!
0(
#1416000
0"
#1418000
1!
1(
b110010011011 T
1H
0C
0B
1A
#1428000
1"
#1430000
0!
0(
#1440000
0"
#1442000
1!
1(
b110010111100 T
0H
0G
1F
1C
#1452000
1"
08
17
03
12
11
0%
0$
b11000010 S
b0 K
0J
b0 Q
b11000001010 T
1G
0F
0D
0C
0A
1?
0=
#1454000
0!
0(
#1464000
0"
#1466000
1!
1(
b11011001100 T
0G
1F
1B
1A
#1476000
1"
#1478000
0!
0(
#1488000
0"
#1490000
1!
1(
b11110001110 T
1G
0B
1@
#1500000
1"
18
07
15
14
13
1%
1$
b11111001 S
b1100 K
1J
b1100 Q
b110010111100 T
0G
1D
1C
0@
0?
1=
#1502000
0!
0(
#1512000
0"
#1514000
1!
1(
b110110110101 T
1H
0E
1@
#1524000
1"
#1526000
0!
0(
#1536000
0"
#1538000
1!
1(
b111010101110 T
0H
1G
1E
0D
0@
1?
#1548000
1"
17
05
03
01
0$
1#
b1010011 S
b10100 K
b10100 Q
b10110000110 T
0E
0C
1@
0?
0=
#1550000
0!
0(
#1560000
0"
#1562000
1!
1(
b10111011001 T
1H
0G
0F
1E
1D
1B
#1572000
1"
#1574000
0!
0(
#1584000
0"
#1586000
1!
1(
b11000101100 T
0H
1F
0D
1C
0B
0A
0@
1?
#1596000
1"
08
16
15
04
13
02
11
0#
b10101110 S
b100 K
0J
b100 Q
b1000101110 T
1G
0>
#1598000
0!
0(
#1608000
0"
#1610000
1!
1(
b1011011100 T
0G
1D
0C
1B
1A
#1620000
1"
#1622000
0!
0(
#1632000
0"
#1634000
1!
1(
b1110001010 T
1G
0F
0D
0B
1@
#1644000
1"
18
03
12
0%
b11001111 S
b0 K
1J
b0 Q
b11110001110 T
1F
1>
#1646000
0!
0(
#1656000
0"
#1658000
1!
1(
b100001011101 T
1H
0G
1D
1B
0A
0@
0?
0>
1=
#1668000
1"
#1670000
0!
0(
#1680000
0"
#1682000
1!
1(
b100100101100 T
0H
0D
1C
0B
1@
#1692000
1"
02
01
1%
1#
b1111 S
b10100 K
b10100 Q
b11000101100 T
0@
1?
1>
0=
#1694000
0!
0(
#1704000
0"
#1706000
1!
1(
b11000111011 T
1H
1G
0F
1D
#1716000
1"
#1718000
0!
0(
#1728000
0"
#1730000
1!
1(
b11001001010 T
0H
0D
0C
1B
#1740000
1"
06
14
12
11
0#
b11011011 S
b100 K
b100 Q
b1110001010 T
0B
1A
1@
0>
#1742000
0!
0(
#1752000
0"
#1754000
1!
1(
b10001100101 T
1H
0G
1F
0E
1C
1B
0A
0@
0?
1>
#1764000
1"
#1766000
0!
0(
#1776000
0"
#1778000
1!
1(
b10101000000 T
0H
0F
0C
1@
#1788000
1"
05
13
01
0%
1$
b1110011 S
b1000 K
b1000 Q
b1001110000 T
1D
1C
0@
1?
0>
#1790000
0!
0(
#1800000
0"
#1802000
1!
1(
b1011100011 T
1H
1G
0D
1A
#1812000
1"
#1814000
0!
0(
#1824000
0"
#1826000
1!
1(
b1101010110 T
0H
1F
1D
0C
0A
1@
#1836000
1"
08
16
04
1%
0$
1#
b1100110 S
b10100 K
0J
b10100 Q
b11001001010 T
0F
1E
0D
0@
1>
#1838000
0!
0(
#1848000
0"
#1850000
1!
1(
b11010110000 T
0G
0E
1D
1C
0B
1A
#1860000
1"
#1862000
0!
0(
#1872000
0"
#1874000
1!
1(
b11100010110 T
1G
1F
0C
0A
1@
#1884000
1"
18
07
15
02
11
1$
0#
b10101101 S
b1100 K
1J
b1100 Q
b111010101110 T
1E
0D
1C
1A
0@
1=
#1886000
0!
0(
#1896000
0"
#1898000
1!
1(
b111101011011 T
1H
0F
1D
0C
1B
0A
1@
#1908000
1"
#1910000
0!
0(
#1920000
0"
#1922000
1!
1(
b1000000001000 T
0H
0G
0D
0B
0@
0?
0>
0=
1<
#1932000
1"
08
06
05
14
03
12
01
b1010000 S
0J
#1934000
0!
0(
#1944000
0"
#1946000
1!
1(
b1000001011000 T
1D
1B
#1956000
1"
#1958000
0!
0(
#1968000
0"
#1970000
1!
1(
b1000010101000 T
0D
1C
0B
1A
#1980000
1"
16
11
0%
b11010100 S
b1000 K
b1000 Q
b1101010110 T
1G
1F
0E
1D
0C
1B
0A
1@
1?
0<
#1982000
0!
0(
#1992000
0"
#1994000
1!
1(
b10000101010 T
0F
1E
0D
1C
0B
0@
0?
1>
#2004000
1"
#2006000
0!
0(
#2016000
0"
#2018000
1!
1(
b10011111110 T
1F
1D
1B
1A
#2028000
1"
17
04
13
02
1%
0$
b10100110 S
b100 K
b100 Q
b10101000000 T
0G
0F
0E
0D
0C
0A
1@
#2030000
0!
0(
#2040000
0"
#2042000
1!
1(
b10111100110 T
1G
1F
1C
1A
#2052000
1"
#2054000
0!
0(
#2064000
0"
#2066000
1!
1(
b11010001100 T
0G
1E
0C
0B
0@
1?
#2076000
1"
18
06
03
01
0%
1$
b11 S
b1000 K
1J
b1000 Q
b10011111110 T
1G
1D
1C
1B
0?
#2078000
0!
0(
#2088000
0"
#2090000
1!
1(
b10100000001 T
1H
0G
0F
0E
0D
0C
0B
0A
1@
#2100000
1"
#2102000
0!
0(
#2112000
0"
#2114000
1!
1(
b10100000100 T
0H
1F
#2124000
1"
08
16
14
13
b110110 S
0J
#2126000
0!
0(
#2136000
0"
#2138000
1!
1(
b10100111010 T
1G
0F
1E
1D
1C
#2148000
1"
#2150000
0!
0(
#2160000
0"
#2162000
1!
1(
b10101110000 T
0G
0E
1B
#2172000
1"
18
12
1%
0$
b1110111 S
b100 K
1J
b100 Q
b11010001100 T
1F
1E
0D
0C
0B
1A
0@
1?
#2174000
0!
0(
#2184000
0"
#2186000
1!
1(
b11100000011 T
1H
1G
0F
0E
0A
1@
#2196000
1"
#2198000
0!
0(
#2208000
0"
#2210000
1!
1(
b11101111010 T
0H
1E
1D
1C
1B
#2220000
1"
08
06
15
03
11
1$
b11011010 S
b1100 K
0J
b1100 Q
b1000010101000 T
0G
0D
0B
1A
0@
0?
0>
1<
#2222000
0!
0(
#2232000
0"
#2234000
1!
1(
b1000110000010 T
1G
0E
0C
1@
#2244000
1"
#2246000
0!
0(
#2256000
0"
#2258000
1!
1(
b1001001011100 T
0G
1F
1E
1D
1B
0A
0@
1?
#2268000
1"
18
04
02
01
0%
0$
b1011 S
b0 K
1J
b0 Q
b100100101100 T
0D
1C
0B
1@
0?
1=
0<
#2270000
0!
0(
#2280000
0"
#2282000
1!
1(
b100100110111 T
1H
1G
0E
1D
#2292000
1"
#2294000
0!
0(
#2304000
0"
#2306000
1!
1(
b100101000010 T
0H
0F
0D
0C
1B
#2316000
1"
12
1%
b1001011 S
b100 K
b100 Q
b11101111010 T
1E
1D
1C
1?
1>
0=
#2318000
0!
0(
#2328000
0"
#2330000
1!
1(
b11111000101 T
1H
0G
1F
0E
0D
0C
1A
#2340000
1"
#2342000
0!
0(
#2352000
0"
#2354000
1!
1(
b100000010000 T
0H
0F
1D
0B
0A
0@
0?
0>
1=
#2364000
1"
07
05
14
13
11
b11110001 S
#2366000
0!
0(
#2376000
0"
#2378000
1!
1(
b100100000001 T
1H
0D
1@
#2388000
1"
#2390000
0!
0(
#2400000
0"
#2402000
1!
1(
b100111110010 T
0H
1G
1D
1C
1B
1A
#2412000
1"
16
15
03
02
b10011101 S
#2414000
0!
0(
#2424000
0"
#2426000
1!
1(
b101010001111 T
1H
1F
1E
0D
0C
0B
0@
1?
#2436000
1"
#2438000
0!
0(
#2448000
0"
#2450000
1!
1(
b101100101100 T
0H
0G
1C
0A
1@
#2460000
1"
06
13
01
1$
b111001 S
b1100 K
b1100 Q
b1001001011100 T
1D
0C
1B
0@
0=
1<
#2462000
0!
0(
#2472000
0"
#2474000
1!
1(
b1001010010101 T
1H
0E
0B
1A
#2484000
1"
#2486000
0!
0(
#2496000
0"
#2498000
1!
1(
b1001011001110 T
0H
1G
1E
0D
1B
#2508000
1"
08
17
03
12
11
0%
0$
b11011010 S
b0 K
0J
b0 Q
b100101000010 T
0F
0E
0A
1@
0?
1=
0<
#2510000
0!
0(
#2520000
0"
#2522000
1!
1(
b101000011100 T
0G
1F
1E
1D
0B
0@
1?
#2532000
1"
#2534000
0!
0(
#2544000
0"
#2546000
1!
1(
b101011110110 T
1G
0E
1C
1B
1A
#2556000
1"
18
16
01
b1011111 S
1J
#2558000
0!
0(
#2568000
0"
#2570000
1!
1(
b101101010101 T
1H
0G
0C
0A
1@
#2580000
1"
#2582000
0!
0(
#2592000
0"
#2594000
1!
1(
b101110110100 T
0H
1C
0B
1A
#2604000
1"
08
07
04
11
1$
b11001100 S
b1000 K
0J
b1000 Q
b10101110000 T
0F
1B
0A
0?
1>
0=
#2606000
0!
0(
#2616000
0"
#2618000
1!
1(
b11000111100 T
1F
1E
0B
0@
1?
#2628000
1"
#2630000
0!
0(
#2640000
0"
#2642000
1!
1(
b11100001000 T
0F
0D
0C
1@
#2652000
1"
18
06
b11001001 S
1J
#2654000
0!
0(
#2664000
0"
#2666000
1!
1(
b11111010001 T
1H
0E
1D
1B
1A
#2676000
1"
#2678000
0!
0(
#2688000
0"
#2690000
1!
1(
b100010011010 T
0H
1G
1E
0B
0@
0?
0>
1=
#2700000
1"
08
16
05
14
0$
b11010100 S
b0 K
0J
b0 Q
b101110110100 T
0G
1F
0E
1C
1@
1?
#2702000
0!
0(
#2712000
0"
#2714000
1!
1(
b110010001000 T
0F
1E
0D
0C
0@
0?
1>
#2724000
1"
#2726000
0!
0(
#2736000
0"
#2738000
1!
1(
b110101011100 T
1F
1D
1B
0A
1@
#2748000
1"
18
17
15
04
02
b10001111 S
1J
#2750000
0!
0(
#2760000
0"
#2762000
1!
1(
b110111101011 T
1H
1G
0F
0D
1C
1A
#2772000
1"
#2774000
0!
0(
#2784000
0"
#2786000
1!
1(
b111001111010 T
0H
1D
0A
0@
1?
#2796000
1"
08
07
13
12
1%
b11101100 S
b100 K
0J
b100 Q
b101100101100 T
0G
1F
0D
0B
1@
0>
#2798000
0!
0(
#2808000
0"
#2810000
1!
1(
b110000011000 T
0F
1D
0C
0@
0?
1>
#2820000
1"
#2822000
0!
0(
#2832000
0"
#2834000
1!
1(
b110100000100 T
1F
0E
0D
1@
#2844000
1"
18
17
06
03
02
0%
1$
b10001011 S
b1000 K
1J
b1000 Q
b100010011010 T
1G
0F
1E
1D
1A
0@
0>
#2846000
0!
0(
#2856000
0"
#2858000
1!
1(
b100100100101 T
1H
0G
1F
0E
0D
1C
0A
1@
#2868000
1"
#2870000
0!
0(
#2880000
0"
#2882000
1!
1(
b100110110000 T
0H
0F
1D
1A
#2892000
1"
08
16
0$
b10001110 S
b0 K
0J
b0 Q
b111001111010 T
1G
1E
1B
0A
0@
1?
1>
#2894000
0!
0(
#2904000
0"
#2906000
1!
1(
b111100001000 T
0G
0D
0C
0B
1@
#2916000
1"
#2918000
0!
0(
#2928000
0"
#2930000
1!
1(
b111110010110 T
1G
1F
0E
1D
1A
#2940000
1"
18
07
06
05
13
12
01
1%
b1100001 S
b100 K
1J
b100 Q
b110100000100 T
0G
0D
0A
0?
#2942000
0!
0(
#2952000
0"
#2954000
1!
1(
b110101100101 T
1H
1C
1B
#2964000
1"
#2966000
0!
0(
#2976000
0"
#2978000
1!
1(
b110111000110 T
0H
1G
0C
1A
#2988000
1"
08
14
03
11
0%
1$
b11010000 S
b1000 K
0J
b1000 Q
b100110110000 T
0G
0F
1D
1C
0B
0>
#2990000
0!
0(
#3000000
0"
#3002000
1!
1(
b101010000000 T
0D
0C
0@
1?
#3012000
1"
#3014000
0!
0(
#3024000
0"
#3026000
1!
1(
b101101010000 T
1D
1B
0A
1@
#3036000
1"
18
15
02
01
1%
b11001 S
b1100 K
1J
b1100 Q
b1001011001110 T
1G
1F
1E
0D
1A
0@
0=
1<
#3038000
0!
0(
#3048000
0"
#3050000
1!
1(
b1001011100111 T
1H
0E
1C
#3060000
1"
#3062000
0!
0(
#3072000
0"
#3074000
1!
1(
b1001100000000 T
0H
0G
0F
0C
0B
0A
1@
#3084000
1"
08
05
13
12
11
b11110000 S
0J
#3086000
0!
0(
#3096000
0"
#3098000
1!
1(
b1001111110000 T
1D
1C
1B
1A
#3108000
1"
#3110000
0!
0(
#3120000
0"
#3122000
1!
1(
b1010011100000 T
0D
0@
0?
1>
#3132000
1"
17
03
02
0$
1#
b10010010 S
b10100 K
b10100 Q
b11100010110 T
1G
1F
1D
0C
0B
0A
1@
1?
0<
#3134000
0!
0(
#3144000
0"
#3146000
1!
1(
b11110101000 T
0G
0F
1E
0D
1C
1A
#3156000
1"
#3158000
0!
0(
#3168000
0"
#3170000
1!
1(
b100000111010 T
1G
1D
0A
0@
0?
0>
1=
#3180000
1"
18
07
16
15
04
0#
b10001101 S
b100 K
1J
b100 Q
b110111000110 T
1F
0E
0D
0C
1B
1A
1@
1>
#3182000
0!
0(
#3192000
0"
#3194000
1!
1(
b111001010011 T
1H
0F
1D
0A
0@
1?
#3204000
1"
#3206000
0!
0(
#3216000
0"
#3218000
1!
1(
b111011100000 T
0H
0G
0D
1C
1A
#3228000
1"
08
05
14
13
0%
b10110100 S
b0 K
0J
b0 Q
b111110010110 T
1G
1F
1D
0C
0B
1@
#3230000
0!
0(
#3240000
0"
#3242000
1!
1(
b1000001001010 T
0F
1E
0D
1B
0A
0@
0?
0>
0=
1<
#3252000
1"
#3254000
0!
0(
#3264000
0"
#3266000
1!
1(
b1000011111110 T
1F
1D
1C
1A
#3276000
1"
18
17
06
12
01
1$
b1110011 S
b1000 K
1J
b1000 Q
b101101010000 T
0G
0F
0E
0C
0A
1@
1?
1=
0<
#3278000
0!
0(
#3288000
0"
#3290000
1!
1(
b101111000011 T
1H
1G
0D
1A
#3300000
1"
#3302000
0!
0(
#3312000
0"
#3314000
1!
1(
b110000110110 T
0H
1F
1D
1C
0B
0A
0@
0?
1>
#3324000
1"
16
15
04
02
11
b10101111 S
#3326000
0!
0(
#3336000
0"
#3338000
1!
1(
b110011100101 T
1H
0G
0D
1B
1A
#3348000
1"
#3350000
0!
0(
#3360000
0"
#3362000
1!
1(
b110110010100 T
0H
1D
0C
0B
1@
#3372000
1"
06
05
03
1%
b10000011 S
b1100 K
b1100 Q
b1010011100000 T
0F
0D
1C
1B
0@
0=
1<
#3374000
0!
0(
#3384000
0"
#3386000
1!
1(
b1010101100011 T
1H
1G
0A
1@
#3396000
1"
#3398000
0!
0(
#3408000
0"
#3410000
1!
1(
b1010111100110 T
0H
1F
1A
#3420000
1"
16
15
13
12
0$
b11101111 S
b100 K
b100 Q
b111011100000 T
0G
0F
0@
1?
1=
0<
#3422000
0!
0(
#3432000
0"
#3434000
1!
1(
b111111001111 T
1H
1G
1F
1E
0C
1@
#3444000
1"
#3446000
0!
0(
#3456000
0"
#3458000
1!
1(
b1000010111110 T
0H
1D
1C
0B
0@
0?
0>
0=
1<
#3468000
1"
07
03
02
1#
b10001101 S
b10100 K
b10100 Q
b100000111010 T
0F
0A
1=
0<
#3470000
0!
0(
#3480000
0"
#3482000
1!
1(
b100011000111 T
1H
1F
0E
0D
0C
1B
1A
#3492000
1"
#3494000
0!
0(
#3504000
0"
#3506000
1!
1(
b100101010100 T
0H
0G
1D
0A
1@
#3516000
1"
08
17
06
05
01
0%
0#
b10 S
b0 K
0J
b0 Q
b1000011111110 T
1G
1E
1C
1A
0@
0=
1<
#3518000
0!
0(
#3528000
0"
#3530000
1!
1(
b1000100000000 T
0G
0F
0E
0D
0C
0B
0A
1@
#3540000
1"
#3542000
0!
0(
#3552000
0"
#3554000
1!
1(
b1000100000010 T
1G
#3564000
1"
18
07
16
11
1%
b10000101 S
b100 K
1J
b100 Q
b1000010111110 T
1F
1E
1D
1C
1A
0@
#3566000
0!
0(
#3576000
0"
#3578000
1!
1(
b1000101000011 T
1H
0F
0E
0D
0C
1B
0A
1@
#3588000
1"
#3590000
0!
0(
#3600000
0"
#3602000
1!
1(
b1000111001000 T
0H
0G
1E
1A
#3612000
1"
08
17
06
15
01
b1010 S
0J
#3614000
0!
0(
#3624000
0"
#3626000
1!
1(
b1000111010010 T
1G
0E
1D
#3636000
1"
#3638000
0!
0(
#3648000
0"
#3650000
1!
1(
b1000111011100 T
0G
1F
1E
#3660000
1"
18
07
16
05
11
1#
b10000101 S
b10100 K
1J
b10100 Q
b100101010100 T
0E
0A
1=
0<
#3662000
0!
0(
#3672000
0"
#3674000
1!
1(
b100111011001 T
1H
0F
1E
1A
#3684000
1"
#3686000
0!
0(
#3696000
0"
#3698000
1!
1(
b101001011110 T
0H
1G
1F
0A
0@
1?
#3708000
1"
17
12
b11000111 S
#3710000
0!
0(
#3720000
0"
#3722000
1!
1(
b101100100101 T
1H
0G
0E
0D
1C
0B
1@
#3732000
1"
#3734000
0!
0(
#3744000
0"
#3746000
1!
1(
b101111101100 T
0H
1E
1B
1A
#3756000
1"
06
15
14
13
01
0#
b1111011 S
b100 K
b100 Q
b1000111011100 T
1D
0C
0?
0=
1<
#3758000
0!
0(
#3768000
0"
#3770000
1!
1(
b1001001010111 T
1H
1G
0E
0A
0@
1?
#3780000
1"
#3782000
0!
0(
#3792000
0"
#3794000
1!
1(
b1001011010010 T
0H
0F
1A
#3804000
1"
07
05
0%
b1110001 S
b0 K
b0 Q
b1000100000010 T
0D
0B
0A
1@
0?
#3806000
0!
0(
#3816000
0"
