testbench/tbenchoutputs/downstream/downstreamdump.vcd
$date
	Thu Mar 10 08:15:37 2022
$end
$version
	QuestaSim Version 10.7c
$end
$timescale
	1ps
$end

$scope module tb_top_DOWNSTREAM $end
$var reg 1 ! clk $end
$var reg 1 " slowclk $end

$scope module DOWNSTREAM $end
$var wire 1 # client_id [4] $end
$var wire 1 $ client_id [3] $end
$var wire 1 % client_id [2] $end
$var wire 1 & client_id [1] $end
$var wire 1 ' client_id [0] $end
$var wire 1 ( clk $end
$var wire 1 ) amount [15] $end
$var wire 1 * amount [14] $end
$var wire 1 + amount [13] $end
$var wire 1 , amount [12] $end
$var wire 1 - amount [11] $end
$var wire 1 . amount [10] $end
$var wire 1 / amount [9] $end
$var wire 1 0 amount [8] $end
$var wire 1 1 amount [7] $end
$var wire 1 2 amount [6] $end
$var wire 1 3 amount [5] $end
$var wire 1 4 amount [4] $end
$var wire 1 5 amount [3] $end
$var wire 1 6 amount [2] $end
$var wire 1 7 amount [1] $end
$var wire 1 8 amount [0] $end
$var wire 1 9 cancelled_orders [15] $end
$var wire 1 : cancelled_orders [14] $end
$var wire 1 ; cancelled_orders [13] $end
$var wire 1 < cancelled_orders [12] $end
$var wire 1 = cancelled_orders [11] $end
$var wire 1 > cancelled_orders [10] $end
$var wire 1 ? cancelled_orders [9] $end
$var wire 1 @ cancelled_orders [8] $end
$var wire 1 A cancelled_orders [7] $end
$var wire 1 B cancelled_orders [6] $end
$var wire 1 C cancelled_orders [5] $end
$var wire 1 D cancelled_orders [4] $end
$var wire 1 E cancelled_orders [3] $end
$var wire 1 F cancelled_orders [2] $end
$var wire 1 G cancelled_orders [1] $end
$var wire 1 H cancelled_orders [0] $end
$var reg 1 I old_client $end
$var reg 1 J old_amount $end
$var reg 1 K ack $end
$var reg 1 L update_memory $end
$var wire 1 M memwr $end

$scope module RAMDOWNSTREAM $end
$var parameter 32 N D_WIDTH $end
$var parameter 32 O A_WIDTH $end
$var parameter 32 P A_MAX $end
$var wire 1 ( clk_write $end
$var wire 1 # downstream_address_write [4] $end
$var wire 1 $ downstream_address_write [3] $end
$var wire 1 % downstream_address_write [2] $end
$var wire 1 & downstream_address_write [1] $end
$var wire 1 ' downstream_address_write [0] $end
$var wire 1 Q data_write [15] $end
$var wire 1 R data_write [14] $end
$var wire 1 S data_write [13] $end
$var wire 1 T data_write [12] $end
$var wire 1 U data_write [11] $end
$var wire 1 V data_write [10] $end
$var wire 1 W data_write [9] $end
$var wire 1 X data_write [8] $end
$var wire 1 Y data_write [7] $end
$var wire 1 Z data_write [6] $end
$var wire 1 [ data_write [5] $end
$var wire 1 \ data_write [4] $end
$var wire 1 ] data_write [3] $end
$var wire 1 ^ data_write [2] $end
$var wire 1 _ data_write [1] $end
$var wire 1 ` data_write [0] $end
$var wire 1 a downstream_write_enable $end
$var wire 1 ( clk_read $end
$var wire 1 # address_read [4] $end
$var wire 1 $ address_read [3] $end
$var wire 1 % address_read [2] $end
$var wire 1 & address_read [1] $end
$var wire 1 ' address_read [0] $end
$var reg 16 b data_read [15:0] $end
$var reg 1 c memwr $end
$var integer 32 d i $end
$upscope $end

$scope module DOWNSTREAMPROCESSOR $end
$var parameter 2 e IDLE $end
$var parameter 2 f STATE_UPDATE_MEM $end
$var wire 1 ( clk $end
$var wire 1 g ack $end
$var wire 1 M memwr $end
$var wire 1 h out $end
$var reg 2 i state [1:0] $end
$upscope $end
$upscope $end
$upscope $end

$scope begin tb_top_DOWNSTREAM_sv_unit $end
$upscope $end

$scope begin std $end
$upscope $end
$enddefinitions $end
#0
$dumpvars
0!
0"
xI
xJ
xK
xL
bx b
xc
bx i
b10000 N
b101 O
b100000 P
b1 e
b10 f
b100000 d
0(
x'
x&
x%
x$
x#
x8
x7
x6
x5
x4
x3
x2
x1
x0
x/
x.
x-
x,
x+
x*
x)
xH
xG
xF
xE
xD
xC
xB
xA
x@
x?
x>
x=
x<
x;
x:
x9
xM
xg
xa
x`
x_
x^
x]
x\
x[
xZ
xY
xX
xW
xV
xU
xT
xS
xR
xQ
xh
$end
#2000
1!
1(
0c
b1 i
0h
0L
0a
0M
#12000
1"
18
17
16
05
04
13
12
11
00
0/
0.
0-
0,
0+
0*
0)
0'
0&
1%
1$
0#
b0 b
0H
0G
0F
0E
0D
0C
0B
0A
0@
0?
0>
0=
0<
0;
0:
09
1`
1_
1^
0]
0\
1[
1Z
1Y
0X
0W
0V
0U
0T
0S
0R
0Q
1J
0I
1K
1g
b10 i
1h
1L
1a
#14000
0!
0(
#24000
0"
#26000
1!
1(
1c
b11100111 b
1H
1G
1F
1C
1B
1A
0`
1]
0[
1X
1M
b1 i
0h
0L
0a
#36000
1"
#38000
0!
0(
#48000
0"
#50000
1!
1(
b10 i
0c
1h
1L
1a
0M
#60000
1"
08
06
03
01
0%
b0 b
1`
0_
0^
1[
0Z
0Y
0H
0G
0F
0C
0B
0A
0`
1_
0]
0[
1Z
0X
0J
#62000
0!
0(
#72000
0"
#74000
1!
1(
1c
b1000010 b
1G
1B
0_
1^
0Z
1Y
1M
b1 i
0h
0L
0a
#84000
1"
#86000
0!
0(
#96000
0"
#98000
1!
1(
b10 i
0c
1h
1L
1a
0M
#108000
1"
07
15
14
13
02
1%
b11100111 b
1_
0^
1]
1\
1[
1Z
0Y
1H
1F
1C
1A
1`
1^
0[
0Z
1X
#110000
0!
0(
#120000
0"
#122000
1!
1(
1c
b100011111 b
1E
1D
0C
0B
0A
1@
0]
1Z
1M
b1 i
0h
0L
0a
#132000
1"
#134000
0!
0(
#144000
0"
#146000
1!
1(
b10 i
0c
1h
1L
1a
0M
#156000
1"
18
17
03
12
0`
0^
1]
1[
1J
#158000
0!
0(
#168000
0"
#170000
1!
1(
1c
b101111010 b
0H
0F
1C
1B
1`
0_
1^
0]
0[
1Y
1M
b1 i
0h
0L
0a
#180000
1"
#182000
0!
0(
#192000
0"
#194000
1!
1(
b10 i
0c
1h
1L
1a
0M
#204000
1"
07
13
0%
0$
b0 b
1_
0^
1[
0G
0E
0D
0C
0B
0@
0_
1]
0Y
0X
#206000
0!
0(
#216000
0"
#218000
1!
1(
1c
b1111001 b
1H
1E
1D
1C
1B
0`
1_
0]
1Y
1M
b1 i
0h
0L
0a
#228000
1"
#230000
0!
0(
#240000
0"
#242000
1!
1(
b10 i
0c
1h
1L
1a
0M
#252000
1"
08
04
03
1%
1$
b101111010 b
1`
0_
0\
0[
0H
1G
1@
0`
1_
1X
0J
#254000
0!
0(
#264000
0"
#266000
1!
1(
1c
b111000010 b
0E
0D
0C
1A
1]
0Z
0Y
0X
1W
1M
b1 i
0h
0L
0a
#276000
1"
#278000
0!
0(
#288000
0"
#290000
1!
1(
b10 i
0c
1h
1L
1a
0M
#300000
1"
16
05
02
0%
0$
b1111001 b
1^
0]
1Z
1Y
1X
0W
1H
0G
1E
1D
1C
0A
0@
1`
0_
1]
1\
1[
0Y
0X
#302000
0!
0(
#312000
0"
#314000
1!
1(
1c
b1111101 b
1F
0^
0]
0\
0[
0Z
1Y
1M
b1 i
0h
0L
0a
#324000
1"
#326000
0!
0(
#336000
0"
#338000
1!
1(
b10 i
0c
1h
1L
1a
0M
#348000
1"
15
11
1%
1$
b111000010 b
1]
0Y
1X
0H
1G
0F
0E
0D
0C
1A
1@
0`
1_
1^
1Z
0X
1W
#350000
0!
0(
#360000
0"
#362000
1!
1(
1c
b1001001110 b
1F
1E
0A
0@
1?
0^
1\
1Y
1M
b1 i
0h
0L
0a
#372000
1"
#374000
0!
0(
#384000
0"
#386000
1!
1(
b10 i
0c
1h
1L
1a
0M
#396000
1"
18
06
14
13
1`
1^
0]
0\
0Z
0Y
1X
1J
#398000
0!
0(
#408000
0"
#410000
1!
1(
1c
b1100000111 b
1H
0E
0B
1@
0`
0_
0^
1Z
1Y
1M
b1 i
0h
0L
0a
#420000
1"
#422000
0!
0(
#432000
0"
#434000
1!
1(
b10 i
0c
1h
1L
1a
0M
#444000
1"
08
05
04
01
0$
b0 b
1`
1_
1^
1[
0Z
0Y
0H
0G
0F
0@
0?
0`
0_
0^
0X
0W
0J
#446000
0!
0(
#456000
0"
#458000
1!
1(
1c
b100000 b
1C
0[
1Z
1M
b1 i
0h
0L
0a
#468000
1"
#470000
0!
0(
#480000
0"
#482000
1!
1(
b10 i
0c
1h
1L
1a
0M
#492000
1"
18
15
14
12
11
1$
b1100000111 b
1`
1]
1\
0Z
1X
1H
1G
1F
0C
1@
1?
0`
0]
0\
0X
1V
1J
#494000
0!
0(
#504000
0"
#506000
1!
1(
1c
b10000000000 b
0H
0G
0F
0@
0?
1>
1`
1]
1\
1[
1Z
1Y
1M
b1 i
0h
0L
0a
#516000
1"
#518000
0!
0(
#528000
0"
#530000
1!
1(
b10 i
0c
1h
1L
1a
0M
#540000
1"
17
05
04
02
1_
0]
0\
0Z
#542000
0!
0(
#552000
0"
#554000
1!
1(
1c
b10010100011 b
1H
1G
1C
1A
0`
1^
0[
1Z
0Y
1X
1M
b1 i
0h
0L
0a
#564000
1"
#566000
0!
0(
#576000
0"
#578000
1!
1(
b10 i
0c
1h
1L
1a
0M
#588000
1"
08
03
0%
b1000010 b
1`
0_
1[
0Z
0H
0C
1B
0A
0>
0`
0[
1Z
1Y
0X
0V
0J
#590000
0!
0(
#600000
0"
#602000
1!
1(
1c
b11000100 b
0G
1F
1A
1_
0Y
1X
1M
b1 i
0h
0L
0a
#612000
1"
#614000
0!
0(
#624000
0"
#626000
1!
1(
b10 i
0c
1h
1L
1a
0M
#636000
1"
18
12
01
1%
0$
b100000 b
1`
0Z
0F
1C
0B
0A
0^
1[
1Z
0X
1J
#638000
0!
0(
#648000
0"
#650000
1!
1(
1c
b1100011 b
1H
1G
1B
0`
1^
0Z
1Y
1M
b1 i
0h
0L
0a
#660000
1"
#662000
0!
0(
#672000
0"
#674000
1!
1(
b10 i
0c
1h
1L
1a
0M
#684000
1"
08
16
15
14
11
0%
b1111101 b
1`
0_
0^
0[
1Z
0Y
1X
0G
1F
1E
1D
1_
1]
1\
0J
#686000
0!
0(
#696000
0"
#698000
1!
1(
1c
b101011011 b
1G
0F
0C
1@
0_
1[
0Z
0X
1W
1M
b1 i
0h
0L
0a
#708000
1"
#710000
0!
0(
#720000
0"
#722000
1!
1(
b10 i
0c
1h
1L
1a
0M
#732000
1"
18
13
1%
1#
b0 b
0`
1_
0[
1Z
0H
0G
0E
0D
0B
0@
1`
1^
1[
1Y
0W
1J
#734000
0!
0(
#744000
0"
#746000
1!
1(
1c
b11111111 b
1H
1G
1F
1E
1D
1C
1B
1A
0`
1X
1M
b1 i
0h
0L
0a
#756000
1"
#758000
0!
0(
#768000
0"
#770000
1!
1(
b10 i
0c
1h
1L
1a
0M
#780000
1"
08
07
05
02
0#
b1100011 b
1`
0^
0]
0Z
0F
0E
0D
0A
1^
0[
0Y
0J
#782000
0!
0(
#792000
0"
#794000
1!
1(
1c
b100010111 b
1F
1D
0C
0B
1@
0^
1]
0\
1Z
1Y
1M
b1 i
0h
0L
0a
#804000
1"
#806000
0!
0(
#816000
0"
#818000
1!
1(
b10 i
0c
1h
1L
1a
0M
#828000
1"
15
03
0%
b101011011 b
0]
1\
1[
0Z
0F
1E
1B
1^
1Z
#830000
0!
0(
#840000
0"
#842000
1!
1(
1c
b111110111 b
1F
0E
1C
1A
0^
0[
0Z
0X
1W
1M
b1 i
0h
0L
0a
#852000
1"
#854000
0!
0(
#864000
0"
#866000
1!
1(
b10 i
0c
1h
1L
1a
0M
#876000
1"
18
17
06
05
04
13
12
01
0`
1]
1Z
0Y
1J
#878000
0!
0(
#888000
0"
#890000
1!
1(
1c
b1001011010 b
0H
0F
1E
0C
0A
0@
1?
1`
0_
1^
1[
0Z
1Y
1M
b1 i
0h
0L
0a
#900000
1"
#902000
0!
0(
#912000
0"
#914000
1!
1(
b10 i
0c
1h
1L
1a
0M
#924000
1"
16
15
03
02
1%
1#
b11111111 b
0^
0\
1Z
0Y
1H
1F
1C
1A
0?
0`
1_
1^
0[
0Z
1X
0W
#926000
0!
0(
#936000
0"
#938000
1!
1(
1c
b100001110 b
0H
0D
0C
0B
0A
1@
1`
0_
1\
1M
b1 i
0h
0L
0a
#948000
1"
#950000
0!
0(
#960000
0"
#962000
1!
1(
b10 i
0c
1h
1L
1a
0M
#972000
1"
07
06
05
13
11
1$
0#
b10010100011 b
1_
0\
1[
1Y
1H
0F
0E
1C
1A
0@
1>
0`
0_
0]
0[
1Z
0Y
1V
#974000
0!
0(
#984000
0"
#986000
1!
1(
1c
b10101000100 b
0H
0G
1F
0C
1B
0A
1@
1`
1[
1Y
1M
b1 i
0h
0L
0a
#996000
1"
#998000
0!
0(
#1008000
0"
#1010000
1!
1(
b10 i
0c
1h
1L
1a
0M
#1020000
1"
08
16
15
0$
1#
b100001110 b
0`
0^
1\
1G
1E
0B
0>
1_
1]
0Z
0V
0J
#1022000
0!
0(
#1032000
0"
#1034000
1!
1(
1c
b110111010 b
0F
1D
1C
1A
1^
0]
0\
1Z
0Y
0X
1W
1M
b1 i
0h
0L
0a
#1044000
1"
#1046000
0!
0(
#1056000
0"
#1058000
1!
1(
b10 i
0c
1h
1L
1a
0M
#1068000
1"
14
03
12
01
1\
0[
0Z
#1070000
0!
0(
#1080000
0"
#1082000
1!
1(
1c
b1000010110 b
1F
0E
0C
0A
0@
1?
0^
1[
1Z
1M
b1 i
0h
0L
0a
#1092000
1"
#1094000
0!
0(
#1104000
0"
#1106000
1!
1(
b10 i
0c
1h
1L
1a
0M
#1116000
1"
17
06
1$
0#
b10101000100 b
0_
0G
0D
1B
1@
0?
1>
1_
1^
1]
0[
0Z
1Y
1X
0W
1V
#1118000
0!
0(
#1128000
0"
#1130000
1!
1(
1c
b10110011110 b
1G
1E
1D
0B
1A
0_
0^
1[
1Z
1M
b1 i
0h
0L
0a
#1140000
1"
#1142000
0!
0(
#1152000
0"
#1154000
1!
1(
b10 i
0c
1h
1L
1a
0M
#1164000
1"
07
16
05
13
0%
b11000100 b
1_
0]
0[
0Z
0Y
0X
1W
0G
0E
0D
1B
0@
0>
0_
1]
1[
1X
0W
0V
#1166000
0!
0(
#1176000
0"
#1178000
1!
1(
1c
b100111000 b
0F
1E
1D
1C
0B
0A
1@
1^
0\
1Y
1M
b1 i
0h
0L
0a
#1188000
1"
#1190000
0!
0(
#1200000
0"
#1202000
1!
1(
b10 i
0c
1h
1L
1a
0M
#1212000
1"
17
1%
b10110011110 b
1_
1G
1F
0C
1A
1>
0_
0]
1\
0[
0Y
0X
1W
1V
#1214000
0!
0(
#1224000
0"
#1226000
1!
1(
1c
b11000010100 b
0G
0E
0A
0@
1?
1_
0^
1]
0\
1Y
1M
b1 i
0h
0L
0a
#1236000
1"
#1238000
0!
0(
#1248000
0"
#1250000
1!
1(
b10 i
0c
1h
1L
1a
0M
#1260000
1"
18
06
15
04
02
11
0%
0$
b1001011010 b
1`
1^
1\
1[
1G
0F
1E
1B
0>
0_
0]
0\
0[
0Y
1X
0V
1J
#1262000
0!
0(
#1272000
0"
#1274000
1!
1(
1c
b1100000101 b
1H
0G
1F
0E
0D
0B
1@
0`
0^
1\
1[
1Y
1M
b1 i
0h
0L
0a
#1284000
1"
#1286000
0!
0(
#1296000
0"
#1298000
1!
1(
b10 i
0c
1h
1L
1a
0M
#1308000
1"
07
16
1%
1#
b1000010110 b
1_
0H
1G
1D
0@
1`
0\
0[
1Z
0X
#1310000
0!
0(
#1320000
0"
#1322000
1!
1(
1c
b1011000011 b
1H
0F
0D
1B
1A
0`
0_
1\
1[
0Y
1X
1M
b1 i
0h
0L
0a
#1332000
1"
#1334000
0!
0(
#1344000
0"
#1346000
1!
1(
b10 i
0c
1h
1L
1a
0M
#1356000
1"
06
01
1$
0#
b11000010100 b
1^
1]
0\
1Y
0X
0H
0G
1F
1D
0B
0A
1>
1`
1\
0Z
0Y
1V
#1358000
0!
0(
#1368000
0"
#1370000
1!
1(
1c
b11000111101 b
1H
1E
1C
0`
1_
0]
0\
1Z
1M
b1 i
0h
0L
0a
#1380000
1"
#1382000
0!
0(
#1392000
0"
#1394000
1!
1(
b10 i
0c
1h
1L
1a
0M
#1404000
1"
05
1]
1\
0[
#1406000
0!
0(
#1416000
0"
#1418000
1!
1(
1c
b11001011110 b
0H
1G
0C
1B
1`
1[
1M
b1 i
0h
0L
0a
#1428000
1"
#1430000
0!
0(
#1440000
0"
#1442000
1!
1(
b10 i
0c
1h
1L
1a
0M
#1452000
1"
08
17
03
12
11
0%
0$
b1100000101 b
0`
0_
0^
0]
0\
0Z
1X
1H
0G
0E
0D
0B
1@
0>
1`
1_
1^
0[
1Z
1Y
0V
0J
#1454000
0!
0(
#1464000
0"
#1466000
1!
1(
1c
b1111000111 b
1G
1B
1A
0_
0^
1]
0Z
0X
0W
1V
1M
b1 i
0h
0L
0a
#1476000
1"
#1478000
0!
0(
#1488000
0"
#1490000
1!
1(
b10 i
0c
1h
1L
1a
0M
#1500000
1"
18
07
15
14
13
1%
1$
b11001011110 b
0`
0]
1Z
0H
1E
1D
0A
0@
1>
1`
1_
1^
1\
0Y
1X
1W
1J
#1502000
0!
0(
#1512000
0"
#1514000
1!
1(
1c
b11101010111 b
1H
0E
1@
0`
0_
0^
0X
0W
0V
1U
1M
b1 i
0h
0L
0a
#1524000
1"
#1526000
0!
0(
#1536000
0"
#1538000
1!
1(
b10 i
0c
1h
1L
1a
0M
#1548000
1"
17
05
03
01
0$
1#
b1011000011 b
1_
1]
0\
1[
0Z
1Y
1X
1W
1V
0U
0F
0D
1A
0@
0>
1^
0]
1\
0[
0Y
0V
#1550000
0!
0(
#1560000
0"
#1562000
1!
1(
1c
b1100010110 b
0H
1F
1D
0B
0A
1@
1`
0_
0^
1]
0\
1[
1Z
1M
b1 i
0h
0L
0a
#1572000
1"
#1574000
0!
0(
#1584000
0"
#1586000
1!
1(
b10 i
0c
1h
1L
1a
0M
#1596000
1"
08
16
15
04
13
02
11
0#
b100010111 b
0`
1^
0]
0[
1Y
1H
0?
1`
0W
0J
#1598000
0!
0(
#1608000
0"
#1610000
1!
1(
1c
b111000101 b
0G
0D
1B
1A
1_
0^
1\
1[
0Y
0X
1W
1M
b1 i
0h
0L
0a
#1620000
1"
#1622000
0!
0(
#1632000
0"
#1634000
1!
1(
b10 i
0c
1h
1L
1a
0M
#1644000
1"
18
03
12
0%
b1111000111 b
0`
0_
1^
0[
0Z
1Y
1G
1?
1_
0W
1V
1J
#1646000
0!
0(
#1656000
0"
#1658000
1!
1(
1c
b10010010110 b
0H
1D
0B
0@
0?
1>
1`
0_
0\
1[
1Z
0Y
1X
1M
b1 i
0h
0L
0a
#1668000
1"
#1670000
0!
0(
#1680000
0"
#1682000
1!
1(
b10 i
0c
1h
1L
1a
0M
#1692000
1"
02
01
1%
1#
b1100010110 b
0Z
1Y
0X
0A
1@
1?
0>
0Y
1X
1W
0V
#1694000
0!
0(
#1704000
0"
#1706000
1!
1(
1c
b1100100101 b
1H
0G
0D
1C
0`
1\
1M
b1 i
0h
0L
0a
#1716000
1"
#1718000
0!
0(
#1728000
0"
#1730000
1!
1(
b10 i
0c
1h
1L
1a
0M
#1740000
1"
06
14
12
11
0#
b111000101 b
0^
0\
0[
0X
0W
1V
0C
1B
1A
0?
1[
1Y
1W
0V
#1742000
0!
0(
#1752000
0"
#1754000
1!
1(
1c
b1010100000 b
0H
0F
1C
0B
0@
1?
1`
1_
1]
1\
1Z
0Y
1X
1M
b1 i
0h
0L
0a
#1764000
1"
#1766000
0!
0(
#1776000
0"
#1778000
1!
1(
b10 i
0c
1h
1L
1a
0M
#1788000
1"
05
13
01
0%
1$
b100111000 b
0]
0[
0Z
1E
1D
0A
1@
0?
1]
0\
1[
1Y
0W
#1790000
0!
0(
#1800000
0"
#1802000
1!
1(
1c
b110101011 b
1H
1G
0D
1A
0`
1^
1\
0[
0Y
0X
1W
1M
b1 i
0h
0L
0a
#1812000
1"
#1814000
0!
0(
#1824000
0"
#1826000
1!
1(
b10 i
0c
1h
1L
1a
0M
#1836000
1"
08
16
04
1%
0$
1#
b1100100101 b
1`
0_
0^
0]
0G
1F
0E
0A
1?
1_
1]
0\
1Y
1X
0J
#1838000
0!
0(
#1848000
0"
#1850000
1!
1(
1c
b1110001011 b
1G
0F
1E
0C
1A
0_
0]
1\
1[
1Z
1M
b1 i
0h
0L
0a
#1860000
1"
#1862000
0!
0(
#1872000
0"
#1874000
1!
1(
b10 i
0c
1h
1L
1a
0M
#1884000
1"
18
07
15
02
11
1$
0#
b11101010111 b
0`
1]
0Z
0Y
0X
0W
1V
1F
0E
1D
1B
0A
1>
1^
0]
0\
0[
0V
1U
1J
#1886000
0!
0(
#1896000
0"
#1898000
1!
1(
1c
b100000000100 b
0H
0G
0D
0B
0@
0?
0>
1=
1`
0^
1\
1[
1Y
1M
b1 i
0h
0L
0a
#1908000
1"
#1910000
0!
0(
#1920000
0"
#1922000
1!
1(
b10 i
0c
1h
1L
1a
0M
#1932000
1"
08
06
05
14
03
12
01
0`
1^
0[
1Z
0Y
0J
#1934000
0!
0(
#1944000
0"
#1946000
1!
1(
1c
b100001010100 b
1D
1B
0\
1[
0Z
1Y
1M
b1 i
0h
0L
0a
#1956000
1"
#1958000
0!
0(
#1968000
0"
#1970000
1!
1(
b10 i
0c
1h
1L
1a
0M
#1980000
1"
16
11
0%
b110101011 b
0^
1]
0Y
1X
1H
1G
0F
1E
0D
1C
0B
1A
1@
0=
1`
1_
1^
1\
1Z
0X
1W
0U
#1982000
0!
0(
#1992000
0"
#1994000
1!
1(
1c
b1001111111 b
1F
1D
1B
0A
0@
1?
0^
0]
0[
1X
1M
b1 i
0h
0L
0a
#2004000
1"
#2006000
0!
0(
#2016000
0"
#2018000
1!
1(
b10 i
0c
1h
1L
1a
0M
#2028000
1"
17
04
13
02
1%
0$
b1010100000 b
0_
1^
0\
1[
0Z
0H
0G
0F
0E
0D
0B
1A
0`
1_
0[
1Z
#2030000
0!
0(
#2040000
0"
#2042000
1!
1(
1c
b1101000110 b
1G
1F
0C
1B
0A
1@
0_
1]
1[
1Y
1M
b1 i
0h
0L
0a
#2052000
1"
#2054000
0!
0(
#2064000
0"
#2066000
1!
1(
b10 i
0c
1h
1L
1a
0M
#2076000
1"
18
06
03
01
0%
1$
b1001111111 b
1`
0^
0[
0Y
1H
1E
1D
1C
0@
0`
1_
0]
0Z
1Y
0X
1J
#2078000
0!
0(
#2088000
0"
#2090000
1!
1(
1c
b1010000010 b
0H
0F
0E
0D
0C
0B
1A
1`
0_
1^
1M
b1 i
0h
0L
0a
#2100000
1"
#2102000
0!
0(
#2112000
0"
#2114000
1!
1(
b10 i
0c
1h
1L
1a
0M
#2124000
1"
08
16
14
13
0`
0^
1]
1\
1[
0J
#2126000
0!
0(
#2136000
0"
#2138000
1!
1(
1c
b1010111000 b
0G
1E
1D
1C
1_
1^
0\
1Z
1M
b1 i
0h
0L
0a
#2148000
1"
#2150000
0!
0(
#2160000
0"
#2162000
1!
1(
b10 i
0c
1h
1L
1a
0M
#2172000
1"
18
12
1%
0$
b1101000110 b
1`
0Z
0Y
1X
1G
1F
0E
0D
0C
1B
0A
1@
0_
1\
1Y
1J
#2174000
0!
0(
#2184000
0"
#2186000
1!
1(
1c
b1110111101 b
1H
0G
1E
1D
1C
0B
1A
0`
0]
0Y
0X
0W
1V
1M
b1 i
0h
0L
0a
#2196000
1"
#2198000
0!
0(
#2208000
0"
#2210000
1!
1(
b10 i
0c
1h
1L
1a
0M
#2220000
1"
08
06
15
03
11
1$
b100001010100 b
1`
1_
0[
1Y
0H
0E
0C
1B
0A
0@
0?
1=
0`
1]
0\
1[
0Y
1X
0V
1U
0J
#2222000
0!
0(
#2232000
0"
#2234000
1!
1(
1c
b100100101110 b
1G
1E
0D
1C
0B
1@
0_
0^
0[
0X
1W
1M
b1 i
0h
0L
0a
#2244000
1"
#2246000
0!
0(
#2256000
0"
#2258000
1!
1(
b10 i
0c
1h
1L
1a
0M
#2268000
1"
18
04
02
01
0%
0$
b10010010110 b
1`
1\
1[
1X
0W
0E
1D
0C
1A
0@
1>
0=
0]
0\
1Y
0X
1V
0U
1J
#2270000
0!
0(
#2280000
0"
#2282000
1!
1(
1c
b10010100001 b
1H
0G
0F
0D
1C
0`
1^
1]
1M
b1 i
0h
0L
0a
#2292000
1"
#2294000
0!
0(
#2304000
0"
#2306000
1!
1(
b10 i
0c
1h
1L
1a
0M
#2316000
1"
12
1%
b1110111101 b
1Z
1F
1E
1D
1@
1?
0>
0^
0[
0Z
0Y
#2318000
0!
0(
#2328000
0"
#2330000
1!
1(
1c
b10000001000 b
0H
0F
0D
0C
0A
0@
0?
1>
1`
1_
0]
1\
1Z
1M
b1 i
0h
0L
0a
#2340000
1"
#2342000
0!
0(
#2352000
0"
#2354000
1!
1(
b10 i
0c
1h
1L
1a
0M
#2364000
1"
07
05
14
13
11
0_
1]
1[
1Y
#2366000
0!
0(
#2376000
0"
#2378000
1!
1(
1c
b10011111001 b
1H
1D
1C
1B
1A
0`
1_
0\
1X
1M
b1 i
0h
0L
0a
#2388000
1"
#2390000
0!
0(
#2400000
0"
#2402000
1!
1(
b10 i
0c
1h
1L
1a
0M
#2412000
1"
16
15
03
02
1^
0]
1\
0[
0Z
#2414000
0!
0(
#2424000
0"
#2426000
1!
1(
1c
b10110010110 b
0H
1G
1F
0E
0C
0B
1@
1`
0^
1[
0Y
0X
1W
1M
b1 i
0h
0L
0a
#2436000
1"
#2438000
0!
0(
#2448000
0"
#2450000
1!
1(
b10 i
0c
1h
1L
1a
0M
#2460000
1"
06
13
01
1$
b100100101110 b
1^
1]
0\
0[
1Z
1Y
1X
0W
1E
0D
1C
0A
0>
1=
0]
1[
0Y
0V
1U
#2462000
0!
0(
#2472000
0"
#2474000
1!
1(
1c
b100101100111 b
1H
0E
1B
0`
0_
0^
0Z
1Y
1M
b1 i
0h
0L
0a
#2484000
1"
#2486000
0!
0(
#2496000
0"
#2498000
1!
1(
b10 i
0c
1h
1L
1a
0M
#2508000
1"
08
17
03
12
11
0%
0$
b10010100001 b
1`
0[
1Z
0Y
0X
1W
0G
0F
0B
1A
0@
1>
0=
1_
1]
1\
1[
1X
0W
1V
0U
0J
#2510000
0!
0(
#2520000
0"
#2522000
1!
1(
1c
b10101111011 b
1G
1E
1D
1B
0A
1@
0_
1^
0]
0[
0X
1W
1M
b1 i
0h
0L
0a
#2532000
1"
#2534000
0!
0(
#2544000
0"
#2546000
1!
1(
b10 i
0c
1h
1L
1a
0M
#2556000
1"
18
16
01
0`
1_
0^
1]
1Y
1X
0W
1J
#2558000
0!
0(
#2568000
0"
#2570000
1!
1(
1c
b10111011010 b
0H
0C
1A
1`
0_
1[
0Z
0Y
0X
1W
1M
b1 i
0h
0L
0a
#2580000
1"
#2582000
0!
0(
#2592000
0"
#2594000
1!
1(
b10 i
0c
1h
1L
1a
0M
#2604000
1"
08
07
04
11
1$
b1010111000 b
0`
1_
1^
0]
0\
1Y
0G
1C
0B
0@
1?
0>
0_
0[
1X
0V
0J
#2606000
0!
0(
#2616000
0"
#2618000
1!
1(
1c
b1110000100 b
1F
0E
0D
0C
1@
0^
1\
1Z
0Y
0X
0W
1V
1M
b1 i
0h
0L
0a
#2628000
1"
#2630000
0!
0(
#2640000
0"
#2642000
1!
1(
b10 i
0c
1h
1L
1a
0M
#2652000
1"
18
06
1`
1^
1]
0\
1J
#2654000
0!
0(
#2664000
0"
#2666000
1!
1(
1c
b10001001101 b
1H
1E
1B
0A
0@
0?
1>
0`
1_
0]
1\
0Z
1X
1M
b1 i
0h
0L
0a
#2676000
1"
#2678000
0!
0(
#2688000
0"
#2690000
1!
1(
b10 i
0c
1h
1L
1a
0M
#2700000
1"
08
16
05
14
0$
b10111011010 b
1`
0_
0^
0\
1[
0H
1G
0F
1D
1A
1@
0`
1_
1^
1]
1Y
0X
1W
0J
#2702000
0!
0(
#2712000
0"
#2714000
1!
1(
1c
b11010101110 b
1F
0D
1C
0B
0@
1?
0^
0]
0[
1X
1M
b1 i
0h
0L
0a
#2724000
1"
#2726000
0!
0(
#2736000
0"
#2738000
1!
1(
b10 i
0c
1h
1L
1a
0M
#2748000
1"
18
17
15
04
02
1`
0_
1^
1]
1\
1[
0Y
1J
#2750000
0!
0(
#2760000
0"
#2762000
1!
1(
1c
b11100111101 b
1H
0G
1D
0A
1@
0`
0\
0[
1Z
1Y
1M
b1 i
0h
0L
0a
#2772000
1"
#2774000
0!
0(
#2784000
0"
#2786000
1!
1(
b10 i
0c
1h
1L
1a
0M
#2796000
1"
08
07
13
12
1%
b10110010110 b
1`
0^
1[
0Z
0Y
0X
0W
0V
1U
0H
1G
0E
0C
1A
0?
0`
1_
0]
0[
1Y
1W
1V
0U
0J
#2798000
0!
0(
#2808000
0"
#2810000
1!
1(
1c
b11010000010 b
0F
0D
0@
1?
1^
1]
1[
1Z
0Y
1X
1M
b1 i
0h
0L
0a
#2820000
1"
#2822000
0!
0(
#2832000
0"
#2834000
1!
1(
b10 i
0c
1h
1L
1a
0M
#2844000
1"
18
17
06
03
02
0%
1$
b10001001101 b
1`
0_
0[
0Z
1H
0G
1F
1E
1B
0A
0?
0`
0^
1\
1Z
1Y
0X
0W
1J
#2846000
0!
0(
#2856000
0"
#2858000
1!
1(
1c
b10011011000 b
0H
0F
1D
1A
1`
1_
0]
0\
1[
0Y
1X
1M
b1 i
0h
0L
0a
#2868000
1"
#2870000
0!
0(
#2880000
0"
#2882000
1!
1(
b10 i
0c
1h
1L
1a
0M
#2892000
1"
08
16
0$
b11100111101 b
0`
1^
1H
1F
1C
0B
0A
1@
1?
1`
0^
1]
0[
1Y
1W
0J
#2894000
0!
0(
#2904000
0"
