testbench/outputs/top/UPDOWNSTREAM_sim.txt
# vsim seg_work_opt -c -logfile testbench/outputs/top/UPDOWNSTREAM_sim.txt -do "run -all; quit" 
# Start time: 17:44:51 on Apr 19,2022
# //  Questa Sim-64
# //  Version 10.7c linux_x86_64 Aug 17 2018
# //
# //  Copyright 1991-2018 Mentor Graphics Corporation
# //  All Rights Reserved.
# //
# //  QuestaSim and its associated documentation contain trade
# //  secrets and commercial or financial information that are the property of
# //  Mentor Graphics Corporation and are privileged, confidential,
# //  and exempt from disclosure under the Freedom of Information Act,
# //  5 U.S.C. Section 552. Furthermore, this information
# //  is prohibited from disclosure under the Trade Secrets Act,
# //  18 U.S.C. Section 1905.
# //
# Loading sv_std.std
# Loading work.tb_top_UPDOWNSTREAM_sv_unit(fast)
# Loading work.tb_top_UPDOWNSTREAM(fast)
# Loading work.updownstream_if(fast)
# Loading work.cache_def(fast)
# Loading work.top_sv_unit(fast)
# Loading work.top(fast)
# Loading work.dm_cache_fsm_upstream(fast)
# Loading work.dm_cache_tag_upstream(fast)
# Loading work.dm_data_upstream(fast)
# Loading work.dm_cache_fsm_downstream(fast)
# Loading work.dm_cache_tag_downstream(fast)
# Loading work.dm_data_downstream(fast)
# Loading work.SLT(fast)
# Loading work.upstream_processor(fast)
# Loading work.updownstream_if(fast)
# run -all
# Loading rom.
# --------- [DRIVER] Reset Started ---------
# --------- [DRIVER] Reset Ended ---------
# T=2000 [Generator] starting
# repeat count = 100
# T=2000, [DRIVER] starting ---------
# T=2000, [MONITOR] starting ---------
# T=2000, [SCOREBOARD] starting ---------
# 
# 
# 
# 
# 
#  T=66000 [MONITOR] transaction information: cpu_client_id = 0xx cpu_amount = 0xx cpu_new_max = 0xx cpu_go = 0xx exchange_client_id = 0xx exchange_amount = 0xx exchange_go = 0xx 
# 
# 
# 
# 
# 
#  T=66000 [SCOREBOARD] transaction information: cpu_client_id = 0xx cpu_amount = 0xx cpu_new_max = 0xx cpu_go = 0xx exchange_client_id = 0xx exchange_amount = 0xx exchange_go = 0xx 
# 
#  T=66000 [SCOREBOARD] TOP LEVEL transaction information: 
# accumulated_orders = 0xx cancelled_orders = 0xx  max_to_trade = 0xx  
# 
# 
# 
# 
# 
#  T=154000 [MONITOR] transaction information: cpu_client_id = 0x8 cpu_amount = 0xced30551 cpu_new_max = 0x1 cpu_go = 0x0 exchange_client_id = 0x1 exchange_amount = 0xc0ce exchange_go = 0x1 
# 
# 
# 
# 
# 
#  T=154000 [SCOREBOARD] transaction information: cpu_client_id = 0x8 cpu_amount = 0xced30551 cpu_new_max = 0x1 cpu_go = 0x0 exchange_client_id = 0x1 exchange_amount = 0xc0ce exchange_go = 0x1 
# 
#  T=154000 [SCOREBOARD] TOP LEVEL transaction information: 
# accumulated_orders = 0x0 cancelled_orders = 0x0  max_to_trade = 0x1ff54  
# 
# 
# 
# 
# 
#  T=242000 [MONITOR] transaction information: cpu_client_id = 0x4 cpu_amount = 0x8f2cc6e cpu_new_max = 0x0 cpu_go = 0x1 exchange_client_id = 0xb exchange_amount = 0x2c76 exchange_go = 0x0 
# 
# 
# 
# 
# 
#  T=242000 [SCOREBOARD] transaction information: cpu_client_id = 0x4 cpu_amount = 0x8f2cc6e cpu_new_max = 0x0 cpu_go = 0x1 exchange_client_id = 0xb exchange_amount = 0x2c76 exchange_go = 0x0 
# 
#  T=242000 [SCOREBOARD] TOP LEVEL transaction information: 
# accumulated_orders = 0x0 cancelled_orders = 0x0  max_to_trade = 0x0  
# 
# 
# 
# 
# 
#  T=330000 [MONITOR] transaction information: cpu_client_id = 0x8 cpu_amount = 0xea3ad6d8 cpu_new_max = 0x1 cpu_go = 0x0 exchange_client_id = 0x11 exchange_amount = 0xf742 exchange_go = 0x1 
# 
# 
# 
# 
# 
#  T=330000 [SCOREBOARD] transaction information: cpu_client_id = 0x8 cpu_amount = 0xea3ad6d8 cpu_new_max = 0x1 cpu_go = 0x0 exchange_client_id = 0x11 exchange_amount = 0xf742 exchange_go = 0x1 
# 
#  T=330000 [SCOREBOARD] TOP LEVEL transaction information: 
# accumulated_orders = 0x0 cancelled_orders = 0x0  max_to_trade = 0x0  
# 
# 
# 
# 
# 
#  T=418000 [MONITOR] transaction information: cpu_client_id = 0x4 cpu_amount = 0xd77f4a34 cpu_new_max = 0x0 cpu_go = 0x1 exchange_client_id = 0x8 exchange_amount = 0xae3b exchange_go = 0x0 
# 
# 
# 
# 
# 
#  T=418000 [SCOREBOARD] transaction information: cpu_client_id = 0x4 cpu_amount = 0xd77f4a34 cpu_new_max = 0x0 cpu_go = 0x1 exchange_client_id = 0x8 exchange_amount = 0xae3b exchange_go = 0x0 
# 
#  T=418000 [SCOREBOARD] TOP LEVEL transaction information: 
# accumulated_orders = 0x0 cancelled_orders = 0x0  max_to_trade = 0x0  
# 
# 
# 
# 
# 
#  T=506000 [MONITOR] transaction information: cpu_client_id = 0x0 cpu_amount = 0x5bcee68d cpu_new_max = 0x1 cpu_go = 0x0 exchange_client_id = 0x9 exchange_amount = 0xa6bb exchange_go = 0x0 
# 
# 
# 
# 
# 
#  T=506000 [SCOREBOARD] transaction information: cpu_client_id = 0x0 cpu_amount = 0x5bcee68d cpu_new_max = 0x1 cpu_go = 0x0 exchange_client_id = 0x9 exchange_amount = 0xa6bb exchange_go = 0x0 
# 
#  T=506000 [SCOREBOARD] TOP LEVEL transaction information: 
# accumulated_orders = 0x0 cancelled_orders = 0x0  max_to_trade = 0x1ff54  
# 
# 
# 
# 
# 
#  T=594000 [MONITOR] transaction information: cpu_client_id = 0x8 cpu_amount = 0xf448f0db cpu_new_max = 0x1 cpu_go = 0x0 exchange_client_id = 0x1d exchange_amount = 0xf960 exchange_go = 0x1 
# 
# 
# 
# 
# 
#  T=594000 [SCOREBOARD] transaction information: cpu_client_id = 0x8 cpu_amount = 0xf448f0db cpu_new_max = 0x1 cpu_go = 0x0 exchange_client_id = 0x1d exchange_amount = 0xf960 exchange_go = 0x1 
# 
#  T=594000 [SCOREBOARD] TOP LEVEL transaction information: 
# accumulated_orders = 0x0 cancelled_orders = 0x0  max_to_trade = 0x1ff54  
# 
# 
# 
# 
# 
#  T=682000 [MONITOR] transaction information: cpu_client_id = 0xc cpu_amount = 0x6a84a1af cpu_new_max = 0x1 cpu_go = 0x0 exchange_client_id = 0x1b exchange_amount = 0x61ae exchange_go = 0x1 
# 
# 
# 
# 
# 
#  T=682000 [SCOREBOARD] transaction information: cpu_client_id = 0xc cpu_amount = 0x6a84a1af cpu_new_max = 0x1 cpu_go = 0x0 exchange_client_id = 0x1b exchange_amount = 0x61ae exchange_go = 0x1 
# 
#  T=682000 [SCOREBOARD] TOP LEVEL transaction information: 
# accumulated_orders = 0x0 cancelled_orders = 0x0  max_to_trade = 0x1ff54  
# 
# 
# 
# 
# 
#  T=770000 [MONITOR] transaction information: cpu_client_id = 0x0 cpu_amount = 0x1b7a66ab cpu_new_max = 0x1 cpu_go = 0x0 exchange_client_id = 0x3 exchange_amount = 0xfb62 exchange_go = 0x0 
# 
# 
# 
# 
# 
#  T=770000 [SCOREBOARD] transaction information: cpu_client_id = 0x0 cpu_amount = 0x1b7a66ab cpu_new_max = 0x1 cpu_go = 0x0 exchange_client_id = 0x3 exchange_amount = 0xfb62 exchange_go = 0x0 
# 
#  T=770000 [SCOREBOARD] TOP LEVEL transaction information: 
# accumulated_orders = 0x0 cancelled_orders = 0x0  max_to_trade = 0x1ff54  
# 
# 
# 
# 
# 
#  T=858000 [MONITOR] transaction information: cpu_client_id = 0x4 cpu_amount = 0x5a77281f cpu_new_max = 0x1 cpu_go = 0x0 exchange_client_id = 0x13 exchange_amount = 0x4fc8 exchange_go = 0x1 
# 
# 
# 
# 
# 
#  T=858000 [SCOREBOARD] transaction information: cpu_client_id = 0x4 cpu_amount = 0x5a77281f cpu_new_max = 0x1 cpu_go = 0x0 exchange_client_id = 0x13 exchange_amount = 0x4fc8 exchange_go = 0x1 
# 
#  T=858000 [SCOREBOARD] TOP LEVEL transaction information: 
# accumulated_orders = 0x0 cancelled_orders = 0x0  max_to_trade = 0x1ff54  
# 
# 
# 
# 
# 
#  T=946000 [MONITOR] transaction information: cpu_client_id = 0x8 cpu_amount = 0xc068a05e cpu_new_max = 0x0 cpu_go = 0x1 exchange_client_id = 0x5 exchange_amount = 0x3c48 exchange_go = 0x0 
# 
# 
# 
# 
# 
#  T=946000 [SCOREBOARD] transaction information: cpu_client_id = 0x8 cpu_amount = 0xc068a05e cpu_new_max = 0x0 cpu_go = 0x1 exchange_client_id = 0x5 exchange_amount = 0x3c48 exchange_go = 0x0 
# 
#  T=946000 [SCOREBOARD] TOP LEVEL transaction information: 
# accumulated_orders = 0x0 cancelled_orders = 0x0  max_to_trade = 0x1ff54  
# 
# 
# 
# 
# 
#  T=1034000 [MONITOR] transaction information: cpu_client_id = 0xc cpu_amount = 0x5c41b338 cpu_new_max = 0x1 cpu_go = 0x0 exchange_client_id = 0x19 exchange_amount = 0xa5a5 exchange_go = 0x1 
# 
# 
# 
# 
# 
#  T=1034000 [SCOREBOARD] transaction information: cpu_client_id = 0xc cpu_amount = 0x5c41b338 cpu_new_max = 0x1 cpu_go = 0x0 exchange_client_id = 0x19 exchange_amount = 0xa5a5 exchange_go = 0x1 
# 
#  T=1034000 [SCOREBOARD] TOP LEVEL transaction information: 
# accumulated_orders = 0x0 cancelled_orders = 0x0  max_to_trade = 0x1ff54  
# 
# 
# 
# 
# 
#  T=1122000 [MONITOR] transaction information: cpu_client_id = 0x4 cpu_amount = 0xfe56e48f cpu_new_max = 0x1 cpu_go = 0x0 exchange_client_id = 0x11 exchange_amount = 0xf13e exchange_go = 0x0 
# 
# 
# 
# 
# 
#  T=1122000 [SCOREBOARD] transaction information: cpu_client_id = 0x4 cpu_amount = 0xfe56e48f cpu_new_max = 0x1 cpu_go = 0x0 exchange_client_id = 0x11 exchange_amount = 0xf13e exchange_go = 0x0 
# 
#  T=1122000 [SCOREBOARD] TOP LEVEL transaction information: 
# accumulated_orders = 0x0 cancelled_orders = 0x0  max_to_trade = 0x0  
# 
# 
# 
# 
# 
#  T=1210000 [MONITOR] transaction information: cpu_client_id = 0x8 cpu_amount = 0xd278cdf8 cpu_new_max = 0x1 cpu_go = 0x0 exchange_client_id = 0x1a exchange_amount = 0xf41d exchange_go = 0x0 
# 
# 
# 
# 
# 
#  T=1210000 [SCOREBOARD] transaction information: cpu_client_id = 0x8 cpu_amount = 0xd278cdf8 cpu_new_max = 0x1 cpu_go = 0x0 exchange_client_id = 0x1a exchange_amount = 0xf41d exchange_go = 0x0 
# 
#  T=1210000 [SCOREBOARD] TOP LEVEL transaction information: 
# accumulated_orders = 0x0 cancelled_orders = 0x0  max_to_trade = 0x0  
# 
# 
# 
# 
# 
#  T=1298000 [MONITOR] transaction information: cpu_client_id = 0x8 cpu_amount = 0x10974168 cpu_new_max = 0x0 cpu_go = 0x1 exchange_client_id = 0xb exchange_amount = 0x15aa exchange_go = 0x1 
# 
# 
# 
# 
# 
#  T=1298000 [SCOREBOARD] transaction information: cpu_client_id = 0x8 cpu_amount = 0x10974168 cpu_new_max = 0x0 cpu_go = 0x1 exchange_client_id = 0xb exchange_amount = 0x15aa exchange_go = 0x1 
# 
#  T=1298000 [SCOREBOARD] TOP LEVEL transaction information: 
# accumulated_orders = 0x0 cancelled_orders = 0x0  max_to_trade = 0x0  
# 
# 
# 
# 
# 
#  T=1386000 [MONITOR] transaction information: cpu_client_id = 0x0 cpu_amount = 0xdb4a8a19 cpu_new_max = 0x0 cpu_go = 0x1 exchange_client_id = 0x10 exchange_amount = 0xd90b exchange_go = 0x0 
# 
# 
# 
# 
# 
#  T=1386000 [SCOREBOARD] transaction information: cpu_client_id = 0x0 cpu_amount = 0xdb4a8a19 cpu_new_max = 0x0 cpu_go = 0x1 exchange_client_id = 0x10 exchange_amount = 0xd90b exchange_go = 0x0 
# 
#  T=1386000 [SCOREBOARD] TOP LEVEL transaction information: 
# accumulated_orders = 0x0 cancelled_orders = 0x0  max_to_trade = 0x6de8  
# 
# 
# 
# 
# 
#  T=1474000 [MONITOR] transaction information: cpu_client_id = 0x4 cpu_amount = 0xf2ead8a7 cpu_new_max = 0x0 cpu_go = 0x1 exchange_client_id = 0x1e exchange_amount = 0x8394 exchange_go = 0x1 
# 
# 
# 
# 
# 
#  T=1474000 [SCOREBOARD] transaction information: cpu_client_id = 0x4 cpu_amount = 0xf2ead8a7 cpu_new_max = 0x0 cpu_go = 0x1 exchange_client_id = 0x1e exchange_amount = 0x8394 exchange_go = 0x1 
# 
#  T=1474000 [SCOREBOARD] TOP LEVEL transaction information: 
# accumulated_orders = 0x0 cancelled_orders = 0x0  max_to_trade = 0x6de8  
# 
# 
# 
# 
# 
#  T=1562000 [MONITOR] transaction information: cpu_client_id = 0x8 cpu_amount = 0x7319a047 cpu_new_max = 0x0 cpu_go = 0x1 exchange_client_id = 0xc exchange_amount = 0xac3a exchange_go = 0x0 
# 
# 
# 
# 
# 
#  T=1562000 [SCOREBOARD] transaction information: cpu_client_id = 0x8 cpu_amount = 0x7319a047 cpu_new_max = 0x0 cpu_go = 0x1 exchange_client_id = 0xc exchange_amount = 0xac3a exchange_go = 0x0 
# 
#  T=1562000 [SCOREBOARD] TOP LEVEL transaction information: 
# accumulated_orders = 0x0 cancelled_orders = 0x0  max_to_trade = 0x1ff54  
# 
# 
# 
# 
# 
#  T=1650000 [MONITOR] transaction information: cpu_client_id = 0x8 cpu_amount = 0x48517d1b cpu_new_max = 0x1 cpu_go = 0x0 exchange_client_id = 0x14 exchange_amount = 0xb720 exchange_go = 0x1 
# 
# 
# 
# 
# 
#  T=1650000 [SCOREBOARD] transaction information: cpu_client_id = 0x8 cpu_amount = 0x48517d1b cpu_new_max = 0x1 cpu_go = 0x0 exchange_client_id = 0x14 exchange_amount = 0xb720 exchange_go = 0x1 
# 
#  T=1650000 [SCOREBOARD] TOP LEVEL transaction information: 
# accumulated_orders = 0x0 cancelled_orders = 0x0  max_to_trade = 0x1ff54  
# 
# 
# 
# 
# 
#  T=1738000 [MONITOR] transaction information: cpu_client_id = 0x0 cpu_amount = 0xa3094f28 cpu_new_max = 0x0 cpu_go = 0x1 exchange_client_id = 0x6 exchange_amount = 0xa2e8 exchange_go = 0x1 
# 
# 
# 
# 
# 
#  T=1738000 [SCOREBOARD] transaction information: cpu_client_id = 0x0 cpu_amount = 0xa3094f28 cpu_new_max = 0x0 cpu_go = 0x1 exchange_client_id = 0x6 exchange_amount = 0xa2e8 exchange_go = 0x1 
# 
#  T=1738000 [SCOREBOARD] TOP LEVEL transaction information: 
# accumulated_orders = 0x0 cancelled_orders = 0x0  max_to_trade = 0x1cc66  
# 
# 
# 
# 
# 
#  T=1826000 [MONITOR] transaction information: cpu_client_id = 0x8 cpu_amount = 0xd53aae44 cpu_new_max = 0x1 cpu_go = 0x0 exchange_client_id = 0x14 exchange_amount = 0xc9fd exchange_go = 0x1 
# 
# 
# 
# 
# 
#  T=1826000 [SCOREBOARD] transaction information: cpu_client_id = 0x8 cpu_amount = 0xd53aae44 cpu_new_max = 0x1 cpu_go = 0x0 exchange_client_id = 0x14 exchange_amount = 0xc9fd exchange_go = 0x1 
# 
#  T=1826000 [SCOREBOARD] TOP LEVEL transaction information: 
# accumulated_orders = 0x0 cancelled_orders = 0x0  max_to_trade = 0x1cc66  
# 
# 
# 
# 
# 
#  T=1914000 [MONITOR] transaction information: cpu_client_id = 0x8 cpu_amount = 0xbac6dac3 cpu_new_max = 0x1 cpu_go = 0x0 exchange_client_id = 0x18 exchange_amount = 0xad31 exchange_go = 0x0 
# 
# 
# 
# 
# 
#  T=1914000 [SCOREBOARD] transaction information: cpu_client_id = 0x8 cpu_amount = 0xbac6dac3 cpu_new_max = 0x1 cpu_go = 0x0 exchange_client_id = 0x18 exchange_amount = 0xad31 exchange_go = 0x0 
# 
#  T=1914000 [SCOREBOARD] TOP LEVEL transaction information: 
# accumulated_orders = 0x0 cancelled_orders = 0x0  max_to_trade = 0x1cc66  
# 
# 
# 
# 
# 
#  T=2002000 [MONITOR] transaction information: cpu_client_id = 0x8 cpu_amount = 0x3601d328 cpu_new_max = 0x1 cpu_go = 0x0 exchange_client_id = 0x1d exchange_amount = 0x7625 exchange_go = 0x0 
# 
# 
# 
# 
# 
#  T=2002000 [SCOREBOARD] transaction information: cpu_client_id = 0x8 cpu_amount = 0x3601d328 cpu_new_max = 0x1 cpu_go = 0x0 exchange_client_id = 0x1d exchange_amount = 0x7625 exchange_go = 0x0 
# 
#  T=2002000 [SCOREBOARD] TOP LEVEL transaction information: 
# accumulated_orders = 0x0 cancelled_orders = 0x0  max_to_trade = 0x1cc66  
# 
# 
# 
# 
# 
#  T=2090000 [MONITOR] transaction information: cpu_client_id = 0x4 cpu_amount = 0x230e0eb6 cpu_new_max = 0x1 cpu_go = 0x0 exchange_client_id = 0xe exchange_amount = 0x4db0 exchange_go = 0x0 
# 
# 
# 
# 
# 
#  T=2090000 [SCOREBOARD] transaction information: cpu_client_id = 0x4 cpu_amount = 0x230e0eb6 cpu_new_max = 0x1 cpu_go = 0x0 exchange_client_id = 0xe exchange_amount = 0x4db0 exchange_go = 0x0 
# 
#  T=2090000 [SCOREBOARD] TOP LEVEL transaction information: 
# accumulated_orders = 0x0 cancelled_orders = 0x0  max_to_trade = 0xeb1a  
# 
# 
# 
# 
# 
#  T=2178000 [MONITOR] transaction information: cpu_client_id = 0xc cpu_amount = 0x7a19cd30 cpu_new_max = 0x1 cpu_go = 0x0 exchange_client_id = 0x10 exchange_amount = 0x9d8c exchange_go = 0x0 
# 
# 
# 
# 
# 
#  T=2178000 [SCOREBOARD] transaction information: cpu_client_id = 0xc cpu_amount = 0x7a19cd30 cpu_new_max = 0x1 cpu_go = 0x0 exchange_client_id = 0x10 exchange_amount = 0x9d8c exchange_go = 0x0 
# 
#  T=2178000 [SCOREBOARD] TOP LEVEL transaction information: 
# accumulated_orders = 0x0 cancelled_orders = 0x0  max_to_trade = 0xeb1a  
# 
# 
# 
# 
# 
#  T=2266000 [MONITOR] transaction information: cpu_client_id = 0x4 cpu_amount = 0x46993239 cpu_new_max = 0x0 cpu_go = 0x1 exchange_client_id = 0x6 exchange_amount = 0xd668 exchange_go = 0x1 
# 
# 
# 
# 
# 
#  T=2266000 [SCOREBOARD] transaction information: cpu_client_id = 0x4 cpu_amount = 0x46993239 cpu_new_max = 0x0 cpu_go = 0x1 exchange_client_id = 0x6 exchange_amount = 0xd668 exchange_go = 0x1 
# 
#  T=2266000 [SCOREBOARD] TOP LEVEL transaction information: 
# accumulated_orders = 0x0 cancelled_orders = 0x0  max_to_trade = 0xeb1a  
# 
# 
# 
# 
# 
#  T=2354000 [MONITOR] transaction information: cpu_client_id = 0xc cpu_amount = 0xc911aa92 cpu_new_max = 0x0 cpu_go = 0x1 exchange_client_id = 0x4 exchange_amount = 0x7032 exchange_go = 0x1 
# 
# 
# 
# 
# 
#  T=2354000 [SCOREBOARD] transaction information: cpu_client_id = 0xc cpu_amount = 0xc911aa92 cpu_new_max = 0x0 cpu_go = 0x1 exchange_client_id = 0x4 exchange_amount = 0x7032 exchange_go = 0x1 
# 
#  T=2354000 [SCOREBOARD] TOP LEVEL transaction information: 
# accumulated_orders = 0x0 cancelled_orders = 0x0  max_to_trade = 0xeb1a  
# 
# 
# 
# 
# 
#  T=2442000 [MONITOR] transaction information: cpu_client_id = 0x8 cpu_amount = 0x1f4bf44b cpu_new_max = 0x0 cpu_go = 0x1 exchange_client_id = 0x1a exchange_amount = 0x54ae exchange_go = 0x1 
# 
# 
# 
# 
# 
#  T=2442000 [SCOREBOARD] transaction information: cpu_client_id = 0x8 cpu_amount = 0x1f4bf44b cpu_new_max = 0x0 cpu_go = 0x1 exchange_client_id = 0x1a exchange_amount = 0x54ae exchange_go = 0x1 
# 
#  T=2442000 [SCOREBOARD] TOP LEVEL transaction information: 
# accumulated_orders = 0x0 cancelled_orders = 0x0  max_to_trade = 0xeb1a  
# 
# 
# 
# 
# 
#  T=2530000 [MONITOR] transaction information: cpu_client_id = 0x0 cpu_amount = 0xe1c06c6a cpu_new_max = 0x0 cpu_go = 0x1 exchange_client_id = 0xb exchange_amount = 0x5b6d exchange_go = 0x1 
# 
# 
# 
# 
# 
#  T=2530000 [SCOREBOARD] transaction information: cpu_client_id = 0x0 cpu_amount = 0xe1c06c6a cpu_new_max = 0x0 cpu_go = 0x1 exchange_client_id = 0xb exchange_amount = 0x5b6d exchange_go = 0x1 
# 
#  T=2530000 [SCOREBOARD] TOP LEVEL transaction information: 
# accumulated_orders = 0x0 cancelled_orders = 0x0  max_to_trade = 0xeb1a  
# 
# 
# 
# 
# 
#  T=2618000 [MONITOR] transaction information: cpu_client_id = 0x0 cpu_amount = 0xab3f08d1 cpu_new_max = 0x1 cpu_go = 0x0 exchange_client_id = 0x17 exchange_amount = 0x3878 exchange_go = 0x1 
# 
# 
# 
# 
# 
#  T=2618000 [SCOREBOARD] transaction information: cpu_client_id = 0x0 cpu_amount = 0xab3f08d1 cpu_new_max = 0x1 cpu_go = 0x0 exchange_client_id = 0x17 exchange_amount = 0x3878 exchange_go = 0x1 
# 
#  T=2618000 [SCOREBOARD] TOP LEVEL transaction information: 
# accumulated_orders = 0x0 cancelled_orders = 0x0  max_to_trade = 0xeb1a  
# 
# 
# 
# 
# 
#  T=2706000 [MONITOR] transaction information: cpu_client_id = 0x0 cpu_amount = 0xceaa183c cpu_new_max = 0x1 cpu_go = 0x0 exchange_client_id = 0x1 exchange_amount = 0x31f0 exchange_go = 0x1 
# 
# 
# 
# 
# 
#  T=2706000 [SCOREBOARD] transaction information: cpu_client_id = 0x0 cpu_amount = 0xceaa183c cpu_new_max = 0x1 cpu_go = 0x0 exchange_client_id = 0x1 exchange_amount = 0x31f0 exchange_go = 0x1 
# 
#  T=2706000 [SCOREBOARD] TOP LEVEL transaction information: 
# accumulated_orders = 0x0 cancelled_orders = 0x0  max_to_trade = 0xeb1a  
# 
# 
# 
# 
# 
#  T=2794000 [MONITOR] transaction information: cpu_client_id = 0x0 cpu_amount = 0x853bf082 cpu_new_max = 0x0 cpu_go = 0x1 exchange_client_id = 0xf exchange_amount = 0x544f exchange_go = 0x0 
# 
# 
# 
# 
# 
#  T=2794000 [SCOREBOARD] transaction information: cpu_client_id = 0x0 cpu_amount = 0x853bf082 cpu_new_max = 0x0 cpu_go = 0x1 exchange_client_id = 0xf exchange_amount = 0x544f exchange_go = 0x0 
# 
#  T=2794000 [SCOREBOARD] TOP LEVEL transaction information: 
# accumulated_orders = 0x0 cancelled_orders = 0x0  max_to_trade = 0x16d2a  
# 
# 
# 
# 
# 
#  T=2882000 [MONITOR] transaction information: cpu_client_id = 0x4 cpu_amount = 0xf2230076 cpu_new_max = 0x1 cpu_go = 0x0 exchange_client_id = 0x18 exchange_amount = 0xb0d1 exchange_go = 0x1 
# 
# 
# 
# 
# 
#  T=2882000 [SCOREBOARD] transaction information: cpu_client_id = 0x4 cpu_amount = 0xf2230076 cpu_new_max = 0x1 cpu_go = 0x0 exchange_client_id = 0x18 exchange_amount = 0xb0d1 exchange_go = 0x1 
# 
#  T=2882000 [SCOREBOARD] TOP LEVEL transaction information: 
# accumulated_orders = 0x0 cancelled_orders = 0x0  max_to_trade = 0x16d2a  
# 
# 
# 
# 
# 
#  T=2970000 [MONITOR] transaction information: cpu_client_id = 0x8 cpu_amount = 0x702030ac cpu_new_max = 0x1 cpu_go = 0x0 exchange_client_id = 0x5 exchange_amount = 0xc3a1 exchange_go = 0x0 
# 
# 
# 
# 
# 
#  T=2970000 [SCOREBOARD] transaction information: cpu_client_id = 0x8 cpu_amount = 0x702030ac cpu_new_max = 0x1 cpu_go = 0x0 exchange_client_id = 0x5 exchange_amount = 0xc3a1 exchange_go = 0x0 
# 
#  T=2970000 [SCOREBOARD] TOP LEVEL transaction information: 
# accumulated_orders = 0x0 cancelled_orders = 0x0  max_to_trade = 0xeb1a  
# 
# 
# 
# 
# 
#  T=3058000 [MONITOR] transaction information: cpu_client_id = 0x0 cpu_amount = 0x1ea28e9b cpu_new_max = 0x1 cpu_go = 0x0 exchange_client_id = 0xd exchange_amount = 0xb558 exchange_go = 0x1 
# 
# 
# 
# 
# 
#  T=3058000 [SCOREBOARD] transaction information: cpu_client_id = 0x0 cpu_amount = 0x1ea28e9b cpu_new_max = 0x1 cpu_go = 0x0 exchange_client_id = 0xd exchange_amount = 0xb558 exchange_go = 0x1 
# 
#  T=3058000 [SCOREBOARD] TOP LEVEL transaction information: 
# accumulated_orders = 0x0 cancelled_orders = 0x0  max_to_trade = 0x1c080  
# 
# 
# 
# 
# 
#  T=3146000 [MONITOR] transaction information: cpu_client_id = 0x8 cpu_amount = 0x81d1e98 cpu_new_max = 0x1 cpu_go = 0x0 exchange_client_id = 0x1e exchange_amount = 0xa3a2 exchange_go = 0x1 
# 
# 
# 
# 
# 
#  T=3146000 [SCOREBOARD] transaction information: cpu_client_id = 0x8 cpu_amount = 0x81d1e98 cpu_new_max = 0x1 cpu_go = 0x0 exchange_client_id = 0x1e exchange_amount = 0xa3a2 exchange_go = 0x1 
# 
#  T=3146000 [SCOREBOARD] TOP LEVEL transaction information: 
# accumulated_orders = 0x0 cancelled_orders = 0x0  max_to_trade = 0x1c080  
# 
# 
# 
# 
# 
#  T=3234000 [MONITOR] transaction information: cpu_client_id = 0x0 cpu_amount = 0xada65fd8 cpu_new_max = 0x0 cpu_go = 0x1 exchange_client_id = 0xc exchange_amount = 0xfd95 exchange_go = 0x0 
# 
# 
# 
# 
# 
#  T=3234000 [SCOREBOARD] transaction information: cpu_client_id = 0x0 cpu_amount = 0xada65fd8 cpu_new_max = 0x0 cpu_go = 0x1 exchange_client_id = 0xc exchange_amount = 0xfd95 exchange_go = 0x0 
# 
#  T=3234000 [SCOREBOARD] TOP LEVEL transaction information: 
# accumulated_orders = 0x0 cancelled_orders = 0x0  max_to_trade = 0x14ee  
# 
# 
# 
# 
# 
#  T=3322000 [MONITOR] transaction information: cpu_client_id = 0x0 cpu_amount = 0xd25aa6a6 cpu_new_max = 0x0 cpu_go = 0x1 exchange_client_id = 0x14 exchange_amount = 0x60c3 exchange_go = 0x0 
# 
# 
# 
# 
# 
#  T=3322000 [SCOREBOARD] transaction information: cpu_client_id = 0x0 cpu_amount = 0xd25aa6a6 cpu_new_max = 0x0 cpu_go = 0x1 exchange_client_id = 0x14 exchange_amount = 0x60c3 exchange_go = 0x0 
# 
#  T=3322000 [SCOREBOARD] TOP LEVEL transaction information: 
# accumulated_orders = 0x0 cancelled_orders = 0x0  max_to_trade = 0x14ee  
# 
# 
# 
# 
# 
#  T=3410000 [MONITOR] transaction information: cpu_client_id = 0x8 cpu_amount = 0xa895c9d cpu_new_max = 0x0 cpu_go = 0x1 exchange_client_id = 0x2 exchange_amount = 0x3331 exchange_go = 0x0 
# 
# 
# 
# 
# 
#  T=3410000 [SCOREBOARD] transaction information: cpu_client_id = 0x8 cpu_amount = 0xa895c9d cpu_new_max = 0x0 cpu_go = 0x1 exchange_client_id = 0x2 exchange_amount = 0x3331 exchange_go = 0x0 
# 
#  T=3410000 [SCOREBOARD] TOP LEVEL transaction information: 
# accumulated_orders = 0x0 cancelled_orders = 0x0  max_to_trade = 0xb698  
# 
# 
# 
# 
# 
#  T=3498000 [MONITOR] transaction information: cpu_client_id = 0x0 cpu_amount = 0xa47f87b8 cpu_new_max = 0x1 cpu_go = 0x0 exchange_client_id = 0xd exchange_amount = 0x9929 exchange_go = 0x0 
# 
# 
# 
# 
# 
#  T=3498000 [SCOREBOARD] transaction information: cpu_client_id = 0x0 cpu_amount = 0xa47f87b8 cpu_new_max = 0x1 cpu_go = 0x0 exchange_client_id = 0xd exchange_amount = 0x9929 exchange_go = 0x0 
# 
#  T=3498000 [SCOREBOARD] TOP LEVEL transaction information: 
# accumulated_orders = 0x0 cancelled_orders = 0x0  max_to_trade = 0xb698  
# 
# 
# 
# 
# 
#  T=3586000 [MONITOR] transaction information: cpu_client_id = 0xc cpu_amount = 0xbd382ff0 cpu_new_max = 0x1 cpu_go = 0x0 exchange_client_id = 0xe exchange_amount = 0x57b6 exchange_go = 0x0 
# 
# 
# 
# 
# 
#  T=3586000 [SCOREBOARD] transaction information: cpu_client_id = 0xc cpu_amount = 0xbd382ff0 cpu_new_max = 0x1 cpu_go = 0x0 exchange_client_id = 0xe exchange_amount = 0x57b6 exchange_go = 0x0 
# 
#  T=3586000 [SCOREBOARD] TOP LEVEL transaction information: 
# accumulated_orders = 0x0 cancelled_orders = 0x0  max_to_trade = 0x91fe  
# 
# 
# 
# 
# 
#  T=3674000 [MONITOR] transaction information: cpu_client_id = 0x4 cpu_amount = 0x7d41f9fe cpu_new_max = 0x0 cpu_go = 0x1 exchange_client_id = 0x1 exchange_amount = 0xfde8 exchange_go = 0x0 
# 
# 
# 
# 
# 
#  T=3674000 [SCOREBOARD] transaction information: cpu_client_id = 0x4 cpu_amount = 0x7d41f9fe cpu_new_max = 0x0 cpu_go = 0x1 exchange_client_id = 0x1 exchange_amount = 0xfde8 exchange_go = 0x0 
# 
#  T=3674000 [SCOREBOARD] TOP LEVEL transaction information: 
# accumulated_orders = 0x0 cancelled_orders = 0x0  max_to_trade = 0x0  
# 
# 
# 
# 
# 
#  T=3762000 [MONITOR] transaction information: cpu_client_id = 0xc cpu_amount = 0x543c2712 cpu_new_max = 0x0 cpu_go = 0x1 exchange_client_id = 0xf exchange_amount = 0x632c exchange_go = 0x0 
# 
# 
# 
# 
# 
