testbench/outputs/top/UPDOWNSTREAM_sim.txt
# vsim seg_work_opt -c -logfile testbench/outputs/top/UPDOWNSTREAM_sim.txt -do "run -all; quit" 
# Start time: 14:28:50 on May 17,2022
# //  ModelSim SE-64 10.6d Feb 23 2018Linux 3.10.0-1160.25.1.el7.x86_64
# //
# //  Copyright 1991-2018 Mentor Graphics Corporation
# //  All Rights Reserved.
# //
# //  ModelSim SE-64 and its associated documentation contain trade
# //  secrets and commercial or financial information that are the property of
# //  Mentor Graphics Corporation and are privileged, confidential,
# //  and exempt from disclosure under the Freedom of Information Act,
# //  5 U.S.C. Section 552. Furthermore, this information
# //  is prohibited from disclosure under the Trade Secrets Act,
# //  18 U.S.C. Section 1905.
# //
# Loading sv_std.std
# Loading work.tb_top_UPDOWNSTREAM_sv_unit(fast)
# Loading work.tb_top_UPDOWNSTREAM(fast)
# Loading work.updownstream_if(fast)
# Loading work.cache_def(fast)
# Loading work.top_sv_unit(fast)
# Loading work.top(fast)
# Loading work.dm_cache_fsm_downstream(fast)
# Loading work.dm_cache_tag_downstream(fast)
# Loading work.dm_data_downstream(fast)
# Loading work.downmem_controller(fast)
# Loading work.upstream_processor_top(fast)
# Loading work.dm_cache_fsm_upstream(fast)
# Loading work.dm_cache_tag_upstream(fast)
# Loading work.dm_data_upstream(fast)
# Loading work.mem_controller(fast)
# Loading work.upstream_processor(fast)
# Loading work.downstream_top(fast)
# Loading work.updownstream_if(fast)
# ** Warning: (vsim-3839) code/shared/ramdownstream.sv(272): Variable '/tb_top_UPDOWNSTREAM/TOP/CACHEDOWNSTREAM/mem_data_down', driven via a port connection, is multiply driven. See code/shared/top.sv(60).
#    Time: 0 ps  Iteration: 0  Instance: /tb_top_UPDOWNSTREAM/TOP/CACHEDOWNSTREAM/cmem File: code/shared/ramdownstream.sv
# ** Warning: (vsim-3839) code/shared/ramupstream.sv(302): Variable '/tb_top_UPDOWNSTREAM/TOP/UPTOP/CACHEUPSTREAM/mem_data', driven via a port connection, is multiply driven. See code/upstream/upstream_top.sv(63).
#    Time: 0 ps  Iteration: 0  Instance: /tb_top_UPDOWNSTREAM/TOP/UPTOP/CACHEUPSTREAM/cmem File: code/shared/ramupstream.sv
# ** Warning: (vsim-3839) code/shared/top.sv(103): Variable '/tb_top_UPDOWNSTREAM/TOP/downdatareq.rdindex[3:0]', driven via a port connection, is multiply driven. See code/shared/top.sv(83).
#    Time: 0 ps  Iteration: 0  Instance: /tb_top_UPDOWNSTREAM/TOP File: code/shared/top.sv
# ** Warning: (vsim-3839) code/shared/top.sv(101): Variable '/tb_top_UPDOWNSTREAM/TOP/downdatareq.rdindex[9:4]', driven via a port connection, is multiply driven. See code/shared/top.sv(83).
#    Time: 0 ps  Iteration: 0  Instance: /tb_top_UPDOWNSTREAM/TOP File: code/shared/top.sv
# ** Warning: (vsim-3839) code/shared/top.sv(97): Variable '/tb_top_UPDOWNSTREAM/TOP/downdatareq.data', driven via a port connection, is multiply driven. See code/shared/top.sv(83).
#    Time: 0 ps  Iteration: 0  Instance: /tb_top_UPDOWNSTREAM/TOP File: code/shared/top.sv
# ** Warning: (vsim-3839) code/shared/top.sv(96): Variable '/tb_top_UPDOWNSTREAM/TOP/downdatareq.valid', driven via a port connection, is multiply driven. See code/shared/top.sv(83).
#    Time: 0 ps  Iteration: 0  Instance: /tb_top_UPDOWNSTREAM/TOP File: code/shared/top.sv
# run -all
# Loading downstream rom.
# ** Warning: (vsim-PLI-3407) Too many data words read on line 34 of file "code/shared/rom_empty.mem". (Current address [33], address range [0:32])    : code/shared/ramdownstream.sv(25)
#    Time: 0 ps  Iteration: 0  Instance: /tb_top_UPDOWNSTREAM/TOP/CACHEDOWNSTREAM/cdata
# Loading downstream memory.
# ** Warning: (vsim-PLI-3407) Too many data words read on line 123 of file "code/shared/rom_empty.mem". (Current address [122], address range [0:121])    : code/shared/ramdownstream.sv(78)
#    Time: 0 ps  Iteration: 0  Instance: /tb_top_UPDOWNSTREAM/TOP/CACHEDOWNSTREAM/cmem
# Loading upstream cache.
# ** Warning: (vsim-PLI-3407) Too many data words read on line 34 of file "code/shared/rom_trade.mem". (Current address [33], address range [0:32])    : code/shared/ramupstream.sv(31)
#    Time: 0 ps  Iteration: 0  Instance: /tb_top_UPDOWNSTREAM/TOP/UPTOP/CACHEUPSTREAM/cdata
# Loading upstream memory.
# ** Warning: (vsim-PLI-3407) Too many data words read on line 123 of file "code/shared/rom_trade.mem". (Current address [122], address range [0:121])    : code/shared/ramupstream.sv(102)
#    Time: 0 ps  Iteration: 0  Instance: /tb_top_UPDOWNSTREAM/TOP/UPTOP/CACHEUPSTREAM/cmem
# --------- [DRIVER] Reset Started ---------
# v_cpu_res.data: 0, cpu_req.data: 0, vstate 0
# rd from: 0, wr from: 0
# v_cpu_res.data: 0, cpu_req.data: 0, vstate 0
# rd from: 0, wr from: 0
# --------- [DRIVER] Reset Ended ---------
# T=2000 [Generator] starting
# repeat count = 100
# T=2000, [DRIVER] starting ---------
# T=2000, [MONITOR] starting ---------
# T=2000, [SCOREBOARD] starting ---------
# v_cpu_res.data: 0, cpu_req.data: 0, vstate 1
# rd from: 0, wr from: 0
# v_cpu_res.data: 0, cpu_req.data: c0ce, vstate 1
# rd from: 0, wr from: 10
# v_cpu_res.data: 0, cpu_req.data: c0ce, vstate 1
# rd from: 60, wr from: 10
# mem_data_down.ready from controller 1 mem.
# v_cpu_res.data: 0, cpu_req.data: c0ce, vstate 2
# rd from: 60, wr from: 10
# 
#  T=12000 [MONITOR] transaction information: cpu_client_id = 0xx cpu_amount = 0x0xxxx cpu_new_max = 0xx cpu_go = 0xx exchange_client_id = 0xx exchange_amount = 0xx exchange_go = 0xx 
#  T=12000 [SCOREBOARD] TOP LEVEL transaction information:    accumulated_orders = 0x0xxxx cancelled_orders = 0xx  max_to_trade = 0xx  
# v_cpu_res.data: 0, cpu_req.data: c0ce, vstate 1
# rd from: 60, wr from: 10
# v_cpu_res.data: 0, cpu_req.data: 2c76, vstate 1
# rd from: 0, wr from: b0
# v_cpu_res.data: 0, cpu_req.data: 2c76, vstate 1
# rd from: 50, wr from: b0
# v_cpu_res.data: 0, cpu_req.data: 2c76, vstate 2
# rd from: 50, wr from: b0
# ** Error: pass_checks was not computer properly for client 5; max to trade: 65484, accumulated amount: 0, cancelled amount: 0, pass_checks: 1, amount 52334
#    Time: 26 ns Started: 26 ns  Scope: tb_top_UPDOWNSTREAM.TOP.UPTOP.trade_pass_checks File: code/upstream/upstream_top.sv Line: 128
# ** Error: The amount was not indexed properly: amount 52334; correct amount (to write): 52334, correct_amount[31:16]: 0, (correct_amount == amount) 1 , (correct_amount[31:16]== amount) 0, ((correct_amount == amount)||(correct_amount[31:16]== amount))1
#    Time: 26 ns Started: 26 ns  Scope: tb_top_UPDOWNSTREAM.TOP.UPTOP.trade_correctamount_cpu File: code/upstream/upstream_top.sv Line: 116
# 
#  T=28000 [MONITOR] transaction information: cpu_client_id = 0x6 cpu_amount = 0x551 cpu_new_max = 0x1 cpu_go = 0x0 exchange_client_id = 0x1 exchange_amount = 0xc0ce exchange_go = 0x1 
#  T=28000 [SCOREBOARD] TOP LEVEL transaction information:    accumulated_orders = 0x0xxxx cancelled_orders = 0x0  max_to_trade = 0xx  
# v_cpu_res.data: 0, cpu_req.data: 2c76, vstate 1
# rd from: 50, wr from: b0
# v_cpu_res.data: 0, cpu_req.data: f742, vstate 1
# rd from: 0, wr from: 110
# v_cpu_res.data: 0, cpu_req.data: f742, vstate 1
# rd from: 20, wr from: 110
# v_cpu_res.data: 0, cpu_req.data: f742, vstate 2
# rd from: 20, wr from: 110
# 
#  T=44000 [MONITOR] transaction information: cpu_client_id = 0x5 cpu_amount = 0xcc6e cpu_new_max = 0x0 cpu_go = 0x1 exchange_client_id = 0xb exchange_amount = 0x2c76 exchange_go = 0x0 
#  T=44000 [SCOREBOARD] TOP LEVEL transaction information:    accumulated_orders = 0x0 cancelled_orders = 0x0  max_to_trade = 0xffcc  
# v_cpu_res.data: 0, cpu_req.data: f742, vstate 1
# rd from: 20, wr from: 110
# v_cpu_res.data: 0, cpu_req.data: ae3b, vstate 1
# rd from: 0, wr from: 80
# mem_data_down.ready from controller 1 mem.
# v_cpu_res.data: 0, cpu_req.data: ae3b, vstate 1
# rd from: 50, wr from: 80
# v_cpu_res.data: 0, cpu_req.data: ae3b, vstate 2
# rd from: 50, wr from: 80
# 
#  T=60000 [MONITOR] transaction information: cpu_client_id = 0x2 cpu_amount = 0xd6d8 cpu_new_max = 0x1 cpu_go = 0x0 exchange_client_id = 0x11 exchange_amount = 0xf742 exchange_go = 0x1 
#  T=60000 [SCOREBOARD] TOP LEVEL transaction information:    accumulated_orders = 0x0 cancelled_orders = 0x0  max_to_trade = 0xffcc  
# v_cpu_res.data: 0, cpu_req.data: ae3b, vstate 1
# rd from: 50, wr from: 80
# v_cpu_res.data: 0, cpu_req.data: a6bb, vstate 1
# rd from: 0, wr from: 90
# v_cpu_res.data: 0, cpu_req.data: a6bb, vstate 2
# rd from: 0, wr from: 90
# 
#  T=76000 [MONITOR] transaction information: cpu_client_id = 0x5 cpu_amount = 0x4a34 cpu_new_max = 0x0 cpu_go = 0x1 exchange_client_id = 0x8 exchange_amount = 0xae3b exchange_go = 0x0 
#  T=76000 [SCOREBOARD] TOP LEVEL transaction information:    accumulated_orders = 0x0 cancelled_orders = 0x0  max_to_trade = 0xffcc  
# v_cpu_res.data: 0, cpu_req.data: a6bb, vstate 1
# rd from: 0, wr from: 90
# v_cpu_res.data: 0, cpu_req.data: f960, vstate 1
# rd from: 0, wr from: 1d0
# v_cpu_res.data: 0, cpu_req.data: f960, vstate 1
# rd from: 20, wr from: 1d0
# v_cpu_res.data: 0, cpu_req.data: f960, vstate 2
# rd from: 20, wr from: 1d0
# 
#  T=92000 [MONITOR] transaction information: cpu_client_id = 0x0 cpu_amount = 0xe68d cpu_new_max = 0x1 cpu_go = 0x0 exchange_client_id = 0x9 exchange_amount = 0xa6bb exchange_go = 0x0 
#  T=92000 [SCOREBOARD] TOP LEVEL transaction information:    accumulated_orders = 0x0 cancelled_orders = 0x0  max_to_trade = 0xffcc  
# v_cpu_res.data: 0, cpu_req.data: f960, vstate 1
# rd from: 20, wr from: 1d0
# v_cpu_res.data: 0, cpu_req.data: 61ae, vstate 1
# rd from: 0, wr from: 1b0
# mem_data_down.ready from controller 1 mem.
# v_cpu_res.data: 0, cpu_req.data: 61ae, vstate 1
# rd from: 30, wr from: 1b0
# v_cpu_res.data: 0, cpu_req.data: 61ae, vstate 2
# rd from: 30, wr from: 1b0
# 
#  T=108000 [MONITOR] transaction information: cpu_client_id = 0x2 cpu_amount = 0xf0db cpu_new_max = 0x1 cpu_go = 0x0 exchange_client_id = 0x1d exchange_amount = 0xf960 exchange_go = 0x1 
#  T=108000 [SCOREBOARD] TOP LEVEL transaction information:    accumulated_orders = 0x0 cancelled_orders = 0x0  max_to_trade = 0xffaa  
# v_cpu_res.data: 0, cpu_req.data: 61ae, vstate 1
# rd from: 30, wr from: 1b0
# v_cpu_res.data: 0, cpu_req.data: fb62, vstate 1
# rd from: 0, wr from: 30
# v_cpu_res.data: 0, cpu_req.data: fb62, vstate 2
# rd from: 0, wr from: 30
# 
#  T=124000 [MONITOR] transaction information: cpu_client_id = 0x3 cpu_amount = 0xa1af cpu_new_max = 0x1 cpu_go = 0x0 exchange_client_id = 0x1b exchange_amount = 0x61ae exchange_go = 0x1 
#  T=124000 [SCOREBOARD] TOP LEVEL transaction information:    accumulated_orders = 0x0 cancelled_orders = 0x0  max_to_trade = 0xffaa  
# v_cpu_res.data: 0, cpu_req.data: fb62, vstate 1
# rd from: 0, wr from: 30
# v_cpu_res.data: 0, cpu_req.data: 4fc8, vstate 1
# rd from: 0, wr from: 130
# v_cpu_res.data: 0, cpu_req.data: 4fc8, vstate 1
# rd from: 90, wr from: 130
# v_cpu_res.data: 0, cpu_req.data: 4fc8, vstate 1
# rd from: 90, wr from: 130
# v_cpu_res.data: 0, cpu_req.data: 4fc8, vstate 0
# rd from: 90, wr from: 130
# 
#  T=140000 [MONITOR] transaction information: cpu_client_id = 0x0 cpu_amount = 0x66ab cpu_new_max = 0x1 cpu_go = 0x0 exchange_client_id = 0x3 exchange_amount = 0xfb62 exchange_go = 0x0 
#  T=140000 [SCOREBOARD] TOP LEVEL transaction information:    accumulated_orders = 0x0 cancelled_orders = 0x0  max_to_trade = 0xffaa  
# v_cpu_res.data: 0, cpu_req.data: 4fc8, vstate 1
# rd from: 90, wr from: 130
# v_cpu_res.data: 0, cpu_req.data: 3c48, vstate 1
# rd from: 0, wr from: 50
# v_cpu_res.data: 0, cpu_req.data: 3c48, vstate 1
# rd from: 0, wr from: 50
# mem_data_down.ready from controller 1 mem.
# v_cpu_res.data: 0, cpu_req.data: 3c48, vstate 1
# rd from: a0, wr from: 50
# v_cpu_res.data: 0, cpu_req.data: 3c48, vstate 2
# rd from: a0, wr from: 50
# 
#  T=156000 [MONITOR] transaction information: cpu_client_id = 0x9 cpu_amount = 0x281f cpu_new_max = 0x1 cpu_go = 0x0 exchange_client_id = 0x13 exchange_amount = 0x4fc8 exchange_go = 0x1 
#  T=156000 [SCOREBOARD] TOP LEVEL transaction information:    accumulated_orders = 0x0 cancelled_orders = 0x0  max_to_trade = 0xffaa  
# v_cpu_res.data: 0, cpu_req.data: 3c48, vstate 1
# rd from: a0, wr from: 50
# v_cpu_res.data: 0, cpu_req.data: a5a5, vstate 1
# rd from: 0, wr from: 190
# v_cpu_res.data: 0, cpu_req.data: a5a5, vstate 1
# rd from: 30, wr from: 190
# v_cpu_res.data: 0, cpu_req.data: a5a5, vstate 1
# rd from: 30, wr from: 190
# v_cpu_res.data: 0, cpu_req.data: a5a5, vstate 0
# rd from: 30, wr from: 190
# 
#  T=172000 [MONITOR] transaction information: cpu_client_id = 0xa cpu_amount = 0xa05e cpu_new_max = 0x0 cpu_go = 0x1 exchange_client_id = 0x5 exchange_amount = 0x3c48 exchange_go = 0x0 
#  T=172000 [SCOREBOARD] TOP LEVEL transaction information:    accumulated_orders = 0x0 cancelled_orders = 0x0  max_to_trade = 0xffaa  
# v_cpu_res.data: 0, cpu_req.data: a5a5, vstate 1
# rd from: 30, wr from: 190
# v_cpu_res.data: 0, cpu_req.data: f13e, vstate 1
# rd from: 0, wr from: 110
# v_cpu_res.data: 0, cpu_req.data: f13e, vstate 1
# rd from: 0, wr from: 110
# v_cpu_res.data: 0, cpu_req.data: f13e, vstate 1
# rd from: 50, wr from: 110
# v_cpu_res.data: 0, cpu_req.data: f13e, vstate 1
# rd from: 50, wr from: 110
# v_cpu_res.data: 0, cpu_req.data: f13e, vstate 0
# rd from: 50, wr from: 110
# 
#  T=188000 [MONITOR] transaction information: cpu_client_id = 0x3 cpu_amount = 0xb338 cpu_new_max = 0x1 cpu_go = 0x0 exchange_client_id = 0x19 exchange_amount = 0xa5a5 exchange_go = 0x1 
#  T=188000 [SCOREBOARD] TOP LEVEL transaction information:    accumulated_orders = 0x0 cancelled_orders = 0x0  max_to_trade = 0x66ab  
# v_cpu_res.data: 0, cpu_req.data: f13e, vstate 1
# rd from: 50, wr from: 110
# v_cpu_res.data: 0, cpu_req.data: f41d, vstate 1
# rd from: 0, wr from: 1a0
# v_cpu_res.data: 0, cpu_req.data: f41d, vstate 1
# rd from: 0, wr from: 1a0
# mem_data_down.ready from controller 1 mem.
# v_cpu_res.data: 0, cpu_req.data: f41d, vstate 1
# rd from: 20, wr from: 1a0
# v_cpu_res.data: 0, cpu_req.data: f41d, vstate 2
# rd from: 20, wr from: 1a0
# 
#  T=204000 [MONITOR] transaction information: cpu_client_id = 0x5 cpu_amount = 0xe48f cpu_new_max = 0x1 cpu_go = 0x0 exchange_client_id = 0x11 exchange_amount = 0xf13e exchange_go = 0x0 
#  T=204000 [SCOREBOARD] TOP LEVEL transaction information:    accumulated_orders = 0x0 cancelled_orders = 0x0  max_to_trade = 0x66ab  
# v_cpu_res.data: 0, cpu_req.data: f41d, vstate 1
# rd from: 20, wr from: 1a0
# v_cpu_res.data: 0, cpu_req.data: 15aa, vstate 1
# rd from: 0, wr from: b0
# v_cpu_res.data: 0, cpu_req.data: 15aa, vstate 1
# rd from: a0, wr from: b0
# v_cpu_res.data: 0, cpu_req.data: 15aa, vstate 2
# rd from: a0, wr from: b0
# 
#  T=220000 [MONITOR] transaction information: cpu_client_id = 0x2 cpu_amount = 0xcdf8 cpu_new_max = 0x1 cpu_go = 0x0 exchange_client_id = 0x1a exchange_amount = 0xf41d exchange_go = 0x0 
#  T=220000 [SCOREBOARD] TOP LEVEL transaction information:    accumulated_orders = 0x0 cancelled_orders = 0x0  max_to_trade = 0xffcc  
# v_cpu_res.data: 0, cpu_req.data: 15aa, vstate 1
# rd from: a0, wr from: b0
# v_cpu_res.data: 0, cpu_req.data: d90b, vstate 1
# rd from: 0, wr from: 100
# v_cpu_res.data: 0, cpu_req.data: d90b, vstate 1
# rd from: 40, wr from: 100
# v_cpu_res.data: 0, cpu_req.data: d90b, vstate 2
# rd from: 40, wr from: 100
# 
#  T=236000 [MONITOR] transaction information: cpu_client_id = 0xa cpu_amount = 0x4168 cpu_new_max = 0x0 cpu_go = 0x1 exchange_client_id = 0xb exchange_amount = 0x15aa exchange_go = 0x1 
#  T=236000 [SCOREBOARD] TOP LEVEL transaction information:    accumulated_orders = 0x0 cancelled_orders = 0x0  max_to_trade = 0xffcc  
# v_cpu_res.data: 0, cpu_req.data: d90b, vstate 1
# rd from: 40, wr from: 100
# v_cpu_res.data: 0, cpu_req.data: 8394, vstate 1
# rd from: 0, wr from: 1e0
# mem_data_down.ready from controller 1 mem.
# v_cpu_res.data: 0, cpu_req.data: 8394, vstate 1
# rd from: 10, wr from: 1e0
# v_cpu_res.data: 0, cpu_req.data: 8394, vstate 1
# rd from: 10, wr from: 1e0
# v_cpu_res.data: 0, cpu_req.data: 8394, vstate 0
# rd from: 10, wr from: 1e0
# 
#  T=252000 [MONITOR] transaction information: cpu_client_id = 0x4 cpu_amount = 0x8a19 cpu_new_max = 0x0 cpu_go = 0x1 exchange_client_id = 0x10 exchange_amount = 0xd90b exchange_go = 0x0 
#  T=252000 [SCOREBOARD] TOP LEVEL transaction information:    accumulated_orders = 0x0 cancelled_orders = 0x0  max_to_trade = 0xffcc  
# v_cpu_res.data: 0, cpu_req.data: 8394, vstate 1
# rd from: 10, wr from: 1e0
# v_cpu_res.data: 0, cpu_req.data: ac3a, vstate 1
# rd from: 0, wr from: c0
# v_cpu_res.data: 0, cpu_req.data: ac3a, vstate 1
# rd from: 0, wr from: c0
# v_cpu_res.data: 0, cpu_req.data: ac3a, vstate 1
# rd from: 20, wr from: c0
# v_cpu_res.data: 0, cpu_req.data: ac3a, vstate 2
# rd from: 20, wr from: c0
# 
#  T=268000 [MONITOR] transaction information: cpu_client_id = 0x1 cpu_amount = 0xd8a7 cpu_new_max = 0x0 cpu_go = 0x1 exchange_client_id = 0x1e exchange_amount = 0x8394 exchange_go = 0x1 
#  T=268000 [SCOREBOARD] TOP LEVEL transaction information:    accumulated_orders = 0x0 cancelled_orders = 0x0  max_to_trade = 0xffcc  
# v_cpu_res.data: 0, cpu_req.data: ac3a, vstate 1
# rd from: 20, wr from: c0
# v_cpu_res.data: 0, cpu_req.data: b720, vstate 1
# rd from: 0, wr from: 140
# v_cpu_res.data: 0, cpu_req.data: b720, vstate 1
# rd from: 20, wr from: 140
# v_cpu_res.data: 0, cpu_req.data: b720, vstate 2
# rd from: 20, wr from: 140
# 
#  T=284000 [MONITOR] transaction information: cpu_client_id = 0x2 cpu_amount = 0xa047 cpu_new_max = 0x0 cpu_go = 0x1 exchange_client_id = 0xc exchange_amount = 0xac3a exchange_go = 0x0 
#  T=284000 [SCOREBOARD] TOP LEVEL transaction information:    accumulated_orders = 0x0 cancelled_orders = 0x0  max_to_trade = 0xffcc  
# v_cpu_res.data: 0, cpu_req.data: b720, vstate 1
# rd from: 20, wr from: 140
# v_cpu_res.data: 0, cpu_req.data: a2e8, vstate 1
# rd from: 0, wr from: 60
# mem_data_down.ready from controller 1 mem.
# v_cpu_res.data: 0, cpu_req.data: a2e8, vstate 1
# rd from: 80, wr from: 60
# v_cpu_res.data: 0, cpu_req.data: a2e8, vstate 1
# rd from: 80, wr from: 60
# v_cpu_res.data: 0, cpu_req.data: a2e8, vstate 0
# rd from: 80, wr from: 60
# 
#  T=300000 [MONITOR] transaction information: cpu_client_id = 0x2 cpu_amount = 0x7d1b cpu_new_max = 0x1 cpu_go = 0x0 exchange_client_id = 0x14 exchange_amount = 0xb720 exchange_go = 0x1 
#  T=300000 [SCOREBOARD] TOP LEVEL transaction information:    accumulated_orders = 0x4a34 cancelled_orders = 0x0  max_to_trade = 0xffcc  
# v_cpu_res.data: 0, cpu_req.data: a2e8, vstate 1
# rd from: 80, wr from: 60
# v_cpu_res.data: 0, cpu_req.data: c9fd, vstate 1
# rd from: 0, wr from: 140
# v_cpu_res.data: 0, cpu_req.data: c9fd, vstate 1
# rd from: 0, wr from: 140
# v_cpu_res.data: 0, cpu_req.data: c9fd, vstate 1
# rd from: 80, wr from: 140
# v_cpu_res.data: 0, cpu_req.data: c9fd, vstate 1
# rd from: 80, wr from: 140
# v_cpu_res.data: 0, cpu_req.data: c9fd, vstate 0
# rd from: 80, wr from: 140
# 
#  T=316000 [MONITOR] transaction information: cpu_client_id = 0x8 cpu_amount = 0x4f28 cpu_new_max = 0x0 cpu_go = 0x1 exchange_client_id = 0x6 exchange_amount = 0xa2e8 exchange_go = 0x1 
#  T=316000 [SCOREBOARD] TOP LEVEL transaction information:    accumulated_orders = 0x4a34 cancelled_orders = 0x0  max_to_trade = 0xffcc  
# v_cpu_res.data: 0, cpu_req.data: c9fd, vstate 1
# rd from: 80, wr from: 140
# v_cpu_res.data: 0, cpu_req.data: ad31, vstate 1
# rd from: 0, wr from: 180
# v_cpu_res.data: 0, cpu_req.data: ad31, vstate 1
# rd from: 0, wr from: 180
# v_cpu_res.data: 0, cpu_req.data: ad31, vstate 1
# rd from: 60, wr from: 180
# v_cpu_res.data: a2e8, cpu_req.data: ad31, vstate 1
# rd from: 60, wr from: 180
# v_cpu_res.data: a2e8, cpu_req.data: ad31, vstate 0
# rd from: 60, wr from: 180
# 
#  T=332000 [MONITOR] transaction information: cpu_client_id = 0x8 cpu_amount = 0xae44 cpu_new_max = 0x1 cpu_go = 0x0 exchange_client_id = 0x14 exchange_amount = 0xc9fd exchange_go = 0x1 
#  T=332000 [SCOREBOARD] TOP LEVEL transaction information:    accumulated_orders = 0x0 cancelled_orders = 0x0  max_to_trade = 0xffaa  
# v_cpu_res.data: a2e8, cpu_req.data: ad31, vstate 1
# rd from: 60, wr from: 180
# v_cpu_res.data: a2e8, cpu_req.data: 7625, vstate 1
# rd from: 0, wr from: 1d0
# v_cpu_res.data: 0, cpu_req.data: 7625, vstate 1
# rd from: 0, wr from: 1d0
# mem_data_down.ready from controller 1 mem.
# v_cpu_res.data: 0, cpu_req.data: 7625, vstate 1
# rd from: a0, wr from: 1d0
# v_cpu_res.data: 0, cpu_req.data: 7625, vstate 2
# rd from: a0, wr from: 1d0
# 
#  T=348000 [MONITOR] transaction information: cpu_client_id = 0x6 cpu_amount = 0xdac3 cpu_new_max = 0x1 cpu_go = 0x0 exchange_client_id = 0x18 exchange_amount = 0xad31 exchange_go = 0x0 
#  T=348000 [SCOREBOARD] TOP LEVEL transaction information:    accumulated_orders = 0xcc6e cancelled_orders = 0xa2e8  max_to_trade = 0xffcc  
# v_cpu_res.data: 0, cpu_req.data: 7625, vstate 1
# rd from: a0, wr from: 1d0
# v_cpu_res.data: 0, cpu_req.data: 4db0, vstate 1
# rd from: 0, wr from: e0
# v_cpu_res.data: 0, cpu_req.data: 4db0, vstate 1
# rd from: 50, wr from: e0
# v_cpu_res.data: 0, cpu_req.data: 4db0, vstate 1
# rd from: 50, wr from: e0
# v_cpu_res.data: 0, cpu_req.data: 4db0, vstate 0
# rd from: 50, wr from: e0
# 
#  T=364000 [MONITOR] transaction information: cpu_client_id = 0xa cpu_amount = 0xd328 cpu_new_max = 0x1 cpu_go = 0x0 exchange_client_id = 0x1d exchange_amount = 0x7625 exchange_go = 0x0 
#  T=364000 [SCOREBOARD] TOP LEVEL transaction information:    accumulated_orders = 0x8a19 cancelled_orders = 0x0  max_to_trade = 0xffcc  
# v_cpu_res.data: 0, cpu_req.data: 4db0, vstate 1
# rd from: 50, wr from: e0
# v_cpu_res.data: 0, cpu_req.data: 9d8c, vstate 1
# rd from: 0, wr from: 100
# v_cpu_res.data: 0, cpu_req.data: 9d8c, vstate 1
# rd from: 0, wr from: 100
# v_cpu_res.data: 0, cpu_req.data: 9d8c, vstate 1
# rd from: 80, wr from: 100
# v_cpu_res.data: 0, cpu_req.data: 9d8c, vstate 1
# rd from: 80, wr from: 100
# v_cpu_res.data: 0, cpu_req.data: 9d8c, vstate 0
# rd from: 80, wr from: 100
# 
#  T=380000 [MONITOR] transaction information: cpu_client_id = 0x5 cpu_amount = 0xeb6 cpu_new_max = 0x1 cpu_go = 0x0 exchange_client_id = 0xe exchange_amount = 0x4db0 exchange_go = 0x0 
#  T=380000 [SCOREBOARD] TOP LEVEL transaction information:    accumulated_orders = 0x0 cancelled_orders = 0x0  max_to_trade = 0xcdf8  
# v_cpu_res.data: 0, cpu_req.data: 9d8c, vstate 1
# rd from: 80, wr from: 100
# v_cpu_res.data: 0, cpu_req.data: d668, vstate 1
# rd from: 0, wr from: 60
# v_cpu_res.data: 0, cpu_req.data: d668, vstate 1
# rd from: 0, wr from: 60
# mem_data_down.ready from controller 1 mem.
# v_cpu_res.data: 0, cpu_req.data: d668, vstate 1
# rd from: 60, wr from: 60
# v_cpu_res.data: a2e8, cpu_req.data: d668, vstate 1
# rd from: 60, wr from: 60
# v_cpu_res.data: 17950, cpu_req.data: d668, vstate 0
# rd from: 60, wr from: 60
# 
#  T=396000 [MONITOR] transaction information: cpu_client_id = 0x8 cpu_amount = 0xcd30 cpu_new_max = 0x1 cpu_go = 0x0 exchange_client_id = 0x10 exchange_amount = 0x9d8c exchange_go = 0x0 
#  T=396000 [SCOREBOARD] TOP LEVEL transaction information:    accumulated_orders = 0x0 cancelled_orders = 0x0  max_to_trade = 0xae44  
# v_cpu_res.data: 17950, cpu_req.data: d668, vstate 1
# rd from: 60, wr from: 60
# v_cpu_res.data: 17950, cpu_req.data: 7032, vstate 1
# rd from: 0, wr from: 40
# v_cpu_res.data: 0, cpu_req.data: 7032, vstate 1
# rd from: 0, wr from: 40
# v_cpu_res.data: 0, cpu_req.data: 7032, vstate 1
# rd from: 70, wr from: 40
# v_cpu_res.data: 0, cpu_req.data: 7032, vstate 2
# rd from: 70, wr from: 40
# 
#  T=412000 [MONITOR] transaction information: cpu_client_id = 0x6 cpu_amount = 0x3239 cpu_new_max = 0x0 cpu_go = 0x1 exchange_client_id = 0x6 exchange_amount = 0xd668 exchange_go = 0x1 
#  T=412000 [SCOREBOARD] TOP LEVEL transaction information:    accumulated_orders = 0xcc6e cancelled_orders = 0x7950  max_to_trade = 0xdac3  
# v_cpu_res.data: 0, cpu_req.data: 7032, vstate 1
# rd from: 70, wr from: 40
# v_cpu_res.data: 0, cpu_req.data: 54ae, vstate 1
# rd from: 0, wr from: 1a0
# v_cpu_res.data: 0, cpu_req.data: 54ae, vstate 1
# rd from: 60, wr from: 1a0
# v_cpu_res.data: 17950, cpu_req.data: 54ae, vstate 1
# rd from: 60, wr from: 1a0
# v_cpu_res.data: 17950, cpu_req.data: 54ae, vstate 0
# rd from: 60, wr from: 1a0
# 
#  T=428000 [MONITOR] transaction information: cpu_client_id = 0x7 cpu_amount = 0xaa92 cpu_new_max = 0x0 cpu_go = 0x1 exchange_client_id = 0x4 exchange_amount = 0x7032 exchange_go = 0x1 
#  T=428000 [SCOREBOARD] TOP LEVEL transaction information:    accumulated_orders = 0xcc6e cancelled_orders = 0x0  max_to_trade = 0xdac3  
# v_cpu_res.data: 17950, cpu_req.data: 54ae, vstate 1
# rd from: 60, wr from: 1a0
# v_cpu_res.data: 17950, cpu_req.data: 5b6d, vstate 1
# rd from: 0, wr from: b0
# v_cpu_res.data: 0, cpu_req.data: 5b6d, vstate 1
# rd from: 0, wr from: b0
# mem_data_down.ready from controller 1 mem.
# v_cpu_res.data: 0, cpu_req.data: 5b6d, vstate 1
# rd from: 80, wr from: b0
# v_cpu_res.data: 0, cpu_req.data: 5b6d, vstate 1
# rd from: 80, wr from: b0
# v_cpu_res.data: 0, cpu_req.data: 5b6d, vstate 0
# rd from: 80, wr from: b0
# 
#  T=444000 [MONITOR] transaction information: cpu_client_id = 0x6 cpu_amount = 0xf44b cpu_new_max = 0x0 cpu_go = 0x1 exchange_client_id = 0x1a exchange_amount = 0x54ae exchange_go = 0x1 
#  T=444000 [SCOREBOARD] TOP LEVEL transaction information:    accumulated_orders = 0x0 cancelled_orders = 0x7950  max_to_trade = 0xffcc  
# v_cpu_res.data: 0, cpu_req.data: 5b6d, vstate 1
# rd from: 80, wr from: b0
# v_cpu_res.data: 0, cpu_req.data: 3878, vstate 1
# rd from: 0, wr from: 170
# v_cpu_res.data: 0, cpu_req.data: 3878, vstate 1
# rd from: 0, wr from: 170
# v_cpu_res.data: 0, cpu_req.data: 3878, vstate 1
# rd from: 80, wr from: 170
# v_cpu_res.data: 0, cpu_req.data: 3878, vstate 1
# rd from: 80, wr from: 170
# v_cpu_res.data: 0, cpu_req.data: 3878, vstate 0
# rd from: 80, wr from: 170
# 
