testbench/outputs/top/UPDOWNSTREAM_sim.txt
# vsim seg_work_opt -c -logfile testbench/outputs/top/UPDOWNSTREAM_sim.txt -do "run -all; quit" 
# Start time: 08:50:42 on May 06,2022
# //  Questa Sim-64
# //  Version 10.7c linux_x86_64 Aug 17 2018
# //
# //  Copyright 1991-2018 Mentor Graphics Corporation
# //  All Rights Reserved.
# //
# //  QuestaSim and its associated documentation contain trade
# //  secrets and commercial or financial information that are the property of
# //  Mentor Graphics Corporation and are privileged, confidential,
# //  and exempt from disclosure under the Freedom of Information Act,
# //  5 U.S.C. Section 552. Furthermore, this information
# //  is prohibited from disclosure under the Trade Secrets Act,
# //  18 U.S.C. Section 1905.
# //
# Loading sv_std.std
# Loading work.tb_top_UPDOWNSTREAM_sv_unit(fast)
# Loading work.tb_top_UPDOWNSTREAM(fast)
# Loading work.updownstream_if(fast)
# Loading work.cache_def(fast)
# Loading work.top_sv_unit(fast)
# Loading work.top(fast)
# Loading work.dm_data_downstream(fast)
# Loading work.upstream_processor_top(fast)
# Loading work.dm_cache_fsm_upstream(fast)
# Loading work.dm_cache_tag_upstream(fast)
# Loading work.dm_data_upstream(fast)
# Loading work.mem_controller(fast)
# Loading work.upstream_processor(fast)
# Loading work.downstream_top(fast)
# Loading work.updownstream_if(fast)
# ** Warning: (vsim-3839) Variable '/tb_top_UPDOWNSTREAM/TOP/UPTOP/CACHEUPSTREAM/mem_data', driven via a port connection, is multiply driven. See code/upstream/upstream_top.sv(62).
#    Time: 0 ps  Iteration: 0  Instance: /tb_top_UPDOWNSTREAM/TOP/UPTOP/CACHEUPSTREAM/cmem File: code/shared/ramupstream.sv Line: 289
# ** Warning: (vsim-3839) Variable '/tb_top_UPDOWNSTREAM/TOP/downdatareq.rdindex', driven via a port connection, is multiply driven. See code/shared/top.sv(54).
#    Time: 0 ps  Iteration: 0  Instance: /tb_top_UPDOWNSTREAM/TOP File: code/shared/top.sv Line: 31
# run -all
# Loading downstream rom.
# Loading upstream cache.
# ** Warning: (vsim-PLI-3407) Too many data words read on line 18 of file "code/shared/rom_trade.mem". (Current address [17], address range [0:16])    : code/shared/ramupstream.sv(30)
#    Time: 0 ps  Iteration: 0  Instance: /tb_top_UPDOWNSTREAM/TOP/UPTOP/CACHEUPSTREAM/cdata
# Loading upstream memory.
# --------- [DRIVER] Reset Started ---------
# --------- [DRIVER] Reset Ended ---------
# T=2000 [Generator] starting
# repeat count = 100
# T=2000, [DRIVER] starting ---------
# T=2000, [MONITOR] starting ---------
# T=2000, [SCOREBOARD] starting ---------
# 
#  T=12000 [MONITOR] transaction information: cpu_client_id = 0xx cpu_amount = 0xX cpu_new_max = 0xx cpu_go = 0xx exchange_client_id = 0xx exchange_amount = 0xx exchange_go = 0xx 
#  T=12000 [SCOREBOARD] TOP LEVEL transaction information:    accumulated_orders = 0xX cancelled_orders = 0xx  max_to_trade = 0xx  
# data cpu          0, 
# ** Error: The amount was not indexed properly: amount cc6e; correct amount (to write): cc6e, correct_amount[31:16]: 0
#    Time: 26 ns Started: 26 ns  Scope: tb_top_UPDOWNSTREAM.TOP.UPTOP.trade_correctamount_cpu File: code/upstream/upstream_top.sv Line: 125
# ** Error: pass_checks was not computer properly for client 5; max to trade: 0, accumulated amount: 0, cancelled amount: 0, pass_checks: 1, amount 52334
#    Time: 26 ns Started: 26 ns  Scope: tb_top_UPDOWNSTREAM.TOP.UPTOP.trade_pass_checks File: code/upstream/upstream_top.sv Line: 116
# 
#  T=28000 [MONITOR] transaction information: cpu_client_id = 0x6 cpu_amount = 0x1361 cpu_new_max = 0x1 cpu_go = 0x0 exchange_client_id = 0x1 exchange_amount = 0x49358 exchange_go = 0x1 
#  T=28000 [SCOREBOARD] TOP LEVEL transaction information:    accumulated_orders = 0xX cancelled_orders = 0x0  max_to_trade = 0xx  
# data cpu 4289331200, 
# ** Error: The amount was not indexed properly: amount d6d8; correct amount (to write): d6d80000, correct_amount[31:16]: d6d8
#    Time: 42 ns Started: 42 ns  Scope: tb_top_UPDOWNSTREAM.TOP.UPTOP.trade_correctamount_cpu File: code/upstream/upstream_top.sv Line: 125
# 
#  T=44000 [MONITOR] transaction information: cpu_client_id = 0x5 cpu_amount = 0x52334 cpu_new_max = 0x0 cpu_go = 0x1 exchange_client_id = 0x11 exchange_amount = 0x11382 exchange_go = 0x0 
#  T=44000 [SCOREBOARD] TOP LEVEL transaction information:    accumulated_orders = 0x0 cancelled_orders = 0x0  max_to_trade = 0x0  
# data cpu          0, 
# ** Error: The amount was not indexed properly: amount 4a34; correct amount (to write): 4a34, correct_amount[31:16]: 0
#    Time: 58 ns Started: 58 ns  Scope: tb_top_UPDOWNSTREAM.TOP.UPTOP.trade_correctamount_cpu File: code/upstream/upstream_top.sv Line: 125
# 
#  T=60000 [MONITOR] transaction information: cpu_client_id = 0x2 cpu_amount = 0x55000 cpu_new_max = 0x1 cpu_go = 0x0 exchange_client_id = 0x17 exchange_amount = 0x63298 exchange_go = 0x1 
#  T=60000 [SCOREBOARD] TOP LEVEL transaction information:    accumulated_orders = 0x0 cancelled_orders = 0x0  max_to_trade = 0x65450  
# data cpu 2913992704, 
# ** Error: The amount was not indexed properly: amount e68d; correct amount (to write): e68d0000, correct_amount[31:16]: e68d
#    Time: 74 ns Started: 74 ns  Scope: tb_top_UPDOWNSTREAM.TOP.UPTOP.trade_correctamount_cpu File: code/upstream/upstream_top.sv Line: 125
# 
#  T=76000 [MONITOR] transaction information: cpu_client_id = 0x5 cpu_amount = 0x18996 cpu_new_max = 0x0 cpu_go = 0x1 exchange_client_id = 0x8 exchange_amount = 0x44603 exchange_go = 0x0 
#  T=76000 [SCOREBOARD] TOP LEVEL transaction information:    accumulated_orders = 0x0 cancelled_orders = 0x0  max_to_trade = 0x0  
# data cpu 2913992704, 
# ** Error: The amount was not indexed properly: amount f0db; correct amount (to write): f0db0000, correct_amount[31:16]: f0db
#    Time: 90 ns Started: 90 ns  Scope: tb_top_UPDOWNSTREAM.TOP.UPTOP.trade_correctamount_cpu File: code/upstream/upstream_top.sv Line: 125
# 
#  T=92000 [MONITOR] transaction information: cpu_client_id = 0x0 cpu_amount = 0x59021 cpu_new_max = 0x1 cpu_go = 0x0 exchange_client_id = 0x9 exchange_amount = 0x42683 exchange_go = 0x0 
#  T=92000 [SCOREBOARD] TOP LEVEL transaction information:    accumulated_orders = 0x0 cancelled_orders = 0x0  max_to_trade = 0x44464  
# data cpu 3786801152, 
# ** Error: The amount was not indexed properly: amount a1af; correct amount (to write): a1af0000, correct_amount[31:16]: a1af
#    Time: 106 ns Started: 106 ns  Scope: tb_top_UPDOWNSTREAM.TOP.UPTOP.trade_correctamount_cpu File: code/upstream/upstream_top.sv Line: 125
# 
#  T=108000 [MONITOR] transaction information: cpu_client_id = 0x2 cpu_amount = 0x61659 cpu_new_max = 0x1 cpu_go = 0x0 exchange_client_id = 0x29 exchange_amount = 0x63840 exchange_go = 0x1 
#  T=108000 [SCOREBOARD] TOP LEVEL transaction information:    accumulated_orders = 0x0 cancelled_orders = 0x0  max_to_trade = 0x44464  
# data cpu 3786801152, 
# ** Error: The amount was not indexed properly: amount 66ab; correct amount (to write): 66ab0000, correct_amount[31:16]: 66ab
#    Time: 122 ns Started: 122 ns  Scope: tb_top_UPDOWNSTREAM.TOP.UPTOP.trade_correctamount_cpu File: code/upstream/upstream_top.sv Line: 125
# 
#  T=124000 [MONITOR] transaction information: cpu_client_id = 0x3 cpu_amount = 0x41391 cpu_new_max = 0x1 cpu_go = 0x0 exchange_client_id = 0x27 exchange_amount = 0x25006 exchange_go = 0x1 
#  T=124000 [SCOREBOARD] TOP LEVEL transaction information:    accumulated_orders = 0x0 cancelled_orders = 0x0  max_to_trade = 0x57782  
# data cpu          0, 
# ** Error: The amount was not indexed properly: amount 281f; correct amount (to write): 281f0000, correct_amount[31:16]: 281f
#    Time: 138 ns Started: 138 ns  Scope: tb_top_UPDOWNSTREAM.TOP.UPTOP.trade_correctamount_cpu File: code/upstream/upstream_top.sv Line: 125
# 
#  T=140000 [MONITOR] transaction information: cpu_client_id = 0x0 cpu_amount = 0x26283 cpu_new_max = 0x1 cpu_go = 0x0 exchange_client_id = 0x3 exchange_amount = 0x64354 exchange_go = 0x0 
#  T=140000 [SCOREBOARD] TOP LEVEL transaction information:    accumulated_orders = 0x0 cancelled_orders = 0x0  max_to_trade = 0x57782  
# data cpu          0, 
# ** Error: The amount was not indexed properly: amount a05e; correct amount (to write): a05e, correct_amount[31:16]: 0
#    Time: 154 ns Started: 154 ns  Scope: tb_top_UPDOWNSTREAM.TOP.UPTOP.trade_correctamount_cpu File: code/upstream/upstream_top.sv Line: 125
# 
#  T=156000 [MONITOR] transaction information: cpu_client_id = 0x9 cpu_amount = 0x10271 cpu_new_max = 0x1 cpu_go = 0x0 exchange_client_id = 0x19 exchange_amount = 0x20424 exchange_go = 0x1 
#  T=156000 [SCOREBOARD] TOP LEVEL transaction information:    accumulated_orders = 0x0 cancelled_orders = 0x0  max_to_trade = 0x0  
# data cpu 3786801152, 
# ** Error: The amount was not indexed properly: amount b338; correct amount (to write): b3380000, correct_amount[31:16]: b338
#    Time: 170 ns Started: 170 ns  Scope: tb_top_UPDOWNSTREAM.TOP.UPTOP.trade_correctamount_cpu File: code/upstream/upstream_top.sv Line: 125
# 
#  T=172000 [MONITOR] transaction information: cpu_client_id = 0x10 cpu_amount = 0x41054 cpu_new_max = 0x0 cpu_go = 0x1 exchange_client_id = 0x5 exchange_amount = 0x15432 exchange_go = 0x0 
#  T=172000 [SCOREBOARD] TOP LEVEL transaction information:    accumulated_orders = 0x0 cancelled_orders = 0x0  max_to_trade = 0x0  
# data cpu          0, 
# ** Error: The amount was not indexed properly: amount e48f; correct amount (to write): e48f0000, correct_amount[31:16]: e48f
#    Time: 186 ns Started: 186 ns  Scope: tb_top_UPDOWNSTREAM.TOP.UPTOP.trade_correctamount_cpu File: code/upstream/upstream_top.sv Line: 125
# 
#  T=188000 [MONITOR] transaction information: cpu_client_id = 0x3 cpu_amount = 0x45880 cpu_new_max = 0x1 cpu_go = 0x0 exchange_client_id = 0x25 exchange_amount = 0x42405 exchange_go = 0x1 
#  T=188000 [SCOREBOARD] TOP LEVEL transaction information:    accumulated_orders = 0x0 cancelled_orders = 0x0  max_to_trade = 0x57782  
# data cpu 3278635008, 
# ** Error: The amount was not indexed properly: amount cdf8; correct amount (to write): cdf80000, correct_amount[31:16]: cdf8
#    Time: 202 ns Started: 202 ns  Scope: tb_top_UPDOWNSTREAM.TOP.UPTOP.trade_correctamount_cpu File: code/upstream/upstream_top.sv Line: 125
# 
#  T=204000 [MONITOR] transaction information: cpu_client_id = 0x5 cpu_amount = 0x58511 cpu_new_max = 0x1 cpu_go = 0x0 exchange_client_id = 0x17 exchange_amount = 0x61758 exchange_go = 0x0 
#  T=204000 [SCOREBOARD] TOP LEVEL transaction information:    accumulated_orders = 0x0 cancelled_orders = 0x0  max_to_trade = 0x0  
# data cpu          0, 
# ** Error: The amount was not indexed properly: amount 4168; correct amount (to write): 4168, correct_amount[31:16]: 0
#    Time: 218 ns Started: 218 ns  Scope: tb_top_UPDOWNSTREAM.TOP.UPTOP.trade_correctamount_cpu File: code/upstream/upstream_top.sv Line: 125
# 
#  T=220000 [MONITOR] transaction information: cpu_client_id = 0x2 cpu_amount = 0x52728 cpu_new_max = 0x1 cpu_go = 0x0 exchange_client_id = 0x26 exchange_amount = 0x62493 exchange_go = 0x0 
#  T=220000 [SCOREBOARD] TOP LEVEL transaction information:    accumulated_orders = 0x0 cancelled_orders = 0x0  max_to_trade = 0x50028  
# data cpu          0, 
# ** Error: The amount was not indexed properly: amount 8a19; correct amount (to write): 8a19, correct_amount[31:16]: 0
#    Time: 234 ns Started: 234 ns  Scope: tb_top_UPDOWNSTREAM.TOP.UPTOP.trade_correctamount_cpu File: code/upstream/upstream_top.sv Line: 125
# 
#  T=236000 [MONITOR] transaction information: cpu_client_id = 0x10 cpu_amount = 0x16744 cpu_new_max = 0x0 cpu_go = 0x1 exchange_client_id = 0x11 exchange_amount = 0x5546 exchange_go = 0x1 
#  T=236000 [SCOREBOARD] TOP LEVEL transaction information:    accumulated_orders = 0x0 cancelled_orders = 0x0  max_to_trade = 0x0  
# data cpu 2262302720, 
# ** Error: The amount was not indexed properly: amount d8a7; correct amount (to write): d8a7, correct_amount[31:16]: 0
#    Time: 250 ns Started: 250 ns  Scope: tb_top_UPDOWNSTREAM.TOP.UPTOP.trade_correctamount_cpu File: code/upstream/upstream_top.sv Line: 125
# 
#  T=252000 [MONITOR] transaction information: cpu_client_id = 0x4 cpu_amount = 0x35353 cpu_new_max = 0x0 cpu_go = 0x1 exchange_client_id = 0x16 exchange_amount = 0x55563 exchange_go = 0x0 
#  T=252000 [SCOREBOARD] TOP LEVEL transaction information:    accumulated_orders = 0x0 cancelled_orders = 0x0  max_to_trade = 0x0  
# data cpu 2262302720, 
# ** Error: The amount was not indexed properly: amount a047; correct amount (to write): a047, correct_amount[31:16]: 0
#    Time: 266 ns Started: 266 ns  Scope: tb_top_UPDOWNSTREAM.TOP.UPTOP.trade_correctamount_cpu File: code/upstream/upstream_top.sv Line: 125
# 
#  T=268000 [MONITOR] transaction information: cpu_client_id = 0x1 cpu_amount = 0x55463 cpu_new_max = 0x0 cpu_go = 0x1 exchange_client_id = 0x30 exchange_amount = 0x33684 exchange_go = 0x1 
#  T=268000 [SCOREBOARD] TOP LEVEL transaction information:    accumulated_orders = 0x0 cancelled_orders = 0x0  max_to_trade = 0x34520  
# data cpu 2262302720, 
# ** Error: The amount was not indexed properly: amount 7d1b; correct amount (to write): 7d1b0000, correct_amount[31:16]: 7d1b
#    Time: 282 ns Started: 282 ns  Scope: tb_top_UPDOWNSTREAM.TOP.UPTOP.trade_correctamount_cpu File: code/upstream/upstream_top.sv Line: 125
# 
#  T=284000 [MONITOR] transaction information: cpu_client_id = 0x2 cpu_amount = 0x41031 cpu_new_max = 0x0 cpu_go = 0x1 exchange_client_id = 0x12 exchange_amount = 0x44090 exchange_go = 0x0 
#  T=284000 [SCOREBOARD] TOP LEVEL transaction information:    accumulated_orders = 0x0 cancelled_orders = 0x0  max_to_trade = 0x34520  
# data cpu          0, 
# ** Error: The amount was not indexed properly: amount 4f28; correct amount (to write): 4f28, correct_amount[31:16]: 0
#    Time: 298 ns Started: 298 ns  Scope: tb_top_UPDOWNSTREAM.TOP.UPTOP.trade_correctamount_cpu File: code/upstream/upstream_top.sv Line: 125
# 
#  T=300000 [MONITOR] transaction information: cpu_client_id = 0x2 cpu_amount = 0x32027 cpu_new_max = 0x1 cpu_go = 0x0 exchange_client_id = 0x20 exchange_amount = 0x46880 exchange_go = 0x1 
#  T=300000 [SCOREBOARD] TOP LEVEL transaction information:    accumulated_orders = 0x0 cancelled_orders = 0x0  max_to_trade = 0x34520  
# data cpu          0, 
# ** Error: The amount was not indexed properly: amount ae44; correct amount (to write): ae440000, correct_amount[31:16]: ae44
#    Time: 314 ns Started: 314 ns  Scope: tb_top_UPDOWNSTREAM.TOP.UPTOP.trade_correctamount_cpu File: code/upstream/upstream_top.sv Line: 125
# 
#  T=316000 [MONITOR] transaction information: cpu_client_id = 0x8 cpu_amount = 0x20264 cpu_new_max = 0x0 cpu_go = 0x1 exchange_client_id = 0x6 exchange_amount = 0x41704 exchange_go = 0x1 
#  T=316000 [SCOREBOARD] TOP LEVEL transaction information:    accumulated_orders = 0x0 cancelled_orders = 0x0  max_to_trade = 0x0  
# data cpu          0, 
# ** Error: The amount was not indexed properly: amount dac3; correct amount (to write): dac30000, correct_amount[31:16]: dac3
#    Time: 330 ns Started: 330 ns  Scope: tb_top_UPDOWNSTREAM.TOP.UPTOP.trade_correctamount_cpu File: code/upstream/upstream_top.sv Line: 125
# 
#  T=332000 [MONITOR] transaction information: cpu_client_id = 0x8 cpu_amount = 0x44612 cpu_new_max = 0x1 cpu_go = 0x0 exchange_client_id = 0x20 exchange_amount = 0x51709 exchange_go = 0x1 
#  T=332000 [SCOREBOARD] TOP LEVEL transaction information:    accumulated_orders = 0x0 cancelled_orders = 0x0  max_to_trade = 0x0  
# data cpu          0, 
# ** Error: The amount was not indexed properly: amount d328; correct amount (to write): d3280000, correct_amount[31:16]: d328
#    Time: 346 ns Started: 346 ns  Scope: tb_top_UPDOWNSTREAM.TOP.UPTOP.trade_correctamount_cpu File: code/upstream/upstream_top.sv Line: 125
# 
#  T=348000 [MONITOR] transaction information: cpu_client_id = 0x6 cpu_amount = 0x56003 cpu_new_max = 0x1 cpu_go = 0x0 exchange_client_id = 0x24 exchange_amount = 0x44337 exchange_go = 0x0 
#  T=348000 [SCOREBOARD] TOP LEVEL transaction information:    accumulated_orders = 0x0 cancelled_orders = 0x0  max_to_trade = 0x0  
# data cpu          0, 
# ** Error: The amount was not indexed properly: amount eb6; correct amount (to write): eb60000, correct_amount[31:16]: eb6
#    Time: 362 ns Started: 362 ns  Scope: tb_top_UPDOWNSTREAM.TOP.UPTOP.trade_correctamount_cpu File: code/upstream/upstream_top.sv Line: 125
# 
#  T=364000 [MONITOR] transaction information: cpu_client_id = 0x10 cpu_amount = 0x54056 cpu_new_max = 0x1 cpu_go = 0x0 exchange_client_id = 0x29 exchange_amount = 0x30245 exchange_go = 0x0 
#  T=364000 [SCOREBOARD] TOP LEVEL transaction information:    accumulated_orders = 0x0 cancelled_orders = 0x0  max_to_trade = 0x0  
# data cpu          0, 
# ** Error: The amount was not indexed properly: amount cd30; correct amount (to write): cd300000, correct_amount[31:16]: cd30
#    Time: 378 ns Started: 378 ns  Scope: tb_top_UPDOWNSTREAM.TOP.UPTOP.trade_correctamount_cpu File: code/upstream/upstream_top.sv Line: 125
# 
#  T=380000 [MONITOR] transaction information: cpu_client_id = 0x5 cpu_amount = 0x3766 cpu_new_max = 0x1 cpu_go = 0x0 exchange_client_id = 0x14 exchange_amount = 0x19888 exchange_go = 0x0 
#  T=380000 [SCOREBOARD] TOP LEVEL transaction information:    accumulated_orders = 0x0 cancelled_orders = 0x0  max_to_trade = 0x0  
# data cpu          0, 
# ** Error: The amount was not indexed properly: amount 3239; correct amount (to write): 3239, correct_amount[31:16]: 0
#    Time: 394 ns Started: 394 ns  Scope: tb_top_UPDOWNSTREAM.TOP.UPTOP.trade_correctamount_cpu File: code/upstream/upstream_top.sv Line: 125
# 
#  T=396000 [MONITOR] transaction information: cpu_client_id = 0x8 cpu_amount = 0x52528 cpu_new_max = 0x1 cpu_go = 0x0 exchange_client_id = 0x16 exchange_amount = 0x40332 exchange_go = 0x0 
#  T=396000 [SCOREBOARD] TOP LEVEL transaction information:    accumulated_orders = 0x0 cancelled_orders = 0x0  max_to_trade = 0x0  
# data cpu          0, 
# ** Error: The amount was not indexed properly: amount aa92; correct amount (to write): aa92, correct_amount[31:16]: 0
#    Time: 410 ns Started: 410 ns  Scope: tb_top_UPDOWNSTREAM.TOP.UPTOP.trade_correctamount_cpu File: code/upstream/upstream_top.sv Line: 125
# 
#  T=412000 [MONITOR] transaction information: cpu_client_id = 0x6 cpu_amount = 0x12857 cpu_new_max = 0x0 cpu_go = 0x1 exchange_client_id = 0x6 exchange_amount = 0x54888 exchange_go = 0x1 
#  T=412000 [SCOREBOARD] TOP LEVEL transaction information:    accumulated_orders = 0x0 cancelled_orders = 0x0  max_to_trade = 0x0  
# data cpu          0, 
# ** Error: The amount was not indexed properly: amount f44b; correct amount (to write): f44b, correct_amount[31:16]: 0
#    Time: 426 ns Started: 426 ns  Scope: tb_top_UPDOWNSTREAM.TOP.UPTOP.trade_correctamount_cpu File: code/upstream/upstream_top.sv Line: 125
# 
#  T=428000 [MONITOR] transaction information: cpu_client_id = 0x7 cpu_amount = 0x43666 cpu_new_max = 0x0 cpu_go = 0x1 exchange_client_id = 0x4 exchange_amount = 0x28722 exchange_go = 0x1 
#  T=428000 [SCOREBOARD] TOP LEVEL transaction information:    accumulated_orders = 0x0 cancelled_orders = 0x0  max_to_trade = 0x0  
# data cpu          0, 
# ** Error: The amount was not indexed properly: amount 6c6a; correct amount (to write): 6c6a, correct_amount[31:16]: 0
#    Time: 442 ns Started: 442 ns  Scope: tb_top_UPDOWNSTREAM.TOP.UPTOP.trade_correctamount_cpu File: code/upstream/upstream_top.sv Line: 125
# 
#  T=444000 [MONITOR] transaction information: cpu_client_id = 0x6 cpu_amount = 0x62539 cpu_new_max = 0x0 cpu_go = 0x1 exchange_client_id = 0x26 exchange_amount = 0x21678 exchange_go = 0x1 
#  T=444000 [SCOREBOARD] TOP LEVEL transaction information:    accumulated_orders = 0x0 cancelled_orders = 0x0  max_to_trade = 0x0  
# data cpu          0, 
# ** Error: The amount was not indexed properly: amount 8d1; correct amount (to write): 8d10000, correct_amount[31:16]: 8d1
#    Time: 458 ns Started: 458 ns  Scope: tb_top_UPDOWNSTREAM.TOP.UPTOP.trade_correctamount_cpu File: code/upstream/upstream_top.sv Line: 125
# 
#  T=460000 [MONITOR] transaction information: cpu_client_id = 0x8 cpu_amount = 0x27754 cpu_new_max = 0x0 cpu_go = 0x1 exchange_client_id = 0x11 exchange_amount = 0x23405 exchange_go = 0x1 
#  T=460000 [SCOREBOARD] TOP LEVEL transaction information:    accumulated_orders = 0x0 cancelled_orders = 0x0  max_to_trade = 0x0  
# data cpu          0, 
# ** Error: The amount was not indexed properly: amount 183c; correct amount (to write): 183c0000, correct_amount[31:16]: 183c
#    Time: 474 ns Started: 474 ns  Scope: tb_top_UPDOWNSTREAM.TOP.UPTOP.trade_correctamount_cpu File: code/upstream/upstream_top.sv Line: 125
# 
#  T=476000 [MONITOR] transaction information: cpu_client_id = 0x8 cpu_amount = 0x2257 cpu_new_max = 0x1 cpu_go = 0x0 exchange_client_id = 0x23 exchange_amount = 0x14456 exchange_go = 0x1 
#  T=476000 [SCOREBOARD] TOP LEVEL transaction information:    accumulated_orders = 0x0 cancelled_orders = 0x0  max_to_trade = 0x0  
# data cpu          0, 
# ** Error: The amount was not indexed properly: amount f082; correct amount (to write): f082, correct_amount[31:16]: 0
#    Time: 490 ns Started: 490 ns  Scope: tb_top_UPDOWNSTREAM.TOP.UPTOP.trade_correctamount_cpu File: code/upstream/upstream_top.sv Line: 125
# 
#  T=492000 [MONITOR] transaction information: cpu_client_id = 0x9 cpu_amount = 0x6204 cpu_new_max = 0x1 cpu_go = 0x0 exchange_client_id = 0x1 exchange_amount = 0x12784 exchange_go = 0x1 
#  T=492000 [SCOREBOARD] TOP LEVEL transaction information:    accumulated_orders = 0x0 cancelled_orders = 0x0  max_to_trade = 0x0  
# data cpu          0, 
# ** Error: The amount was not indexed properly: amount 76; correct amount (to write): 760000, correct_amount[31:16]: 76
#    Time: 506 ns Started: 506 ns  Scope: tb_top_UPDOWNSTREAM.TOP.UPTOP.trade_correctamount_cpu File: code/upstream/upstream_top.sv Line: 125
# 
#  T=508000 [MONITOR] transaction information: cpu_client_id = 0x8 cpu_amount = 0x61570 cpu_new_max = 0x0 cpu_go = 0x1 exchange_client_id = 0x15 exchange_amount = 0x21583 exchange_go = 0x0 
#  T=508000 [SCOREBOARD] TOP LEVEL transaction information:    accumulated_orders = 0x0 cancelled_orders = 0x0  max_to_trade = 0x0  
# data cpu 3517972480, 
# ** Error: The amount was not indexed properly: amount 30ac; correct amount (to write): 30ac0000, correct_amount[31:16]: 30ac
#    Time: 522 ns Started: 522 ns  Scope: tb_top_UPDOWNSTREAM.TOP.UPTOP.trade_correctamount_cpu File: code/upstream/upstream_top.sv Line: 125
# 
#  T=524000 [MONITOR] transaction information: cpu_client_id = 0x5 cpu_amount = 0x118 cpu_new_max = 0x1 cpu_go = 0x0 exchange_client_id = 0x24 exchange_amount = 0x45265 exchange_go = 0x1 
#  T=524000 [SCOREBOARD] TOP LEVEL transaction information:    accumulated_orders = 0x0 cancelled_orders = 0x0  max_to_trade = 0x0  
# data cpu          0, 
# ** Error: The amount was not indexed properly: amount 8e9b; correct amount (to write): 8e9b0000, correct_amount[31:16]: 8e9b
#    Time: 538 ns Started: 538 ns  Scope: tb_top_UPDOWNSTREAM.TOP.UPTOP.trade_correctamount_cpu File: code/upstream/upstream_top.sv Line: 125
# 
#  T=540000 [MONITOR] transaction information: cpu_client_id = 0x2 cpu_amount = 0x12460 cpu_new_max = 0x1 cpu_go = 0x0 exchange_client_id = 0x5 exchange_amount = 0x50081 exchange_go = 0x0 
#  T=540000 [SCOREBOARD] TOP LEVEL transaction information:    accumulated_orders = 0x0 cancelled_orders = 0x0  max_to_trade = 0x53680  
# data cpu          0, 
# ** Error: The amount was not indexed properly: amount 1e98; correct amount (to write): 1e980000, correct_amount[31:16]: 1e98
#    Time: 554 ns Started: 554 ns  Scope: tb_top_UPDOWNSTREAM.TOP.UPTOP.trade_correctamount_cpu File: code/upstream/upstream_top.sv Line: 125
# 
#  T=556000 [MONITOR] transaction information: cpu_client_id = 0x10 cpu_amount = 0x36507 cpu_new_max = 0x1 cpu_go = 0x0 exchange_client_id = 0x13 exchange_amount = 0x46424 exchange_go = 0x1 
#  T=556000 [SCOREBOARD] TOP LEVEL transaction information:    accumulated_orders = 0x0 cancelled_orders = 0x0  max_to_trade = 0x0  
# data cpu          0, 
# ** Error: The amount was not indexed properly: amount 5fd8; correct amount (to write): 5fd8, correct_amount[31:16]: 0
#    Time: 570 ns Started: 570 ns  Scope: tb_top_UPDOWNSTREAM.TOP.UPTOP.trade_correctamount_cpu File: code/upstream/upstream_top.sv Line: 125
# 
#  T=572000 [MONITOR] transaction information: cpu_client_id = 0x6 cpu_amount = 0x7832 cpu_new_max = 0x1 cpu_go = 0x0 exchange_client_id = 0x30 exchange_amount = 0x41890 exchange_go = 0x1 
#  T=572000 [SCOREBOARD] TOP LEVEL transaction information:    accumulated_orders = 0x0 cancelled_orders = 0x0  max_to_trade = 0x0  
# data cpu 1633157120, 
# ** Error: The amount was not indexed properly: amount a6a6; correct amount (to write): a6a6, correct_amount[31:16]: 0
#    Time: 586 ns Started: 586 ns  Scope: tb_top_UPDOWNSTREAM.TOP.UPTOP.trade_correctamount_cpu File: code/upstream/upstream_top.sv Line: 125
# 
#  T=588000 [MONITOR] transaction information: cpu_client_id = 0x4 cpu_amount = 0x24536 cpu_new_max = 0x0 cpu_go = 0x1 exchange_client_id = 0x12 exchange_amount = 0x64917 exchange_go = 0x0 
#  T=588000 [SCOREBOARD] TOP LEVEL transaction information:    accumulated_orders = 0x0 cancelled_orders = 0x0  max_to_trade = 0x0  
# data cpu 1633157120, 
# ** Error: The amount was not indexed properly: amount 5c9d; correct amount (to write): 5c9d, correct_amount[31:16]: 0
#    Time: 602 ns Started: 602 ns  Scope: tb_top_UPDOWNSTREAM.TOP.UPTOP.trade_correctamount_cpu File: code/upstream/upstream_top.sv Line: 125
# 
#  T=604000 [MONITOR] transaction information: cpu_client_id = 0x0 cpu_amount = 0x42662 cpu_new_max = 0x0 cpu_go = 0x1 exchange_client_id = 0x20 exchange_amount = 0x24771 exchange_go = 0x0 
#  T=604000 [SCOREBOARD] TOP LEVEL transaction information:    accumulated_orders = 0x0 cancelled_orders = 0x0  max_to_trade = 0x24920  
# data cpu          0, 
# ** Error: The amount was not indexed properly: amount 87b8; correct amount (to write): 87b80000, correct_amount[31:16]: 87b8
#    Time: 618 ns Started: 618 ns  Scope: tb_top_UPDOWNSTREAM.TOP.UPTOP.trade_correctamount_cpu File: code/upstream/upstream_top.sv Line: 125
# 
#  T=620000 [MONITOR] transaction information: cpu_client_id = 0x2 cpu_amount = 0x23709 cpu_new_max = 0x0 cpu_go = 0x1 exchange_client_id = 0x2 exchange_amount = 0x13105 exchange_go = 0x0 
#  T=620000 [SCOREBOARD] TOP LEVEL transaction information:    accumulated_orders = 0x0 cancelled_orders = 0x0  max_to_trade = 0x24920  
# data cpu 3266314240, 
# ** Error: The amount was not indexed properly: amount 2ff0; correct amount (to write): 2ff00000, correct_amount[31:16]: 2ff0
#    Time: 634 ns Started: 634 ns  Scope: tb_top_UPDOWNSTREAM.TOP.UPTOP.trade_correctamount_cpu File: code/upstream/upstream_top.sv Line: 125
# 
#  T=636000 [MONITOR] transaction information: cpu_client_id = 0x4 cpu_amount = 0x34744 cpu_new_max = 0x1 cpu_go = 0x0 exchange_client_id = 0x13 exchange_amount = 0x39209 exchange_go = 0x0 
#  T=636000 [SCOREBOARD] TOP LEVEL transaction information:    accumulated_orders = 0x0 cancelled_orders = 0x0  max_to_trade = 0x0  
# data cpu 3266314240, 
# ** Error: The amount was not indexed properly: amount f9fe; correct amount (to write): f9fe, correct_amount[31:16]: 0
#    Time: 650 ns Started: 650 ns  Scope: tb_top_UPDOWNSTREAM.TOP.UPTOP.trade_correctamount_cpu File: code/upstream/upstream_top.sv Line: 125
# 
#  T=652000 [MONITOR] transaction information: cpu_client_id = 0x2 cpu_amount = 0x12272 cpu_new_max = 0x1 cpu_go = 0x0 exchange_client_id = 0x14 exchange_amount = 0x22454 exchange_go = 0x0 
#  T=652000 [SCOREBOARD] TOP LEVEL transaction information:    accumulated_orders = 0x0 cancelled_orders = 0x0  max_to_trade = 0x49840  
# data cpu          0, 
# ** Error: The amount was not indexed properly: amount 2712; correct amount (to write): 2712, correct_amount[31:16]: 0
#    Time: 666 ns Started: 666 ns  Scope: tb_top_UPDOWNSTREAM.TOP.UPTOP.trade_correctamount_cpu File: code/upstream/upstream_top.sv Line: 125
# 
#  T=668000 [MONITOR] transaction information: cpu_client_id = 0x1 cpu_amount = 0x63998 cpu_new_max = 0x0 cpu_go = 0x1 exchange_client_id = 0x1 exchange_amount = 0x65000 exchange_go = 0x0 
#  T=668000 [SCOREBOARD] TOP LEVEL transaction information:    accumulated_orders = 0x0 cancelled_orders = 0x0  max_to_trade = 0x49840  
# data cpu          0, 
