testbench/outputs/top/UPDOWNSTREAM_sim.txt
# vsim seg_work_opt -c -logfile testbench/outputs/top/UPDOWNSTREAM_sim.txt -do "run -all; quit" 
# Start time: 09:46:51 on May 19,2022
# //  Questa Sim-64
# //  Version 10.7c linux_x86_64 Aug 17 2018
# //
# //  Copyright 1991-2018 Mentor Graphics Corporation
# //  All Rights Reserved.
# //
# //  QuestaSim and its associated documentation contain trade
# //  secrets and commercial or financial information that are the property of
# //  Mentor Graphics Corporation and are privileged, confidential,
# //  and exempt from disclosure under the Freedom of Information Act,
# //  5 U.S.C. Section 552. Furthermore, this information
# //  is prohibited from disclosure under the Trade Secrets Act,
# //  18 U.S.C. Section 1905.
# //
# Loading sv_std.std
# Loading work.tb_top_UPDOWNSTREAM_sv_unit(fast)
# Loading work.tb_top_UPDOWNSTREAM(fast)
# Loading work.updownstream_if(fast)
# Loading work.cache_def(fast)
# Loading work.top_sv_unit(fast)
# Loading work.top(fast)
# Loading work.dm_cache_fsm_downstream(fast)
# Loading work.dm_cache_tag_downstream(fast)
# Loading work.dm_data_downstream(fast)
# Loading work.downmem_controller(fast)
# Loading work.upstream_processor_top(fast)
# Loading work.dm_cache_fsm_upstream(fast)
# Loading work.dm_cache_tag_upstream(fast)
# Loading work.dm_data_upstream(fast)
# Loading work.mem_controller(fast)
# Loading work.upstream_processor(fast)
# Loading work.downstream_top(fast)
# Loading work.updownstream_if(fast)
# ** Warning: (vsim-3839) Variable '/tb_top_UPDOWNSTREAM/TOP/CACHEDOWNSTREAM/mem_data_down', driven via a port connection, is multiply driven. See code/shared/top.sv(60).
#    Time: 0 ps  Iteration: 0  Instance: /tb_top_UPDOWNSTREAM/TOP/CACHEDOWNSTREAM/cmem File: code/shared/ramdownstream.sv Line: 272
# ** Warning: (vsim-3839) Variable '/tb_top_UPDOWNSTREAM/TOP/UPTOP/CACHEUPSTREAM/mem_data', driven via a port connection, is multiply driven. See code/upstream/upstream_top.sv(63).
#    Time: 0 ps  Iteration: 0  Instance: /tb_top_UPDOWNSTREAM/TOP/UPTOP/CACHEUPSTREAM/cmem File: code/shared/ramupstream.sv Line: 302
# ** Warning: (vsim-3839) Variable '/tb_top_UPDOWNSTREAM/TOP/downdatareq.rdindex[3:0]', driven via a port connection, is multiply driven. See code/shared/top.sv(83).
#    Time: 0 ps  Iteration: 0  Instance: /tb_top_UPDOWNSTREAM/TOP File: code/shared/top.sv Line: 103
# ** Warning: (vsim-3839) Variable '/tb_top_UPDOWNSTREAM/TOP/downdatareq.rdindex[9:4]', driven via a port connection, is multiply driven. See code/shared/top.sv(83).
#    Time: 0 ps  Iteration: 0  Instance: /tb_top_UPDOWNSTREAM/TOP File: code/shared/top.sv Line: 101
# ** Warning: (vsim-3839) Variable '/tb_top_UPDOWNSTREAM/TOP/downdatareq.data', driven via a port connection, is multiply driven. See code/shared/top.sv(83).
#    Time: 0 ps  Iteration: 0  Instance: /tb_top_UPDOWNSTREAM/TOP File: code/shared/top.sv Line: 97
# ** Warning: (vsim-3839) Variable '/tb_top_UPDOWNSTREAM/TOP/downdatareq.valid', driven via a port connection, is multiply driven. See code/shared/top.sv(83).
#    Time: 0 ps  Iteration: 0  Instance: /tb_top_UPDOWNSTREAM/TOP File: code/shared/top.sv Line: 96
# run -all
# Loading downstream rom.
# ** Warning: (vsim-PLI-3407) Too many data words read on line 34 of file "code/shared/rom_empty.mem". (Current address [33], address range [0:32])    : code/shared/ramdownstream.sv(25)
#    Time: 0 ps  Iteration: 0  Instance: /tb_top_UPDOWNSTREAM/TOP/CACHEDOWNSTREAM/cdata
# Loading downstream memory.
# ** Warning: (vsim-PLI-3407) Too many data words read on line 123 of file "code/shared/rom_empty.mem". (Current address [122], address range [0:121])    : code/shared/ramdownstream.sv(78)
#    Time: 0 ps  Iteration: 0  Instance: /tb_top_UPDOWNSTREAM/TOP/CACHEDOWNSTREAM/cmem
# Loading upstream cache.
# ** Warning: (vsim-PLI-3407) Too many data words read on line 34 of file "code/shared/rom_trade.mem". (Current address [33], address range [0:32])    : code/shared/ramupstream.sv(31)
#    Time: 0 ps  Iteration: 0  Instance: /tb_top_UPDOWNSTREAM/TOP/UPTOP/CACHEUPSTREAM/cdata
# Loading upstream memory.
# ** Warning: (vsim-PLI-3407) Too many data words read on line 123 of file "code/shared/rom_trade.mem". (Current address [122], address range [0:121])    : code/shared/ramupstream.sv(102)
#    Time: 0 ps  Iteration: 0  Instance: /tb_top_UPDOWNSTREAM/TOP/UPTOP/CACHEUPSTREAM/cmem
# --------- [DRIVER] Reset Started ---------
# --------- [DRIVER] Reset Ended ---------
# T=2000 [Generator] starting
# repeat count = 100
# T=2000, [DRIVER] starting ---------
# T=2000, [MONITOR] starting ---------
# T=2000, [SCOREBOARD] starting ---------
# START  x
# mem_data_down.ready from controller 1 mem.
# 
#  T=12000 [MONITOR] transaction information: cpu_client_id = 0xx cpu_amount = 0x0xxxx cpu_new_max = 0xx cpu_go = 0xx exchange_client_id = 0xx exchange_amount = 0xx exchange_go = 0xx 
#  T=12000 [SCOREBOARD] TOP LEVEL transaction information:    accumulated_orders = 0x0xxxx cancelled_orders = 0xx  max_to_trade = 0xx  
# ** Error: pass_checks was not computer properly for client 5; max to trade: 65484, accumulated amount: 0, cancelled amount: 0, pass_checks: 1, amount 52334
#    Time: 26 ns Started: 26 ns  Scope: tb_top_UPDOWNSTREAM.TOP.UPTOP.trade_pass_checks File: code/upstream/upstream_top.sv Line: 129
# ** Error: The amount was not indexed properly: amount 52334; correct amount (to write): 52334, correct_amount[31:16]: 0, (correct_amount == amount) 1 , (correct_amount[31:16]== amount) 0, ((correct_amount == amount)||(correct_amount[31:16]== amount))1
#    Time: 26 ns Started: 26 ns  Scope: tb_top_UPDOWNSTREAM.TOP.UPTOP.trade_correctamount_cpu File: code/upstream/upstream_top.sv Line: 117
# 
#  T=28000 [MONITOR] transaction information: cpu_client_id = 0x6 cpu_amount = 0x551 cpu_new_max = 0x1 cpu_go = 0x0 exchange_client_id = 0x1 exchange_amount = 0xc0ce exchange_go = 0x1 
#  T=28000 [SCOREBOARD] TOP LEVEL transaction information:    accumulated_orders = 0x0xxxx cancelled_orders = 0x0  max_to_trade = 0xx  
# START  x
# 
#  T=44000 [MONITOR] transaction information: cpu_client_id = 0x5 cpu_amount = 0xcc6e cpu_new_max = 0x0 cpu_go = 0x1 exchange_client_id = 0xb exchange_amount = 0x2c76 exchange_go = 0x0 
#  T=44000 [SCOREBOARD] TOP LEVEL transaction information:    accumulated_orders = 0x0 cancelled_orders = 0x0  max_to_trade = 0xffcc  
# mem_data_down.ready from controller 1 mem.
# 
#  T=60000 [MONITOR] transaction information: cpu_client_id = 0x2 cpu_amount = 0xd6d8 cpu_new_max = 0x1 cpu_go = 0x0 exchange_client_id = 0x11 exchange_amount = 0xf742 exchange_go = 0x1 
#  T=60000 [SCOREBOARD] TOP LEVEL transaction information:    accumulated_orders = 0x0 cancelled_orders = 0x0  max_to_trade = 0xffcc  
# START  x
# 
#  T=76000 [MONITOR] transaction information: cpu_client_id = 0x5 cpu_amount = 0x4a34 cpu_new_max = 0x0 cpu_go = 0x1 exchange_client_id = 0x8 exchange_amount = 0xae3b exchange_go = 0x0 
#  T=76000 [SCOREBOARD] TOP LEVEL transaction information:    accumulated_orders = 0x0 cancelled_orders = 0x0  max_to_trade = 0xffcc  
# 
#  T=92000 [MONITOR] transaction information: cpu_client_id = 0x0 cpu_amount = 0xe68d cpu_new_max = 0x1 cpu_go = 0x0 exchange_client_id = 0x9 exchange_amount = 0xa6bb exchange_go = 0x0 
#  T=92000 [SCOREBOARD] TOP LEVEL transaction information:    accumulated_orders = 0x0 cancelled_orders = 0x0  max_to_trade = 0xffcc  
# START  x
# mem_data_down.ready from controller 1 mem.
# 
#  T=108000 [MONITOR] transaction information: cpu_client_id = 0x2 cpu_amount = 0xf0db cpu_new_max = 0x1 cpu_go = 0x0 exchange_client_id = 0x1d exchange_amount = 0xf960 exchange_go = 0x1 
#  T=108000 [SCOREBOARD] TOP LEVEL transaction information:    accumulated_orders = 0x0 cancelled_orders = 0x0  max_to_trade = 0xffcc  
# 
#  T=124000 [MONITOR] transaction information: cpu_client_id = 0x3 cpu_amount = 0xa1af cpu_new_max = 0x1 cpu_go = 0x0 exchange_client_id = 0x1b exchange_amount = 0x61ae exchange_go = 0x1 
#  T=124000 [SCOREBOARD] TOP LEVEL transaction information:    accumulated_orders = 0x0 cancelled_orders = 0x0  max_to_trade = 0xffcc  
# START  x
# 
#  T=140000 [MONITOR] transaction information: cpu_client_id = 0x0 cpu_amount = 0x66ab cpu_new_max = 0x1 cpu_go = 0x0 exchange_client_id = 0x3 exchange_amount = 0xfb62 exchange_go = 0x0 
#  T=140000 [SCOREBOARD] TOP LEVEL transaction information:    accumulated_orders = 0x0 cancelled_orders = 0x0  max_to_trade = 0xffcc  
# mem_data_down.ready from controller 1 mem.
# 
#  T=156000 [MONITOR] transaction information: cpu_client_id = 0x9 cpu_amount = 0x281f cpu_new_max = 0x1 cpu_go = 0x0 exchange_client_id = 0x13 exchange_amount = 0x4fc8 exchange_go = 0x1 
#  T=156000 [SCOREBOARD] TOP LEVEL transaction information:    accumulated_orders = 0x0 cancelled_orders = 0x0  max_to_trade = 0xffcc  
# START  x
# 
#  T=172000 [MONITOR] transaction information: cpu_client_id = 0xa cpu_amount = 0xa05e cpu_new_max = 0x0 cpu_go = 0x1 exchange_client_id = 0x5 exchange_amount = 0x3c48 exchange_go = 0x0 
#  T=172000 [SCOREBOARD] TOP LEVEL transaction information:    accumulated_orders = 0x0 cancelled_orders = 0x0  max_to_trade = 0xffcc  
# START  x
# 
#  T=188000 [MONITOR] transaction information: cpu_client_id = 0x3 cpu_amount = 0xb338 cpu_new_max = 0x1 cpu_go = 0x0 exchange_client_id = 0x19 exchange_amount = 0xa5a5 exchange_go = 0x1 
#  T=188000 [SCOREBOARD] TOP LEVEL transaction information:    accumulated_orders = 0x0 cancelled_orders = 0x0  max_to_trade = 0x66ab  
# mem_data_down.ready from controller 1 mem.
# 
#  T=204000 [MONITOR] transaction information: cpu_client_id = 0x5 cpu_amount = 0xe48f cpu_new_max = 0x1 cpu_go = 0x0 exchange_client_id = 0x11 exchange_amount = 0xf13e exchange_go = 0x0 
#  T=204000 [SCOREBOARD] TOP LEVEL transaction information:    accumulated_orders = 0x0 cancelled_orders = 0x0  max_to_trade = 0x66ab  
# START  x
# 
#  T=220000 [MONITOR] transaction information: cpu_client_id = 0x2 cpu_amount = 0xcdf8 cpu_new_max = 0x1 cpu_go = 0x0 exchange_client_id = 0x1a exchange_amount = 0xf41d exchange_go = 0x0 
#  T=220000 [SCOREBOARD] TOP LEVEL transaction information:    accumulated_orders = 0x0 cancelled_orders = 0x0  max_to_trade = 0xffcc  
# 
#  T=236000 [MONITOR] transaction information: cpu_client_id = 0xa cpu_amount = 0x4168 cpu_new_max = 0x0 cpu_go = 0x1 exchange_client_id = 0xb exchange_amount = 0x15aa exchange_go = 0x1 
#  T=236000 [SCOREBOARD] TOP LEVEL transaction information:    accumulated_orders = 0x0 cancelled_orders = 0x0  max_to_trade = 0xffcc  
# START  x
# mem_data_down.ready from controller 1 mem.
# 
#  T=252000 [MONITOR] transaction information: cpu_client_id = 0x4 cpu_amount = 0x8a19 cpu_new_max = 0x0 cpu_go = 0x1 exchange_client_id = 0x10 exchange_amount = 0xd90b exchange_go = 0x0 
#  T=252000 [SCOREBOARD] TOP LEVEL transaction information:    accumulated_orders = 0x0 cancelled_orders = 0x0  max_to_trade = 0xffcc  
# 
#  T=268000 [MONITOR] transaction information: cpu_client_id = 0x1 cpu_amount = 0xd8a7 cpu_new_max = 0x0 cpu_go = 0x1 exchange_client_id = 0x1e exchange_amount = 0x8394 exchange_go = 0x1 
#  T=268000 [SCOREBOARD] TOP LEVEL transaction information:    accumulated_orders = 0x0 cancelled_orders = 0x0  max_to_trade = 0xffcc  
# START  x
# 
#  T=284000 [MONITOR] transaction information: cpu_client_id = 0x2 cpu_amount = 0xa047 cpu_new_max = 0x0 cpu_go = 0x1 exchange_client_id = 0xc exchange_amount = 0xac3a exchange_go = 0x0 
#  T=284000 [SCOREBOARD] TOP LEVEL transaction information:    accumulated_orders = 0x0 cancelled_orders = 0x0  max_to_trade = 0xffcc  
# START  x
# mem_data_down.ready from controller 1 mem.
# 
#  T=300000 [MONITOR] transaction information: cpu_client_id = 0x2 cpu_amount = 0x7d1b cpu_new_max = 0x1 cpu_go = 0x0 exchange_client_id = 0x14 exchange_amount = 0xb720 exchange_go = 0x1 
#  T=300000 [SCOREBOARD] TOP LEVEL transaction information:    accumulated_orders = 0x4a34 cancelled_orders = 0x0  max_to_trade = 0xffcc  
# 
#  T=316000 [MONITOR] transaction information: cpu_client_id = 0x8 cpu_amount = 0x4f28 cpu_new_max = 0x0 cpu_go = 0x1 exchange_client_id = 0x6 exchange_amount = 0xa2e8 exchange_go = 0x1 
#  T=316000 [SCOREBOARD] TOP LEVEL transaction information:    accumulated_orders = 0x4a34 cancelled_orders = 0x0  max_to_trade = 0xffcc  
# START  x
# 
#  T=332000 [MONITOR] transaction information: cpu_client_id = 0x8 cpu_amount = 0xae44 cpu_new_max = 0x1 cpu_go = 0x0 exchange_client_id = 0x14 exchange_amount = 0xc9fd exchange_go = 0x1 
#  T=332000 [SCOREBOARD] TOP LEVEL transaction information:    accumulated_orders = 0x0 cancelled_orders = 0x0  max_to_trade = 0xffcc  
# START  x
# mem_data_down.ready from controller 1 mem.
# 
#  T=348000 [MONITOR] transaction information: cpu_client_id = 0x6 cpu_amount = 0xdac3 cpu_new_max = 0x1 cpu_go = 0x0 exchange_client_id = 0x18 exchange_amount = 0xad31 exchange_go = 0x0 
#  T=348000 [SCOREBOARD] TOP LEVEL transaction information:    accumulated_orders = 0xcc6e cancelled_orders = 0xa2e8  max_to_trade = 0xffcc  
# START  x
# 
#  T=364000 [MONITOR] transaction information: cpu_client_id = 0xa cpu_amount = 0xd328 cpu_new_max = 0x1 cpu_go = 0x0 exchange_client_id = 0x1d exchange_amount = 0x7625 exchange_go = 0x0 
#  T=364000 [SCOREBOARD] TOP LEVEL transaction information:    accumulated_orders = 0x8a19 cancelled_orders = 0x0  max_to_trade = 0xffcc  
# START  x
# 
#  T=380000 [MONITOR] transaction information: cpu_client_id = 0x5 cpu_amount = 0xeb6 cpu_new_max = 0x1 cpu_go = 0x0 exchange_client_id = 0xe exchange_amount = 0x4db0 exchange_go = 0x0 
#  T=380000 [SCOREBOARD] TOP LEVEL transaction information:    accumulated_orders = 0x0 cancelled_orders = 0x0  max_to_trade = 0xcdf8  
# START  x
# mem_data_down.ready from controller 1 mem.
# 
#  T=396000 [MONITOR] transaction information: cpu_client_id = 0x8 cpu_amount = 0xcd30 cpu_new_max = 0x1 cpu_go = 0x0 exchange_client_id = 0x10 exchange_amount = 0x9d8c exchange_go = 0x0 
#  T=396000 [SCOREBOARD] TOP LEVEL transaction information:    accumulated_orders = 0x0 cancelled_orders = 0x0  max_to_trade = 0xae44  
# START  x
# 
#  T=412000 [MONITOR] transaction information: cpu_client_id = 0x6 cpu_amount = 0x3239 cpu_new_max = 0x0 cpu_go = 0x1 exchange_client_id = 0x6 exchange_amount = 0xd668 exchange_go = 0x1 
#  T=412000 [SCOREBOARD] TOP LEVEL transaction information:    accumulated_orders = 0xcc6e cancelled_orders = 0x7950  max_to_trade = 0xdac3  
# 
#  T=428000 [MONITOR] transaction information: cpu_client_id = 0x7 cpu_amount = 0xaa92 cpu_new_max = 0x0 cpu_go = 0x1 exchange_client_id = 0x4 exchange_amount = 0x7032 exchange_go = 0x1 
#  T=428000 [SCOREBOARD] TOP LEVEL transaction information:    accumulated_orders = 0xcc6e cancelled_orders = 0x0  max_to_trade = 0xdac3  
# START  x
# mem_data_down.ready from controller 1 mem.
# 
#  T=444000 [MONITOR] transaction information: cpu_client_id = 0x6 cpu_amount = 0xf44b cpu_new_max = 0x0 cpu_go = 0x1 exchange_client_id = 0x1a exchange_amount = 0x54ae exchange_go = 0x1 
#  T=444000 [SCOREBOARD] TOP LEVEL transaction information:    accumulated_orders = 0x0 cancelled_orders = 0x7950  max_to_trade = 0xffcc  
# START  x
# 
#  T=460000 [MONITOR] transaction information: cpu_client_id = 0x8 cpu_amount = 0x6c6a cpu_new_max = 0x0 cpu_go = 0x1 exchange_client_id = 0xb exchange_amount = 0x5b6d exchange_go = 0x1 
#  T=460000 [SCOREBOARD] TOP LEVEL transaction information:    accumulated_orders = 0x0 cancelled_orders = 0x0  max_to_trade = 0xcd30  
# START  x
# 
#  T=476000 [MONITOR] transaction information: cpu_client_id = 0x8 cpu_amount = 0x8d1 cpu_new_max = 0x1 cpu_go = 0x0 exchange_client_id = 0x17 exchange_amount = 0x3878 exchange_go = 0x1 
#  T=476000 [SCOREBOARD] TOP LEVEL transaction information:    accumulated_orders = 0x6c6a cancelled_orders = 0x0  max_to_trade = 0xcd30  
# START  x
# mem_data_down.ready from controller 1 mem.
# 
#  T=492000 [MONITOR] transaction information: cpu_client_id = 0x9 cpu_amount = 0x183c cpu_new_max = 0x1 cpu_go = 0x0 exchange_client_id = 0x1 exchange_amount = 0x31f0 exchange_go = 0x1 
#  T=492000 [SCOREBOARD] TOP LEVEL transaction information:    accumulated_orders = 0xa05e cancelled_orders = 0x0  max_to_trade = 0xffcc  
# START  x
# 
#  T=508000 [MONITOR] transaction information: cpu_client_id = 0x8 cpu_amount = 0xf082 cpu_new_max = 0x0 cpu_go = 0x1 exchange_client_id = 0xf exchange_amount = 0x544f exchange_go = 0x0 
#  T=508000 [SCOREBOARD] TOP LEVEL transaction information:    accumulated_orders = 0x753b cancelled_orders = 0x0  max_to_trade = 0xcd30  
# START  x
# 
#  T=524000 [MONITOR] transaction information: cpu_client_id = 0x5 cpu_amount = 0x76 cpu_new_max = 0x1 cpu_go = 0x0 exchange_client_id = 0x18 exchange_amount = 0xb0d1 exchange_go = 0x1 
#  T=524000 [SCOREBOARD] TOP LEVEL transaction information:    accumulated_orders = 0x0 cancelled_orders = 0x0  max_to_trade = 0xeb6  
# START  x
# mem_data_down.ready from controller 1 mem.
# 
#  T=540000 [MONITOR] transaction information: cpu_client_id = 0x2 cpu_amount = 0x30ac cpu_new_max = 0x1 cpu_go = 0x0 exchange_client_id = 0x5 exchange_amount = 0xc3a1 exchange_go = 0x0 
#  T=540000 [SCOREBOARD] TOP LEVEL transaction information:    accumulated_orders = 0x4a34 cancelled_orders = 0x0  max_to_trade = 0x7d1b  
# START  x
# 
#  T=556000 [MONITOR] transaction information: cpu_client_id = 0xa cpu_amount = 0x8e9b cpu_new_max = 0x1 cpu_go = 0x0 exchange_client_id = 0xd exchange_amount = 0xb558 exchange_go = 0x1 
#  T=556000 [SCOREBOARD] TOP LEVEL transaction information:    accumulated_orders = 0x8a19 cancelled_orders = 0x0  max_to_trade = 0xd328  
# START  x
# 
#  T=572000 [MONITOR] transaction information: cpu_client_id = 0x6 cpu_amount = 0x1e98 cpu_new_max = 0x1 cpu_go = 0x0 exchange_client_id = 0x1e exchange_amount = 0xa3a2 exchange_go = 0x1 
#  T=572000 [SCOREBOARD] TOP LEVEL transaction information:    accumulated_orders = 0xfea7 cancelled_orders = 0x7950  max_to_trade = 0xdac3  
# mem_data_down.ready from controller 1 mem.
# 
#  T=588000 [MONITOR] transaction information: cpu_client_id = 0x4 cpu_amount = 0x5fd8 cpu_new_max = 0x0 cpu_go = 0x1 exchange_client_id = 0xc exchange_amount = 0xfd95 exchange_go = 0x0 
#  T=588000 [SCOREBOARD] TOP LEVEL transaction information:    accumulated_orders = 0xfea7 cancelled_orders = 0x0  max_to_trade = 0xdac3  
# START  x
# 
#  T=604000 [MONITOR] transaction information: cpu_client_id = 0x0 cpu_amount = 0xa6a6 cpu_new_max = 0x0 cpu_go = 0x1 exchange_client_id = 0x14 exchange_amount = 0x60c3 exchange_go = 0x0 
#  T=604000 [SCOREBOARD] TOP LEVEL transaction information:    accumulated_orders = 0x0 cancelled_orders = 0x0  max_to_trade = 0xffcc  
# START  x
# 
#  T=620000 [MONITOR] transaction information: cpu_client_id = 0x2 cpu_amount = 0x5c9d cpu_new_max = 0x0 cpu_go = 0x1 exchange_client_id = 0x2 exchange_amount = 0x3331 exchange_go = 0x0 
#  T=620000 [SCOREBOARD] TOP LEVEL transaction information:    accumulated_orders = 0x7ae0 cancelled_orders = 0x0  max_to_trade = 0x7d1b  
# START  x
# mem_data_down.ready from controller 1 mem.
# 
#  T=636000 [MONITOR] transaction information: cpu_client_id = 0x4 cpu_amount = 0x87b8 cpu_new_max = 0x1 cpu_go = 0x0 exchange_client_id = 0xd exchange_amount = 0x9929 exchange_go = 0x0 
#  T=636000 [SCOREBOARD] TOP LEVEL transaction information:    accumulated_orders = 0xa6a6 cancelled_orders = 0x0  max_to_trade = 0xffcc  
# START  x
# 
#  T=652000 [MONITOR] transaction information: cpu_client_id = 0x2 cpu_amount = 0x2ff0 cpu_new_max = 0x1 cpu_go = 0x0 exchange_client_id = 0xe exchange_amount = 0x57b6 exchange_go = 0x0 
#  T=652000 [SCOREBOARD] TOP LEVEL transaction information:    accumulated_orders = 0xd77d cancelled_orders = 0x0  max_to_trade = 0x7d1b  
# START  x
# 
#  T=668000 [MONITOR] transaction information: cpu_client_id = 0x1 cpu_amount = 0xf9fe cpu_new_max = 0x0 cpu_go = 0x1 exchange_client_id = 0x1 exchange_amount = 0xfde8 exchange_go = 0x0 
#  T=668000 [SCOREBOARD] TOP LEVEL transaction information:    accumulated_orders = 0xa047 cancelled_orders = 0x2fd8  max_to_trade = 0xffcc  
# START  x
# mem_data_down.ready from controller 1 mem.
# 
#  T=684000 [MONITOR] transaction information: cpu_client_id = 0x9 cpu_amount = 0x2712 cpu_new_max = 0x0 cpu_go = 0x1 exchange_client_id = 0xf exchange_amount = 0x632c exchange_go = 0x0 
#  T=684000 [SCOREBOARD] TOP LEVEL transaction information:    accumulated_orders = 0xb89a cancelled_orders = 0x0  max_to_trade = 0xffcc  
# START  x
# 
#  T=700000 [MONITOR] transaction information: cpu_client_id = 0x5 cpu_amount = 0x3628 cpu_new_max = 0x0 cpu_go = 0x1 exchange_client_id = 0x14 exchange_amount = 0x189c exchange_go = 0x0 
#  T=700000 [SCOREBOARD] TOP LEVEL transaction information:    accumulated_orders = 0x0 cancelled_orders = 0x0  max_to_trade = 0x76  
# START  x
# 
#  T=716000 [MONITOR] transaction information: cpu_client_id = 0xa cpu_amount = 0xe4a1 cpu_new_max = 0x1 cpu_go = 0x0 exchange_client_id = 0x12 exchange_amount = 0x7b8a exchange_go = 0x1 
#  T=716000 [SCOREBOARD] TOP LEVEL transaction information:    accumulated_orders = 0x8a19 cancelled_orders = 0x0  max_to_trade = 0x8e9b  
# START  x
# mem_data_down.ready from controller 1 mem.
# 
#  T=732000 [MONITOR] transaction information: cpu_client_id = 0x6 cpu_amount = 0xbf03 cpu_new_max = 0x0 cpu_go = 0x1 exchange_client_id = 0xa exchange_amount = 0x39fb exchange_go = 0x1 
#  T=732000 [SCOREBOARD] TOP LEVEL transaction information:    accumulated_orders = 0x1d3f cancelled_orders = 0x7950  max_to_trade = 0xdac3  
# START  x
# 
#  T=748000 [MONITOR] transaction information: cpu_client_id = 0x5 cpu_amount = 0x85e8 cpu_new_max = 0x1 cpu_go = 0x0 exchange_client_id = 0x8 exchange_amount = 0xd4fe exchange_go = 0x0 
#  T=748000 [SCOREBOARD] TOP LEVEL transaction information:    accumulated_orders = 0x0 cancelled_orders = 0x0  max_to_trade = 0x76  
# START  x
# 
#  T=764000 [MONITOR] transaction information: cpu_client_id = 0xa cpu_amount = 0xa727 cpu_new_max = 0x0 cpu_go = 0x1 exchange_client_id = 0x10 exchange_amount = 0xa7b5 exchange_go = 0x1 
#  T=764000 [SCOREBOARD] TOP LEVEL transaction information:    accumulated_orders = 0x8a19 cancelled_orders = 0x39fb  max_to_trade = 0xe4a1  
# START  x
# mem_data_down.ready from controller 1 mem.
# 
#  T=780000 [MONITOR] transaction information: cpu_client_id = 0x7 cpu_amount = 0xafef cpu_new_max = 0x0 cpu_go = 0x1 exchange_client_id = 0x3 exchange_amount = 0x71c5 exchange_go = 0x0 
#  T=780000 [SCOREBOARD] TOP LEVEL transaction information:    accumulated_orders = 0xf44b cancelled_orders = 0x0  max_to_trade = 0xffcc  
# START  x
# 
#  T=796000 [MONITOR] transaction information: cpu_client_id = 0x4 cpu_amount = 0xc01d cpu_new_max = 0x0 cpu_go = 0x1 exchange_client_id = 0x1e exchange_amount = 0xef59 exchange_go = 0x0 
#  T=796000 [SCOREBOARD] TOP LEVEL transaction information:    accumulated_orders = 0x2e5e cancelled_orders = 0x0  max_to_trade = 0xffcc  
# START  x
# 
#  T=812000 [MONITOR] transaction information: cpu_client_id = 0x9 cpu_amount = 0x7895 cpu_new_max = 0x0 cpu_go = 0x1 exchange_client_id = 0x1b exchange_amount = 0xf6b5 exchange_go = 0x0 
#  T=812000 [SCOREBOARD] TOP LEVEL transaction information:    accumulated_orders = 0xdfac cancelled_orders = 0x0  max_to_trade = 0xffcc  
# START  x
# mem_data_down.ready from controller 1 mem.
# 
#  T=828000 [MONITOR] transaction information: cpu_client_id = 0x6 cpu_amount = 0xe414 cpu_new_max = 0x1 cpu_go = 0x0 exchange_client_id = 0xa exchange_amount = 0x63f5 exchange_go = 0x1 
#  T=828000 [SCOREBOARD] TOP LEVEL transaction information:    accumulated_orders = 0xdc42 cancelled_orders = 0x7950  max_to_trade = 0xdac3  
# START  x
# 
#  T=844000 [MONITOR] transaction information: cpu_client_id = 0x0 cpu_amount = 0x4147 cpu_new_max = 0x0 cpu_go = 0x1 exchange_client_id = 0x5 exchange_amount = 0x1363 exchange_go = 0x1 
#  T=844000 [SCOREBOARD] TOP LEVEL transaction information:    accumulated_orders = 0x0 cancelled_orders = 0x0  max_to_trade = 0xf0db  
# START  x
# 
#  T=860000 [MONITOR] transaction information: cpu_client_id = 0x8 cpu_amount = 0x96ad cpu_new_max = 0x0 cpu_go = 0x1 exchange_client_id = 0xa exchange_amount = 0x7042 exchange_go = 0x1 
#  T=860000 [SCOREBOARD] TOP LEVEL transaction information:    accumulated_orders = 0x65bd cancelled_orders = 0xd4fe  max_to_trade = 0xcd30  
# START  x
# mem_data_down.ready from controller 1 mem.
# 
#  T=876000 [MONITOR] transaction information: cpu_client_id = 0x3 cpu_amount = 0x2b08 cpu_new_max = 0x0 cpu_go = 0x1 exchange_client_id = 0x16 exchange_amount = 0xf357 exchange_go = 0x1 
#  T=876000 [SCOREBOARD] TOP LEVEL transaction information:    accumulated_orders = 0x0 cancelled_orders = 0x0  max_to_trade = 0xb338  
# START  x
# 
#  T=892000 [MONITOR] transaction information: cpu_client_id = 0x0 cpu_amount = 0x24aa cpu_new_max = 0x1 cpu_go = 0x0 exchange_client_id = 0xb exchange_amount = 0xe41b exchange_go = 0x1 
#  T=892000 [SCOREBOARD] TOP LEVEL transaction information:    accumulated_orders = 0x4147 cancelled_orders = 0x0  max_to_trade = 0xf0db  
# START  x
# 
#  T=908000 [MONITOR] transaction information: cpu_client_id = 0x9 cpu_amount = 0xed6b cpu_new_max = 0x0 cpu_go = 0x1 exchange_client_id = 0x0 exchange_amount = 0xc134 exchange_go = 0x0 
#  T=908000 [SCOREBOARD] TOP LEVEL transaction information:    accumulated_orders = 0x5841 cancelled_orders = 0x0  max_to_trade = 0xffcc  
# START  x
# 
#  T=924000 [MONITOR] transaction information: cpu_client_id = 0x0 cpu_amount = 0x42f3 cpu_new_max = 0x0 cpu_go = 0x1 exchange_client_id = 0xf exchange_amount = 0x57d5 exchange_go = 0x1 
#  T=924000 [SCOREBOARD] TOP LEVEL transaction information:    accumulated_orders = 0x65f1 cancelled_orders = 0xc134  max_to_trade = 0xf0db  
# START  x
# mem_data_down.ready from controller 1 mem.
# 
#  T=940000 [MONITOR] transaction information: cpu_client_id = 0x0 cpu_amount = 0xfa0c cpu_new_max = 0x1 cpu_go = 0x0 exchange_client_id = 0x1b exchange_amount = 0xb3fa exchange_go = 0x0 
#  T=940000 [SCOREBOARD] TOP LEVEL transaction information:    accumulated_orders = 0xa8e4 cancelled_orders = 0xc134  max_to_trade = 0xf0db  
# START  x
# 
#  T=956000 [MONITOR] transaction information: cpu_client_id = 0x4 cpu_amount = 0xae40 cpu_new_max = 0x1 cpu_go = 0x0 exchange_client_id = 0xe exchange_amount = 0xf10f exchange_go = 0x0 
#  T=956000 [SCOREBOARD] TOP LEVEL transaction information:    accumulated_orders = 0xee7b cancelled_orders = 0x0  max_to_trade = 0xffcc  
# START  x
# 
#  T=972000 [MONITOR] transaction information: cpu_client_id = 0x0 cpu_amount = 0xf248 cpu_new_max = 0x0 cpu_go = 0x1 exchange_client_id = 0x9 exchange_amount = 0x5d30 exchange_go = 0x0 
#  T=972000 [SCOREBOARD] TOP LEVEL transaction information:    accumulated_orders = 0xa8e4 cancelled_orders = 0xc134  max_to_trade = 0xfa0c  
# START  x
# mem_data_down.ready from controller 1 mem.
# 
#  T=988000 [MONITOR] transaction information: cpu_client_id = 0x0 cpu_amount = 0x3b34 cpu_new_max = 0x0 cpu_go = 0x1 exchange_client_id = 0x14 exchange_amount = 0x99fa exchange_go = 0x0 
#  T=988000 [SCOREBOARD] TOP LEVEL transaction information:    accumulated_orders = 0x9b2c cancelled_orders = 0xc134  max_to_trade = 0xfa0c  
# START  x
# 
#  T=1004000 [MONITOR] transaction information: cpu_client_id = 0x4 cpu_amount = 0x3843 cpu_new_max = 0x1 cpu_go = 0x0 exchange_client_id = 0x1a exchange_amount = 0xb47d exchange_go = 0x1 
