testbench/outputs/top/UPDOWNSTREAM_sim.txt
# vsim seg_work_opt -c -logfile testbench/outputs/top/UPDOWNSTREAM_sim.txt -do "run -all; quit" 
# Start time: 11:22:20 on May 26,2022
# //  Questa Sim-64
# //  Version 10.7c linux_x86_64 Aug 17 2018
# //
# //  Copyright 1991-2018 Mentor Graphics Corporation
# //  All Rights Reserved.
# //
# //  QuestaSim and its associated documentation contain trade
# //  secrets and commercial or financial information that are the property of
# //  Mentor Graphics Corporation and are privileged, confidential,
# //  and exempt from disclosure under the Freedom of Information Act,
# //  5 U.S.C. Section 552. Furthermore, this information
# //  is prohibited from disclosure under the Trade Secrets Act,
# //  18 U.S.C. Section 1905.
# //
# Loading sv_std.std
# Loading work.tb_top_UPDOWNSTREAM_sv_unit(fast)
# Loading work.tb_top_UPDOWNSTREAM(fast)
# Loading work.updownstream_if(fast)
# Loading work.cache_def(fast)
# Loading work.top_sv_unit(fast)
# Loading work.top(fast)
# Loading work.dm_cache_fsm_downstream(fast)
# Loading work.dm_cache_tag_downstream(fast)
# Loading work.dm_data_downstream(fast)
# Loading work.downmem_controller(fast)
# Loading work.upstream_processor_top(fast)
# Loading work.dm_cache_fsm_upstream(fast)
# Loading work.dm_cache_tag_upstream(fast)
# Loading work.dm_data_upstream(fast)
# Loading work.mem_controller(fast)
# Loading work.upstream_processor(fast)
# Loading work.downstream_top(fast)
# Loading work.updownstream_if(fast)
# ** Warning: (vsim-3015) [PCDPC] - Port size (9) does not match connection size (5) for port 'cpu_client_id'. The port definition is at: code/shared/top.sv(17).
#    Time: 0 ps  Iteration: 0  Instance: /tb_top_UPDOWNSTREAM/TOP File: testbench/unit_level/UPDOWNSTREAM/tb_top_UPDOWNSTREAM.sv Line: 12
# ** Warning: (vsim-3839) Variable '/tb_top_UPDOWNSTREAM/TOP/CACHEDOWNSTREAM/mem_data_down', driven via a port connection, is multiply driven. See code/shared/top.sv(60).
#    Time: 0 ps  Iteration: 0  Instance: /tb_top_UPDOWNSTREAM/TOP/CACHEDOWNSTREAM/cmem File: code/shared/ramdownstream.sv Line: 278
# ** Warning: (vsim-3839) Variable '/tb_top_UPDOWNSTREAM/TOP/UPTOP/CACHEUPSTREAM/mem_data', driven via a port connection, is multiply driven. See code/upstream/upstream_top.sv(50).
#    Time: 0 ps  Iteration: 0  Instance: /tb_top_UPDOWNSTREAM/TOP/UPTOP/CACHEUPSTREAM/cmem File: code/shared/ramupstream.sv Line: 369
# ** Warning: (vsim-3839) Variable '/tb_top_UPDOWNSTREAM/TOP/downdatareq.rdindex[3:0]', driven via a port connection, is multiply driven. See code/shared/top.sv(83).
#    Time: 0 ps  Iteration: 0  Instance: /tb_top_UPDOWNSTREAM/TOP File: code/shared/top.sv Line: 103
# ** Warning: (vsim-3839) Variable '/tb_top_UPDOWNSTREAM/TOP/downdatareq.rdindex[9:4]', driven via a port connection, is multiply driven. See code/shared/top.sv(83).
#    Time: 0 ps  Iteration: 0  Instance: /tb_top_UPDOWNSTREAM/TOP File: code/shared/top.sv Line: 101
# ** Warning: (vsim-3839) Variable '/tb_top_UPDOWNSTREAM/TOP/downdatareq.data', driven via a port connection, is multiply driven. See code/shared/top.sv(83).
#    Time: 0 ps  Iteration: 0  Instance: /tb_top_UPDOWNSTREAM/TOP File: code/shared/top.sv Line: 97
# ** Warning: (vsim-3839) Variable '/tb_top_UPDOWNSTREAM/TOP/downdatareq.valid', driven via a port connection, is multiply driven. See code/shared/top.sv(83).
#    Time: 0 ps  Iteration: 0  Instance: /tb_top_UPDOWNSTREAM/TOP File: code/shared/top.sv Line: 96
# run -all
# Loading downstream rom.
# ** Warning: (vsim-PLI-3407) Too many data words read on line 34 of file "code/shared/rom_empty.mem". (Current address [33], address range [0:32])    : code/shared/ramdownstream.sv(27)
#    Time: 0 ps  Iteration: 0  Instance: /tb_top_UPDOWNSTREAM/TOP/CACHEDOWNSTREAM/cdata
# Loading downstream memory.
# ** Warning: (vsim-PLI-3407) Too many data words read on line 123 of file "code/shared/rom_empty.mem". (Current address [122], address range [0:121])    : code/shared/ramdownstream.sv(84)
#    Time: 0 ps  Iteration: 0  Instance: /tb_top_UPDOWNSTREAM/TOP/CACHEDOWNSTREAM/cmem
# Loading upstream cache.
# ** Warning: (vsim-PLI-3407) Too many data words read on line 14 of file "code/shared/rom_trade.mem". (Current address [13], address range [0:12])    : code/shared/ramupstream.sv(34)
#    Time: 0 ps  Iteration: 0  Instance: /tb_top_UPDOWNSTREAM/TOP/UPTOP/CACHEUPSTREAM/cdata
# Loading upstream memory.
# ** Warning: (vsim-PLI-3407) Too many data words read on line 123 of file "code/shared/rom_trade.mem". (Current address [122], address range [0:121])    : code/shared/ramupstream.sv(125)
#    Time: 0 ps  Iteration: 0  Instance: /tb_top_UPDOWNSTREAM/TOP/UPTOP/CACHEUPSTREAM/cmem
# --------- [DRIVER] Reset Started ---------
# state, 0, mem_data.ready 0, mem_req.rw 0, mem_req.valid 0
# state, 0, mem_data.ready 0, mem_req.rw 0, mem_req.valid 0
# --------- [DRIVER] Reset Ended ---------
# T=2000 [Generator] starting
# repeat count = 30
# T=2000, [DRIVER] starting ---------
# T=2000, [MONITOR] starting ---------
# T=2000, [SCOREBOARD] starting ---------
# tag mem is now '{'{valid:0, dirty:0, tag:0}, '{valid:0, dirty:0, tag:0}, '{valid:0, dirty:0, tag:0}, '{valid:0, dirty:0, tag:0}, '{valid:0, dirty:0, tag:0}, '{valid:0, dirty:0, tag:0}, '{valid:0, dirty:0, tag:0}, '{valid:0, dirty:0, tag:0}, '{valid:0, dirty:0, tag:0}, '{valid:0, dirty:0, tag:0}, '{valid:0, dirty:0, tag:0}, '{valid:0, dirty:0, tag:0}, '{valid:0, dirty:0, tag:0}}
# ** Error: should be writing to downstream memory
#    Time: 2 ns Started: 2 ns  Scope: tb_top_UPDOWNSTREAM.TOP.DOWNTOP.downstream_write_enable File: code/downstream/downstream_top.sv Line: 38
# ** Error: two states, check_risk and send_order, are simultaneously high
#    Time: 2 ns Started: 2 ns  Scope: tb_top_UPDOWNSTREAM.TOP.UPTOP.trade_state_logic3 File: code/upstream/upstream_top.sv Line: 150
# ** Error: two states, update_max and send_order, are simultaneously high
#    Time: 2 ns Started: 2 ns  Scope: tb_top_UPDOWNSTREAM.TOP.UPTOP.trade_state_logic2 File: code/upstream/upstream_top.sv Line: 142
# ** Error: two states, update_max and check_risk, are simultaneously high
#    Time: 2 ns Started: 2 ns  Scope: tb_top_UPDOWNSTREAM.TOP.UPTOP.trade_state_logic1 File: code/upstream/upstream_top.sv Line: 134
# state, 0, mem_data.ready 0, mem_req.rw 0, mem_req.valid 0
# ** Error: pass_checks was not computer properly for client Z; max to trade: 65450, accumulated amount: 0, cancelled amount: 0, pass_checks: 1, amount 1361
#    Time: 6 ns Started: 6 ns  Scope: tb_top_UPDOWNSTREAM.TOP.UPTOP.trade_pass_checks File: code/upstream/upstream_top.sv Line: 123
# ** Error: The amount was not indexed properly: amount 1361; correct amount (to write): 89194496, correct_amount[31:16]: 1361, (correct_amount == amount) 0 , (correct_amount[31:16]== amount) 1, ((correct_amount == amount)||(correct_amount[31:16]== amount))1
#    Time: 6 ns Started: 6 ns  Scope: tb_top_UPDOWNSTREAM.TOP.UPTOP.trade_correctamount_cpu File: code/upstream/upstream_top.sv Line: 115
# mem_data_down.ready from controller 1 mem.
# tag mem is now '{'{valid:0, dirty:0, tag:0}, '{valid:0, dirty:0, tag:0}, '{valid:0, dirty:0, tag:0}, '{valid:0, dirty:0, tag:0}, '{valid:0, dirty:0, tag:0}, '{valid:0, dirty:0, tag:0}, '{valid:0, dirty:0, tag:0}, '{valid:0, dirty:0, tag:0}, '{valid:0, dirty:0, tag:0}, '{valid:0, dirty:0, tag:0}, '{valid:0, dirty:0, tag:0}, '{valid:0, dirty:0, tag:0}, '{valid:0, dirty:0, tag:0}}
# state, 1, mem_data.ready 0, mem_req.rw 0, mem_req.valid 0
# state, 1, mem_data.ready 0, mem_req.rw 0, mem_req.valid 1
# 
#  T=18000 [MONITOR] transaction information: cpu_client_id = 0xx cpu_amount = 0x0xxxx cpu_new_max = 0xx cpu_go = 0xx exchange_client_id = 0xx exchange_amount = 0xx exchange_go = 0xx 
#  T=18000 [SCOREBOARD] TOP LEVEL transaction information:    accumulated_orders = 0x0xxxx cancelled_orders = 0xx  max_to_trade = 0xx  
#  WAITS MEM
# state, 1, mem_data.ready 0, mem_req.rw 0, mem_req.valid 1
# 
# =============
# 
# totalsent to cache 0, data_write 5510000.
# state, 2, mem_data.ready 0, mem_req.rw 0, mem_req.valid 1
# state, 2, mem_data.ready 0, mem_req.rw 0, mem_req.valid 1
# state, 2, mem_data.ready 0, mem_req.rw 0, mem_req.valid 1
#  WAITS MEM
# 
#  T=42000 [MONITOR] transaction information: cpu_client_id = 0x6 cpu_amount = 0x551 cpu_new_max = 0x1 cpu_go = 0x0 exchange_client_id = 0x1 exchange_amount = 0xc0ce exchange_go = 0x1 
#  T=42000 [SCOREBOARD] TOP LEVEL transaction information:    accumulated_orders = 0x0 cancelled_orders = 0x0  max_to_trade = 0xffaa  
#  WAITS MEM
# tag mem is now '{'{valid:0, dirty:0, tag:0}, '{valid:0, dirty:0, tag:0}, '{valid:0, dirty:0, tag:0}, '{valid:0, dirty:0, tag:0}, '{valid:0, dirty:0, tag:0}, '{valid:0, dirty:0, tag:0}, '{valid:1, dirty:1, tag:6}, '{valid:0, dirty:0, tag:0}, '{valid:0, dirty:0, tag:0}, '{valid:0, dirty:0, tag:0}, '{valid:0, dirty:0, tag:0}, '{valid:0, dirty:0, tag:0}, '{valid:0, dirty:0, tag:0}}
#  WAITS MEM
# state, 2, mem_data.ready 1, mem_req.rw 0, mem_req.valid 1
# state, 2, mem_data.ready 1, mem_req.rw 0, mem_req.valid 0
# 
# =============
# 
# totalsent to cache 1, data_write cc6e.
# totalsent to accuorders cache 0, data_write cc6e.
# state, 2, mem_data.ready 0, mem_req.rw 0, mem_req.valid 0
# state, 2, mem_data.ready 0, mem_req.rw 0, mem_req.valid 0
# 
#  T=66000 [MONITOR] transaction information: cpu_client_id = 0x5 cpu_amount = 0xcc6e cpu_new_max = 0x0 cpu_go = 0x1 exchange_client_id = 0xb exchange_amount = 0x2c76 exchange_go = 0x0 
#  T=66000 [SCOREBOARD] TOP LEVEL transaction information:    accumulated_orders = 0x0 cancelled_orders = 0x0  max_to_trade = 0x551  
# tag mem is now '{'{valid:0, dirty:0, tag:0}, '{valid:0, dirty:0, tag:0}, '{valid:0, dirty:0, tag:0}, '{valid:0, dirty:0, tag:0}, '{valid:0, dirty:0, tag:0}, '{valid:0, dirty:0, tag:0}, '{valid:1, dirty:1, tag:6}, '{valid:0, dirty:0, tag:0}, '{valid:0, dirty:0, tag:0}, '{valid:0, dirty:0, tag:0}, '{valid:0, dirty:0, tag:0}, '{valid:0, dirty:0, tag:0}, '{valid:0, dirty:0, tag:0}}
#  WAITS MEM
# mem_data_down.ready from controller 1 mem.
# tag mem is now '{'{valid:0, dirty:0, tag:0}, '{valid:0, dirty:0, tag:0}, '{valid:0, dirty:0, tag:0}, '{valid:0, dirty:0, tag:0}, '{valid:0, dirty:0, tag:0}, '{valid:0, dirty:0, tag:0}, '{valid:1, dirty:1, tag:6}, '{valid:0, dirty:0, tag:0}, '{valid:0, dirty:0, tag:0}, '{valid:0, dirty:0, tag:0}, '{valid:0, dirty:0, tag:0}, '{valid:0, dirty:0, tag:0}, '{valid:0, dirty:0, tag:0}}
#  WAITS MEM
# 
#  T=90000 [MONITOR] transaction information: cpu_client_id = 0x12 cpu_amount = 0xd6d8 cpu_new_max = 0x1 cpu_go = 0x0 exchange_client_id = 0x11 exchange_amount = 0xf742 exchange_go = 0x1 
#  T=90000 [SCOREBOARD] TOP LEVEL transaction information:    accumulated_orders = 0x0 cancelled_orders = 0x0  max_to_trade = 0x551  
# tag mem is now '{'{valid:0, dirty:0, tag:0}, '{valid:0, dirty:0, tag:0}, '{valid:0, dirty:0, tag:0}, '{valid:0, dirty:0, tag:0}, '{valid:0, dirty:0, tag:0}, '{valid:0, dirty:0, tag:0}, '{valid:1, dirty:1, tag:6}, '{valid:0, dirty:0, tag:0}, '{valid:0, dirty:0, tag:0}, '{valid:0, dirty:0, tag:0}, '{valid:0, dirty:0, tag:0}, '{valid:0, dirty:0, tag:0}, '{valid:0, dirty:0, tag:0}}
#  WAITS MEM
# tag mem is now '{'{valid:0, dirty:0, tag:0}, '{valid:0, dirty:0, tag:0}, '{valid:0, dirty:0, tag:0}, '{valid:0, dirty:0, tag:0}, '{valid:0, dirty:0, tag:0}, '{valid:0, dirty:0, tag:0}, '{valid:1, dirty:1, tag:6}, '{valid:0, dirty:0, tag:0}, '{valid:0, dirty:0, tag:0}, '{valid:0, dirty:0, tag:0}, '{valid:0, dirty:0, tag:0}, '{valid:0, dirty:0, tag:0}, '{valid:0, dirty:0, tag:0}}
#  WAITS MEM
# state, 2, mem_data.ready 1, mem_req.rw 0, mem_req.valid 0
# 
#  T=114000 [MONITOR] transaction information: cpu_client_id = 0x5 cpu_amount = 0x4a34 cpu_new_max = 0x0 cpu_go = 0x1 exchange_client_id = 0x8 exchange_amount = 0xae3b exchange_go = 0x0 
#  T=114000 [SCOREBOARD] TOP LEVEL transaction information:    accumulated_orders = 0x0 cancelled_orders = 0x0  max_to_trade = 0x551  
# tag mem is now '{'{valid:0, dirty:0, tag:0}, '{valid:0, dirty:0, tag:0}, '{valid:0, dirty:0, tag:0}, '{valid:0, dirty:0, tag:0}, '{valid:0, dirty:0, tag:0}, '{valid:0, dirty:0, tag:0}, '{valid:1, dirty:1, tag:6}, '{valid:0, dirty:0, tag:0}, '{valid:0, dirty:0, tag:0}, '{valid:0, dirty:0, tag:0}, '{valid:0, dirty:0, tag:0}, '{valid:0, dirty:0, tag:0}, '{valid:0, dirty:0, tag:0}}
# state, 1, mem_data.ready 1, mem_req.rw 0, mem_req.valid 0
# state, 1, mem_data.ready 1, mem_req.rw 0, mem_req.valid 1
# state, 1, mem_data.ready 0, mem_req.rw 0, mem_req.valid 1
#  WAITS MEM
# state, 1, mem_data.ready 0, mem_req.rw 0, mem_req.valid 1
# state, 2, mem_data.ready 0, mem_req.rw 0, mem_req.valid 1
# 
#  T=138000 [MONITOR] transaction information: cpu_client_id = 0x10 cpu_amount = 0xe68d cpu_new_max = 0x1 cpu_go = 0x0 exchange_client_id = 0x9 exchange_amount = 0xa6bb exchange_go = 0x0 
#  T=138000 [SCOREBOARD] TOP LEVEL transaction information:    accumulated_orders = 0x0 cancelled_orders = 0x0  max_to_trade = 0x551  
#  WAITS MEM
# state, 2, mem_data.ready 0, mem_req.rw 0, mem_req.valid 1
# mem_data_down.ready from controller 1 mem.
# state, 2, mem_data.ready 0, mem_req.rw 0, mem_req.valid 1
# ** Error: The amount was not indexed properly: amount 41391; correct amount (to write): 41391, correct_amount[31:16]: 0, (correct_amount == amount) 1 , (correct_amount[31:16]== amount) 0, ((correct_amount == amount)||(correct_amount[31:16]== amount))1
#    Time: 150 ns Started: 150 ns  Scope: tb_top_UPDOWNSTREAM.TOP.UPTOP.trade_correctamount_cpu File: code/upstream/upstream_top.sv Line: 115
#  WAITS MEM
# 
#  T=162000 [MONITOR] transaction information: cpu_client_id = 0x2 cpu_amount = 0xf0db cpu_new_max = 0x1 cpu_go = 0x0 exchange_client_id = 0x1d exchange_amount = 0xf960 exchange_go = 0x1 
#  T=162000 [SCOREBOARD] TOP LEVEL transaction information:    accumulated_orders = 0x0 cancelled_orders = 0x0  max_to_trade = 0x551  
# tag mem is now '{'{valid:0, dirty:0, tag:0}, '{valid:0, dirty:0, tag:0}, '{valid:0, dirty:0, tag:0}, '{valid:0, dirty:0, tag:0}, '{valid:0, dirty:0, tag:0}, '{valid:1, dirty:1, tag:5}, '{valid:1, dirty:1, tag:6}, '{valid:0, dirty:0, tag:0}, '{valid:0, dirty:0, tag:0}, '{valid:0, dirty:0, tag:0}, '{valid:0, dirty:0, tag:0}, '{valid:0, dirty:0, tag:0}, '{valid:0, dirty:0, tag:0}}
#  WAITS MEM
# state, 2, mem_data.ready 1, mem_req.rw 0, mem_req.valid 1
# state, 2, mem_data.ready 1, mem_req.rw 0, mem_req.valid 0
# 
# =============
# 
# totalsent to cache 2, data_write a1af.
# totalsent to accuorders cache 1, data_write a1af.
# state, 2, mem_data.ready 0, mem_req.rw 0, mem_req.valid 0
# tag mem is now '{'{valid:0, dirty:0, tag:0}, '{valid:0, dirty:0, tag:0}, '{valid:0, dirty:0, tag:0}, '{valid:0, dirty:0, tag:0}, '{valid:0, dirty:0, tag:0}, '{valid:1, dirty:1, tag:5}, '{valid:1, dirty:1, tag:6}, '{valid:0, dirty:0, tag:0}, '{valid:0, dirty:0, tag:0}, '{valid:0, dirty:0, tag:0}, '{valid:0, dirty:0, tag:0}, '{valid:0, dirty:0, tag:0}, '{valid:0, dirty:0, tag:0}}
#  WAITS MEM
# 
#  T=186000 [MONITOR] transaction information: cpu_client_id = 0x13 cpu_amount = 0xa1af cpu_new_max = 0x1 cpu_go = 0x0 exchange_client_id = 0x1b exchange_amount = 0x61ae exchange_go = 0x1 
#  T=186000 [SCOREBOARD] TOP LEVEL transaction information:    accumulated_orders = 0xcc6e cancelled_orders = 0x0  max_to_trade = 0xffaa  
# tag mem is now '{'{valid:0, dirty:0, tag:0}, '{valid:0, dirty:0, tag:0}, '{valid:0, dirty:0, tag:0}, '{valid:0, dirty:0, tag:0}, '{valid:0, dirty:0, tag:0}, '{valid:1, dirty:1, tag:5}, '{valid:1, dirty:1, tag:6}, '{valid:0, dirty:0, tag:0}, '{valid:0, dirty:0, tag:0}, '{valid:0, dirty:0, tag:0}, '{valid:0, dirty:0, tag:0}, '{valid:0, dirty:0, tag:0}, '{valid:0, dirty:0, tag:0}}
#  WAITS MEM
# tag mem is now '{'{valid:0, dirty:0, tag:0}, '{valid:0, dirty:0, tag:0}, '{valid:0, dirty:0, tag:0}, '{valid:0, dirty:0, tag:0}, '{valid:0, dirty:0, tag:0}, '{valid:1, dirty:1, tag:5}, '{valid:1, dirty:1, tag:6}, '{valid:0, dirty:0, tag:0}, '{valid:0, dirty:0, tag:0}, '{valid:0, dirty:0, tag:0}, '{valid:0, dirty:0, tag:0}, '{valid:0, dirty:0, tag:0}, '{valid:0, dirty:0, tag:0}}
#  WAITS MEM
# 
#  T=210000 [MONITOR] transaction information: cpu_client_id = 0x10 cpu_amount = 0x66ab cpu_new_max = 0x1 cpu_go = 0x0 exchange_client_id = 0x3 exchange_amount = 0xfb62 exchange_go = 0x0 
#  T=210000 [SCOREBOARD] TOP LEVEL transaction information:    accumulated_orders = 0xcc6e cancelled_orders = 0x0  max_to_trade = 0xffaa  
# tag mem is now '{'{valid:0, dirty:0, tag:0}, '{valid:0, dirty:0, tag:0}, '{valid:0, dirty:0, tag:0}, '{valid:0, dirty:0, tag:0}, '{valid:0, dirty:0, tag:0}, '{valid:1, dirty:1, tag:5}, '{valid:1, dirty:1, tag:6}, '{valid:0, dirty:0, tag:0}, '{valid:0, dirty:0, tag:0}, '{valid:0, dirty:0, tag:0}, '{valid:0, dirty:0, tag:0}, '{valid:0, dirty:0, tag:0}, '{valid:0, dirty:0, tag:0}}
#  WAITS MEM
# state, 2, mem_data.ready 1, mem_req.rw 0, mem_req.valid 0
# mem_data_down.ready from controller 1 mem.
# tag mem is now '{'{valid:0, dirty:0, tag:0}, '{valid:0, dirty:0, tag:0}, '{valid:0, dirty:0, tag:0}, '{valid:0, dirty:0, tag:0}, '{valid:0, dirty:0, tag:0}, '{valid:1, dirty:1, tag:5}, '{valid:1, dirty:1, tag:6}, '{valid:0, dirty:0, tag:0}, '{valid:0, dirty:0, tag:0}, '{valid:0, dirty:0, tag:0}, '{valid:0, dirty:0, tag:0}, '{valid:0, dirty:0, tag:0}, '{valid:0, dirty:0, tag:0}}
# state, 1, mem_data.ready 1, mem_req.rw 0, mem_req.valid 0
# state, 1, mem_data.ready 1, mem_req.rw 0, mem_req.valid 1
# state, 1, mem_data.ready 0, mem_req.rw 0, mem_req.valid 1
# 
#  T=234000 [MONITOR] transaction information: cpu_client_id = 0x19 cpu_amount = 0x281f cpu_new_max = 0x1 cpu_go = 0x0 exchange_client_id = 0x13 exchange_amount = 0x4fc8 exchange_go = 0x1 
#  T=234000 [SCOREBOARD] TOP LEVEL transaction information:    accumulated_orders = 0xcc6e cancelled_orders = 0x0  max_to_trade = 0xffaa  
#  WAITS MEM
# state, 1, mem_data.ready 0, mem_req.rw 0, mem_req.valid 1
# state, 2, mem_data.ready 0, mem_req.rw 0, mem_req.valid 1
# state, 2, mem_data.ready 0, mem_req.rw 0, mem_req.valid 1
# state, 2, mem_data.ready 0, mem_req.rw 0, mem_req.valid 1
# ** Error: The amount was not indexed properly: amount 45880; correct amount (to write): 3006791680, correct_amount[31:16]: 45880, (correct_amount == amount) 0 , (correct_amount[31:16]== amount) 1, ((correct_amount == amount)||(correct_amount[31:16]== amount))1
#    Time: 246 ns Started: 246 ns  Scope: tb_top_UPDOWNSTREAM.TOP.UPTOP.trade_correctamount_cpu File: code/upstream/upstream_top.sv Line: 115
#  WAITS MEM
# 
#  T=258000 [MONITOR] transaction information: cpu_client_id = 0xa cpu_amount = 0xa05e cpu_new_max = 0x0 cpu_go = 0x1 exchange_client_id = 0x5 exchange_amount = 0x3c48 exchange_go = 0x0 
#  T=258000 [SCOREBOARD] TOP LEVEL transaction information:    accumulated_orders = 0xcc6e cancelled_orders = 0x0  max_to_trade = 0xffaa  
#  WAITS MEM
# tag mem is now '{'{valid:0, dirty:0, tag:0}, '{valid:0, dirty:0, tag:0}, '{valid:0, dirty:0, tag:0}, '{valid:0, dirty:0, tag:0}, '{valid:0, dirty:0, tag:0}, '{valid:1, dirty:1, tag:5}, '{valid:1, dirty:1, tag:6}, '{valid:1, dirty:1, tag:19}, '{valid:0, dirty:0, tag:0}, '{valid:0, dirty:0, tag:0}, '{valid:0, dirty:0, tag:0}, '{valid:0, dirty:0, tag:0}, '{valid:0, dirty:0, tag:0}}
#  WAITS MEM
# state, 2, mem_data.ready 1, mem_req.rw 0, mem_req.valid 1
# state, 2, mem_data.ready 1, mem_req.rw 0, mem_req.valid 0
# 
# =============
# 
# totalsent to cache 3, data_write b3380000.
# state, 2, mem_data.ready 0, mem_req.rw 0, mem_req.valid 0
# state, 2, mem_data.ready 0, mem_req.rw 0, mem_req.valid 0
# 
#  T=282000 [MONITOR] transaction information: cpu_client_id = 0x3 cpu_amount = 0xb338 cpu_new_max = 0x1 cpu_go = 0x0 exchange_client_id = 0x19 exchange_amount = 0xa5a5 exchange_go = 0x1 
#  T=282000 [SCOREBOARD] TOP LEVEL transaction information:    accumulated_orders = 0x0 cancelled_orders = 0x0  max_to_trade = 0x0  
# tag mem is now '{'{valid:0, dirty:0, tag:0}, '{valid:0, dirty:0, tag:0}, '{valid:0, dirty:0, tag:0}, '{valid:0, dirty:0, tag:0}, '{valid:0, dirty:0, tag:0}, '{valid:1, dirty:1, tag:5}, '{valid:1, dirty:1, tag:6}, '{valid:1, dirty:1, tag:19}, '{valid:0, dirty:0, tag:0}, '{valid:0, dirty:0, tag:0}, '{valid:0, dirty:0, tag:0}, '{valid:0, dirty:0, tag:0}, '{valid:0, dirty:0, tag:0}}
#  WAITS MEM
# tag mem is now '{'{valid:0, dirty:0, tag:0}, '{valid:0, dirty:0, tag:0}, '{valid:0, dirty:0, tag:0}, '{valid:0, dirty:0, tag:0}, '{valid:0, dirty:0, tag:0}, '{valid:1, dirty:1, tag:5}, '{valid:1, dirty:1, tag:6}, '{valid:1, dirty:1, tag:19}, '{valid:0, dirty:0, tag:0}, '{valid:0, dirty:0, tag:0}, '{valid:0, dirty:0, tag:0}, '{valid:0, dirty:0, tag:0}, '{valid:0, dirty:0, tag:0}}
#  WAITS MEM
# 
#  T=306000 [MONITOR] transaction information: cpu_client_id = 0x5 cpu_amount = 0xe48f cpu_new_max = 0x1 cpu_go = 0x0 exchange_client_id = 0x11 exchange_amount = 0xf13e exchange_go = 0x0 
#  T=306000 [SCOREBOARD] TOP LEVEL transaction information:    accumulated_orders = 0x0 cancelled_orders = 0x0  max_to_trade = 0x0  
# tag mem is now '{'{valid:0, dirty:0, tag:0}, '{valid:0, dirty:0, tag:0}, '{valid:0, dirty:0, tag:0}, '{valid:0, dirty:0, tag:0}, '{valid:0, dirty:0, tag:0}, '{valid:1, dirty:1, tag:5}, '{valid:1, dirty:1, tag:6}, '{valid:1, dirty:1, tag:19}, '{valid:0, dirty:0, tag:0}, '{valid:0, dirty:0, tag:0}, '{valid:0, dirty:0, tag:0}, '{valid:0, dirty:0, tag:0}, '{valid:0, dirty:0, tag:0}}
#  WAITS MEM
# tag mem is now '{'{valid:0, dirty:0, tag:0}, '{valid:0, dirty:0, tag:0}, '{valid:0, dirty:0, tag:0}, '{valid:0, dirty:0, tag:0}, '{valid:0, dirty:0, tag:0}, '{valid:1, dirty:1, tag:5}, '{valid:1, dirty:1, tag:6}, '{valid:1, dirty:1, tag:19}, '{valid:0, dirty:0, tag:0}, '{valid:0, dirty:0, tag:0}, '{valid:0, dirty:0, tag:0}, '{valid:0, dirty:0, tag:0}, '{valid:0, dirty:0, tag:0}}
#  WAITS MEM
# state, 2, mem_data.ready 1, mem_req.rw 0, mem_req.valid 0
# 
#  T=330000 [MONITOR] transaction information: cpu_client_id = 0x12 cpu_amount = 0xcdf8 cpu_new_max = 0x1 cpu_go = 0x0 exchange_client_id = 0x1a exchange_amount = 0xf41d exchange_go = 0x0 
#  T=330000 [SCOREBOARD] TOP LEVEL transaction information:    accumulated_orders = 0x0 cancelled_orders = 0x0  max_to_trade = 0x0  
# tag mem is now '{'{valid:0, dirty:0, tag:0}, '{valid:0, dirty:0, tag:0}, '{valid:0, dirty:0, tag:0}, '{valid:0, dirty:0, tag:0}, '{valid:0, dirty:0, tag:0}, '{valid:1, dirty:1, tag:5}, '{valid:1, dirty:1, tag:6}, '{valid:1, dirty:1, tag:19}, '{valid:0, dirty:0, tag:0}, '{valid:0, dirty:0, tag:0}, '{valid:0, dirty:0, tag:0}, '{valid:0, dirty:0, tag:0}, '{valid:0, dirty:0, tag:0}}
# state, 1, mem_data.ready 1, mem_req.rw 0, mem_req.valid 0
# state, 1, mem_data.ready 1, mem_req.rw 0, mem_req.valid 1
# state, 1, mem_data.ready 0, mem_req.rw 0, mem_req.valid 1
#  WAITS MEM
# state, 1, mem_data.ready 0, mem_req.rw 0, mem_req.valid 1
# state, 2, mem_data.ready 0, mem_req.rw 0, mem_req.valid 1
# 
#  T=354000 [MONITOR] transaction information: cpu_client_id = 0xa cpu_amount = 0x4168 cpu_new_max = 0x0 cpu_go = 0x1 exchange_client_id = 0xb exchange_amount = 0x15aa exchange_go = 0x1 
#  T=354000 [SCOREBOARD] TOP LEVEL transaction information:    accumulated_orders = 0x0 cancelled_orders = 0x0  max_to_trade = 0x0  
#  WAITS MEM
# state, 2, mem_data.ready 0, mem_req.rw 0, mem_req.valid 1
# state, 2, mem_data.ready 0, mem_req.rw 0, mem_req.valid 1
#  WAITS MEM
# 
#  T=378000 [MONITOR] transaction information: cpu_client_id = 0x4 cpu_amount = 0x8a19 cpu_new_max = 0x0 cpu_go = 0x1 exchange_client_id = 0x10 exchange_amount = 0xd90b exchange_go = 0x0 
#  T=378000 [SCOREBOARD] TOP LEVEL transaction information:    accumulated_orders = 0x0 cancelled_orders = 0x0  max_to_trade = 0x0  
# tag mem is now '{'{valid:0, dirty:0, tag:0}, '{valid:0, dirty:0, tag:0}, '{valid:0, dirty:0, tag:0}, '{valid:1, dirty:1, tag:3}, '{valid:0, dirty:0, tag:0}, '{valid:1, dirty:1, tag:5}, '{valid:1, dirty:1, tag:6}, '{valid:1, dirty:1, tag:19}, '{valid:0, dirty:0, tag:0}, '{valid:0, dirty:0, tag:0}, '{valid:0, dirty:0, tag:0}, '{valid:0, dirty:0, tag:0}, '{valid:0, dirty:0, tag:0}}
#  WAITS MEM
# state, 2, mem_data.ready 1, mem_req.rw 0, mem_req.valid 1
# state, 2, mem_data.ready 1, mem_req.rw 0, mem_req.valid 0
# 
# =============
# 
# totalsent to cache 4, data_write d8a7.
# totalsent to accuorders cache 2, data_write d8a7.
# state, 2, mem_data.ready 0, mem_req.rw 0, mem_req.valid 0
# state, 2, mem_data.ready 0, mem_req.rw 0, mem_req.valid 0
# tag mem is now '{'{valid:0, dirty:0, tag:0}, '{valid:0, dirty:0, tag:0}, '{valid:0, dirty:0, tag:0}, '{valid:1, dirty:1, tag:3}, '{valid:0, dirty:0, tag:0}, '{valid:1, dirty:1, tag:5}, '{valid:1, dirty:1, tag:6}, '{valid:1, dirty:1, tag:19}, '{valid:0, dirty:0, tag:0}, '{valid:0, dirty:0, tag:0}, '{valid:0, dirty:0, tag:0}, '{valid:0, dirty:0, tag:0}, '{valid:0, dirty:0, tag:0}}
#  WAITS MEM
# 
#  T=402000 [MONITOR] transaction information: cpu_client_id = 0x1 cpu_amount = 0xd8a7 cpu_new_max = 0x0 cpu_go = 0x1 exchange_client_id = 0x1e exchange_amount = 0x8394 exchange_go = 0x1 
#  T=402000 [SCOREBOARD] TOP LEVEL transaction information:    accumulated_orders = 0x0 cancelled_orders = 0x0  max_to_trade = 0xb338  
