testbench/outputs/top/UPDOWNSTREAM_sim.txt
# vsim seg_work_opt -c -logfile testbench/outputs/top/UPDOWNSTREAM_sim.txt -do "run -all; quit" 
# Start time: 12:31:55 on May 25,2022
# //  Questa Sim-64
# //  Version 10.7c linux_x86_64 Aug 17 2018
# //
# //  Copyright 1991-2018 Mentor Graphics Corporation
# //  All Rights Reserved.
# //
# //  QuestaSim and its associated documentation contain trade
# //  secrets and commercial or financial information that are the property of
# //  Mentor Graphics Corporation and are privileged, confidential,
# //  and exempt from disclosure under the Freedom of Information Act,
# //  5 U.S.C. Section 552. Furthermore, this information
# //  is prohibited from disclosure under the Trade Secrets Act,
# //  18 U.S.C. Section 1905.
# //
# Loading sv_std.std
# Loading work.tb_top_UPDOWNSTREAM_sv_unit(fast)
# Loading work.tb_top_UPDOWNSTREAM(fast)
# Loading work.updownstream_if(fast)
# Loading work.cache_def(fast)
# Loading work.top_sv_unit(fast)
# Loading work.top(fast)
# Loading work.dm_cache_fsm_downstream(fast)
# Loading work.dm_cache_tag_downstream(fast)
# Loading work.dm_data_downstream(fast)
# Loading work.downmem_controller(fast)
# Loading work.upstream_processor_top(fast)
# Loading work.dm_cache_fsm_upstream(fast)
# Loading work.dm_cache_tag_upstream(fast)
# Loading work.dm_data_upstream(fast)
# Loading work.mem_controller(fast)
# Loading work.upstream_processor(fast)
# Loading work.downstream_top(fast)
# Loading work.updownstream_if(fast)
# ** Warning: (vsim-3839) Variable '/tb_top_UPDOWNSTREAM/TOP/CACHEDOWNSTREAM/mem_data_down', driven via a port connection, is multiply driven. See code/shared/top.sv(60).
#    Time: 0 ps  Iteration: 0  Instance: /tb_top_UPDOWNSTREAM/TOP/CACHEDOWNSTREAM/cmem File: code/shared/ramdownstream.sv Line: 278
# ** Warning: (vsim-3839) Variable '/tb_top_UPDOWNSTREAM/TOP/UPTOP/CACHEUPSTREAM/mem_data', driven via a port connection, is multiply driven. See code/upstream/upstream_top.sv(50).
#    Time: 0 ps  Iteration: 0  Instance: /tb_top_UPDOWNSTREAM/TOP/UPTOP/CACHEUPSTREAM/cmem File: code/shared/ramupstream.sv Line: 354
# ** Warning: (vsim-3839) Variable '/tb_top_UPDOWNSTREAM/TOP/downdatareq.rdindex[3:0]', driven via a port connection, is multiply driven. See code/shared/top.sv(83).
#    Time: 0 ps  Iteration: 0  Instance: /tb_top_UPDOWNSTREAM/TOP File: code/shared/top.sv Line: 103
# ** Warning: (vsim-3839) Variable '/tb_top_UPDOWNSTREAM/TOP/downdatareq.rdindex[9:4]', driven via a port connection, is multiply driven. See code/shared/top.sv(83).
#    Time: 0 ps  Iteration: 0  Instance: /tb_top_UPDOWNSTREAM/TOP File: code/shared/top.sv Line: 101
# ** Warning: (vsim-3839) Variable '/tb_top_UPDOWNSTREAM/TOP/downdatareq.data', driven via a port connection, is multiply driven. See code/shared/top.sv(83).
#    Time: 0 ps  Iteration: 0  Instance: /tb_top_UPDOWNSTREAM/TOP File: code/shared/top.sv Line: 97
# ** Warning: (vsim-3839) Variable '/tb_top_UPDOWNSTREAM/TOP/downdatareq.valid', driven via a port connection, is multiply driven. See code/shared/top.sv(83).
#    Time: 0 ps  Iteration: 0  Instance: /tb_top_UPDOWNSTREAM/TOP File: code/shared/top.sv Line: 96
# run -all
# Loading downstream rom.
# ** Warning: (vsim-PLI-3407) Too many data words read on line 34 of file "code/shared/rom_empty.mem". (Current address [33], address range [0:32])    : code/shared/ramdownstream.sv(27)
#    Time: 0 ps  Iteration: 0  Instance: /tb_top_UPDOWNSTREAM/TOP/CACHEDOWNSTREAM/cdata
# Loading downstream memory.
# ** Warning: (vsim-PLI-3407) Too many data words read on line 123 of file "code/shared/rom_empty.mem". (Current address [122], address range [0:121])    : code/shared/ramdownstream.sv(84)
#    Time: 0 ps  Iteration: 0  Instance: /tb_top_UPDOWNSTREAM/TOP/CACHEDOWNSTREAM/cmem
# Loading upstream cache.
# ** Warning: (vsim-PLI-3407) Too many data words read on line 7 of file "code/shared/rom_trade.mem". (Current address [6], address range [0:5])    : code/shared/ramupstream.sv(32)
#    Time: 0 ps  Iteration: 0  Instance: /tb_top_UPDOWNSTREAM/TOP/UPTOP/CACHEUPSTREAM/cdata
# Loading upstream memory.
# ** Warning: (vsim-PLI-3407) Too many data words read on line 123 of file "code/shared/rom_trade.mem". (Current address [122], address range [0:121])    : code/shared/ramupstream.sv(117)
#    Time: 0 ps  Iteration: 0  Instance: /tb_top_UPDOWNSTREAM/TOP/UPTOP/CACHEUPSTREAM/cmem
# ** Warning: (vsim-3881) testbench/unit_level/UPDOWNSTREAM/tb_top_UPDOWNSTREAM.sv(36): Sign-and-Width conversion applied in bin 'client_id' for Coverpoint 'valid_client_id'. Value '200' changed to '31 (maximum)' value.
#    Time: 0 ps  Iteration: 0  Instance: /tb_top_UPDOWNSTREAM
# ** Warning: (vsim-3882) testbench/unit_level/UPDOWNSTREAM/tb_top_UPDOWNSTREAM.sv(36): Out of bounds value range in bin 'client_id' for Coverpoint 'valid_client_id' converted to nearest valid bounded range of [0:31].
#    Time: 0 ps  Iteration: 0  Instance: /tb_top_UPDOWNSTREAM
# --------- [DRIVER] Reset Started ---------
# state, 0
# state, 0
# --------- [DRIVER] Reset Ended ---------
# T=2000 [Generator] starting
# repeat count = 50
# T=2000, [DRIVER] starting ---------
# T=2000, [MONITOR] starting ---------
# T=2000, [SCOREBOARD] starting ---------
# state, 1
# ** Error: two states, update_max and send_order, are simultaneously high
#    Time: 2 ns Started: 2 ns  Scope: tb_top_UPDOWNSTREAM.TOP.UPTOP.trade_state_logic2 File: code/upstream/upstream_top.sv Line: 135
# ** Error: two states, check_risk and send_order, are simultaneously high
#    Time: 2 ns Started: 2 ns  Scope: tb_top_UPDOWNSTREAM.TOP.UPTOP.trade_state_logic3 File: code/upstream/upstream_top.sv Line: 143
# ** Error: should be writing to downstream memory
#    Time: 2 ns Started: 2 ns  Scope: tb_top_UPDOWNSTREAM.TOP.DOWNTOP.downstream_write_enable File: code/downstream/downstream_top.sv Line: 38
# ** Error: two states, update_max and check_risk, are simultaneously high
#    Time: 2 ns Started: 2 ns  Scope: tb_top_UPDOWNSTREAM.TOP.UPTOP.trade_state_logic1 File: code/upstream/upstream_top.sv Line: 127
# state, 1
# /*cache miss*/
# miss with dirty line
# state, 1
# /*cache miss*/
# miss with dirty line
# mem_data.ready, 0
# Writing 89194496 mem.
# state, 1
# /*cache miss*/
# state, 1
# /*cache miss*/
# ** Error: pass_checks was not computer properly for client 6; max to trade: 0, accumulated amount: 0, cancelled amount: 0, pass_checks: 0, amount 1361
#    Time: 6 ns Started: 6 ns  Scope: tb_top_UPDOWNSTREAM.TOP.UPTOP.trade_pass_checks File: code/upstream/upstream_top.sv Line: 116
# ** Error: pass_checks was not computer properly for client 6; max to trade: 0, accumulated amount: 0, cancelled amount: 0, pass_checks: 0, amount 1361
#    Time: 6 ns Started: 6 ns  Scope: tb_top_UPDOWNSTREAM.TOP.UPTOP.trade_pass_checks File: code/upstream/upstream_top.sv Line: 116
# ** Error: The amount was not indexed properly: amount 1361; correct amount (to write): 89194496, correct_amount[31:16]: 1361, (correct_amount == amount) 0 , (correct_amount[31:16]== amount) 1, ((correct_amount == amount)||(correct_amount[31:16]== amount))1
#    Time: 6 ns Started: 6 ns  Scope: tb_top_UPDOWNSTREAM.TOP.UPTOP.trade_correctamount_cpu File: code/upstream/upstream_top.sv Line: 108
# ** Error: The amount was not indexed properly: amount 1361; correct amount (to write): 89194496, correct_amount[31:16]: 1361, (correct_amount == amount) 0 , (correct_amount[31:16]== amount) 1, ((correct_amount == amount)||(correct_amount[31:16]== amount))1
#    Time: 6 ns Started: 6 ns  Scope: tb_top_UPDOWNSTREAM.TOP.UPTOP.trade_correctamount_cpu File: code/upstream/upstream_top.sv Line: 108
# mem_data_down.ready from controller 1 mem.
# watng fork, 1
# state, 2
# 
#  T=18000 [MONITOR] transaction information: cpu_client_id = 0xx cpu_amount = 0x0xxxx cpu_new_max = 0xx cpu_go = 0xx exchange_client_id = 0xx exchange_amount = 0xx exchange_go = 0xx 
#  T=18000 [SCOREBOARD] TOP LEVEL transaction information:    accumulated_orders = 0x0xxxx cancelled_orders = 0xx  max_to_trade = 0xx  
# watng fork, 2
# state, 2
# totalsent to accuorders cache 0, data_write ffcc0000.
# state, 2
# state, 2
# state, 1
# /*cache miss*/
# miss with dirty line
# mem_data.ready, 1
# Writing 52334 mem.
# state, 1
# /*cache miss*/
# miss with dirty line
# 
#  T=42000 [MONITOR] transaction information: cpu_client_id = 0x6 cpu_amount = 0x551 cpu_new_max = 0x1 cpu_go = 0x0 exchange_client_id = 0x1 exchange_amount = 0xc0ce exchange_go = 0x1 
#  T=42000 [SCOREBOARD] TOP LEVEL transaction information:    accumulated_orders = 0x0 cancelled_orders = 0x0  max_to_trade = 0x0  
# watng fork, 0
# state, 3
# state, 3
# state, 3
# watng fork, 3
# state, 3
# 
#  T=66000 [MONITOR] transaction information: cpu_client_id = 0x5 cpu_amount = 0xcc6e cpu_new_max = 0x0 cpu_go = 0x1 exchange_client_id = 0xb exchange_amount = 0x2c76 exchange_go = 0x0 
#  T=66000 [SCOREBOARD] TOP LEVEL transaction information:    accumulated_orders = 0x0 cancelled_orders = 0x0  max_to_trade = 0xffaa  
# state, 2
# state, 2
# state, 2
# mem_data_down.ready from controller 1 mem.
# state, 2
# state, 1
# /*write hit*/
# totalsent to accuorders cache 1, data_write 4a34.
# state, 1
# /*write hit*/
# 
#  T=90000 [MONITOR] transaction information: cpu_client_id = 0x2 cpu_amount = 0xd6d8 cpu_new_max = 0x1 cpu_go = 0x0 exchange_client_id = 0x11 exchange_amount = 0xf742 exchange_go = 0x1 
#  T=90000 [SCOREBOARD] TOP LEVEL transaction information:    accumulated_orders = 0x0 cancelled_orders = 0x0  max_to_trade = 0x1234  
# state, 0
# state, 0
# state, 0
# state, 1
# /*write hit*/
# totalsent to accuorders cache 2, data_write e68d0000.
# state, 1
# /*write hit*/
# 
#  T=114000 [MONITOR] transaction information: cpu_client_id = 0x5 cpu_amount = 0x4a34 cpu_new_max = 0x0 cpu_go = 0x1 exchange_client_id = 0x8 exchange_amount = 0xae3b exchange_go = 0x0 
#  T=114000 [SCOREBOARD] TOP LEVEL transaction information:    accumulated_orders = 0x4a34 cancelled_orders = 0x0  max_to_trade = 0xffaa  
# state, 0
# state, 0
# state, 0
# state, 1
# /*cache miss*/
# miss with dirty line
# mem_data.ready, 1
# Writing 4040884224 mem.
# state, 1
# /*cache miss*/
# miss with dirty line
# 
#  T=138000 [MONITOR] transaction information: cpu_client_id = 0x0 cpu_amount = 0xe68d cpu_new_max = 0x1 cpu_go = 0x0 exchange_client_id = 0x9 exchange_amount = 0xa6bb exchange_go = 0x0 
#  T=138000 [SCOREBOARD] TOP LEVEL transaction information:    accumulated_orders = 0x0 cancelled_orders = 0x0  max_to_trade = 0xe68d  
# watng fork, 0
# state, 3
# state, 3
# state, 3
# mem_data_down.ready from controller 1 mem.
# watng fork, 1
# 
#  T=162000 [MONITOR] transaction information: cpu_client_id = 0x2 cpu_amount = 0xf0db cpu_new_max = 0x1 cpu_go = 0x0 exchange_client_id = 0x1d exchange_amount = 0xf960 exchange_go = 0x1 
#  T=162000 [SCOREBOARD] TOP LEVEL transaction information:    accumulated_orders = 0x0 cancelled_orders = 0x0  max_to_trade = 0x1234  
# watng fork, 2
# state, 3
# state, 3
# state, 3
# state, 2
# totalsent to accuorders cache 3, data_write ffcc0000.
# state, 2
# 
#  T=186000 [MONITOR] transaction information: cpu_client_id = 0x3 cpu_amount = 0xa1af cpu_new_max = 0x1 cpu_go = 0x0 exchange_client_id = 0x1b exchange_amount = 0x61ae exchange_go = 0x1 
#  T=186000 [SCOREBOARD] TOP LEVEL transaction information:    accumulated_orders = 0x0 cancelled_orders = 0x0  max_to_trade = 0xffaa  
# state, 1
# /*write hit*/
# totalsent to accuorders cache 4, data_write 66ab0000.
# state, 1
# /*write hit*/
# state, 1
# state, 1
# /*cache miss*/
# miss with dirty line
# state, 1
# /*cache miss*/
# miss with dirty line
# mem_data.ready, 1
# Writing 673120256 mem.
# state, 1
# /*cache miss*/
# miss with dirty line
# state, 1
# /*cache miss*/
# watng fork, 0
# state, 2
# 
#  T=210000 [MONITOR] transaction information: cpu_client_id = 0x0 cpu_amount = 0x66ab cpu_new_max = 0x1 cpu_go = 0x0 exchange_client_id = 0x3 exchange_amount = 0xfb62 exchange_go = 0x0 
#  T=210000 [SCOREBOARD] TOP LEVEL transaction information:    accumulated_orders = 0x0 cancelled_orders = 0x0  max_to_trade = 0xffcc  
# watng fork, 1
# state, 2
# mem_data_down.ready from controller 1 mem.
# watng fork, 2
# state, 2
# totalsent to accuorders cache 5, data_write ffcc0000.
# 
#  T=234000 [MONITOR] transaction information: cpu_client_id = 0x9 cpu_amount = 0x281f cpu_new_max = 0x1 cpu_go = 0x0 exchange_client_id = 0x13 exchange_amount = 0x4fc8 exchange_go = 0x1 
#  T=234000 [SCOREBOARD] TOP LEVEL transaction information:    accumulated_orders = 0x0 cancelled_orders = 0x0  max_to_trade = 0x0  
# state, 1
# /*cache miss*/
# miss with dirty line
# mem_data.ready, 1
# Writing 41054 mem.
# state, 1
# /*cache miss*/
# miss with dirty line
# state, 1
# /*cache miss*/
# miss with dirty line
# state, 1
# /*cache miss*/
# miss with dirty line
# watng fork, 0
# state, 3
# 
#  T=258000 [MONITOR] transaction information: cpu_client_id = 0xa cpu_amount = 0xa05e cpu_new_max = 0x0 cpu_go = 0x1 exchange_client_id = 0x5 exchange_amount = 0x3c48 exchange_go = 0x0 
#  T=258000 [SCOREBOARD] TOP LEVEL transaction information:    accumulated_orders = 0x0 cancelled_orders = 0x0  max_to_trade = 0x0  
# watng fork, 1
# state, 3
# state, 3
# mem_data_down.ready from controller 1 mem.
# watng fork, 2
# state, 3
# 
#  T=282000 [MONITOR] transaction information: cpu_client_id = 0x3 cpu_amount = 0xb338 cpu_new_max = 0x1 cpu_go = 0x0 exchange_client_id = 0x19 exchange_amount = 0xa5a5 exchange_go = 0x1 
#  T=282000 [SCOREBOARD] TOP LEVEL transaction information:    accumulated_orders = 0x0 cancelled_orders = 0x0  max_to_trade = 0xffaa  
# state, 2
# state, 2
# state, 2
# state, 1
# /*write hit*/
# totalsent to accuorders cache 6, data_write cdf80000.
# state, 1
# /*write hit*/
# 
#  T=306000 [MONITOR] transaction information: cpu_client_id = 0x5 cpu_amount = 0xe48f cpu_new_max = 0x1 cpu_go = 0x0 exchange_client_id = 0x11 exchange_amount = 0xf13e exchange_go = 0x0 
#  T=306000 [SCOREBOARD] TOP LEVEL transaction information:    accumulated_orders = 0x4a34 cancelled_orders = 0x0  max_to_trade = 0xffaa  
# state, 0
# state, 0
# state, 0
# mem_data_down.ready from controller 1 mem.
# state, 0
# state, 1
# /*cache miss*/
# 
#  T=330000 [MONITOR] transaction information: cpu_client_id = 0x2 cpu_amount = 0xcdf8 cpu_new_max = 0x1 cpu_go = 0x0 exchange_client_id = 0x1a exchange_amount = 0xf41d exchange_go = 0x0 
#  T=330000 [SCOREBOARD] TOP LEVEL transaction information:    accumulated_orders = 0x0 cancelled_orders = 0x0  max_to_trade = 0xcdf8  
# state, 2
# totalsent to accuorders cache 7, data_write ffcc0000.
# state, 2
# state, 2
# state, 1
# /*cache miss*/
# miss with dirty line
# mem_data.ready, 1
# Writing 35353 mem.
# state, 1
# /*cache miss*/
# miss with dirty line
# 
#  T=354000 [MONITOR] transaction information: cpu_client_id = 0xa cpu_amount = 0x4168 cpu_new_max = 0x0 cpu_go = 0x1 exchange_client_id = 0xb exchange_amount = 0x15aa exchange_go = 0x1 
#  T=354000 [SCOREBOARD] TOP LEVEL transaction information:    accumulated_orders = 0x0 cancelled_orders = 0x0  max_to_trade = 0x0  
# watng fork, 0
# state, 3
# state, 3
# state, 3
# watng fork, 1
# 
#  T=378000 [MONITOR] transaction information: cpu_client_id = 0x4 cpu_amount = 0x8a19 cpu_new_max = 0x0 cpu_go = 0x1 exchange_client_id = 0x10 exchange_amount = 0xd90b exchange_go = 0x0 
#  T=378000 [SCOREBOARD] TOP LEVEL transaction information:    accumulated_orders = 0x0 cancelled_orders = 0x0  max_to_trade = 0xffaa  
# watng fork, 2
# state, 3
# state, 3
# state, 3
# mem_data_down.ready from controller 1 mem.
# state, 2
# 
#  T=402000 [MONITOR] transaction information: cpu_client_id = 0x1 cpu_amount = 0xd8a7 cpu_new_max = 0x0 cpu_go = 0x1 exchange_client_id = 0x1e exchange_amount = 0x8394 exchange_go = 0x1 
#  T=402000 [SCOREBOARD] TOP LEVEL transaction information:    accumulated_orders = 0x0 cancelled_orders = 0x0  max_to_trade = 0xffaa  
# state, 1
# /*write hit*/
# totalsent to accuorders cache 8, data_write a047.
# state, 1
# /*write hit*/
# state, 1
# /*write hit*/
# totalsent to accuorders cache 9, data_write 7d1b.
# state, 1
# /*write hit*/
# state, 1
# /*write hit*/
# totalsent to accuorders cache 10, data_write 7d1b0000.
# state, 1
# /*write hit*/
# state, 0
# 
#  T=426000 [MONITOR] transaction information: cpu_client_id = 0x2 cpu_amount = 0xa047 cpu_new_max = 0x0 cpu_go = 0x1 exchange_client_id = 0xc exchange_amount = 0xac3a exchange_go = 0x0 
#  T=426000 [SCOREBOARD] TOP LEVEL transaction information:    accumulated_orders = 0x0 cancelled_orders = 0x0  max_to_trade = 0xcdf8  
# state, 1
# /*write hit*/
# state, 1
# /*cache miss*/
# miss with dirty line
# state, 1
# /*cache miss*/
# miss with dirty line
# mem_data_down.ready from controller 1 mem.
# mem_data.ready, 1
# Writing 20264 mem.
# state, 1
# /*cache miss*/
# miss with dirty line
# state, 1
# /*cache miss*/
# watng fork, 0
# state, 2
# 
#  T=450000 [MONITOR] transaction information: cpu_client_id = 0x2 cpu_amount = 0x7d1b cpu_new_max = 0x1 cpu_go = 0x0 exchange_client_id = 0x14 exchange_amount = 0xb720 exchange_go = 0x1 
#  T=450000 [SCOREBOARD] TOP LEVEL transaction information:    accumulated_orders = 0x1d62 cancelled_orders = 0x0  max_to_trade = 0x7d1b  
# watng fork, 1
# state, 2
# watng fork, 2
# state, 2
# totalsent to accuorders cache 11, data_write ffcc0000.
# 
#  T=474000 [MONITOR] transaction information: cpu_client_id = 0x8 cpu_amount = 0x4f28 cpu_new_max = 0x0 cpu_go = 0x1 exchange_client_id = 0x6 exchange_amount = 0xa2e8 exchange_go = 0x1 
#  T=474000 [SCOREBOARD] TOP LEVEL transaction information:    accumulated_orders = 0x0 cancelled_orders = 0x0  max_to_trade = 0x0  
# state, 1
# /*cache miss*/
# miss with dirty line
# mem_data.ready, 1
# Writing 2923692032 mem.
# state, 1
# /*cache miss*/
# miss with dirty line
# state, 1
# /*cache miss*/
# miss with dirty line
# state, 1
# /*cache miss*/
# watng fork, 0
# state, 2
# 
#  T=498000 [MONITOR] transaction information: cpu_client_id = 0x8 cpu_amount = 0xae44 cpu_new_max = 0x1 cpu_go = 0x0 exchange_client_id = 0x14 exchange_amount = 0xc9fd exchange_go = 0x1 
#  T=498000 [SCOREBOARD] TOP LEVEL transaction information:    accumulated_orders = 0x0 cancelled_orders = 0x0  max_to_trade = 0x0  
# watng fork, 1
# state, 2
# state, 2
# watng fork, 2
# state, 2
# 
#  T=522000 [MONITOR] transaction information: cpu_client_id = 0x6 cpu_amount = 0xdac3 cpu_new_max = 0x1 cpu_go = 0x0 exchange_client_id = 0x18 exchange_amount = 0xad31 exchange_go = 0x0 
#  T=522000 [SCOREBOARD] TOP LEVEL transaction information:    accumulated_orders = 0x0 cancelled_orders = 0xa2e8  max_to_trade = 0x0  
# state, 1
# /*cache miss*/
# miss with dirty line
# mem_data.ready, 1
# Writing 3542614016 mem.
# state, 1
# /*cache miss*/
# miss with dirty line
# state, 1
# /*cache miss*/
# state, 1
# state, 1
# /*write hit*/
# totalsent to accuorders cache 12, data_write eb6.
# state, 1
# /*write hit*/
# watng fork, 0
# state, 0
# 
#  T=546000 [MONITOR] transaction information: cpu_client_id = 0xa cpu_amount = 0xd328 cpu_new_max = 0x1 cpu_go = 0x0 exchange_client_id = 0x1d exchange_amount = 0x7625 exchange_go = 0x0 
#  T=546000 [SCOREBOARD] TOP LEVEL transaction information:    accumulated_orders = 0x0 cancelled_orders = 0x0  max_to_trade = 0x0  
# watng fork, 1
# state, 1
# /*write hit*/
# state, 1
# /*cache miss*/
# miss with dirty line
# state, 1
# /*cache miss*/
# miss with dirty line
# watng fork, 2
# state, 1
# /*cache miss*/
# miss with dirty line
# state, 3
# mem_data.ready, 1
# Writing 3442475008 mem.
# state, 3
# 
#  T=570000 [MONITOR] transaction information: cpu_client_id = 0x5 cpu_amount = 0xeb6 cpu_new_max = 0x1 cpu_go = 0x0 exchange_client_id = 0xe exchange_amount = 0x4db0 exchange_go = 0x0 
#  T=570000 [SCOREBOARD] TOP LEVEL transaction information:    accumulated_orders = 0x58ea cancelled_orders = 0x0  max_to_trade = 0xffaa  
# watng fork, 0
# state, 3
# watng fork, 1
# state, 3
# 
#  T=594000 [MONITOR] transaction information: cpu_client_id = 0x8 cpu_amount = 0xcd30 cpu_new_max = 0x1 cpu_go = 0x0 exchange_client_id = 0x10 exchange_amount = 0x9d8c exchange_go = 0x0 
#  T=594000 [SCOREBOARD] TOP LEVEL transaction information:    accumulated_orders = 0x0 cancelled_orders = 0x0  max_to_trade = 0x0  
# watng fork, 2
# state, 3
# state, 3
# state, 3
# state, 2
# totalsent to accuorders cache 13, data_write ffcc0000.
# 
#  T=618000 [MONITOR] transaction information: cpu_client_id = 0x6 cpu_amount = 0x3239 cpu_new_max = 0x0 cpu_go = 0x1 exchange_client_id = 0x6 exchange_amount = 0xd668 exchange_go = 0x1 
#  T=618000 [SCOREBOARD] TOP LEVEL transaction information:    accumulated_orders = 0x0 cancelled_orders = 0xa2e8  max_to_trade = 0x0  
# state, 1
# /*cache miss*/
# miss with dirty line
# mem_data.ready, 1
# Writing 43666 mem.
# state, 1
# /*cache miss*/
# miss with dirty line
# state, 1
# /*cache miss*/
# miss with dirty line
# watng fork, 0
# state, 1
# /*cache miss*/
# state, 3
# 
#  T=642000 [MONITOR] transaction information: cpu_client_id = 0x7 cpu_amount = 0xaa92 cpu_new_max = 0x0 cpu_go = 0x1 exchange_client_id = 0x4 exchange_amount = 0x7032 exchange_go = 0x1 
#  T=642000 [SCOREBOARD] TOP LEVEL transaction information:    accumulated_orders = 0x0 cancelled_orders = 0x0  max_to_trade = 0x0  
# watng fork, 1
# state, 3
# mem_data_down.ready from controller 1 mem.
# state, 3
# watng fork, 2
# state, 3
# 
#  T=666000 [MONITOR] transaction information: cpu_client_id = 0x6 cpu_amount = 0xf44b cpu_new_max = 0x0 cpu_go = 0x1 exchange_client_id = 0x1a exchange_amount = 0x54ae exchange_go = 0x1 
#  T=666000 [SCOREBOARD] TOP LEVEL transaction information:    accumulated_orders = 0x0 cancelled_orders = 0xa2e8  max_to_trade = 0x0  
# state, 2
# state, 2
# state, 1
# /*cache miss*/
# 
#  T=690000 [MONITOR] transaction information: cpu_client_id = 0x8 cpu_amount = 0x6c6a cpu_new_max = 0x0 cpu_go = 0x1 exchange_client_id = 0xb exchange_amount = 0x5b6d exchange_go = 0x1 
#  T=690000 [SCOREBOARD] TOP LEVEL transaction information:    accumulated_orders = 0x0 cancelled_orders = 0x0  max_to_trade = 0x0  
# state, 2
# state, 2
# mem_data_down.ready from controller 1 mem.
# state, 1
# /*cache miss*/
# 
#  T=714000 [MONITOR] transaction information: cpu_client_id = 0x8 cpu_amount = 0x8d1 cpu_new_max = 0x1 cpu_go = 0x0 exchange_client_id = 0x17 exchange_amount = 0x3878 exchange_go = 0x1 
#  T=714000 [SCOREBOARD] TOP LEVEL transaction information:    accumulated_orders = 0x0 cancelled_orders = 0x0  max_to_trade = 0x0  
# state, 2
# state, 2
# state, 1
# /*cache miss*/
# miss with dirty line
# mem_data.ready, 1
# Writing 61570 mem.
# state, 1
# /*cache miss*/
# miss with dirty line
# 
#  T=738000 [MONITOR] transaction information: cpu_client_id = 0x9 cpu_amount = 0x183c cpu_new_max = 0x1 cpu_go = 0x0 exchange_client_id = 0x1 exchange_amount = 0x31f0 exchange_go = 0x1 
#  T=738000 [SCOREBOARD] TOP LEVEL transaction information:    accumulated_orders = 0x0 cancelled_orders = 0x0  max_to_trade = 0x0  
# watng fork, 0
# state, 3
# state, 3
# state, 3
# mem_data_down.ready from controller 1 mem.
# state, 3
# watng fork, 1
# 
#  T=762000 [MONITOR] transaction information: cpu_client_id = 0x8 cpu_amount = 0xf082 cpu_new_max = 0x0 cpu_go = 0x1 exchange_client_id = 0xf exchange_amount = 0x544f exchange_go = 0x0 
#  T=762000 [SCOREBOARD] TOP LEVEL transaction information:    accumulated_orders = 0x0 cancelled_orders = 0x0  max_to_trade = 0x0  
# watng fork, 2
# state, 3
# state, 3
# state, 3
# state, 3
# state, 2
# 
#  T=786000 [MONITOR] transaction information: cpu_client_id = 0x5 cpu_amount = 0x76 cpu_new_max = 0x1 cpu_go = 0x0 exchange_client_id = 0x18 exchange_amount = 0xb0d1 exchange_go = 0x1 
#  T=786000 [SCOREBOARD] TOP LEVEL transaction information:    accumulated_orders = 0x58ea cancelled_orders = 0x0  max_to_trade = 0xffaa  
# state, 1
# /*write hit*/
# totalsent to accuorders cache 14, data_write 30ac0000.
# state, 1
# /*write hit*/
# state, 1
# state, 1
# /*cache miss*/
# miss with dirty line
# state, 1
# /*cache miss*/
# miss with dirty line
# mem_data_down.ready from controller 1 mem.
# mem_data.ready, 1
# Writing 2392522752 mem.
# state, 1
# /*cache miss*/
# miss with dirty line
# watng fork, 0
# state, 3
# 
#  T=810000 [MONITOR] transaction information: cpu_client_id = 0x2 cpu_amount = 0x30ac cpu_new_max = 0x1 cpu_go = 0x0 exchange_client_id = 0x5 exchange_amount = 0xc3a1 exchange_go = 0x0 
#  T=810000 [SCOREBOARD] TOP LEVEL transaction information:    accumulated_orders = 0x1d62 cancelled_orders = 0x0  max_to_trade = 0x7d1b  
# watng fork, 1
# state, 3
# watng fork, 2
# state, 3
# 
#  T=834000 [MONITOR] transaction information: cpu_client_id = 0xa cpu_amount = 0x8e9b cpu_new_max = 0x1 cpu_go = 0x0 exchange_client_id = 0xd exchange_amount = 0xb558 exchange_go = 0x1 
#  T=834000 [SCOREBOARD] TOP LEVEL transaction information:    accumulated_orders = 0x0 cancelled_orders = 0x0  max_to_trade = 0x0  
# state, 2
# totalsent to accuorders cache 15, data_write ffcc0000.
# state, 2
# state, 2
# state, 1
# /*write hit*/
# totalsent to accuorders cache 16, data_write 5fd8.
# state, 1
# /*write hit*/
# 
#  T=858000 [MONITOR] transaction information: cpu_client_id = 0x6 cpu_amount = 0x1e98 cpu_new_max = 0x1 cpu_go = 0x0 exchange_client_id = 0x1e exchange_amount = 0xa3a2 exchange_go = 0x1 
#  T=858000 [SCOREBOARD] TOP LEVEL transaction information:    accumulated_orders = 0x0 cancelled_orders = 0xa2e8  max_to_trade = 0x0  
# state, 0
# state, 0
# state, 0
# mem_data_down.ready from controller 1 mem.
# state, 1
# /*write hit*/
# totalsent to accuorders cache 17, data_write a6a6.
# state, 1
# /*write hit*/
# 
#  T=882000 [MONITOR] transaction information: cpu_client_id = 0x4 cpu_amount = 0x5fd8 cpu_new_max = 0x0 cpu_go = 0x1 exchange_client_id = 0xc exchange_amount = 0xfd95 exchange_go = 0x0 
#  T=882000 [SCOREBOARD] TOP LEVEL transaction information:    accumulated_orders = 0x5fd8 cancelled_orders = 0x0  max_to_trade = 0xffaa  
# state, 0
# state, 0
# state, 0
# state, 0
# state, 1
# 
#  T=906000 [MONITOR] transaction information: cpu_client_id = 0x0 cpu_amount = 0xa6a6 cpu_new_max = 0x0 cpu_go = 0x1 exchange_client_id = 0x14 exchange_amount = 0x60c3 exchange_go = 0x0 
#  T=906000 [SCOREBOARD] TOP LEVEL transaction information:    accumulated_orders = 0xa6a6 cancelled_orders = 0x0  max_to_trade = 0x66ab  
# state, 0
# state, 0
# state, 0
# state, 1
# /*write hit*/
# totalsent to accuorders cache 18, data_write 87b80000.
# state, 1
# /*write hit*/
# 
#  T=930000 [MONITOR] transaction information: cpu_client_id = 0x2 cpu_amount = 0x5c9d cpu_new_max = 0x0 cpu_go = 0x1 exchange_client_id = 0x2 exchange_amount = 0x3331 exchange_go = 0x0 
#  T=930000 [SCOREBOARD] TOP LEVEL transaction information:    accumulated_orders = 0x1d62 cancelled_orders = 0x0  max_to_trade = 0x30ac  
# state, 0
# state, 0
# state, 0
# state, 0
# state, 1
# 
#  T=954000 [MONITOR] transaction information: cpu_client_id = 0x4 cpu_amount = 0x87b8 cpu_new_max = 0x1 cpu_go = 0x0 exchange_client_id = 0xd exchange_amount = 0x9929 exchange_go = 0x0 
#  T=954000 [SCOREBOARD] TOP LEVEL transaction information:    accumulated_orders = 0x5fd8 cancelled_orders = 0x0  max_to_trade = 0x87b8  
# state, 0
# state, 0
# state, 0
# state, 1
# /*cache miss*/
# miss with dirty line
# mem_data.ready, 1
# Writing 63998 mem.
# state, 1
# /*cache miss*/
# miss with dirty line
# 
#  T=978000 [MONITOR] transaction information: cpu_client_id = 0x2 cpu_amount = 0x2ff0 cpu_new_max = 0x1 cpu_go = 0x0 exchange_client_id = 0xe exchange_amount = 0x57b6 exchange_go = 0x0 
#  T=978000 [SCOREBOARD] TOP LEVEL transaction information:    accumulated_orders = 0x1d62 cancelled_orders = 0x0  max_to_trade = 0x30ac  
# watng fork, 0
# state, 3
# state, 3
# state, 3
# state, 3
# watng fork, 1
# 
