testbench/outputs/upstream/UPSTREAM_sim.txt
# vsim seg_work_opt -c -logfile testbench/outputs/upstream/UPSTREAM_sim.txt -do "run -all; quit" 
# Start time: 17:02:42 on Mar 09,2022
# //  Questa Sim-64
# //  Version 10.7c linux_x86_64 Aug 17 2018
# //
# //  Copyright 1991-2018 Mentor Graphics Corporation
# //  All Rights Reserved.
# //
# //  QuestaSim and its associated documentation contain trade
# //  secrets and commercial or financial information that are the property of
# //  Mentor Graphics Corporation and are privileged, confidential,
# //  and exempt from disclosure under the Freedom of Information Act,
# //  5 U.S.C. Section 552. Furthermore, this information
# //  is prohibited from disclosure under the Trade Secrets Act,
# //  18 U.S.C. Section 1905.
# //
# Loading sv_std.std
# Loading work.tb_top_UPSTREAM_sv_unit(fast)
# Loading work.tb_top_UPSTREAM(fast)
# Loading work.upstream_if(fast)
# Loading work.upstream_processor_top(fast)
# Loading work.ramupstream(fast)
# Loading work.ramdownstream(fast)
# Loading work.SLT(fast)
# Loading work.upstream_processor(fast)
# Loading work.upstream_if(fast)
# run -all
# --------- [DRIVER] Reset Started ---------
# --------- [DRIVER] Reset Ended ---------
# T=5000 [Generator] starting
# repeat count = 100
# T=5000, [DRIVER] starting ---------
# T=5000, [MONITOR] starting ---------
# T=5000, [SCOREBOARD] starting ---------
# T=25000 [SCOREBOARD] transaction information: client_id = 0xXx amount = 0xx new_max = 0xx 
# T=25000 [SCOREBOARD] upstream transaction information: 
# accumulated_orders = 0xx max_to_trade = 0bx thenewmax = 0bx 
# T=45000 [SCOREBOARD] transaction information: client_id = 0x4 amount = 0x7c9e64af new_max = 0x1 
# T=45000 [SCOREBOARD] upstream transaction information: 
# accumulated_orders = 0x0xxxx max_to_trade = 0b0xxxxxxxxxxxxxxxx thenewmax = 0b1 
# T=65000 [SCOREBOARD] transaction information: client_id = 0xa amount = 0x7d2a8e54 new_max = 0x1 
# T=65000 [SCOREBOARD] upstream transaction information: 
# accumulated_orders = 0x0xxxx max_to_trade = 0b0xxxxxxxxxxxxxxxx thenewmax = 0b1 
# T=85000 [SCOREBOARD] transaction information: client_id = 0x16 amount = 0xe5eb0595 new_max = 0x0 
# T=85000 [SCOREBOARD] upstream transaction information: 
# accumulated_orders = 0x0xxxx max_to_trade = 0b0xxxxxxxxxxxxxxxx thenewmax = 0b1 
# T=105000 [SCOREBOARD] transaction information: client_id = 0xa amount = 0x5beb5e69 new_max = 0x1 
# T=105000 [SCOREBOARD] upstream transaction information: 
# accumulated_orders = 0x0xxxx max_to_trade = 0b0xxxxxxxxxxxxxxxx thenewmax = 0b1 
# T=125000 [SCOREBOARD] transaction information: client_id = 0x1d amount = 0xb51ae078 new_max = 0x1 
# T=125000 [SCOREBOARD] upstream transaction information: 
# accumulated_orders = 0x0xxxx max_to_trade = 0b0xxxxxxxxxxxxxxxx thenewmax = 0b1 
# T=145000 [SCOREBOARD] transaction information: client_id = 0x6 amount = 0xe53e8913 new_max = 0x1 
# T=145000 [SCOREBOARD] upstream transaction information: 
# accumulated_orders = 0x0xxxx max_to_trade = 0b0xxxxxxxxxxxxxxxx thenewmax = 0b1 
# T=165000 [SCOREBOARD] transaction information: client_id = 0xb amount = 0xb66d4dfb new_max = 0x0 
# T=165000 [SCOREBOARD] upstream transaction information: 
# accumulated_orders = 0x0xxxx max_to_trade = 0b0xxxxxxxxxxxxxxxx thenewmax = 0b1 
# T=185000 [SCOREBOARD] transaction information: client_id = 0x1c amount = 0x31abce9b new_max = 0x1 
# T=185000 [SCOREBOARD] upstream transaction information: 
# accumulated_orders = 0x0xxxx max_to_trade = 0b0xxxxxxxxxxxxxxxx thenewmax = 0b1 
# T=205000 [SCOREBOARD] transaction information: client_id = 0x1e amount = 0x75538ac7 new_max = 0x1 
# T=205000 [SCOREBOARD] upstream transaction information: 
# accumulated_orders = 0x0xxxx max_to_trade = 0b0xxxxxxxxxxxxxxxx thenewmax = 0b1 
# T=225000 [SCOREBOARD] transaction information: client_id = 0x2 amount = 0x4f80db5b new_max = 0x1 
# T=225000 [SCOREBOARD] upstream transaction information: 
# accumulated_orders = 0x0xxxx max_to_trade = 0b0xxxxxxxxxxxxxxxx thenewmax = 0b1 
# T=245000 [SCOREBOARD] transaction information: client_id = 0x17 amount = 0xfa6e61cf new_max = 0x0 
# T=245000 [SCOREBOARD] upstream transaction information: 
# accumulated_orders = 0x0xxxx max_to_trade = 0b0xxxxxxxxxxxxxxxx thenewmax = 0b0 
# T=265000 [SCOREBOARD] transaction information: client_id = 0x5 amount = 0x35d3f749 new_max = 0x1 
# T=265000 [SCOREBOARD] upstream transaction information: 
# accumulated_orders = 0x0xxxx max_to_trade = 0b0xxxxxxxxxxxxxxxx thenewmax = 0b1 
# T=285000 [SCOREBOARD] transaction information: client_id = 0xe amount = 0x561b98cc new_max = 0x0 
# T=285000 [SCOREBOARD] upstream transaction information: 
# accumulated_orders = 0x0xxxx max_to_trade = 0b0xxxxxxxxxxxxxxxx thenewmax = 0b0 
# T=305000 [SCOREBOARD] transaction information: client_id = 0x1 amount = 0x6f96c079 new_max = 0x1 
# T=305000 [SCOREBOARD] upstream transaction information: 
# accumulated_orders = 0x0xxxx max_to_trade = 0b0xxxxxxxxxxxxxxxx thenewmax = 0b1 
# T=325000 [SCOREBOARD] transaction information: client_id = 0x6 amount = 0x17da5ce8 new_max = 0x0 
# T=325000 [SCOREBOARD] upstream transaction information: 
# accumulated_orders = 0x0xxxx max_to_trade = 0b0xxxxxxxxxxxxxxxx thenewmax = 0b1 
# T=345000 [SCOREBOARD] transaction information: client_id = 0x5 amount = 0xcbfd8f67 new_max = 0x0 
# T=345000 [SCOREBOARD] upstream transaction information: 
# accumulated_orders = 0x0xxxx max_to_trade = 0b0xxxxxxxxxxxxxxxx thenewmax = 0b0 
# T=365000 [SCOREBOARD] transaction information: client_id = 0x14 amount = 0xab58329 new_max = 0x0 
# T=365000 [SCOREBOARD] upstream transaction information: 
# accumulated_orders = 0x0xxxx max_to_trade = 0b0xxxxxxxxxxxxxxxx thenewmax = 0b0 
# T=385000 [SCOREBOARD] transaction information: client_id = 0xc amount = 0xcb9f7631 new_max = 0x1 
# T=385000 [SCOREBOARD] upstream transaction information: 
# accumulated_orders = 0x0xxxx max_to_trade = 0b0xxxxxxxxxxxxxxxx thenewmax = 0b1 
# T=405000 [SCOREBOARD] transaction information: client_id = 0x15 amount = 0x57c0b3a2 new_max = 0x1 
# T=405000 [SCOREBOARD] upstream transaction information: 
# accumulated_orders = 0x0xxxx max_to_trade = 0b0xxxxxxxxxxxxxxxx thenewmax = 0b1 
# T=425000 [SCOREBOARD] transaction information: client_id = 0x14 amount = 0xdbd52df5 new_max = 0x0 
# T=425000 [SCOREBOARD] upstream transaction information: 
# accumulated_orders = 0x0xxxx max_to_trade = 0b0xxxxxxxxxxxxxxxx thenewmax = 0b1 
# T=445000 [SCOREBOARD] transaction information: client_id = 0x1d amount = 0x4290f26b new_max = 0x0 
# T=445000 [SCOREBOARD] upstream transaction information: 
# accumulated_orders = 0x0xxxx max_to_trade = 0b0xxxxxxxxxxxxxxxx thenewmax = 0b0 
# T=465000 [SCOREBOARD] transaction information: client_id = 0xe amount = 0x406bf48 new_max = 0x1 
# T=465000 [SCOREBOARD] upstream transaction information: 
# accumulated_orders = 0x0xxxx max_to_trade = 0b0xxxxxxxxxxxxxxxx thenewmax = 0b1 
# T=485000 [SCOREBOARD] transaction information: client_id = 0x12 amount = 0xe09f9aa3 new_max = 0x0 
# T=485000 [SCOREBOARD] upstream transaction information: 
# accumulated_orders = 0x0xxxx max_to_trade = 0b0xxxxxxxxxxxxxxxx thenewmax = 0b1 
# T=505000 [SCOREBOARD] transaction information: client_id = 0x2 amount = 0x14d91c34 new_max = 0x0 
# T=505000 [SCOREBOARD] upstream transaction information: 
# accumulated_orders = 0x0xxxx max_to_trade = 0b0xxxxxxxxxxxxxxxx thenewmax = 0b0 
# T=525000 [SCOREBOARD] transaction information: client_id = 0x3 amount = 0xd0212d99 new_max = 0x0 
# T=525000 [SCOREBOARD] upstream transaction information: 
# accumulated_orders = 0x0xxxx max_to_trade = 0b0xxxxxxxxxxxxxxxx thenewmax = 0b0 
# T=545000 [SCOREBOARD] transaction information: client_id = 0xc amount = 0x6ab4c7c4 new_max = 0x0 
# T=545000 [SCOREBOARD] upstream transaction information: 
# accumulated_orders = 0x0xxxx max_to_trade = 0b0xxxxxxxxxxxxxxxx thenewmax = 0b0 
# T=565000 [SCOREBOARD] transaction information: client_id = 0xf amount = 0x878ae0d6 new_max = 0x0 
# T=565000 [SCOREBOARD] upstream transaction information: 
# accumulated_orders = 0x0xxxx max_to_trade = 0b0xxxxxxxxxxxxxxxx thenewmax = 0b0 
# T=585000 [SCOREBOARD] transaction information: client_id = 0x8 amount = 0x1c4cc903 new_max = 0x0 
# T=585000 [SCOREBOARD] upstream transaction information: 
# accumulated_orders = 0x0xxxx max_to_trade = 0b0xxxxxxxxxxxxxxxx thenewmax = 0b0 
# T=605000 [SCOREBOARD] transaction information: client_id = 0x4 amount = 0x5506c7c5 new_max = 0x1 
# T=605000 [SCOREBOARD] upstream transaction information: 
# accumulated_orders = 0x0xxxx max_to_trade = 0b0xxxxxxxxxxxxxxxx thenewmax = 0b1 
# T=625000 [SCOREBOARD] transaction information: client_id = 0xb amount = 0xa54a5e9 new_max = 0x1 
# T=625000 [SCOREBOARD] upstream transaction information: 
# accumulated_orders = 0x0xxxx max_to_trade = 0b0xxxxxxxxxxxxxxxx thenewmax = 0b1 
# T=645000 [SCOREBOARD] transaction information: client_id = 0xc amount = 0x2a5bc2a new_max = 0x1 
# T=645000 [SCOREBOARD] upstream transaction information: 
# accumulated_orders = 0x0xxxx max_to_trade = 0b0xxxxxxxxxxxxxxxx thenewmax = 0b1 
# T=665000 [SCOREBOARD] transaction information: client_id = 0x1f amount = 0x58d7e9fe new_max = 0x0 
# T=665000 [SCOREBOARD] upstream transaction information: 
# accumulated_orders = 0x0xxxx max_to_trade = 0b0xxxxxxxxxxxxxxxx thenewmax = 0b1 
# T=685000 [SCOREBOARD] transaction information: client_id = 0xc amount = 0x3877908f new_max = 0x1 
# T=685000 [SCOREBOARD] upstream transaction information: 
# accumulated_orders = 0x0xxxx max_to_trade = 0b0xxxxxxxxxxxxxxxx thenewmax = 0b1 
# T=705000 [SCOREBOARD] transaction information: client_id = 0xe amount = 0x8cb25719 new_max = 0x0 
# T=705000 [SCOREBOARD] upstream transaction information: 
# accumulated_orders = 0x0xxxx max_to_trade = 0b0xxxxxxxxxxxxxxxx thenewmax = 0b1 
# T=725000 [SCOREBOARD] transaction information: client_id = 0x9 amount = 0xc0290bd2 new_max = 0x1 
# T=725000 [SCOREBOARD] upstream transaction information: 
# accumulated_orders = 0x0xxxx max_to_trade = 0b0xxxxxxxxxxxxxxxx thenewmax = 0b1 
# T=745000 [SCOREBOARD] transaction information: client_id = 0x17 amount = 0x3597d9c6 new_max = 0x0 
# T=745000 [SCOREBOARD] upstream transaction information: 
# accumulated_orders = 0x0xxxx max_to_trade = 0b0xxxxxxxxxxxxxxxx thenewmax = 0b0 
# T=765000 [SCOREBOARD] transaction information: client_id = 0x9 amount = 0x60cf6cea new_max = 0x1 
# T=765000 [SCOREBOARD] upstream transaction information: 
# accumulated_orders = 0x0xxxx max_to_trade = 0b0xxxxxxxxxxxxxxxx thenewmax = 0b1 
# T=785000 [SCOREBOARD] transaction information: client_id = 0x6 amount = 0x6c48ece6 new_max = 0x0 
# T=785000 [SCOREBOARD] upstream transaction information: 
# accumulated_orders = 0x0xxxx max_to_trade = 0b0xxxxxxxxxxxxxxxx thenewmax = 0b1 
# T=805000 [SCOREBOARD] transaction information: client_id = 0x3 amount = 0xb7dc9e4c new_max = 0x0 
# T=805000 [SCOREBOARD] upstream transaction information: 
# accumulated_orders = 0x0xxxx max_to_trade = 0b0xxxxxxxxxxxxxxxx thenewmax = 0b0 
# T=825000 [SCOREBOARD] transaction information: client_id = 0x9 amount = 0xa8524ee6 new_max = 0x1 
# T=825000 [SCOREBOARD] upstream transaction information: 
# accumulated_orders = 0x0xxxx max_to_trade = 0b0xxxxxxxxxxxxxxxx thenewmax = 0b1 
# T=845000 [SCOREBOARD] transaction information: client_id = 0xe amount = 0xa6cf8eed new_max = 0x1 
# T=845000 [SCOREBOARD] upstream transaction information: 
# accumulated_orders = 0x0xxxx max_to_trade = 0b0xxxxxxxxxxxxxxxx thenewmax = 0b1 
# T=865000 [SCOREBOARD] transaction information: client_id = 0x5 amount = 0x47ffe96c new_max = 0x1 
# T=865000 [SCOREBOARD] upstream transaction information: 
# accumulated_orders = 0x0xxxx max_to_trade = 0b0xxxxxxxxxxxxxxxx thenewmax = 0b1 
# T=885000 [SCOREBOARD] transaction information: client_id = 0x0 amount = 0x6792a509 new_max = 0x0 
# T=885000 [SCOREBOARD] upstream transaction information: 
# accumulated_orders = 0x0xxxx max_to_trade = 0b0xxxxxxxxxxxxxxxx thenewmax = 0b1 
# T=905000 [SCOREBOARD] transaction information: client_id = 0x15 amount = 0x9c6481ea new_max = 0x0 
# T=905000 [SCOREBOARD] upstream transaction information: 
# accumulated_orders = 0x0xxxx max_to_trade = 0b0xxxxxxxxxxxxxxxx thenewmax = 0b0 
# T=925000 [SCOREBOARD] transaction information: client_id = 0x1b amount = 0xd03bb018 new_max = 0x0 
# T=925000 [SCOREBOARD] upstream transaction information: 
# accumulated_orders = 0x0xxxx max_to_trade = 0b0xxxxxxxxxxxxxxxx thenewmax = 0b0 
# T=945000 [SCOREBOARD] transaction information: client_id = 0x1b amount = 0x8acb4575 new_max = 0x1 
# T=945000 [SCOREBOARD] upstream transaction information: 
# accumulated_orders = 0x0xxxx max_to_trade = 0b0xxxxxxxxxxxxxxxx thenewmax = 0b1 
# T=965000 [SCOREBOARD] transaction information: client_id = 0x10 amount = 0xa5f7ec74 new_max = 0x1 
# T=965000 [SCOREBOARD] upstream transaction information: 
# accumulated_orders = 0x0xxxx max_to_trade = 0b0xxxxxxxxxxxxxxxx thenewmax = 0b1 
# T=985000 [SCOREBOARD] transaction information: client_id = 0x1c amount = 0x14f46d0a new_max = 0x0 
# T=985000 [SCOREBOARD] upstream transaction information: 
# accumulated_orders = 0x0xxxx max_to_trade = 0b0xxxxxxxxxxxxxxxx thenewmax = 0b1 
# T=1005000 [SCOREBOARD] transaction information: client_id = 0x1f amount = 0x4e2a09e8 new_max = 0x0 
# T=1005000 [SCOREBOARD] upstream transaction information: 
# accumulated_orders = 0x0xxxx max_to_trade = 0b0xxxxxxxxxxxxxxxx thenewmax = 0b0 
# T=1025000 [SCOREBOARD] transaction information: client_id = 0x4 amount = 0x40d2c049 new_max = 0x1 
# T=1025000 [SCOREBOARD] upstream transaction information: 
# accumulated_orders = 0x0xxxx max_to_trade = 0b0xxxxxxxxxxxxxxxx thenewmax = 0b1 
# T=1045000 [SCOREBOARD] transaction information: client_id = 0x9 amount = 0xb3f2b50a new_max = 0x1 
# T=1045000 [SCOREBOARD] upstream transaction information: 
# accumulated_orders = 0x0xxxx max_to_trade = 0b0xxxxxxxxxxxxxxxx thenewmax = 0b1 
# T=1065000 [SCOREBOARD] transaction information: client_id = 0x0 amount = 0x27b50b2a new_max = 0x1 
# T=1065000 [SCOREBOARD] upstream transaction information: 
# accumulated_orders = 0x0xxxx max_to_trade = 0b0xxxxxxxxxxxxxxxx thenewmax = 0b1 
# T=1085000 [SCOREBOARD] transaction information: client_id = 0x5 amount = 0xb007beda new_max = 0x0 
# T=1085000 [SCOREBOARD] upstream transaction information: 
# accumulated_orders = 0x0xxxx max_to_trade = 0b0xxxxxxxxxxxxxxxx thenewmax = 0b1 
# T=1105000 [SCOREBOARD] transaction information: client_id = 0x1d amount = 0x81680cc3 new_max = 0x1 
# T=1105000 [SCOREBOARD] upstream transaction information: 
# accumulated_orders = 0x0xxxx max_to_trade = 0b0xxxxxxxxxxxxxxxx thenewmax = 0b1 
# T=1125000 [SCOREBOARD] transaction information: client_id = 0x15 amount = 0x83d1650a new_max = 0x0 
# T=1125000 [SCOREBOARD] upstream transaction information: 
# accumulated_orders = 0x0xxxx max_to_trade = 0b0xxxxxxxxxxxxxxxx thenewmax = 0b0 
# T=1145000 [SCOREBOARD] transaction information: client_id = 0xd amount = 0x73dd5e27 new_max = 0x1 
# T=1145000 [SCOREBOARD] upstream transaction information: 
# accumulated_orders = 0x0xxxx max_to_trade = 0b0xxxxxxxxxxxxxxxx thenewmax = 0b1 
# T=1165000 [SCOREBOARD] transaction information: client_id = 0x6 amount = 0xccf8aba8 new_max = 0x0 
# T=1165000 [SCOREBOARD] upstream transaction information: 
# accumulated_orders = 0x0xxxx max_to_trade = 0b0xxxxxxxxxxxxxxxx thenewmax = 0b1 
# T=1185000 [SCOREBOARD] transaction information: client_id = 0x19 amount = 0xa8b47851 new_max = 0x0 
# T=1185000 [SCOREBOARD] upstream transaction information: 
# accumulated_orders = 0x0xxxx max_to_trade = 0b0xxxxxxxxxxxxxxxx thenewmax = 0b0 
# T=1205000 [SCOREBOARD] transaction information: client_id = 0xc amount = 0x50e87306 new_max = 0x0 
# T=1205000 [SCOREBOARD] upstream transaction information: 
# accumulated_orders = 0x0xxxx max_to_trade = 0b0xxxxxxxxxxxxxxxx thenewmax = 0b0 
# T=1225000 [SCOREBOARD] transaction information: client_id = 0xd amount = 0xd952b703 new_max = 0x1 
# T=1225000 [SCOREBOARD] upstream transaction information: 
# accumulated_orders = 0x0xxxx max_to_trade = 0b0xxxxxxxxxxxxxxxx thenewmax = 0b1 
# T=1245000 [SCOREBOARD] transaction information: client_id = 0x1c amount = 0x1c66d637 new_max = 0x0 
# T=1245000 [SCOREBOARD] upstream transaction information: 
# accumulated_orders = 0x0xxxx max_to_trade = 0b0xxxxxxxxxxxxxxxx thenewmax = 0b0 
# T=1265000 [SCOREBOARD] transaction information: client_id = 0x16 amount = 0x54f2a775 new_max = 0x1 
# T=1265000 [SCOREBOARD] upstream transaction information: 
# accumulated_orders = 0x0xxxx max_to_trade = 0b0xxxxxxxxxxxxxxxx thenewmax = 0b1 
# T=1285000 [SCOREBOARD] transaction information: client_id = 0x18 amount = 0xe788f99b new_max = 0x1 
# T=1285000 [SCOREBOARD] upstream transaction information: 
# accumulated_orders = 0x0xxxx max_to_trade = 0b0xxxxxxxxxxxxxxxx thenewmax = 0b1 
# T=1305000 [SCOREBOARD] transaction information: client_id = 0x17 amount = 0x45c4c5c1 new_max = 0x1 
# T=1305000 [SCOREBOARD] upstream transaction information: 
# accumulated_orders = 0x0xxxx max_to_trade = 0b0xxxxxxxxxxxxxxxx thenewmax = 0b1 
# T=1325000 [SCOREBOARD] transaction information: client_id = 0xc amount = 0xca8b3cef new_max = 0x0 
# T=1325000 [SCOREBOARD] upstream transaction information: 
# accumulated_orders = 0x0xxxx max_to_trade = 0b0xxxxxxxxxxxxxxxx thenewmax = 0b1 
# T=1345000 [SCOREBOARD] transaction information: client_id = 0x1a amount = 0x6ae52db1 new_max = 0x1 
# T=1345000 [SCOREBOARD] upstream transaction information: 
# accumulated_orders = 0x0xxxx max_to_trade = 0b0xxxxxxxxxxxxxxxx thenewmax = 0b1 
# T=1365000 [SCOREBOARD] transaction information: client_id = 0x6 amount = 0x6d8e687f new_max = 0x1 
# T=1365000 [SCOREBOARD] upstream transaction information: 
# accumulated_orders = 0x0xxxx max_to_trade = 0b0xxxxxxxxxxxxxxxx thenewmax = 0b1 
# T=1385000 [SCOREBOARD] transaction information: client_id = 0x1f amount = 0xd52397f3 new_max = 0x0 
# T=1385000 [SCOREBOARD] upstream transaction information: 
# accumulated_orders = 0x0xxxx max_to_trade = 0b0xxxxxxxxxxxxxxxx thenewmax = 0b1 
# T=1405000 [SCOREBOARD] transaction information: client_id = 0x13 amount = 0x8c1d4da1 new_max = 0x0 
# T=1405000 [SCOREBOARD] upstream transaction information: 
# accumulated_orders = 0x0xxxx max_to_trade = 0b0xxxxxxxxxxxxxxxx thenewmax = 0b0 
# T=1425000 [SCOREBOARD] transaction information: client_id = 0x14 amount = 0x1405dc02 new_max = 0x1 
# T=1425000 [SCOREBOARD] upstream transaction information: 
# accumulated_orders = 0x0xxxx max_to_trade = 0b0xxxxxxxxxxxxxxxx thenewmax = 0b1 
# T=1445000 [SCOREBOARD] transaction information: client_id = 0x9 amount = 0x2c70d5c5 new_max = 0x0 
# T=1445000 [SCOREBOARD] upstream transaction information: 
# accumulated_orders = 0x0xxxx max_to_trade = 0b0xxxxxxxxxxxxxxxx thenewmax = 0b0 
# T=1465000 [SCOREBOARD] transaction information: client_id = 0xb amount = 0x1015fe09 new_max = 0x1 
# T=1465000 [SCOREBOARD] upstream transaction information: 
# accumulated_orders = 0x0xxxx max_to_trade = 0b0xxxxxxxxxxxxxxxx thenewmax = 0b1 
# T=1485000 [SCOREBOARD] transaction information: client_id = 0x10 amount = 0xf683372b new_max = 0x0 
# T=1485000 [SCOREBOARD] upstream transaction information: 
# accumulated_orders = 0x0xxxx max_to_trade = 0b0xxxxxxxxxxxxxxxx thenewmax = 0b0 
# T=1505000 [SCOREBOARD] transaction information: client_id = 0x16 amount = 0x4f777797 new_max = 0x1 
# T=1505000 [SCOREBOARD] upstream transaction information: 
# accumulated_orders = 0x0xxxx max_to_trade = 0b0xxxxxxxxxxxxxxxx thenewmax = 0b1 
# T=1525000 [SCOREBOARD] transaction information: client_id = 0x5 amount = 0x472ee062 new_max = 0x0 
# T=1525000 [SCOREBOARD] upstream transaction information: 
# accumulated_orders = 0x0xxxx max_to_trade = 0b0xxxxxxxxxxxxxxxx thenewmax = 0b0 
# T=1545000 [SCOREBOARD] transaction information: client_id = 0x1e amount = 0xf48c1c02 new_max = 0x1 
# T=1545000 [SCOREBOARD] upstream transaction information: 
# accumulated_orders = 0x0xxxx max_to_trade = 0b0xxxxxxxxxxxxxxxx thenewmax = 0b1 
# T=1565000 [SCOREBOARD] transaction information: client_id = 0x18 amount = 0x76941098 new_max = 0x0 
# T=1565000 [SCOREBOARD] upstream transaction information: 
# accumulated_orders = 0x0xxxx max_to_trade = 0b0xxxxxxxxxxxxxxxx thenewmax = 0b0 
# T=1585000 [SCOREBOARD] transaction information: client_id = 0x1f amount = 0x4ebfb5cb new_max = 0x0 
# T=1585000 [SCOREBOARD] upstream transaction information: 
# accumulated_orders = 0x0xxxx max_to_trade = 0b0xxxxxxxxxxxxxxxx thenewmax = 0b0 
# T=1605000 [SCOREBOARD] transaction information: client_id = 0x13 amount = 0x9a1668b new_max = 0x1 
# T=1605000 [SCOREBOARD] upstream transaction information: 
# accumulated_orders = 0x0xxxx max_to_trade = 0b0xxxxxxxxxxxxxxxx thenewmax = 0b1 
# T=1625000 [SCOREBOARD] transaction information: client_id = 0xb amount = 0xef7f06e9 new_max = 0x0 
# T=1625000 [SCOREBOARD] upstream transaction information: 
# accumulated_orders = 0x0xxxx max_to_trade = 0b0xxxxxxxxxxxxxxxx thenewmax = 0b0 
# T=1645000 [SCOREBOARD] transaction information: client_id = 0xf amount = 0x6e26c350 new_max = 0x1 
# T=1645000 [SCOREBOARD] upstream transaction information: 
# accumulated_orders = 0x0xxxx max_to_trade = 0b0xxxxxxxxxxxxxxxx thenewmax = 0b1 
# T=1665000 [SCOREBOARD] transaction information: client_id = 0xd amount = 0xad46cb59 new_max = 0x1 
# T=1665000 [SCOREBOARD] upstream transaction information: 
# accumulated_orders = 0x0xxxx max_to_trade = 0b0xxxxxxxxxxxxxxxx thenewmax = 0b1 
# T=1685000 [SCOREBOARD] transaction information: client_id = 0x1 amount = 0x3f9d334b new_max = 0x0 
# T=1685000 [SCOREBOARD] upstream transaction information: 
# accumulated_orders = 0x0xxxx max_to_trade = 0b0xxxxxxxxxxxxxxxx thenewmax = 0b1 
# T=1705000 [SCOREBOARD] transaction information: client_id = 0x1b amount = 0x7e57ad2d new_max = 0x0 
# T=1705000 [SCOREBOARD] upstream transaction information: 
# accumulated_orders = 0x0xxxx max_to_trade = 0b0xxxxxxxxxxxxxxxx thenewmax = 0b0 
# T=1725000 [SCOREBOARD] transaction information: client_id = 0x1 amount = 0xdaaa3265 new_max = 0x1 
# T=1725000 [SCOREBOARD] upstream transaction information: 
# accumulated_orders = 0x0xxxx max_to_trade = 0b0xxxxxxxxxxxxxxxx thenewmax = 0b1 
# T=1745000 [SCOREBOARD] transaction information: client_id = 0x14 amount = 0xf16b773b new_max = 0x0 
# T=1745000 [SCOREBOARD] upstream transaction information: 
# accumulated_orders = 0x0xxxx max_to_trade = 0b0xxxxxxxxxxxxxxxx thenewmax = 0b1 
# T=1765000 [SCOREBOARD] transaction information: client_id = 0x1e amount = 0xce0053b1 new_max = 0x1 
# T=1765000 [SCOREBOARD] upstream transaction information: 
# accumulated_orders = 0x0xxxx max_to_trade = 0b0xxxxxxxxxxxxxxxx thenewmax = 0b1 
# T=1785000 [SCOREBOARD] transaction information: client_id = 0x16 amount = 0x968b9a8d new_max = 0x1 
# T=1785000 [SCOREBOARD] upstream transaction information: 
# accumulated_orders = 0x0xxxx max_to_trade = 0b0xxxxxxxxxxxxxxxx thenewmax = 0b1 
# T=1805000 [SCOREBOARD] transaction information: client_id = 0x1 amount = 0xfac732f8 new_max = 0x1 
# T=1805000 [SCOREBOARD] upstream transaction information: 
# accumulated_orders = 0x0xxxx max_to_trade = 0b0xxxxxxxxxxxxxxxx thenewmax = 0b1 
# T=1825000 [SCOREBOARD] transaction information: client_id = 0x1e amount = 0x3f8c7f17 new_max = 0x0 
# T=1825000 [SCOREBOARD] upstream transaction information: 
# accumulated_orders = 0x0xxxx max_to_trade = 0b0xxxxxxxxxxxxxxxx thenewmax = 0b1 
# T=1845000 [SCOREBOARD] transaction information: client_id = 0x9 amount = 0xb43b2178 new_max = 0x1 
# T=1845000 [SCOREBOARD] upstream transaction information: 
# accumulated_orders = 0x0xxxx max_to_trade = 0b0xxxxxxxxxxxxxxxx thenewmax = 0b1 
# T=1865000 [SCOREBOARD] transaction information: client_id = 0x7 amount = 0x2a6103df new_max = 0x0 
# T=1865000 [SCOREBOARD] upstream transaction information: 
# accumulated_orders = 0x0xxxx max_to_trade = 0b0xxxxxxxxxxxxxxxx thenewmax = 0b1 
# T=1885000 [SCOREBOARD] transaction information: client_id = 0x1f amount = 0xd17f9491 new_max = 0x0 
# T=1885000 [SCOREBOARD] upstream transaction information: 
# accumulated_orders = 0x0xxxx max_to_trade = 0b0xxxxxxxxxxxxxxxx thenewmax = 0b0 
# T=1905000 [SCOREBOARD] transaction information: client_id = 0x3 amount = 0x2b2c49e9 new_max = 0x0 
# T=1905000 [SCOREBOARD] upstream transaction information: 
# accumulated_orders = 0x0xxxx max_to_trade = 0b0xxxxxxxxxxxxxxxx thenewmax = 0b0 
# T=1925000 [SCOREBOARD] transaction information: client_id = 0x1f amount = 0xf7e407ec new_max = 0x0 
# T=1925000 [SCOREBOARD] upstream transaction information: 
# accumulated_orders = 0x0xxxx max_to_trade = 0b0xxxxxxxxxxxxxxxx thenewmax = 0b0 
# T=1945000 [SCOREBOARD] transaction information: client_id = 0x17 amount = 0x4e37330f new_max = 0x0 
# T=1945000 [SCOREBOARD] upstream transaction information: 
# accumulated_orders = 0x0xxxx max_to_trade = 0b0xxxxxxxxxxxxxxxx thenewmax = 0b0 
# T=1965000 [SCOREBOARD] transaction information: client_id = 0x0 amount = 0x74fb44c5 new_max = 0x1 
# T=1965000 [SCOREBOARD] upstream transaction information: 
# accumulated_orders = 0x0xxxx max_to_trade = 0b0xxxxxxxxxxxxxxxx thenewmax = 0b1 
# T=1985000 [SCOREBOARD] transaction information: client_id = 0x16 amount = 0xbfd0e9c1 new_max = 0x0 
# T=1985000 [SCOREBOARD] upstream transaction information: 
# accumulated_orders = 0x0xxxx max_to_trade = 0b0xxxxxxxxxxxxxxxx thenewmax = 0b1 
# T=2005000 [SCOREBOARD] transaction information: client_id = 0x0 amount = 0xb9106a92 new_max = 0x0 
# T=2005000 [SCOREBOARD] upstream transaction information: 
# accumulated_orders = 0x0xxxx max_to_trade = 0b0xxxxxxxxxxxxxxxx thenewmax = 0b0 
# T=2005000 [Generator] Done generation
# Coverage_input = 100.00 %
# Coverage_output = 0.00 %
# ** Note: $stop    : testbench/unit_level/UPSTREAM/tb_top_UPSTREAM.sv(86)
#    Time: 2025 ns  Iteration: 0  Instance: /tb_top_UPSTREAM
# Break in Module tb_top_UPSTREAM at testbench/unit_level/UPSTREAM/tb_top_UPSTREAM.sv line 86
# Stopped at testbench/unit_level/UPSTREAM/tb_top_UPSTREAM.sv line 86
#  quit
# End time: 17:02:43 on Mar 09,2022, Elapsed time: 0:00:01
# Errors: 0, Warnings: 0
